Linux 4.17.2 (bench2) 	08/03/2018 	_x86_64_	(32 CPU)

avg-cpu:  %user   %nice %system %iowait  %steal   %idle
           1.91    0.00    1.56    1.55    0.00   94.98

Device:         rrqm/s   wrqm/s     r/s     w/s    rkB/s    wkB/s avgrq-sz avgqu-sz   await r_await w_await  svctm  %util
nvme0n1         943.78     5.13 19026.19  523.85 106424.58 11814.38    12.10     1.35    0.05    0.03    0.67   0.02  39.83
sda               0.12     0.81   14.15    0.58   163.96     8.52    23.42     0.00    0.33    0.32    0.44   0.07   0.10
sdc              33.44     0.18  114.34    0.31  1722.71    98.07    31.76     0.01    0.08   12.54  380.35   0.92  10.57
sdb              31.38     0.19  116.35    0.33  1720.81    97.89    31.17     0.45    3.83    2.66  411.64   0.86  10.04
sdd              33.63     0.17  113.88    0.26  1718.72    97.57    31.83     0.76    6.69    4.61  907.87   0.93  10.57
md0               0.00     0.00  445.87    1.22  6385.91   353.94    30.15     0.00    0.00    0.00    0.00   0.00   0.00

avg-cpu:  %user   %nice %system %iowait  %steal   %idle
           0.01    0.00    0.32    0.40    0.00   99.27

Device:         rrqm/s   wrqm/s     r/s     w/s    rkB/s    wkB/s avgrq-sz avgqu-sz   await r_await w_await  svctm  %util
nvme0n1           0.00     0.00    0.00    0.00     0.00     0.00     0.00     0.00    0.00    0.00    0.00   0.00   0.00
sda               0.00     1.05    3.00    1.35    27.00    10.40    17.20     0.00    0.23    0.33    0.00   0.07   0.03
sdc              17.25     0.00 1460.00    0.00 22126.00     0.00    30.31     0.54    0.37    0.37    0.00   0.25  35.84
sdb              16.65     0.00 1477.45    0.00 22843.60     0.00    30.92     0.64    0.44    0.44    0.00   0.21  30.95
sdd              17.15     0.00 1475.00    0.00 21859.20     0.00    29.64     0.70    0.48    0.48    0.00   0.27  40.08
md0               0.00     0.00 4463.60    0.00 82994.60     0.00    37.19     0.00    0.00    0.00    0.00   0.00   0.00

