Linux 4.17.2 (bench2) 	08/03/2018 	_x86_64_	(32 CPU)

avg-cpu:  %user   %nice %system %iowait  %steal   %idle
           1.90    0.00    1.55    1.58    0.00   94.96

Device:         rrqm/s   wrqm/s     r/s     w/s    rkB/s    wkB/s avgrq-sz avgqu-sz   await r_await w_await  svctm  %util
nvme0n1         937.01     5.09 18889.82  520.09 105661.76 11729.70    12.10     1.34    0.05    0.03    0.67   0.02  39.54
sda               0.12     0.82   14.16    0.58   163.99     8.53    23.41     0.00    0.33    0.32    0.44   0.07   0.10
sdc              34.21     0.17  119.00    0.31  1792.78    97.37    31.68     0.07    0.58   12.47  380.35   0.91  10.87
sdb              32.18     0.19  120.99    0.33  1790.84    97.19    31.12     0.50    4.14    3.02  411.64   0.85  10.33
sdd              34.41     0.17  118.54    0.26  1788.79    96.87    31.74     0.82    6.87    4.89  907.87   0.92  10.87
md0               0.00     0.00  462.17    1.21  6656.73   351.40    30.25     0.00    0.00    0.00    0.00   0.00   0.00

avg-cpu:  %user   %nice %system %iowait  %steal   %idle
           0.00    0.00    0.06    0.00    0.00   99.94

Device:         rrqm/s   wrqm/s     r/s     w/s    rkB/s    wkB/s avgrq-sz avgqu-sz   await r_await w_await  svctm  %util
nvme0n1           0.00     0.00    0.00    0.00     0.00     0.00     0.00     0.00    0.00    0.00    0.00   0.00   0.00
sda              13.00     0.00   39.00    0.00   248.00     0.00    12.72     0.03    0.87    0.87    0.00   0.05   0.20
sdc               5.00     0.00  292.00    0.00  1212.00     0.00     8.30    19.10   63.00   63.00    0.00   3.10  90.60
sdb               6.00     0.00  285.00    0.00  1164.00     0.00     8.17    17.25   60.53   60.53    0.00   3.05  87.00
sdd               6.00     0.00  299.00    0.00  1220.00     0.00     8.16    18.62   62.28   62.28    0.00   2.97  88.80
md0               0.00     0.00  898.00    0.00  3616.00     0.00     8.05     0.00    0.00    0.00    0.00   0.00   0.00

avg-cpu:  %user   %nice %system %iowait  %steal   %idle
           0.00    0.00    0.03    0.00    0.00   99.97

Device:         rrqm/s   wrqm/s     r/s     w/s    rkB/s    wkB/s avgrq-sz avgqu-sz   await r_await w_await  svctm  %util
nvme0n1           0.00     0.00    0.00    0.00     0.00     0.00     0.00     0.00    0.00    0.00    0.00   0.00   0.00
sda               0.00    12.00    0.00    2.00     0.00    56.00    56.00     0.00    0.50    0.00    0.50   0.50   0.10
sdc               2.00     0.00  301.00    0.00  1212.00     0.00     8.05    17.30   58.21   58.21    0.00   2.75  82.80
sdb              12.00     0.00  313.00    0.00  1292.00     0.00     8.26    21.03   65.50   65.50    0.00   3.05  95.60
sdd               8.00     0.00  276.00    0.00  1132.00     0.00     8.20    16.22   56.93   56.93    0.00   2.99  82.40
md0               0.00     0.00 1024.00    0.00  4096.00     0.00     8.00     0.00    0.00    0.00    0.00   0.00   0.00

avg-cpu:  %user   %nice %system %iowait  %steal   %idle
           0.00    0.00    0.00    0.00    0.00  100.00

Device:         rrqm/s   wrqm/s     r/s     w/s    rkB/s    wkB/s avgrq-sz avgqu-sz   await r_await w_await  svctm  %util
nvme0n1           0.00     0.00    0.00    0.00     0.00     0.00     0.00     0.00    0.00    0.00    0.00   0.00   0.00
sda               0.00     0.00    0.00    0.00     0.00     0.00     0.00     0.00    0.00    0.00    0.00   0.00   0.00
sdc               5.00     0.00  299.00    0.00  1216.00     0.00     8.13    18.52   63.54   63.54    0.00   2.90  86.60
sdb              10.00     0.00  284.00    0.00  1184.00     0.00     8.34    18.45   66.83   66.83    0.00   3.19  90.50
sdd               4.00     0.00  277.00    0.00  1124.00     0.00     8.12    19.25   68.73   68.73    0.00   3.22  89.30
md0               0.00     0.00  768.00    0.00  3072.00     0.00     8.00     0.00    0.00    0.00    0.00   0.00   0.00

avg-cpu:  %user   %nice %system %iowait  %steal   %idle
           0.00    0.00    0.03    0.00    0.00   99.97

Device:         rrqm/s   wrqm/s     r/s     w/s    rkB/s    wkB/s avgrq-sz avgqu-sz   await r_await w_await  svctm  %util
nvme0n1           0.00     0.00    0.00    0.00     0.00     0.00     0.00     0.00    0.00    0.00    0.00   0.00   0.00
sda               0.00     0.00    0.00    0.00     0.00     0.00     0.00     0.00    0.00    0.00    0.00   0.00   0.00
sdc               4.00     0.00  271.00    0.00  1100.00     0.00     8.12    16.89   59.52   59.52    0.00   3.07  83.10
sdb               7.00     0.00  299.00    0.00  1224.00     0.00     8.19    21.23   68.83   68.83    0.00   3.01  89.90
sdd               4.00     0.00  301.00    0.00  1224.00     0.00     8.13    20.86   70.60   70.60    0.00   3.25  97.90
md0               0.00     0.00  896.00    0.00  3584.00     0.00     8.00     0.00    0.00    0.00    0.00   0.00   0.00

avg-cpu:  %user   %nice %system %iowait  %steal   %idle
           0.00    0.00    0.00    0.00    0.00  100.00

Device:         rrqm/s   wrqm/s     r/s     w/s    rkB/s    wkB/s avgrq-sz avgqu-sz   await r_await w_await  svctm  %util
nvme0n1           0.00     0.00    0.00    0.00     0.00     0.00     0.00     0.00    0.00    0.00    0.00   0.00   0.00
sda               0.00     0.00    0.00    0.00     0.00     0.00     0.00     0.00    0.00    0.00    0.00   0.00   0.00
sdc               7.00     0.00  331.00    0.00  1348.00     0.00     8.15    22.23   66.42   66.42    0.00   2.88  95.20
sdb               5.00     0.00  294.00    0.00  1196.00     0.00     8.14    17.95   60.36   60.36    0.00   3.01  88.60
sdd               6.00     0.00  284.00    0.00  1160.00     0.00     8.17    17.55   60.00   60.00    0.00   3.05  86.50
md0               0.00     0.00 1024.00    0.00  4096.00     0.00     8.00     0.00    0.00    0.00    0.00   0.00   0.00

avg-cpu:  %user   %nice %system %iowait  %steal   %idle
           0.03    0.00    0.03    0.00    0.00   99.94

Device:         rrqm/s   wrqm/s     r/s     w/s    rkB/s    wkB/s avgrq-sz avgqu-sz   await r_await w_await  svctm  %util
nvme0n1           0.00     0.00    0.00    0.00     0.00     0.00     0.00     0.00    0.00    0.00    0.00   0.00   0.00
sda               0.00     0.00    0.00    0.00     0.00     0.00     0.00     0.00    0.00    0.00    0.00   0.00   0.00
sdc               7.00     0.00  288.00    0.00  1184.00     0.00     8.22    17.20   63.24   63.24    0.00   2.91  83.80
sdb               6.00     0.00  270.00    0.00  1104.00     0.00     8.18    17.59   65.24   65.24    0.00   3.10  83.60
sdd               3.00     0.00  301.00    0.00  1216.00     0.00     8.08    19.16   66.45   66.45    0.00   3.04  91.60
md0               0.00     0.00  768.00    0.00  3072.00     0.00     8.00     0.00    0.00    0.00    0.00   0.00   0.00

avg-cpu:  %user   %nice %system %iowait  %steal   %idle
           0.00    0.00    0.00    0.00    0.00  100.00

Device:         rrqm/s   wrqm/s     r/s     w/s    rkB/s    wkB/s avgrq-sz avgqu-sz   await r_await w_await  svctm  %util
nvme0n1           0.00     0.00    0.00    0.00     0.00     0.00     0.00     0.00    0.00    0.00    0.00   0.00   0.00
sda               0.00     2.00    0.00    2.00     0.00    16.00    16.00     0.00    0.00    0.00    0.00   0.00   0.00
sdc               5.00     0.00  278.00    0.00  1132.00     0.00     8.14    16.69   60.03   60.03    0.00   3.12  86.80
sdb               6.00     0.00  279.00    0.00  1140.00     0.00     8.17    17.26   64.86   64.86    0.00   3.23  90.00
sdd               6.00     0.00  324.00    0.00  1320.00     0.00     8.15    21.27   64.08   64.08    0.00   2.93  95.00
md0               0.00     0.00  896.00    0.00  3584.00     0.00     8.00     0.00    0.00    0.00    0.00   0.00   0.00

avg-cpu:  %user   %nice %system %iowait  %steal   %idle
           0.00    0.00    0.03    0.00    0.00   99.97

Device:         rrqm/s   wrqm/s     r/s     w/s    rkB/s    wkB/s avgrq-sz avgqu-sz   await r_await w_await  svctm  %util
nvme0n1           0.00     0.00    0.00    0.00     0.00     0.00     0.00     0.00    0.00    0.00    0.00   0.00   0.00
sda               0.00     0.00    0.00    0.00     0.00     0.00     0.00     0.00    0.00    0.00    0.00   0.00   0.00
sdc               5.00     0.00  273.00    0.00  1112.00     0.00     8.15    16.66   61.03   61.03    0.00   3.07  83.90
sdb               2.00     0.00  309.00    0.00  1244.00     0.00     8.05    19.89   64.38   64.38    0.00   2.91  89.80
sdd               3.00     0.00  304.00    0.00  1228.00     0.00     8.08    18.49   60.75   60.75    0.00   2.86  86.80
md0               0.00     0.00  896.00    0.00  3584.00     0.00     8.00     0.00    0.00    0.00    0.00   0.00   0.00

avg-cpu:  %user   %nice %system %iowait  %steal   %idle
           0.00    0.00    0.00    0.00    0.00  100.00

Device:         rrqm/s   wrqm/s     r/s     w/s    rkB/s    wkB/s avgrq-sz avgqu-sz   await r_await w_await  svctm  %util
nvme0n1           0.00     0.00    0.00    0.00     0.00     0.00     0.00     0.00    0.00    0.00    0.00   0.00   0.00
sda               0.00     0.00    0.00    0.00     0.00     0.00     0.00     0.00    0.00    0.00    0.00   0.00   0.00
sdc               4.00     0.00  286.00    0.00  1156.00     0.00     8.08    17.36   58.67   58.67    0.00   2.92  83.60
sdb               5.00     0.00  290.00    0.00  1180.00     0.00     8.14    18.23   62.87   62.87    0.00   3.10  89.80
sdd               7.00     0.00  303.00    0.00  1240.00     0.00     8.18    18.78   63.72   63.72    0.00   3.06  92.70
md0               0.00     0.00  896.00    0.00  3584.00     0.00     8.00     0.00    0.00    0.00    0.00   0.00   0.00

avg-cpu:  %user   %nice %system %iowait  %steal   %idle
           0.00    0.00    0.03    0.00    0.00   99.97

Device:         rrqm/s   wrqm/s     r/s     w/s    rkB/s    wkB/s avgrq-sz avgqu-sz   await r_await w_await  svctm  %util
nvme0n1           0.00     0.00    0.00    0.00     0.00     0.00     0.00     0.00    0.00    0.00    0.00   0.00   0.00
sda               0.00     0.00    0.00    0.00     0.00     0.00     0.00     0.00    0.00    0.00    0.00   0.00   0.00
sdc               4.00     0.00  311.00    0.00  1264.00     0.00     8.13    19.69   65.19   65.19    0.00   3.11  96.60
sdb               4.00     0.00  304.00    0.00  1232.00     0.00     8.11    19.11   61.91   61.91    0.00   3.05  92.60
sdd               2.00     0.00  273.00    0.00  1100.00     0.00     8.06    16.13   58.53   58.53    0.00   2.95  80.60
md0               0.00     0.00  896.00    0.00  3584.00     0.00     8.00     0.00    0.00    0.00    0.00   0.00   0.00

avg-cpu:  %user   %nice %system %iowait  %steal   %idle
           0.00    0.00    0.00    0.00    0.00  100.00

Device:         rrqm/s   wrqm/s     r/s     w/s    rkB/s    wkB/s avgrq-sz avgqu-sz   await r_await w_await  svctm  %util
nvme0n1           0.00     0.00    0.00    0.00     0.00     0.00     0.00     0.00    0.00    0.00    0.00   0.00   0.00
sda               0.00     2.00    0.00    2.00     0.00    32.00    32.00     0.00    0.00    0.00    0.00   0.00   0.00
sdc               4.00     0.00  316.00    0.00  1276.00     0.00     8.08    20.14   61.21   61.21    0.00   2.97  93.90
sdb               5.00     0.00  281.00    0.00  1144.00     0.00     8.14    16.14   56.46   56.46    0.00   2.99  84.10
sdd               5.00     0.00  309.00    0.00  1256.00     0.00     8.13    20.34   64.15   64.15    0.00   3.03  93.50
md0               0.00     0.00 1024.00    0.00  4096.00     0.00     8.00     0.00    0.00    0.00    0.00   0.00   0.00

avg-cpu:  %user   %nice %system %iowait  %steal   %idle
           0.00    0.00    0.03    0.00    0.00   99.97

Device:         rrqm/s   wrqm/s     r/s     w/s    rkB/s    wkB/s avgrq-sz avgqu-sz   await r_await w_await  svctm  %util
nvme0n1           0.00     0.00    0.00    0.00     0.00     0.00     0.00     0.00    0.00    0.00    0.00   0.00   0.00
sda               0.00     4.00    0.00    2.00     0.00    24.00    24.00     0.00    0.00    0.00    0.00   0.00   0.00
sdc               2.00     0.00  318.00    0.00  1284.00     0.00     8.08    19.27   61.80   61.80    0.00   2.82  89.70
sdb               8.00     0.00  268.00    0.00  1096.00     0.00     8.18    15.54   57.35   57.35    0.00   2.94  78.90
sdd               5.00     0.00  283.00    0.00  1152.00     0.00     8.14    17.67   62.12   62.12    0.00   3.35  94.70
md0               0.00     0.00  896.00    0.00  3584.00     0.00     8.00     0.00    0.00    0.00    0.00   0.00   0.00

avg-cpu:  %user   %nice %system %iowait  %steal   %idle
           0.00    0.00    0.00    0.00    0.00  100.00

Device:         rrqm/s   wrqm/s     r/s     w/s    rkB/s    wkB/s avgrq-sz avgqu-sz   await r_await w_await  svctm  %util
nvme0n1           0.00     0.00    0.00    0.00     0.00     0.00     0.00     0.00    0.00    0.00    0.00   0.00   0.00
sda               0.00     0.00    0.00    0.00     0.00     0.00     0.00     0.00    0.00    0.00    0.00   0.00   0.00
sdc               3.00     0.00  245.00    0.00   992.00     0.00     8.10    18.19   59.33   59.33    0.00   3.48  85.20
sdb               7.00     0.00  306.00    0.00  1260.00     0.00     8.24    20.48   68.09   68.09    0.00   3.08  94.40
sdd               4.00     0.00  287.00    0.00  1164.00     0.00     8.11    18.07   65.59   65.59    0.00   3.08  88.30
md0               0.00     0.00  768.00    0.00  3072.00     0.00     8.00     0.00    0.00    0.00    0.00   0.00   0.00

avg-cpu:  %user   %nice %system %iowait  %steal   %idle
           0.00    0.00    0.03    0.00    0.00   99.97

Device:         rrqm/s   wrqm/s     r/s     w/s    rkB/s    wkB/s avgrq-sz avgqu-sz   await r_await w_await  svctm  %util
nvme0n1           0.00     0.00    0.00    0.00     0.00     0.00     0.00     0.00    0.00    0.00    0.00   0.00   0.00
sda               0.00     0.00    0.00    0.00     0.00     0.00     0.00     0.00    0.00    0.00    0.00   0.00   0.00
sdc               9.00     0.00  278.00    0.00  1136.00     0.00     8.17    19.80   81.38   81.38    0.00   3.34  92.80
sdb               5.00     0.00  205.00    0.00   836.00     0.00     8.16    12.10   57.59   57.59    0.00   3.31  67.90
sdd               3.00     0.00  229.00    0.00   928.00     0.00     8.10    16.85   66.44   66.44    0.00   3.19  73.00
md0               0.00     0.00  768.00    0.00  3072.00     0.00     8.00     0.00    0.00    0.00    0.00   0.00   0.00

avg-cpu:  %user   %nice %system %iowait  %steal   %idle
           0.03    0.00    0.03    0.00    0.00   99.94

Device:         rrqm/s   wrqm/s     r/s     w/s    rkB/s    wkB/s avgrq-sz avgqu-sz   await r_await w_await  svctm  %util
nvme0n1           0.00     0.00    0.00    0.00     0.00     0.00     0.00     0.00    0.00    0.00    0.00   0.00   0.00
sda               0.00     0.00    0.00    0.00     0.00     0.00     0.00     0.00    0.00    0.00    0.00   0.00   0.00
sdc               7.00     0.00  312.00    0.00  1288.00     0.00     8.26    19.81   64.23   64.23    0.00   3.06  95.50
sdb               3.00     0.00  276.00    0.00  1120.00     0.00     8.12    15.42   55.48   55.48    0.00   2.92  80.70
sdd               1.00     0.00  328.00    0.00  1316.00     0.00     8.02    22.77   69.62   69.62    0.00   2.99  98.20
md0               0.00     0.00  896.00    0.00  3584.00     0.00     8.00     0.00    0.00    0.00    0.00   0.00   0.00

avg-cpu:  %user   %nice %system %iowait  %steal   %idle
           0.00    0.00    0.00    0.00    0.00  100.00

Device:         rrqm/s   wrqm/s     r/s     w/s    rkB/s    wkB/s avgrq-sz avgqu-sz   await r_await w_await  svctm  %util
nvme0n1           0.00     0.00    0.00    0.00     0.00     0.00     0.00     0.00    0.00    0.00    0.00   0.00   0.00
sda               0.00     1.00    0.00   18.00     0.00    76.00     8.44     0.00    0.00    0.00    0.00   0.00   0.00
sdc               6.00     0.00  297.00    0.00  1212.00     0.00     8.16    17.39   60.05   60.05    0.00   2.95  87.70
sdb               6.00     0.00  282.00    0.00  1152.00     0.00     8.17    16.53   58.23   58.23    0.00   3.12  88.10
sdd               7.00     0.00  300.00    0.00  1228.00     0.00     8.19    20.34   66.78   66.78    0.00   3.11  93.20
md0               0.00     0.00  896.00    0.00  3584.00     0.00     8.00     0.00    0.00    0.00    0.00   0.00   0.00

avg-cpu:  %user   %nice %system %iowait  %steal   %idle
           0.00    0.00    0.00    0.00    0.00  100.00

Device:         rrqm/s   wrqm/s     r/s     w/s    rkB/s    wkB/s avgrq-sz avgqu-sz   await r_await w_await  svctm  %util
nvme0n1           0.00     0.00    0.00    0.00     0.00     0.00     0.00     0.00    0.00    0.00    0.00   0.00   0.00
sda               0.00     2.00    0.00    2.00     0.00    16.00    16.00     0.00    0.00    0.00    0.00   0.00   0.00
sdc              12.00     0.00  239.00    0.00  1000.00     0.00     8.37    13.88   57.90   57.90    0.00   3.17  75.70
sdb               6.00     0.00  259.00    0.00  1052.00     0.00     8.12    16.83   65.70   65.70    0.00   3.12  80.70
sdd               3.00     0.00  309.00    0.00  1240.00     0.00     8.03    21.06   71.71   71.71    0.00   3.08  95.10
md0               0.00     0.00  896.00    0.00  3584.00     0.00     8.00     0.00    0.00    0.00    0.00   0.00   0.00

avg-cpu:  %user   %nice %system %iowait  %steal   %idle
           0.00    0.00    0.03    0.00    0.00   99.97

Device:         rrqm/s   wrqm/s     r/s     w/s    rkB/s    wkB/s avgrq-sz avgqu-sz   await r_await w_await  svctm  %util
nvme0n1           0.00     0.00    0.00    0.00     0.00     0.00     0.00     0.00    0.00    0.00    0.00   0.00   0.00
sda               0.00     0.00    0.00    0.00     0.00     0.00     0.00     0.00    0.00    0.00    0.00   0.00   0.00
sdc               5.00     0.00  295.00    0.00  1204.00     0.00     8.16    17.70   61.33   61.33    0.00   2.97  87.60
sdb               7.00     0.00  302.00    0.00  1240.00     0.00     8.21    20.17   68.39   68.39    0.00   3.14  94.80
sdd               5.00     0.00  264.00    0.00  1084.00     0.00     8.21    15.03   59.04   59.04    0.00   3.08  81.40
md0               0.00     0.00  896.00    0.00  3584.00     0.00     8.00     0.00    0.00    0.00    0.00   0.00   0.00

avg-cpu:  %user   %nice %system %iowait  %steal   %idle
           0.03    0.00    0.00    0.00    0.00   99.97

Device:         rrqm/s   wrqm/s     r/s     w/s    rkB/s    wkB/s avgrq-sz avgqu-sz   await r_await w_await  svctm  %util
nvme0n1           0.00     0.00    0.00    0.00     0.00     0.00     0.00     0.00    0.00    0.00    0.00   0.00   0.00
sda               0.00     0.00   77.00    0.00   520.00     0.00    13.51     0.04    0.45    0.45    0.00   0.06   0.50
sdc               8.00     0.00  265.00    0.00  1092.00     0.00     8.24    15.64   59.42   59.42    0.00   3.18  84.30
sdb               7.00     0.00  303.00    0.00  1244.00     0.00     8.21    20.59   68.16   68.16    0.00   3.14  95.00
sdd               6.00     0.00  306.00    0.00  1248.00     0.00     8.16    20.13   66.05   66.05    0.00   2.99  91.50
md0               0.00     0.00  896.00    0.00  3584.00     0.00     8.00     0.00    0.00    0.00    0.00   0.00   0.00

avg-cpu:  %user   %nice %system %iowait  %steal   %idle
           0.00    0.00    0.03    0.00    0.00   99.97

Device:         rrqm/s   wrqm/s     r/s     w/s    rkB/s    wkB/s avgrq-sz avgqu-sz   await r_await w_await  svctm  %util
nvme0n1           0.00     0.00    0.00    0.00     0.00     0.00     0.00     0.00    0.00    0.00    0.00   0.00   0.00
sda               0.00     0.00    0.00    0.00     0.00     0.00     0.00     0.00    0.00    0.00    0.00   0.00   0.00
sdc               3.00     0.00  288.00    0.00  1164.00     0.00     8.08    18.21   63.19   63.19    0.00   3.13  90.20
sdb               8.00     0.00  271.00    0.00  1116.00     0.00     8.24    16.43   60.28   60.28    0.00   3.25  88.10
sdd               6.00     0.00  314.00    0.00  1280.00     0.00     8.15    20.23   63.65   63.65    0.00   2.83  89.00
md0               0.00     0.00  768.00    0.00  3072.00     0.00     8.00     0.00    0.00    0.00    0.00   0.00   0.00

