Linux 4.17.2 (bench2) 	08/03/2018 	_x86_64_	(32 CPU)

avg-cpu:  %user   %nice %system %iowait  %steal   %idle
           1.91    0.00    1.57    1.54    0.00   94.98

Device:         rrqm/s   wrqm/s     r/s     w/s    rkB/s    wkB/s avgrq-sz avgqu-sz   await r_await w_await  svctm  %util
nvme0n1         946.58     5.14 19082.67  525.40 106740.49 11849.45    12.10     1.36    0.05    0.03    0.67   0.02  39.95
sda               0.12     0.81   14.14    0.58   163.94     8.51    23.43     0.00    0.33    0.32    0.45   0.07   0.10
sdc              33.40     0.18  112.55    0.31  1696.56    98.36    31.81     1.55   13.69   12.67  380.35   0.93  10.45
sdb              31.34     0.19  114.56    0.33  1694.65    98.18    31.21     0.44    3.80    2.61  411.64   0.86   9.93
sdd              33.59     0.17  112.09    0.26  1692.56    97.85    31.87     0.75    6.71    4.59  907.87   0.93  10.45
md0               0.00     0.00  440.38    1.22  6284.16   354.99    30.07     0.00    0.00    0.00    0.00   0.00   0.00

avg-cpu:  %user   %nice %system %iowait  %steal   %idle
           0.00    0.00    0.00    0.00    0.00  100.00

Device:         rrqm/s   wrqm/s     r/s     w/s    rkB/s    wkB/s avgrq-sz avgqu-sz   await r_await w_await  svctm  %util
nvme0n1           0.00     0.00    0.00    0.00     0.00     0.00     0.00     0.00    0.00    0.00    0.00   0.00   0.00
sda               0.00     0.00    4.00    0.00    60.00     0.00    30.00     0.00    0.75    0.75    0.00   0.50   0.20
sdc               0.00     0.00  125.00    0.00   524.00     0.00     8.38    17.75  141.96  141.96    0.00   7.19  89.90
sdb               0.00     0.00  132.00    0.00   528.00     0.00     8.00    20.36  154.23  154.23    0.00   7.24  95.60
sdd               0.00     0.00  125.00    0.00   500.00     0.00     8.00    17.85  133.33  133.33    0.00   6.62  82.70
md0               0.00     0.00  386.00    0.00  1568.00     0.00     8.12     0.00    0.00    0.00    0.00   0.00   0.00

avg-cpu:  %user   %nice %system %iowait  %steal   %idle
           0.00    0.00    0.03    0.00    0.00   99.97

Device:         rrqm/s   wrqm/s     r/s     w/s    rkB/s    wkB/s avgrq-sz avgqu-sz   await r_await w_await  svctm  %util
nvme0n1           0.00     0.00    0.00    0.00     0.00     0.00     0.00     0.00    0.00    0.00    0.00   0.00   0.00
sda               0.00     0.00    0.00    0.00     0.00     0.00     0.00     0.00    0.00    0.00    0.00   0.00   0.00
sdc               0.00     0.00  114.00    0.00   456.00     0.00     8.00    15.70  137.74  137.74    0.00   7.39  84.20
sdb               0.00     0.00  127.00    0.00   508.00     0.00     8.00    18.69  147.17  147.17    0.00   7.18  91.20
sdd               0.00     0.00  144.00    0.00   576.00     0.00     8.00    22.81  160.23  160.23    0.00   6.94 100.00
md0               0.00     0.00  384.00    0.00  1536.00     0.00     8.00     0.00    0.00    0.00    0.00   0.00   0.00

avg-cpu:  %user   %nice %system %iowait  %steal   %idle
           0.00    0.00    0.00    0.00    0.00  100.00

Device:         rrqm/s   wrqm/s     r/s     w/s    rkB/s    wkB/s avgrq-sz avgqu-sz   await r_await w_await  svctm  %util
nvme0n1           0.00     0.00    0.00    0.00     0.00     0.00     0.00     0.00    0.00    0.00    0.00   0.00   0.00
sda               0.00     0.00    0.00    0.00     0.00     0.00     0.00     0.00    0.00    0.00    0.00   0.00   0.00
sdc               0.00     0.00  125.00    0.00   500.00     0.00     8.00    19.03  147.04  147.04    0.00   7.34  91.70
sdb               0.00     0.00  134.00    0.00   536.00     0.00     8.00    20.18  146.93  146.93    0.00   7.01  93.90
sdd               0.00     0.00  131.00    0.00   524.00     0.00     8.00    19.63  153.22  153.22    0.00   7.34  96.20
md0               0.00     0.00  512.00    0.00  2048.00     0.00     8.00     0.00    0.00    0.00    0.00   0.00   0.00

avg-cpu:  %user   %nice %system %iowait  %steal   %idle
           0.00    0.00    0.00    0.00    0.00  100.00

Device:         rrqm/s   wrqm/s     r/s     w/s    rkB/s    wkB/s avgrq-sz avgqu-sz   await r_await w_await  svctm  %util
nvme0n1           0.00     0.00    0.00    0.00     0.00     0.00     0.00     0.00    0.00    0.00    0.00   0.00   0.00
sda               0.00     0.00    0.00    0.00     0.00     0.00     0.00     0.00    0.00    0.00    0.00   0.00   0.00
sdc               0.00     0.00  142.00    0.00   568.00     0.00     8.00    23.71  164.92  164.92    0.00   7.04  99.90
sdb               0.00     0.00  118.00    0.00   472.00     0.00     8.00    17.68  151.31  151.31    0.00   7.71  91.00
sdd               0.00     0.00  117.00    0.00   468.00     0.00     8.00    15.04  132.70  132.70    0.00   6.91  80.90
md0               0.00     0.00  256.00    0.00  1024.00     0.00     8.00     0.00    0.00    0.00    0.00   0.00   0.00

avg-cpu:  %user   %nice %system %iowait  %steal   %idle
           0.00    0.00    0.03    0.00    0.00   99.97

Device:         rrqm/s   wrqm/s     r/s     w/s    rkB/s    wkB/s avgrq-sz avgqu-sz   await r_await w_await  svctm  %util
nvme0n1           0.00     0.00    0.00    0.00     0.00     0.00     0.00     0.00    0.00    0.00    0.00   0.00   0.00
sda               0.00    11.00    0.00    2.00     0.00    52.00    52.00     0.00    0.00    0.00    0.00   0.00   0.00
sdc               0.00     0.00  125.00    0.00   500.00     0.00     8.00    17.53  147.82  147.82    0.00   7.16  89.50
sdb               0.00     0.00  131.00    0.00   524.00     0.00     8.00    20.65  152.68  152.68    0.00   7.18  94.10
sdd               0.00     0.00  129.00    0.00   516.00     0.00     8.00    19.14  148.39  148.39    0.00   6.95  89.70
md0               0.00     0.00  384.00    0.00  1536.00     0.00     8.00     0.00    0.00    0.00    0.00   0.00   0.00

avg-cpu:  %user   %nice %system %iowait  %steal   %idle
           0.00    0.00    0.00    0.00    0.00  100.00

Device:         rrqm/s   wrqm/s     r/s     w/s    rkB/s    wkB/s avgrq-sz avgqu-sz   await r_await w_await  svctm  %util
nvme0n1           0.00     0.00    0.00    0.00     0.00     0.00     0.00     0.00    0.00    0.00    0.00   0.00   0.00
sda               0.00     0.00    0.00    0.00     0.00     0.00     0.00     0.00    0.00    0.00    0.00   0.00   0.00
sdc               0.00     0.00  123.00    0.00   492.00     0.00     8.00    18.04  146.69  146.69    0.00   7.20  88.60
sdb               0.00     0.00  119.00    0.00   476.00     0.00     8.00    17.68  146.09  146.09    0.00   7.38  87.80
sdd               0.00     0.00  141.00    0.00   564.00     0.00     8.00    21.01  149.04  149.04    0.00   6.65  93.70
md0               0.00     0.00  384.00    0.00  1536.00     0.00     8.00     0.00    0.00    0.00    0.00   0.00   0.00

avg-cpu:  %user   %nice %system %iowait  %steal   %idle
           0.00    0.00    0.03    0.00    0.00   99.97

Device:         rrqm/s   wrqm/s     r/s     w/s    rkB/s    wkB/s avgrq-sz avgqu-sz   await r_await w_await  svctm  %util
nvme0n1           0.00     0.00    0.00    0.00     0.00     0.00     0.00     0.00    0.00    0.00    0.00   0.00   0.00
sda               0.00     0.00    0.00    0.00     0.00     0.00     0.00     0.00    0.00    0.00    0.00   0.00   0.00
sdc               0.00     0.00  135.00    0.00   540.00     0.00     8.00    21.20  154.79  154.79    0.00   7.07  95.40
sdb               0.00     0.00  130.00    0.00   520.00     0.00     8.00    17.91  147.42  147.42    0.00   7.04  91.50
sdd               0.00     0.00  120.00    0.00   480.00     0.00     8.00    16.66  133.71  133.71    0.00   6.96  83.50
md0               0.00     0.00  384.00    0.00  1536.00     0.00     8.00     0.00    0.00    0.00    0.00   0.00   0.00

avg-cpu:  %user   %nice %system %iowait  %steal   %idle
           0.00    0.00    0.00    0.00    0.00  100.00

Device:         rrqm/s   wrqm/s     r/s     w/s    rkB/s    wkB/s avgrq-sz avgqu-sz   await r_await w_await  svctm  %util
nvme0n1           0.00     0.00    0.00    0.00     0.00     0.00     0.00     0.00    0.00    0.00    0.00   0.00   0.00
sda               0.00     0.00    0.00    0.00     0.00     0.00     0.00     0.00    0.00    0.00    0.00   0.00   0.00
sdc               0.00     0.00  129.00    0.00   516.00     0.00     8.00    25.78  165.96  165.96    0.00   7.21  93.00
sdb               0.00     0.00  120.00    0.00   480.00     0.00     8.00    20.48  148.83  148.83    0.00   7.18  86.20
sdd               0.00     0.00   92.00    0.00   368.00     0.00     8.00    10.36  105.01  105.01    0.00   6.96  64.00
md0               0.00     0.00  384.00    0.00  1536.00     0.00     8.00     0.00    0.00    0.00    0.00   0.00   0.00

avg-cpu:  %user   %nice %system %iowait  %steal   %idle
           0.00    0.00    0.00    0.00    0.00  100.00

Device:         rrqm/s   wrqm/s     r/s     w/s    rkB/s    wkB/s avgrq-sz avgqu-sz   await r_await w_await  svctm  %util
nvme0n1           0.00     0.00    0.00    0.00     0.00     0.00     0.00     0.00    0.00    0.00    0.00   0.00   0.00
sda               0.00     0.00    0.00    0.00     0.00     0.00     0.00     0.00    0.00    0.00    0.00   0.00   0.00
sdc               0.00     0.00  119.00    0.00   476.00     0.00     8.00    17.23  158.75  158.75    0.00   7.50  89.20
sdb               0.00     0.00  122.00    0.00   488.00     0.00     8.00    17.85  148.54  148.54    0.00   7.25  88.50
sdd               0.00     0.00  126.00    0.00   504.00     0.00     8.00    20.41  146.07  146.07    0.00   6.90  86.90
md0               0.00     0.00  384.00    0.00  1536.00     0.00     8.00     0.00    0.00    0.00    0.00   0.00   0.00

avg-cpu:  %user   %nice %system %iowait  %steal   %idle
           0.03    0.00    0.03    0.00    0.00   99.94

Device:         rrqm/s   wrqm/s     r/s     w/s    rkB/s    wkB/s avgrq-sz avgqu-sz   await r_await w_await  svctm  %util
nvme0n1           0.00     0.00    0.00    0.00     0.00     0.00     0.00     0.00    0.00    0.00    0.00   0.00   0.00
sda               0.00     0.00    0.00    0.00     0.00     0.00     0.00     0.00    0.00    0.00    0.00   0.00   0.00
sdc               0.00     0.00  134.00    0.00   536.00     0.00     8.00    19.82  158.23  158.23    0.00   7.43  99.60
sdb               0.00     0.00  120.00    0.00   480.00     0.00     8.00    17.31  136.69  136.69    0.00   7.24  86.90
sdd               0.00     0.00  134.00    0.00   536.00     0.00     8.00    19.25  139.66  139.66    0.00   6.54  87.70
md0               0.00     0.00  384.00    0.00  1536.00     0.00     8.00     0.00    0.00    0.00    0.00   0.00   0.00

avg-cpu:  %user   %nice %system %iowait  %steal   %idle
           0.00    0.00    0.00    0.00    0.00  100.00

Device:         rrqm/s   wrqm/s     r/s     w/s    rkB/s    wkB/s avgrq-sz avgqu-sz   await r_await w_await  svctm  %util
nvme0n1           0.00     0.00    0.00    0.00     0.00     0.00     0.00     0.00    0.00    0.00    0.00   0.00   0.00
sda               0.00     1.00    0.00    2.00     0.00    12.00    12.00     0.00    0.00    0.00    0.00   0.00   0.00
sdc               0.00     0.00  115.00    0.00   460.00     0.00     8.00    16.92  141.94  141.94    0.00   7.42  85.30
sdb               0.00     0.00  130.00    0.00   520.00     0.00     8.00    21.79  152.04  152.04    0.00   7.22  93.90
sdd               0.00     0.00  131.00    0.00   524.00     0.00     8.00    18.02  153.09  153.09    0.00   7.20  94.30
md0               0.00     0.00  384.00    0.00  1536.00     0.00     8.00     0.00    0.00    0.00    0.00   0.00   0.00

avg-cpu:  %user   %nice %system %iowait  %steal   %idle
           0.00    0.00    0.03    0.00    0.00   99.97

Device:         rrqm/s   wrqm/s     r/s     w/s    rkB/s    wkB/s avgrq-sz avgqu-sz   await r_await w_await  svctm  %util
nvme0n1           0.00     0.00    0.00    0.00     0.00     0.00     0.00     0.00    0.00    0.00    0.00   0.00   0.00
sda               0.00     1.00    0.00    3.00     0.00    32.00    21.33     0.00    0.00    0.00    0.00   0.00   0.00
sdc               0.00     0.00  105.00    0.00   420.00     0.00     8.00    15.19  149.70  149.70    0.00   7.47  78.40
sdb               0.00     0.00  132.00    0.00   528.00     0.00     8.00    20.50  182.83  182.83    0.00   7.33  96.80
sdd               0.00     0.00  104.00    0.00   416.00     0.00     8.00    15.04  144.37  144.37    0.00   7.19  74.80
md0               0.00     0.00  384.00    0.00  1536.00     0.00     8.00     0.00    0.00    0.00    0.00   0.00   0.00

avg-cpu:  %user   %nice %system %iowait  %steal   %idle
           0.00    0.00    0.00    0.00    0.00  100.00

Device:         rrqm/s   wrqm/s     r/s     w/s    rkB/s    wkB/s avgrq-sz avgqu-sz   await r_await w_await  svctm  %util
nvme0n1           0.00     0.00    0.00    0.00     0.00     0.00     0.00     0.00    0.00    0.00    0.00   0.00   0.00
sda               0.00     0.00    0.00    0.00     0.00     0.00     0.00     0.00    0.00    0.00    0.00   0.00   0.00
sdc               0.00     0.00  118.00    0.00   472.00     0.00     8.00    17.06  148.50  148.50    0.00   7.28  85.90
sdb               0.00     0.00  132.00    0.00   528.00     0.00     8.00    20.33  159.64  159.64    0.00   7.14  94.20
sdd               0.00     0.00  125.00    0.00   500.00     0.00     8.00    18.07  147.73  147.73    0.00   7.12  89.00
md0               0.00     0.00  384.00    0.00  1536.00     0.00     8.00     0.00    0.00    0.00    0.00   0.00   0.00

avg-cpu:  %user   %nice %system %iowait  %steal   %idle
           0.00    0.00    0.00    0.00    0.00  100.00

Device:         rrqm/s   wrqm/s     r/s     w/s    rkB/s    wkB/s avgrq-sz avgqu-sz   await r_await w_await  svctm  %util
nvme0n1           0.00     0.00    0.00    0.00     0.00     0.00     0.00     0.00    0.00    0.00    0.00   0.00   0.00
sda               0.00     0.00    0.00    0.00     0.00     0.00     0.00     0.00    0.00    0.00    0.00   0.00   0.00
sdc               0.00     0.00  129.00    0.00   516.00     0.00     8.00    19.68  155.80  155.80    0.00   7.17  92.50
sdb               0.00     0.00  109.00    0.00   436.00     0.00     8.00    15.05  141.52  141.52    0.00   7.56  82.40
sdd               0.00     0.00  140.00    0.00   560.00     0.00     8.00    21.04  155.89  155.89    0.00   6.80  95.20
md0               0.00     0.00  384.00    0.00  1536.00     0.00     8.00     0.00    0.00    0.00    0.00   0.00   0.00

avg-cpu:  %user   %nice %system %iowait  %steal   %idle
           0.00    0.00    0.03    0.00    0.00   99.97

Device:         rrqm/s   wrqm/s     r/s     w/s    rkB/s    wkB/s avgrq-sz avgqu-sz   await r_await w_await  svctm  %util
nvme0n1           0.00     0.00    0.00    0.00     0.00     0.00     0.00     0.00    0.00    0.00    0.00   0.00   0.00
sda               0.00     0.00    0.00    0.00     0.00     0.00     0.00     0.00    0.00    0.00    0.00   0.00   0.00
sdc               0.00     0.00  144.00    0.00   576.00     0.00     8.00    23.70  165.74  165.74    0.00   6.94 100.00
sdb               0.00     0.00  110.00    0.00   440.00     0.00     8.00    15.05  141.62  141.62    0.00   7.57  83.30
sdd               0.00     0.00  124.00    0.00   496.00     0.00     8.00    17.79  146.16  146.16    0.00   7.02  87.00
md0               0.00     0.00  256.00    0.00  1024.00     0.00     8.00     0.00    0.00    0.00    0.00   0.00   0.00

avg-cpu:  %user   %nice %system %iowait  %steal   %idle
           0.00    0.00    0.00    0.00    0.00  100.00

Device:         rrqm/s   wrqm/s     r/s     w/s    rkB/s    wkB/s avgrq-sz avgqu-sz   await r_await w_await  svctm  %util
nvme0n1           0.00     0.00    0.00    0.00     0.00     0.00     0.00     0.00    0.00    0.00    0.00   0.00   0.00
sda               0.00     3.00    0.00    2.00     0.00    20.00    20.00     0.00    0.00    0.00    0.00   0.00   0.00
sdc               0.00     0.00  139.00    0.00   556.00     0.00     8.00    25.66  162.05  162.05    0.00   6.99  97.10
sdb               0.00     0.00  106.00    0.00   424.00     0.00     8.00    16.41  140.58  140.58    0.00   7.78  82.50
sdd               0.00     0.00  120.00    0.00   480.00     0.00     8.00    16.74  140.08  140.08    0.00   7.22  86.60
md0               0.00     0.00  384.00    0.00  1536.00     0.00     8.00     0.00    0.00    0.00    0.00   0.00   0.00

avg-cpu:  %user   %nice %system %iowait  %steal   %idle
           0.00    0.00    0.00    0.00    0.00  100.00

Device:         rrqm/s   wrqm/s     r/s     w/s    rkB/s    wkB/s avgrq-sz avgqu-sz   await r_await w_await  svctm  %util
nvme0n1           0.00     0.00    0.00    0.00     0.00     0.00     0.00     0.00    0.00    0.00    0.00   0.00   0.00
sda               0.00     2.00    0.00   15.00     0.00    68.00     9.07     0.00    0.00    0.00    0.00   0.00   0.00
sdc               0.00     0.00  118.00    0.00   472.00     0.00     8.00    18.28  148.64  148.64    0.00   7.25  85.50
sdb               0.00     0.00  106.00    0.00   424.00     0.00     8.00    16.46  133.14  133.14    0.00   7.43  78.80
sdd               0.00     0.00  125.00    0.00   500.00     0.00     8.00    20.64  157.74  157.74    0.00   7.04  88.00
md0               0.00     0.00  384.00    0.00  1536.00     0.00     8.00     0.00    0.00    0.00    0.00   0.00   0.00

avg-cpu:  %user   %nice %system %iowait  %steal   %idle
           0.00    0.00    0.03    0.00    0.00   99.97

Device:         rrqm/s   wrqm/s     r/s     w/s    rkB/s    wkB/s avgrq-sz avgqu-sz   await r_await w_await  svctm  %util
nvme0n1           0.00     0.00    0.00    0.00     0.00     0.00     0.00     0.00    0.00    0.00    0.00   0.00   0.00
sda               0.00     0.00    0.00    0.00     0.00     0.00     0.00     0.00    0.00    0.00    0.00   0.00   0.00
sdc               0.00     0.00  127.00    0.00   508.00     0.00     8.00    17.15  155.83  155.83    0.00   7.11  90.30
sdb               0.00     0.00  133.00    0.00   532.00     0.00     8.00    23.38  173.28  173.28    0.00   7.40  98.40
sdd               0.00     0.00   98.00    0.00   392.00     0.00     8.00    13.20  119.90  119.90    0.00   6.98  68.40
md0               0.00     0.00  384.00    0.00  1536.00     0.00     8.00     0.00    0.00    0.00    0.00   0.00   0.00

avg-cpu:  %user   %nice %system %iowait  %steal   %idle
           0.00    0.00    0.00    0.00    0.00  100.00

Device:         rrqm/s   wrqm/s     r/s     w/s    rkB/s    wkB/s avgrq-sz avgqu-sz   await r_await w_await  svctm  %util
nvme0n1           0.00     0.00    0.00    0.00     0.00     0.00     0.00     0.00    0.00    0.00    0.00   0.00   0.00
sda               0.00     0.00    0.00    0.00     0.00     0.00     0.00     0.00    0.00    0.00    0.00   0.00   0.00
sdc               0.00     0.00  125.00    0.00   500.00     0.00     8.00    19.67  155.46  155.46    0.00   7.00  87.50
sdb               0.00     0.00  125.00    0.00   500.00     0.00     8.00    17.43  158.69  158.69    0.00   7.04  88.00
sdd               0.00     0.00  113.00    0.00   452.00     0.00     8.00    14.29  129.74  129.74    0.00   6.54  73.90
md0               0.00     0.00  384.00    0.00  1536.00     0.00     8.00     0.00    0.00    0.00    0.00   0.00   0.00

avg-cpu:  %user   %nice %system %iowait  %steal   %idle
           0.00    0.00    0.00    0.00    0.00  100.00

Device:         rrqm/s   wrqm/s     r/s     w/s    rkB/s    wkB/s avgrq-sz avgqu-sz   await r_await w_await  svctm  %util
nvme0n1           0.00     0.00    0.00    0.00     0.00     0.00     0.00     0.00    0.00    0.00    0.00   0.00   0.00
sda               0.00     0.00    0.00    0.00     0.00     0.00     0.00     0.00    0.00    0.00    0.00   0.00   0.00
sdc               0.00     0.00  129.00    0.00   516.00     0.00     8.00    19.52  140.92  140.92    0.00   7.01  90.40
sdb               0.00     0.00  134.00    0.00   536.00     0.00     8.00    20.99  146.70  146.70    0.00   7.04  94.40
sdd               0.00     0.00  138.00    0.00   552.00     0.00     8.00    18.78  143.97  143.97    0.00   6.69  92.30
md0               0.00     0.00  384.00    0.00  1536.00     0.00     8.00     0.00    0.00    0.00    0.00   0.00   0.00

