Linux 4.17.2 (bench2) 	08/03/2018 	_x86_64_	(32 CPU)

avg-cpu:  %user   %nice %system %iowait  %steal   %idle
           1.91    0.00    1.56    1.57    0.00   94.97

Device:         rrqm/s   wrqm/s     r/s     w/s    rkB/s    wkB/s avgrq-sz avgqu-sz   await r_await w_await  svctm  %util
nvme0n1         940.69     5.11 18963.92  522.14 106076.25 11775.71    12.10     1.35    0.05    0.03    0.67   0.02  39.70
sda               0.12     0.81   14.15    0.58   163.97     8.52    23.42     0.00    0.33    0.32    0.44   0.07   0.10
sdc              33.87     0.18  116.66    0.31  1750.13    97.75    31.60     0.04    0.34   12.51  380.35   0.92  10.71
sdb              31.82     0.19  118.66    0.33  1748.21    97.57    31.02     0.47    3.99    2.85  411.64   0.86  10.17
sdd              34.06     0.17  116.20    0.26  1746.13    97.25    31.66     0.79    6.78    4.75  907.87   0.92  10.71
md0               0.00     0.00  454.11    1.21  6488.63   352.78    30.05     0.00    0.00    0.00    0.00   0.00   0.00

avg-cpu:  %user   %nice %system %iowait  %steal   %idle
           0.03    0.00    0.52    0.62    0.00   98.83

Device:         rrqm/s   wrqm/s     r/s     w/s    rkB/s    wkB/s avgrq-sz avgqu-sz   await r_await w_await  svctm  %util
nvme0n1           0.00     0.00    0.00    0.00     0.00     0.00     0.00     0.00    0.00    0.00    0.00   0.00   0.00
sda               0.00     1.30    0.20    0.50     5.20     8.00    37.71     0.00    0.07    0.00    0.10   0.07   0.01
sdc               0.00     0.00 3054.85    0.00 12219.40     0.00     8.00     0.31    0.10    0.10    0.00   0.10  31.46
sdb               0.00     0.00 3072.75    0.00 12291.00     0.00     8.00     0.31    0.10    0.10    0.00   0.10  30.99
sdd               0.00     0.00 3075.30    0.00 12301.20     0.00     8.00     0.31    0.10    0.10    0.00   0.10  31.09
md0               0.00     0.00 9202.95    0.00 36811.80     0.00     8.00     0.00    0.00    0.00    0.00   0.00   0.00

