Linux 4.17.2 (bench2) 	08/04/2018 	_x86_64_	(32 CPU)

avg-cpu:  %user   %nice %system %iowait  %steal   %idle
           1.90    0.00    1.55    1.60    0.00   94.96

Device:         rrqm/s   wrqm/s     r/s     w/s    rkB/s    wkB/s avgrq-sz avgqu-sz   await r_await w_await  svctm  %util
nvme0n1         933.49     5.07 18818.86  518.14 105264.89 11685.64    12.10     1.34    0.05    0.03    0.67   0.02  39.39
sda               0.12     0.82   14.17    0.58   163.99     8.53    23.40     0.00    0.33    0.32    0.44   0.07   0.10
sdc              34.36     0.17  121.20    0.31  1829.26    97.00    31.71     0.10    0.79   12.42  380.35   0.91  11.04
sdb              32.33     0.19  123.19    0.33  1827.30    96.83    31.16     0.53    4.26    3.16  411.64   0.85  10.49
sdd              34.55     0.17  120.75    0.26  1825.30    96.50    31.76     0.84    6.94    5.00  907.87   0.91  11.04
md0               0.00     0.00  469.20    1.20  6799.47   350.08    30.40     0.00    0.00    0.00    0.00   0.00   0.00

avg-cpu:  %user   %nice %system %iowait  %steal   %idle
           0.01    0.00    0.07    0.08    0.00   99.84

Device:         rrqm/s   wrqm/s     r/s     w/s    rkB/s    wkB/s avgrq-sz avgqu-sz   await r_await w_await  svctm  %util
nvme0n1           0.00     0.00    0.00    0.00     0.00     0.00     0.00     0.00    0.00    0.00    0.00   0.00   0.00
sda               0.00     1.65   11.50    1.35    65.00    12.80    12.11     0.00    0.32    0.35    0.07   0.04   0.05
sdc             167.55     0.00 1609.05    0.00  7104.60     0.00     8.83    86.77   53.84   53.84    0.00   0.58  92.68
sdb             176.15     0.00 1610.15    0.00  7142.60     0.00     8.87    75.79   46.94   46.94    0.00   0.53  84.93
sdd             170.40     0.00 1611.75    0.00  7124.40     0.00     8.84    87.37   54.04   54.04    0.00   0.56  90.56
md0               0.00     0.00 5359.70    0.00 21438.80     0.00     8.00     0.00    0.00    0.00    0.00   0.00   0.00

