Linux 4.17.2 (bench2) 	08/03/2018 	_x86_64_	(32 CPU)

avg-cpu:  %user   %nice %system %iowait  %steal   %idle
           1.91    0.00    1.56    1.57    0.00   94.97

Device:         rrqm/s   wrqm/s     r/s     w/s    rkB/s    wkB/s avgrq-sz avgqu-sz   await r_await w_await  svctm  %util
nvme0n1         939.94     5.10 18948.84  521.72 105991.91 11766.35    12.10     1.35    0.05    0.03    0.67   0.02  39.67
sda               0.12     0.81   14.16    0.58   163.98     8.52    23.42     0.00    0.33    0.32    0.44   0.07   0.10
sdc              33.85     0.17  117.00    0.31  1757.66    97.67    31.63     0.04    0.34   12.47  380.35   0.92  10.74
sdb              31.81     0.19  119.00    0.33  1755.73    97.50    31.06     0.48    3.98    2.84  411.64   0.86  10.20
sdd              34.05     0.17  116.54    0.26  1753.66    97.17    31.69     0.79    6.77    4.75  907.87   0.92  10.74
md0               0.00     0.00  455.09    1.21  6519.37   352.50    30.12     0.00    0.00    0.00    0.00   0.00   0.00

avg-cpu:  %user   %nice %system %iowait  %steal   %idle
           3.12    0.00    0.04    3.07    0.00   93.77

Device:         rrqm/s   wrqm/s     r/s     w/s    rkB/s    wkB/s avgrq-sz avgqu-sz   await r_await w_await  svctm  %util
nvme0n1           0.00     0.00    0.00    0.00     0.00     0.00     0.00     0.00    0.00    0.00    0.00   0.00   0.00
sda               0.00     1.10    0.20    0.55     5.20     7.40    33.60     0.00    0.20    0.25    0.18   0.20   0.01
sdc               0.20     0.00  196.85    0.00  3246.40     0.00    32.98     0.36    1.84    1.84    0.00   1.76  34.62
sdb               0.50     0.00  204.85    0.00  3481.20     0.00    33.99     0.33    1.63    1.63    0.00   1.57  32.16
sdd               0.30     0.00  206.20    0.00  3279.60     0.00    31.81     0.37    1.79    1.79    0.00   1.73  35.61
md0               0.00     0.00  608.95    0.00 11136.60     0.00    36.58     0.00    0.00    0.00    0.00   0.00   0.00

