Linux 4.17.2 (bench2) 	08/03/2018 	_x86_64_	(32 CPU)

avg-cpu:  %user   %nice %system %iowait  %steal   %idle
           1.91    0.00    1.56    1.56    0.00   94.97

Device:         rrqm/s   wrqm/s     r/s     w/s    rkB/s    wkB/s avgrq-sz avgqu-sz   await r_await w_await  svctm  %util
nvme0n1         942.13     5.12 18992.93  522.93 106238.53 11793.73    12.10     1.35    0.05    0.03    0.67   0.02  39.76
sda               0.12     0.81   14.15    0.58   163.95     8.52    23.42     0.00    0.33    0.32    0.44   0.07   0.10
sdc              33.77     0.18  115.38    0.31  1743.62    97.90    31.83     0.03    0.28   12.61  380.35   0.92  10.65
sdb              31.72     0.19  117.39    0.33  1741.71    97.72    31.25     0.47    3.98    2.83  411.64   0.86  10.12
sdd              33.96     0.17  114.93    0.26  1739.62    97.39    31.90     0.79    6.81    4.76  907.87   0.92  10.65
md0               0.00     0.00  450.00    1.22  6467.84   353.32    30.23     0.00    0.00    0.00    0.00   0.00   0.00

avg-cpu:  %user   %nice %system %iowait  %steal   %idle
           3.12    0.00    0.03    3.06    0.00   93.78

Device:         rrqm/s   wrqm/s     r/s     w/s    rkB/s    wkB/s avgrq-sz avgqu-sz   await r_await w_await  svctm  %util
nvme0n1           0.00     0.00    0.00    0.00     0.00     0.00     0.00     0.00    0.00    0.00    0.00   0.00   0.00
sda               0.00     0.00   21.00    0.00   124.00     0.00    11.81     0.00    0.00    0.00    0.00   0.00   0.00
sdc               0.00     0.00  182.00    0.00   752.00     0.00     8.26     0.37    2.01    2.01    0.00   2.01  36.60
sdb               0.00     0.00  149.00    0.00   596.00     0.00     8.00     0.24    1.56    1.56    0.00   1.59  23.70
sdd               0.00     0.00  166.00    0.00   664.00     0.00     8.00     0.39    2.33    2.33    0.00   2.33  38.60
md0               0.00     0.00  498.00    0.00  2016.00     0.00     8.10     0.00    0.00    0.00    0.00   0.00   0.00

avg-cpu:  %user   %nice %system %iowait  %steal   %idle
           3.13    0.00    0.03    3.06    0.00   93.78

Device:         rrqm/s   wrqm/s     r/s     w/s    rkB/s    wkB/s avgrq-sz avgqu-sz   await r_await w_await  svctm  %util
nvme0n1           0.00     0.00    0.00    0.00     0.00     0.00     0.00     0.00    0.00    0.00    0.00   0.00   0.00
sda               0.00     0.00    0.00    0.00     0.00     0.00     0.00     0.00    0.00    0.00    0.00   0.00   0.00
sdc               0.00     0.00  172.00    0.00   688.00     0.00     8.00     0.32    1.87    1.87    0.00   1.87  32.20
sdb               0.00     0.00  149.00    0.00   596.00     0.00     8.00     0.37    2.52    2.52    0.00   2.50  37.20
sdd               0.00     0.00  135.00    0.00   540.00     0.00     8.00     0.30    2.21    2.21    0.00   2.21  29.90
md0               0.00     0.00  456.00    0.00  1824.00     0.00     8.00     0.00    0.00    0.00    0.00   0.00   0.00

avg-cpu:  %user   %nice %system %iowait  %steal   %idle
           3.12    0.00    0.06    3.09    0.00   93.72

Device:         rrqm/s   wrqm/s     r/s     w/s    rkB/s    wkB/s avgrq-sz avgqu-sz   await r_await w_await  svctm  %util
nvme0n1           0.00     0.00    0.00    0.00     0.00     0.00     0.00     0.00    0.00    0.00    0.00   0.00   0.00
sda               0.00     0.00    0.00    0.00     0.00     0.00     0.00     0.00    0.00    0.00    0.00   0.00   0.00
sdc               0.00     0.00  182.00    0.00   728.00     0.00     8.00     0.33    1.79    1.79    0.00   1.79  32.60
sdb               0.00     0.00  181.00    0.00   724.00     0.00     8.00     0.38    2.11    2.11    0.00   2.10  38.10
sdd               0.00     0.00  153.00    0.00   612.00     0.00     8.00     0.28    1.78    1.78    0.00   1.86  28.50
md0               0.00     0.00  516.00    0.00  2064.00     0.00     8.00     0.00    0.00    0.00    0.00   0.00   0.00

avg-cpu:  %user   %nice %system %iowait  %steal   %idle
           3.13    0.00    0.00    3.09    0.00   93.78

Device:         rrqm/s   wrqm/s     r/s     w/s    rkB/s    wkB/s avgrq-sz avgqu-sz   await r_await w_await  svctm  %util
nvme0n1           0.00     0.00    0.00    0.00     0.00     0.00     0.00     0.00    0.00    0.00    0.00   0.00   0.00
sda               0.00     0.00    0.00    0.00     0.00     0.00     0.00     0.00    0.00    0.00    0.00   0.00   0.00
sdc               0.00     0.00  152.00    0.00   608.00     0.00     8.00     0.36    2.32    2.32    0.00   2.34  35.60
sdb               0.00     0.00  174.00    0.00   696.00     0.00     8.00     0.28    1.59    1.59    0.00   1.59  27.60
sdd               0.00     0.00  164.00    0.00   656.00     0.00     8.00     0.36    2.27    2.27    0.00   2.20  36.00
md0               0.00     0.00  490.00    0.00  1960.00     0.00     8.00     0.00    0.00    0.00    0.00   0.00   0.00

avg-cpu:  %user   %nice %system %iowait  %steal   %idle
           3.13    0.00    0.03    3.06    0.00   93.78

Device:         rrqm/s   wrqm/s     r/s     w/s    rkB/s    wkB/s avgrq-sz avgqu-sz   await r_await w_await  svctm  %util
nvme0n1           0.00     0.00    0.00    0.00     0.00     0.00     0.00     0.00    0.00    0.00    0.00   0.00   0.00
sda               0.00     0.00    0.00    5.00     0.00    20.00     8.00     0.00    0.00    0.00    0.00   0.00   0.00
sdc               0.00     0.00  183.00    0.00   732.00     0.00     8.00     0.17    0.92    0.92    0.00   0.90  16.50
sdb               0.00     0.00  175.00    0.00   700.00     0.00     8.00     0.43    2.47    2.47    0.00   2.47  43.30
sdd               0.00     0.00  139.00    0.00   556.00     0.00     8.00     0.39    2.81    2.81    0.00   2.83  39.30
md0               0.00     0.00  497.00    0.00  1988.00     0.00     8.00     0.00    0.00    0.00    0.00   0.00   0.00

avg-cpu:  %user   %nice %system %iowait  %steal   %idle
           3.13    0.00    0.03    3.09    0.00   93.75

Device:         rrqm/s   wrqm/s     r/s     w/s    rkB/s    wkB/s avgrq-sz avgqu-sz   await r_await w_await  svctm  %util
nvme0n1           0.00     0.00    0.00    0.00     0.00     0.00     0.00     0.00    0.00    0.00    0.00   0.00   0.00
sda               0.00    11.00    0.00    2.00     0.00    52.00    52.00     0.00    0.00    0.00    0.00   0.00   0.00
sdc               0.00     0.00  131.00    0.00   524.00     0.00     8.00     0.40    3.06    3.06    0.00   3.06  40.10
sdb               0.00     0.00  141.00    0.00   564.00     0.00     8.00     0.32    2.25    2.25    0.00   2.25  31.70
sdd               0.00     0.00  171.00    0.00   684.00     0.00     8.00     0.28    1.61    1.61    0.00   1.61  27.60
md0               0.00     0.00  443.00    0.00  1772.00     0.00     8.00     0.00    0.00    0.00    0.00   0.00   0.00

avg-cpu:  %user   %nice %system %iowait  %steal   %idle
           3.09    0.00    0.03    3.09    0.00   93.78

Device:         rrqm/s   wrqm/s     r/s     w/s    rkB/s    wkB/s avgrq-sz avgqu-sz   await r_await w_await  svctm  %util
nvme0n1           0.00     0.00    0.00    0.00     0.00     0.00     0.00     0.00    0.00    0.00    0.00   0.00   0.00
sda               0.00     0.00    0.00    0.00     0.00     0.00     0.00     0.00    0.00    0.00    0.00   0.00   0.00
sdc               0.00     0.00  182.00    0.00   728.00     0.00     8.00     0.36    1.97    1.97    0.00   1.97  35.80
sdb               0.00     0.00  174.00    0.00   696.00     0.00     8.00     0.36    2.06    2.06    0.00   2.06  35.80
sdd               0.00     0.00  154.00    0.00   616.00     0.00     8.00     0.28    1.77    1.77    0.00   1.80  27.70
md0               0.00     0.00  510.00    0.00  2040.00     0.00     8.00     0.00    0.00    0.00    0.00   0.00   0.00

avg-cpu:  %user   %nice %system %iowait  %steal   %idle
           3.16    0.00    0.00    3.06    0.00   93.78

Device:         rrqm/s   wrqm/s     r/s     w/s    rkB/s    wkB/s avgrq-sz avgqu-sz   await r_await w_await  svctm  %util
nvme0n1           0.00     0.00    0.00    0.00     0.00     0.00     0.00     0.00    0.00    0.00    0.00   0.00   0.00
sda               0.00     0.00    0.00    0.00     0.00     0.00     0.00     0.00    0.00    0.00    0.00   0.00   0.00
sdc               0.00     0.00  142.57    0.00   570.30     0.00     8.00     0.58    4.08    4.08    0.00   4.08  58.22
sdb               0.00     0.00  153.47    0.00   613.86     0.00     8.00     0.16    1.07    1.07    0.00   1.07  16.44
sdd               0.00     0.00  154.46    0.00   617.82     0.00     8.00     0.24    1.58    1.58    0.00   1.54  23.86
md0               0.00     0.00  450.50    0.00  1801.98     0.00     8.00     0.00    0.00    0.00    0.00   0.00   0.00

avg-cpu:  %user   %nice %system %iowait  %steal   %idle
           3.12    0.00    0.03    3.09    0.00   93.75

Device:         rrqm/s   wrqm/s     r/s     w/s    rkB/s    wkB/s avgrq-sz avgqu-sz   await r_await w_await  svctm  %util
nvme0n1           0.00     0.00    0.00    0.00     0.00     0.00     0.00     0.00    0.00    0.00    0.00   0.00   0.00
sda               0.00     0.00    0.00    0.00     0.00     0.00     0.00     0.00    0.00    0.00    0.00   0.00   0.00
sdc               0.00     0.00  174.00    0.00   696.00     0.00     8.00     0.38    2.17    2.17    0.00   2.17  37.80
sdb               0.00     0.00  155.00    0.00   620.00     0.00     8.00     0.37    2.38    2.38    0.00   2.39  37.10
sdd               0.00     0.00  144.00    0.00   576.00     0.00     8.00     0.25    1.72    1.72    0.00   1.71  24.60
md0               0.00     0.00  473.00    0.00  1892.00     0.00     8.00     0.00    0.00    0.00    0.00   0.00   0.00

avg-cpu:  %user   %nice %system %iowait  %steal   %idle
           3.10    0.00    0.00    3.10    0.00   93.81

Device:         rrqm/s   wrqm/s     r/s     w/s    rkB/s    wkB/s avgrq-sz avgqu-sz   await r_await w_await  svctm  %util
nvme0n1           0.00     0.00    0.00    0.00     0.00     0.00     0.00     0.00    0.00    0.00    0.00   0.00   0.00
sda               0.00     0.00    0.00    0.00     0.00     0.00     0.00     0.00    0.00    0.00    0.00   0.00   0.00
sdc               0.00     0.00  147.00    0.00   588.00     0.00     8.00     0.53    3.49    3.49    0.00   3.58  52.60
sdb               0.00     0.00  158.00    0.00   632.00     0.00     8.00     0.23    1.46    1.46    0.00   1.45  22.90
sdd               0.00     0.00  149.00    0.00   596.00     0.00     8.00     0.24    1.62    1.62    0.00   1.62  24.20
md0               0.00     0.00  454.00    0.00  1816.00     0.00     8.00     0.00    0.00    0.00    0.00   0.00   0.00

avg-cpu:  %user   %nice %system %iowait  %steal   %idle
           3.13    0.00    0.06    3.06    0.00   93.75

Device:         rrqm/s   wrqm/s     r/s     w/s    rkB/s    wkB/s avgrq-sz avgqu-sz   await r_await w_await  svctm  %util
nvme0n1           0.00     0.00    0.00    0.00     0.00     0.00     0.00     0.00    0.00    0.00    0.00   0.00   0.00
sda               0.00     4.00    1.00    4.00     4.00    48.00    20.80     0.00    0.00    0.00    0.00   0.00   0.00
sdc               0.00     0.00  160.00    0.00   640.00     0.00     8.00     0.46    2.92    2.92    0.00   2.85  45.60
sdb               0.00     0.00  143.00    0.00   572.00     0.00     8.00     0.26    1.82    1.82    0.00   1.82  26.00
sdd               0.00     0.00  177.00    0.00   708.00     0.00     8.00     0.28    1.56    1.56    0.00   1.56  27.70
md0               0.00     0.00  480.00    0.00  1920.00     0.00     8.00     0.00    0.00    0.00    0.00   0.00   0.00

avg-cpu:  %user   %nice %system %iowait  %steal   %idle
           3.12    0.00    0.03    3.09    0.00   93.75

Device:         rrqm/s   wrqm/s     r/s     w/s    rkB/s    wkB/s avgrq-sz avgqu-sz   await r_await w_await  svctm  %util
nvme0n1           0.00     0.00    0.00    0.00     0.00     0.00     0.00     0.00    0.00    0.00    0.00   0.00   0.00
sda               0.00     0.00    0.00    0.00     0.00     0.00     0.00     0.00    0.00    0.00    0.00   0.00   0.00
sdc               0.00     0.00  156.00    0.00   624.00     0.00     8.00     0.34    2.21    2.21    0.00   2.21  34.40
sdb               0.00     0.00  153.00    0.00   612.00     0.00     8.00     0.27    1.75    1.75    0.00   1.78  27.20
sdd               0.00     0.00  178.00    0.00   712.00     0.00     8.00     0.37    2.08    2.08    0.00   2.08  37.00
md0               0.00     0.00  487.00    0.00  1948.00     0.00     8.00     0.00    0.00    0.00    0.00   0.00   0.00

avg-cpu:  %user   %nice %system %iowait  %steal   %idle
           3.12    0.00    0.03    3.09    0.00   93.75

Device:         rrqm/s   wrqm/s     r/s     w/s    rkB/s    wkB/s avgrq-sz avgqu-sz   await r_await w_await  svctm  %util
nvme0n1           0.00     0.00    0.00    0.00     0.00     0.00     0.00     0.00    0.00    0.00    0.00   0.00   0.00
sda               0.00     0.00    0.00    0.00     0.00     0.00     0.00     0.00    0.00    0.00    0.00   0.00   0.00
sdc               0.00     0.00  165.00    0.00   660.00     0.00     8.00     0.30    1.82    1.82    0.00   1.83  30.20
sdb               0.00     0.00  173.00    0.00   692.00     0.00     8.00     0.24    1.39    1.39    0.00   1.36  23.60
sdd               0.00     0.00  162.00    0.00   648.00     0.00     8.00     0.46    2.81    2.81    0.00   2.81  45.60
md0               0.00     0.00  500.00    0.00  2000.00     0.00     8.00     0.00    0.00    0.00    0.00   0.00   0.00

avg-cpu:  %user   %nice %system %iowait  %steal   %idle
           3.13    0.00    0.03    3.06    0.00   93.78

Device:         rrqm/s   wrqm/s     r/s     w/s    rkB/s    wkB/s avgrq-sz avgqu-sz   await r_await w_await  svctm  %util
nvme0n1           0.00     0.00    0.00    0.00     0.00     0.00     0.00     0.00    0.00    0.00    0.00   0.00   0.00
sda               0.00     0.00    0.00    0.00     0.00     0.00     0.00     0.00    0.00    0.00    0.00   0.00   0.00
sdc               0.00     0.00  162.00    0.00   648.00     0.00     8.00     0.24    1.49    1.49    0.00   1.48  24.00
sdb               0.00     0.00  161.00    0.00   644.00     0.00     8.00     0.32    1.97    1.97    0.00   1.97  31.70
sdd               0.00     0.00  164.00    0.00   656.00     0.00     8.00     0.43    2.62    2.62    0.00   2.65  43.40
md0               0.00     0.00  487.00    0.00  1948.00     0.00     8.00     0.00    0.00    0.00    0.00   0.00   0.00

avg-cpu:  %user   %nice %system %iowait  %steal   %idle
           3.12    0.00    0.06    3.09    0.00   93.72

Device:         rrqm/s   wrqm/s     r/s     w/s    rkB/s    wkB/s avgrq-sz avgqu-sz   await r_await w_await  svctm  %util
nvme0n1           0.00     0.00    0.00    0.00     0.00     0.00     0.00     0.00    0.00    0.00    0.00   0.00   0.00
sda               0.00     0.00    0.00    0.00     0.00     0.00     0.00     0.00    0.00    0.00    0.00   0.00   0.00
sdc               0.00     0.00  185.00    0.00   740.00     0.00     8.00     0.24    1.29    1.29    0.00   1.29  23.90
sdb               0.00     0.00  159.00    0.00   636.00     0.00     8.00     0.29    1.81    1.81    0.00   1.81  28.80
sdd               0.00     0.00  151.00    0.00   604.00     0.00     8.00     0.46    3.10    3.10    0.00   3.07  46.30
md0               0.00     0.00  495.00    0.00  1980.00     0.00     8.00     0.00    0.00    0.00    0.00   0.00   0.00

avg-cpu:  %user   %nice %system %iowait  %steal   %idle
           3.13    0.00    0.00    3.10    0.00   93.78

Device:         rrqm/s   wrqm/s     r/s     w/s    rkB/s    wkB/s avgrq-sz avgqu-sz   await r_await w_await  svctm  %util
nvme0n1           0.00     0.00    0.00    0.00     0.00     0.00     0.00     0.00    0.00    0.00    0.00   0.00   0.00
sda               0.00     6.00    0.00    2.00     0.00    32.00    32.00     0.00    0.00    0.00    0.00   0.00   0.00
sdc               0.00     0.00  176.00    0.00   704.00     0.00     8.00     0.29    1.65    1.65    0.00   1.65  29.00
sdb               0.00     0.00  181.00    0.00   724.00     0.00     8.00     0.29    1.63    1.63    0.00   1.62  29.40
sdd               0.00     0.00  166.00    0.00   664.00     0.00     8.00     0.40    2.43    2.43    0.00   2.43  40.40
md0               0.00     0.00  523.00    0.00  2092.00     0.00     8.00     0.00    0.00    0.00    0.00   0.00   0.00

avg-cpu:  %user   %nice %system %iowait  %steal   %idle
           3.12    0.00    0.06    3.06    0.00   93.75

Device:         rrqm/s   wrqm/s     r/s     w/s    rkB/s    wkB/s avgrq-sz avgqu-sz   await r_await w_await  svctm  %util
nvme0n1           0.00     0.00    0.00    0.00     0.00     0.00     0.00     0.00    0.00    0.00    0.00   0.00   0.00
sda               0.00     0.00    0.00    0.00     0.00     0.00     0.00     0.00    0.00    0.00    0.00   0.00   0.00
sdc               0.00     0.00  173.00    0.00   692.00     0.00     8.00     0.32    1.80    1.80    0.00   1.87  32.30
sdb               0.00     0.00  173.00    0.00   692.00     0.00     8.00     0.30    1.72    1.72    0.00   1.71  29.60
sdd               0.00     0.00  170.00    0.00   680.00     0.00     8.00     0.37    2.18    2.18    0.00   2.16  36.80
md0               0.00     0.00  516.00    0.00  2064.00     0.00     8.00     0.00    0.00    0.00    0.00   0.00   0.00

avg-cpu:  %user   %nice %system %iowait  %steal   %idle
           3.10    0.00    0.00    3.10    0.00   93.81

Device:         rrqm/s   wrqm/s     r/s     w/s    rkB/s    wkB/s avgrq-sz avgqu-sz   await r_await w_await  svctm  %util
nvme0n1           0.00     0.00    0.00    0.00     0.00     0.00     0.00     0.00    0.00    0.00    0.00   0.00   0.00
sda               0.00     0.00    0.00    0.00     0.00     0.00     0.00     0.00    0.00    0.00    0.00   0.00   0.00
sdc               0.00     0.00  161.00    0.00   644.00     0.00     8.00     0.27    1.76    1.76    0.00   1.70  27.30
sdb               0.00     0.00  159.00    0.00   636.00     0.00     8.00     0.34    2.12    2.12    0.00   2.12  33.70
sdd               0.00     0.00  169.00    0.00   676.00     0.00     8.00     0.38    2.26    2.26    0.00   2.26  38.20
md0               0.00     0.00  489.00    0.00  1956.00     0.00     8.00     0.00    0.00    0.00    0.00   0.00   0.00

avg-cpu:  %user   %nice %system %iowait  %steal   %idle
           3.12    0.00    0.06    3.06    0.00   93.75

Device:         rrqm/s   wrqm/s     r/s     w/s    rkB/s    wkB/s avgrq-sz avgqu-sz   await r_await w_await  svctm  %util
nvme0n1           0.00     0.00    0.00    0.00     0.00     0.00     0.00     0.00    0.00    0.00    0.00   0.00   0.00
sda               0.00     0.00    0.00    0.00     0.00     0.00     0.00     0.00    0.00    0.00    0.00   0.00   0.00
sdc               0.00     0.00  165.00    0.00   660.00     0.00     8.00     0.42    2.54    2.54    0.00   2.56  42.20
sdb               0.00     0.00  179.00    0.00   716.00     0.00     8.00     0.30    1.66    1.66    0.00   1.66  29.70
sdd               0.00     0.00  158.00    0.00   632.00     0.00     8.00     0.28    1.76    1.76    0.00   1.76  27.80
md0               0.00     0.00  502.00    0.00  2008.00     0.00     8.00     0.00    0.00    0.00    0.00   0.00   0.00

avg-cpu:  %user   %nice %system %iowait  %steal   %idle
           3.13    0.00    0.00    3.09    0.00   93.78

Device:         rrqm/s   wrqm/s     r/s     w/s    rkB/s    wkB/s avgrq-sz avgqu-sz   await r_await w_await  svctm  %util
nvme0n1           0.00     0.00    0.00    0.00     0.00     0.00     0.00     0.00    0.00    0.00    0.00   0.00   0.00
sda               0.00     1.00    0.00    1.00     0.00    12.00    24.00     0.00    0.00    0.00    0.00   0.00   0.00
sdc               0.00     0.00  159.00    0.00   636.00     0.00     8.00     0.30    1.91    1.91    0.00   1.89  30.00
sdb               0.00     0.00  196.00    0.00   784.00     0.00     8.00     0.26    1.31    1.31    0.00   1.31  25.60
sdd               0.00     0.00  163.00    0.00   652.00     0.00     8.00     0.44    2.67    2.67    0.00   2.68  43.70
md0               0.00     0.00  518.00    0.00  2072.00     0.00     8.00     0.00    0.00    0.00    0.00   0.00   0.00

