Linux 4.17.2 (bench2) 	08/03/2018 	_x86_64_	(32 CPU)

avg-cpu:  %user   %nice %system %iowait  %steal   %idle
           1.90    0.00    1.55    1.59    0.00   94.96

Device:         rrqm/s   wrqm/s     r/s     w/s    rkB/s    wkB/s avgrq-sz avgqu-sz   await r_await w_await  svctm  %util
nvme0n1         934.48     5.08 18838.71  518.69 105375.89 11697.96    12.10     1.34    0.05    0.03    0.67   0.02  39.44
sda               0.12     0.82   14.17    0.58   164.01     8.53    23.40     0.00    0.33    0.32    0.44   0.07   0.10
sdc              34.25     0.17  120.70    0.31  1816.23    97.10    31.62     0.08    0.65   12.34  380.35   0.91  10.98
sdb              32.22     0.19  122.68    0.33  1814.26    96.93    31.07     0.51    4.15    3.05  411.64   0.85  10.44
sdd              34.44     0.17  120.24    0.26  1812.24    96.60    31.68     0.82    6.84    4.89  907.87   0.91  10.98
md0               0.00     0.00  467.36    1.21  6747.70   350.45    30.30     0.00    0.00    0.00    0.00   0.00   0.00

avg-cpu:  %user   %nice %system %iowait  %steal   %idle
           3.09    0.00    0.06    3.06    0.00   93.78

Device:         rrqm/s   wrqm/s     r/s     w/s    rkB/s    wkB/s avgrq-sz avgqu-sz   await r_await w_await  svctm  %util
nvme0n1           0.00     0.00    0.00    0.00     0.00     0.00     0.00     0.00    0.00    0.00    0.00   0.00   0.00
sda               0.00     0.00    4.00    0.00   104.00     0.00    52.00     0.00    0.50    0.50    0.00   0.50   0.20
sdc               0.00     0.00  176.00    0.00  1744.00     0.00    19.82     0.27    1.55    1.55    0.00   1.55  27.20
sdb               0.00     0.00  165.00    0.00  1844.00     0.00    22.35     0.33    1.99    1.99    0.00   1.95  32.20
sdd               0.00     0.00  183.00    0.00  2716.00     0.00    29.68     0.43    2.31    2.31    0.00   2.25  41.20
md0               0.00     0.00  525.00    0.00  6644.00     0.00    25.31     0.00    0.00    0.00    0.00   0.00   0.00

avg-cpu:  %user   %nice %system %iowait  %steal   %idle
           3.13    0.00    0.03    3.06    0.00   93.78

Device:         rrqm/s   wrqm/s     r/s     w/s    rkB/s    wkB/s avgrq-sz avgqu-sz   await r_await w_await  svctm  %util
nvme0n1           0.00     0.00    0.00    0.00     0.00     0.00     0.00     0.00    0.00    0.00    0.00   0.00   0.00
sda               0.00     0.00    0.00    0.00     0.00     0.00     0.00     0.00    0.00    0.00    0.00   0.00   0.00
sdc               0.00     0.00  195.00    0.00  2984.00     0.00    30.61     0.38    1.96    1.96    0.00   1.93  37.60
sdb               1.00     0.00  207.00    0.00  4008.00     0.00    38.72     0.31    1.44    1.44    0.00   1.41  29.20
sdd               0.00     0.00  184.00    0.00  3692.00     0.00    40.13     0.39    2.12    2.12    0.00   1.98  36.40
md0               0.00     0.00  587.00    0.00 11900.00     0.00    40.55     0.00    0.00    0.00    0.00   0.00   0.00

avg-cpu:  %user   %nice %system %iowait  %steal   %idle
           3.10    0.00    0.03    3.06    0.00   93.81

Device:         rrqm/s   wrqm/s     r/s     w/s    rkB/s    wkB/s avgrq-sz avgqu-sz   await r_await w_await  svctm  %util
nvme0n1           0.00     0.00    0.00    0.00     0.00     0.00     0.00     0.00    0.00    0.00    0.00   0.00   0.00
sda               0.00     0.00    0.00    0.00     0.00     0.00     0.00     0.00    0.00    0.00    0.00   0.00   0.00
sdc               0.00     0.00  220.00    0.00  3948.00     0.00    35.89     0.45    2.03    2.03    0.00   1.86  41.00
sdb               0.00     0.00  198.00    0.00  3508.00     0.00    35.43     0.31    1.63    1.63    0.00   1.49  29.60
sdd               3.00     0.00  194.00    0.00  4624.00     0.00    47.67     0.34    1.74    1.74    0.00   1.67  32.40
md0               0.00     0.00  615.00    0.00 14160.00     0.00    46.05     0.00    0.00    0.00    0.00   0.00   0.00

avg-cpu:  %user   %nice %system %iowait  %steal   %idle
           3.13    0.00    0.03    3.06    0.00   93.78

Device:         rrqm/s   wrqm/s     r/s     w/s    rkB/s    wkB/s avgrq-sz avgqu-sz   await r_await w_await  svctm  %util
nvme0n1           0.00     0.00    0.00    0.00     0.00     0.00     0.00     0.00    0.00    0.00    0.00   0.00   0.00
sda               0.00     8.00    0.00    2.00     0.00    40.00    40.00     0.00    0.00    0.00    0.00   0.00   0.00
sdc               3.00     0.00  203.00    0.00  5180.00     0.00    51.03     0.43    2.09    2.09    0.00   2.01  40.90
sdb               3.00     0.00  187.00    0.00  5656.00     0.00    60.49     0.47    2.53    2.53    0.00   2.35  43.90
sdd               3.00     0.00  199.00    0.00  5172.00     0.00    51.98     0.24    1.19    1.19    0.00   1.09  21.70
md0               0.00     0.00  598.00    0.00 18144.00     0.00    60.68     0.00    0.00    0.00    0.00   0.00   0.00

avg-cpu:  %user   %nice %system %iowait  %steal   %idle
           3.12    0.00    0.03    3.09    0.00   93.75

Device:         rrqm/s   wrqm/s     r/s     w/s    rkB/s    wkB/s avgrq-sz avgqu-sz   await r_await w_await  svctm  %util
nvme0n1           0.00     0.00    0.00    0.00     0.00     0.00     0.00     0.00    0.00    0.00    0.00   0.00   0.00
sda               0.00     1.00    1.00    3.00     4.00    44.00    24.00     0.00    0.00    0.00    0.00   0.00   0.00
sdc               0.00     0.00  222.00    0.00  3172.00     0.00    28.58     0.28    1.32    1.32    0.00   1.25  27.70
sdb               0.00     0.00  199.00    0.00  2956.00     0.00    29.71     0.28    1.38    1.38    0.00   1.36  27.10
sdd               0.00     0.00  185.00    0.00  2668.00     0.00    28.84     0.48    2.62    2.62    0.00   2.56  47.30
md0               0.00     0.00  606.00    0.00  9260.00     0.00    30.56     0.00    0.00    0.00    0.00   0.00   0.00

avg-cpu:  %user   %nice %system %iowait  %steal   %idle
           3.13    0.00    0.03    3.06    0.00   93.78

Device:         rrqm/s   wrqm/s     r/s     w/s    rkB/s    wkB/s avgrq-sz avgqu-sz   await r_await w_await  svctm  %util
nvme0n1           0.00     0.00    0.00    0.00     0.00     0.00     0.00     0.00    0.00    0.00    0.00   0.00   0.00
sda               0.00     0.00    0.00    0.00     0.00     0.00     0.00     0.00    0.00    0.00    0.00   0.00   0.00
sdc               1.00     0.00  184.00    0.00  3028.00     0.00    32.91     0.51    2.76    2.76    0.00   2.74  50.40
sdb               0.00     0.00  193.00    0.00  3096.00     0.00    32.08     0.16    0.84    0.84    0.00   0.80  15.40
sdd               0.00     0.00  197.00    0.00  3256.00     0.00    33.06     0.37    1.87    1.87    0.00   1.87  36.80
md0               0.00     0.00  575.00    0.00 10520.00     0.00    36.59     0.00    0.00    0.00    0.00   0.00   0.00

avg-cpu:  %user   %nice %system %iowait  %steal   %idle
           3.13    0.00    0.03    3.06    0.00   93.78

Device:         rrqm/s   wrqm/s     r/s     w/s    rkB/s    wkB/s avgrq-sz avgqu-sz   await r_await w_await  svctm  %util
nvme0n1           0.00     0.00    0.00    0.00     0.00     0.00     0.00     0.00    0.00    0.00    0.00   0.00   0.00
sda               0.00     0.00    0.00    0.00     0.00     0.00     0.00     0.00    0.00    0.00    0.00   0.00   0.00
sdc               0.00     0.00  211.00    0.00  2864.00     0.00    27.15     0.45    2.13    2.13    0.00   2.09  44.00
sdb               0.00     0.00  184.00    0.00  3236.00     0.00    35.17     0.30    1.63    1.63    0.00   1.60  29.50
sdd               0.00     0.00  203.00    0.00  3912.00     0.00    38.54     0.32    1.60    1.60    0.00   1.48  30.00
md0               0.00     0.00  598.00    0.00 11268.00     0.00    37.69     0.00    0.00    0.00    0.00   0.00   0.00

avg-cpu:  %user   %nice %system %iowait  %steal   %idle
           3.09    0.00    0.09    3.06    0.00   93.75

Device:         rrqm/s   wrqm/s     r/s     w/s    rkB/s    wkB/s avgrq-sz avgqu-sz   await r_await w_await  svctm  %util
nvme0n1           0.00     0.00    0.00    0.00     0.00     0.00     0.00     0.00    0.00    0.00    0.00   0.00   0.00
sda               0.00     0.00    0.00    0.00     0.00     0.00     0.00     0.00    0.00    0.00    0.00   0.00   0.00
sdc               0.00     0.00  198.00    0.00  2352.00     0.00    23.76     0.52    2.66    2.66    0.00   2.57  50.80
sdb               0.00     0.00  191.00    0.00  3260.00     0.00    34.14     0.21    1.10    1.10    0.00   1.07  20.40
sdd               0.00     0.00  196.00    0.00  2712.00     0.00    27.67     0.30    1.52    1.52    0.00   1.49  29.20
md0               0.00     0.00  586.00    0.00  9044.00     0.00    30.87     0.00    0.00    0.00    0.00   0.00   0.00

avg-cpu:  %user   %nice %system %iowait  %steal   %idle
           3.13    0.00    0.03    3.06    0.00   93.78

Device:         rrqm/s   wrqm/s     r/s     w/s    rkB/s    wkB/s avgrq-sz avgqu-sz   await r_await w_await  svctm  %util
nvme0n1           0.00     0.00    0.00    0.00     0.00     0.00     0.00     0.00    0.00    0.00    0.00   0.00   0.00
sda               0.00     6.00    0.00    2.00     0.00    32.00    32.00     0.00    0.00    0.00    0.00   0.00   0.00
sdc               0.00     0.00  205.00    0.00  3300.00     0.00    32.20     0.31    1.51    1.51    0.00   1.44  29.60
sdb               0.00     0.00  204.00    0.00  2452.00     0.00    24.04     0.35    1.64    1.64    0.00   1.66  33.90
sdd               0.00     0.00  178.00    0.00  2012.00     0.00    22.61     0.38    2.16    2.16    0.00   2.13  38.00
md0               0.00     0.00  586.00    0.00  8252.00     0.00    28.16     0.00    0.00    0.00    0.00   0.00   0.00

avg-cpu:  %user   %nice %system %iowait  %steal   %idle
           3.12    0.00    0.03    3.09    0.00   93.75

Device:         rrqm/s   wrqm/s     r/s     w/s    rkB/s    wkB/s avgrq-sz avgqu-sz   await r_await w_await  svctm  %util
nvme0n1           0.00     0.00    0.00    0.00     0.00     0.00     0.00     0.00    0.00    0.00    0.00   0.00   0.00
sda               0.00     2.00    0.00    1.00     0.00    28.00    56.00     0.00    0.00    0.00    0.00   0.00   0.00
sdc               1.00     0.00  200.00    0.00  3376.00     0.00    33.76     0.47    2.35    2.35    0.00   2.33  46.70
sdb               1.00     0.00  207.00    0.00  3740.00     0.00    36.14     0.33    1.66    1.66    0.00   1.56  32.20
sdd               2.00     0.00  194.00    0.00  4232.00     0.00    43.63     0.27    1.37    1.37    0.00   1.34  25.90
md0               0.00     0.00  605.00    0.00 12352.00     0.00    40.83     0.00    0.00    0.00    0.00   0.00   0.00

avg-cpu:  %user   %nice %system %iowait  %steal   %idle
           3.12    0.00    0.06    3.06    0.00   93.75

Device:         rrqm/s   wrqm/s     r/s     w/s    rkB/s    wkB/s avgrq-sz avgqu-sz   await r_await w_await  svctm  %util
nvme0n1           0.00     0.00    0.00    0.00     0.00     0.00     0.00     0.00    0.00    0.00    0.00   0.00   0.00
sda               0.00     0.00    0.00    0.00     0.00     0.00     0.00     0.00    0.00    0.00    0.00   0.00   0.00
sdc               0.00     0.00  225.00    0.00  3852.00     0.00    34.24     0.47    2.10    2.10    0.00   2.06  46.30
sdb               0.00     0.00  186.00    0.00  2408.00     0.00    25.89     0.20    1.09    1.09    0.00   1.08  20.10
sdd               0.00     0.00  183.00    0.00  4120.00     0.00    45.03     0.39    2.09    2.09    0.00   1.98  36.30
md0               0.00     0.00  594.00    0.00 11404.00     0.00    38.40     0.00    0.00    0.00    0.00   0.00   0.00

avg-cpu:  %user   %nice %system %iowait  %steal   %idle
           3.13    0.00    0.03    3.06    0.00   93.78

Device:         rrqm/s   wrqm/s     r/s     w/s    rkB/s    wkB/s avgrq-sz avgqu-sz   await r_await w_await  svctm  %util
nvme0n1           0.00     0.00    0.00    0.00     0.00     0.00     0.00     0.00    0.00    0.00    0.00   0.00   0.00
sda               0.00     0.00    0.00    0.00     0.00     0.00     0.00     0.00    0.00    0.00    0.00   0.00   0.00
sdc               0.00     0.00  228.00    0.00  3536.00     0.00    31.02     0.46    2.02    2.02    0.00   1.96  44.80
sdb               0.00     0.00  196.00    0.00  2532.00     0.00    25.84     0.29    1.51    1.51    0.00   1.50  29.40
sdd               0.00     0.00  204.00    0.00  2840.00     0.00    27.84     0.28    1.39    1.39    0.00   1.34  27.40
md0               0.00     0.00  630.00    0.00  9712.00     0.00    30.83     0.00    0.00    0.00    0.00   0.00   0.00

avg-cpu:  %user   %nice %system %iowait  %steal   %idle
           3.12    0.00    0.06    3.06    0.00   93.75

Device:         rrqm/s   wrqm/s     r/s     w/s    rkB/s    wkB/s avgrq-sz avgqu-sz   await r_await w_await  svctm  %util
nvme0n1           0.00     0.00    0.00    0.00     0.00     0.00     0.00     0.00    0.00    0.00    0.00   0.00   0.00
sda               0.00     0.00    0.00    0.00     0.00     0.00     0.00     0.00    0.00    0.00    0.00   0.00   0.00
sdc               0.00     0.00  148.00    0.00  1100.00     0.00    14.86     0.25    1.67    1.67    0.00   1.66  24.50
sdb               0.00     0.00  207.00    0.00  2864.00     0.00    27.67     0.33    1.57    1.57    0.00   1.51  31.30
sdd               0.00     0.00  185.00    0.00  2404.00     0.00    25.99     0.46    2.47    2.47    0.00   2.44  45.20
md0               0.00     0.00  538.00    0.00  6760.00     0.00    25.13     0.00    0.00    0.00    0.00   0.00   0.00

avg-cpu:  %user   %nice %system %iowait  %steal   %idle
           3.13    0.00    0.03    3.06    0.00   93.78

Device:         rrqm/s   wrqm/s     r/s     w/s    rkB/s    wkB/s avgrq-sz avgqu-sz   await r_await w_await  svctm  %util
nvme0n1           0.00     0.00    0.00    0.00     0.00     0.00     0.00     0.00    0.00    0.00    0.00   0.00   0.00
sda               0.00     3.00    0.00    2.00     0.00    20.00    20.00     0.00    0.00    0.00    0.00   0.00   0.00
sdc               0.00     0.00  166.00    0.00  1976.00     0.00    23.81     0.20    1.21    1.21    0.00   1.20  19.90
sdb               0.00     0.00  214.00    0.00  2844.00     0.00    26.58     0.39    1.79    1.79    0.00   1.71  36.60
sdd               0.00     0.00  203.00    0.00  3388.00     0.00    33.38     0.47    2.33    2.33    0.00   2.28  46.30
md0               0.00     0.00  583.00    0.00  9372.00     0.00    32.15     0.00    0.00    0.00    0.00   0.00   0.00

avg-cpu:  %user   %nice %system %iowait  %steal   %idle
           3.09    0.00    0.03    3.09    0.00   93.78

Device:         rrqm/s   wrqm/s     r/s     w/s    rkB/s    wkB/s avgrq-sz avgqu-sz   await r_await w_await  svctm  %util
nvme0n1           0.00     0.00    0.00    0.00     0.00     0.00     0.00     0.00    0.00    0.00    0.00   0.00   0.00
sda               0.00     0.00    0.00    0.00     0.00     0.00     0.00     0.00    0.00    0.00    0.00   0.00   0.00
sdc               0.00     0.00  205.00    0.00  2732.00     0.00    26.65     0.39    1.90    1.90    0.00   1.88  38.50
sdb               0.00     0.00  183.00    0.00  2408.00     0.00    26.32     0.22    1.20    1.20    0.00   1.16  21.20
sdd               0.00     0.00  215.00    0.00  4040.00     0.00    37.58     0.41    1.92    1.92    0.00   1.90  40.90
md0               0.00     0.00  603.00    0.00  9808.00     0.00    32.53     0.00    0.00    0.00    0.00   0.00   0.00

avg-cpu:  %user   %nice %system %iowait  %steal   %idle
           3.12    0.00    0.06    3.06    0.00   93.75

Device:         rrqm/s   wrqm/s     r/s     w/s    rkB/s    wkB/s avgrq-sz avgqu-sz   await r_await w_await  svctm  %util
nvme0n1           0.00     0.00    0.00    0.00     0.00     0.00     0.00     0.00    0.00    0.00    0.00   0.00   0.00
sda               0.00     0.00    0.00    0.00     0.00     0.00     0.00     0.00    0.00    0.00    0.00   0.00   0.00
sdc               0.00     0.00  202.00    0.00  2432.00     0.00    24.08     0.29    1.42    1.42    0.00   1.41  28.50
sdb               1.00     0.00  162.00    0.00  2912.00     0.00    35.95     0.34    2.12    2.12    0.00   2.06  33.30
sdd               0.00     0.00  196.00    0.00  3180.00     0.00    32.45     0.40    2.03    2.03    0.00   2.02  39.60
md0               0.00     0.00  561.00    0.00  9844.00     0.00    35.09     0.00    0.00    0.00    0.00   0.00   0.00

avg-cpu:  %user   %nice %system %iowait  %steal   %idle
           3.10    0.00    0.03    3.06    0.00   93.81

Device:         rrqm/s   wrqm/s     r/s     w/s    rkB/s    wkB/s avgrq-sz avgqu-sz   await r_await w_await  svctm  %util
nvme0n1           0.00     0.00    0.00    0.00     0.00     0.00     0.00     0.00    0.00    0.00    0.00   0.00   0.00
sda               0.00     0.00    0.00    0.00     0.00     0.00     0.00     0.00    0.00    0.00    0.00   0.00   0.00
sdc               0.00     0.00  226.00    0.00  2972.00     0.00    26.30     0.34    1.50    1.50    0.00   1.47  33.30
sdb               0.00     0.00  211.00    0.00  3068.00     0.00    29.08     0.36    1.69    1.69    0.00   1.60  33.70
sdd               0.00     0.00  246.00    0.00  3312.00     0.00    26.93     0.35    1.43    1.43    0.00   1.39  34.10
md0               0.00     0.00  683.00    0.00  9952.00     0.00    29.14     0.00    0.00    0.00    0.00   0.00   0.00

avg-cpu:  %user   %nice %system %iowait  %steal   %idle
           3.12    0.00    0.06    3.06    0.00   93.75

Device:         rrqm/s   wrqm/s     r/s     w/s    rkB/s    wkB/s avgrq-sz avgqu-sz   await r_await w_await  svctm  %util
nvme0n1           0.00     0.00    0.00    0.00     0.00     0.00     0.00     0.00    0.00    0.00    0.00   0.00   0.00
sda               0.00     0.00    0.00    0.00     0.00     0.00     0.00     0.00    0.00    0.00    0.00   0.00   0.00
sdc               0.00     0.00  229.00    0.00  4204.00     0.00    36.72     0.28    1.24    1.24    0.00   1.22  28.00
sdb               0.00     0.00  200.00    0.00  3408.00     0.00    34.08     0.34    1.72    1.72    0.00   1.66  33.10
sdd               0.00     0.00  218.00    0.00  2664.00     0.00    24.44     0.41    1.87    1.87    0.00   1.84  40.20
md0               0.00     0.00  647.00    0.00 11524.00     0.00    35.62     0.00    0.00    0.00    0.00   0.00   0.00

avg-cpu:  %user   %nice %system %iowait  %steal   %idle
           3.13    0.00    0.03    3.06    0.00   93.78

Device:         rrqm/s   wrqm/s     r/s     w/s    rkB/s    wkB/s avgrq-sz avgqu-sz   await r_await w_await  svctm  %util
nvme0n1           0.00     0.00    0.00    0.00     0.00     0.00     0.00     0.00    0.00    0.00    0.00   0.00   0.00
sda               0.00     1.00    0.00    2.00     0.00    12.00    12.00     0.00    0.00    0.00    0.00   0.00   0.00
sdc               0.00     0.00  212.00    0.00  3128.00     0.00    29.51     0.34    1.59    1.59    0.00   1.54  32.70
sdb               0.00     0.00  197.00    0.00  3220.00     0.00    32.69     0.26    1.34    1.34    0.00   1.32  26.10
sdd               0.00     0.00  178.00    0.00  2516.00     0.00    28.27     0.44    2.47    2.47    0.00   2.40  42.80
md0               0.00     0.00  587.00    0.00  9704.00     0.00    33.06     0.00    0.00    0.00    0.00   0.00   0.00

avg-cpu:  %user   %nice %system %iowait  %steal   %idle
           3.10    0.00    0.03    3.07    0.00   93.81

Device:         rrqm/s   wrqm/s     r/s     w/s    rkB/s    wkB/s avgrq-sz avgqu-sz   await r_await w_await  svctm  %util
nvme0n1           0.00     0.00    0.00    0.00     0.00     0.00     0.00     0.00    0.00    0.00    0.00   0.00   0.00
sda               0.00     0.00    0.00    0.00     0.00     0.00     0.00     0.00    0.00    0.00    0.00   0.00   0.00
sdc               0.00     0.00  226.00    0.00  4216.00     0.00    37.31     0.40    1.79    1.79    0.00   1.71  38.70
sdb               1.00     0.00  247.00    0.00  4580.00     0.00    37.09     0.19    0.74    0.74    0.00   0.72  17.90
sdd               0.00     0.00  233.00    0.00  4308.00     0.00    36.98     0.48    2.06    2.06    0.00   1.98  46.20
md0               0.00     0.00  707.00    0.00 14488.00     0.00    40.98     0.00    0.00    0.00    0.00   0.00   0.00

