Linux 4.17.2 (bench2) 	08/03/2018 	_x86_64_	(32 CPU)

avg-cpu:  %user   %nice %system %iowait  %steal   %idle
           1.91    0.00    1.56    1.55    0.00   94.97

Device:         rrqm/s   wrqm/s     r/s     w/s    rkB/s    wkB/s avgrq-sz avgqu-sz   await r_await w_await  svctm  %util
nvme0n1         945.78     5.14 19066.57  524.96 106650.43 11839.45    12.10     1.36    0.05    0.03    0.67   0.02  39.91
sda               0.11     0.81   14.15    0.58   163.96     8.51    23.43     0.00    0.33    0.32    0.45   0.07   0.10
sdc              33.43     0.18  113.13    0.31  1698.09    98.28    31.67     0.00    0.03   12.65  380.35   0.92  10.48
sdb              31.37     0.19  115.15    0.33  1696.20    98.10    31.08     0.44    3.83    2.64  411.64   0.86   9.96
sdd              33.63     0.17  112.67    0.26  1694.10    97.77    31.73     0.76    6.72    4.61  907.87   0.93  10.48
md0               0.00     0.00  442.23    1.22  6287.77   354.69    29.96     0.00    0.00    0.00    0.00   0.00   0.00

avg-cpu:  %user   %nice %system %iowait  %steal   %idle
           3.08    0.00    0.29    2.84    0.00   93.79

Device:         rrqm/s   wrqm/s     r/s     w/s    rkB/s    wkB/s avgrq-sz avgqu-sz   await r_await w_await  svctm  %util
nvme0n1           0.00     0.00    0.00    0.00     0.00     0.00     0.00     0.00    0.00    0.00    0.00   0.00   0.00
sda               0.00     0.90    3.95    0.55    28.20     6.60    15.47     0.00    0.32    0.33    0.27   0.08   0.04
sdc               0.00     0.00 2103.80    0.00  8415.20     0.00     8.00     0.32    0.15    0.15    0.00   0.15  32.28
sdb               0.00     0.00 2137.85    0.00  8551.40     0.00     8.00     0.31    0.14    0.14    0.00   0.14  30.62
sdd               0.00     0.00 2118.25    0.00  8473.00     0.00     8.00     0.31    0.15    0.15    0.00   0.14  30.69
md0               0.00     0.00 6359.95    0.00 25439.80     0.00     8.00     0.00    0.00    0.00    0.00   0.00   0.00

