Linux 4.17.2 (bench2) 	08/03/2018 	_x86_64_	(32 CPU)

avg-cpu:  %user   %nice %system %iowait  %steal   %idle
           1.91    0.00    1.56    1.56    0.00   94.97

Device:         rrqm/s   wrqm/s     r/s     w/s    rkB/s    wkB/s avgrq-sz avgqu-sz   await r_await w_await  svctm  %util
nvme0n1         941.45     5.11 18979.34  522.56 106162.53 11785.29    12.10     1.35    0.05    0.03    0.67   0.02  39.73
sda               0.12     0.81   14.15    0.58   163.96     8.52    23.42     0.00    0.33    0.32    0.44   0.07   0.10
sdc              33.81     0.18  116.00    0.31  1745.43    97.83    31.70     0.03    0.30   12.55  380.35   0.92  10.68
sdb              31.76     0.19  118.01    0.33  1743.51    97.65    31.12     0.47    3.97    2.82  411.64   0.86  10.15
sdd              34.01     0.17  115.54    0.26  1741.43    97.32    31.76     0.79    6.79    4.75  907.87   0.92  10.68
md0               0.00     0.00  451.97    1.21  6472.37   353.07    30.12     0.00    0.00    0.00    0.00   0.00   0.00

avg-cpu:  %user   %nice %system %iowait  %steal   %idle
           3.07    0.00    0.13    0.34    0.00   96.46

Device:         rrqm/s   wrqm/s     r/s     w/s    rkB/s    wkB/s avgrq-sz avgqu-sz   await r_await w_await  svctm  %util
nvme0n1           0.00     0.00    0.00    0.00     0.00     0.00     0.00     0.00    0.00    0.00    0.00   0.00   0.00
sda               0.00     0.00    4.00    0.00    56.00     0.00    28.00     0.00    0.75    0.75    0.00   0.50   0.20
sdc               0.00     0.00 2035.00    0.00  8164.00     0.00     8.02     0.32    0.16    0.16    0.00   0.16  31.90
sdb               0.00     0.00 2088.00    0.00  8352.00     0.00     8.00     0.32    0.15    0.15    0.00   0.15  32.00
sdd               0.00     0.00 2160.00    0.00  8640.00     0.00     8.00     0.33    0.15    0.15    0.00   0.15  33.10
md0               0.00     0.00 6284.00    0.00 25160.00     0.00     8.01     0.00    0.00    0.00    0.00   0.00   0.00

avg-cpu:  %user   %nice %system %iowait  %steal   %idle
           3.10    0.00    0.22    0.31    0.00   96.37

Device:         rrqm/s   wrqm/s     r/s     w/s    rkB/s    wkB/s avgrq-sz avgqu-sz   await r_await w_await  svctm  %util
nvme0n1           0.00     0.00    0.00    0.00     0.00     0.00     0.00     0.00    0.00    0.00    0.00   0.00   0.00
sda               0.00     0.00    0.00    0.00     0.00     0.00     0.00     0.00    0.00    0.00    0.00   0.00   0.00
sdc               0.00     0.00 2298.00    0.00  9192.00     0.00     8.00     0.31    0.13    0.13    0.00   0.13  30.70
sdb               0.00     0.00 2289.00    0.00  9156.00     0.00     8.00     0.33    0.14    0.14    0.00   0.14  33.00
sdd               0.00     0.00 2225.00    0.00  8900.00     0.00     8.00     0.32    0.14    0.14    0.00   0.14  31.70
md0               0.00     0.00 6813.00    0.00 27252.00     0.00     8.00     0.00    0.00    0.00    0.00   0.00   0.00

avg-cpu:  %user   %nice %system %iowait  %steal   %idle
           3.10    0.00    0.22    0.31    0.00   96.37

Device:         rrqm/s   wrqm/s     r/s     w/s    rkB/s    wkB/s avgrq-sz avgqu-sz   await r_await w_await  svctm  %util
nvme0n1           0.00     0.00    0.00    0.00     0.00     0.00     0.00     0.00    0.00    0.00    0.00   0.00   0.00
sda               0.00     0.00    0.00    0.00     0.00     0.00     0.00     0.00    0.00    0.00    0.00   0.00   0.00
sdc               0.00     0.00 2232.00    0.00  8928.00     0.00     8.00     0.32    0.14    0.14    0.00   0.14  32.20
sdb               0.00     0.00 2087.00    0.00  8348.00     0.00     8.00     0.30    0.14    0.14    0.00   0.14  29.70
sdd               0.00     0.00 2391.00    0.00  9564.00     0.00     8.00     0.33    0.14    0.14    0.00   0.14  32.80
md0               0.00     0.00 6709.00    0.00 26836.00     0.00     8.00     0.00    0.00    0.00    0.00   0.00   0.00

avg-cpu:  %user   %nice %system %iowait  %steal   %idle
           3.07    0.00    0.19    0.28    0.00   96.46

Device:         rrqm/s   wrqm/s     r/s     w/s    rkB/s    wkB/s avgrq-sz avgqu-sz   await r_await w_await  svctm  %util
nvme0n1           0.00     0.00    0.00    0.00     0.00     0.00     0.00     0.00    0.00    0.00    0.00   0.00   0.00
sda               0.00     0.00    0.00    0.00     0.00     0.00     0.00     0.00    0.00    0.00    0.00   0.00   0.00
sdc               0.00     0.00 2217.00    0.00  8868.00     0.00     8.00     0.31    0.14    0.14    0.00   0.14  30.90
sdb               0.00     0.00 2221.00    0.00  8884.00     0.00     8.00     0.33    0.15    0.15    0.00   0.15  32.60
sdd               0.00     0.00 2242.00    0.00  8968.00     0.00     8.00     0.32    0.14    0.14    0.00   0.14  31.70
md0               0.00     0.00 6680.00    0.00 26720.00     0.00     8.00     0.00    0.00    0.00    0.00   0.00   0.00

avg-cpu:  %user   %nice %system %iowait  %steal   %idle
           3.07    0.00    0.19    0.34    0.00   96.40

Device:         rrqm/s   wrqm/s     r/s     w/s    rkB/s    wkB/s avgrq-sz avgqu-sz   await r_await w_await  svctm  %util
nvme0n1           0.00     0.00    0.00    0.00     0.00     0.00     0.00     0.00    0.00    0.00    0.00   0.00   0.00
sda               0.00     0.00    0.00    0.00     0.00     0.00     0.00     0.00    0.00    0.00    0.00   0.00   0.00
sdc               0.00     0.00 2191.00    0.00  8764.00     0.00     8.00     0.32    0.14    0.14    0.00   0.14  31.60
sdb               0.00     0.00 2279.00    0.00  9116.00     0.00     8.00     0.32    0.14    0.14    0.00   0.14  31.60
sdd               0.00     0.00 2211.00    0.00  8844.00     0.00     8.00     0.33    0.15    0.15    0.00   0.15  33.00
md0               0.00     0.00 6681.00    0.00 26724.00     0.00     8.00     0.00    0.00    0.00    0.00   0.00   0.00

avg-cpu:  %user   %nice %system %iowait  %steal   %idle
           3.10    0.00    0.28    0.28    0.00   96.34

Device:         rrqm/s   wrqm/s     r/s     w/s    rkB/s    wkB/s avgrq-sz avgqu-sz   await r_await w_await  svctm  %util
nvme0n1           0.00     0.00    0.00    0.00     0.00     0.00     0.00     0.00    0.00    0.00    0.00   0.00   0.00
sda               0.00    12.00    0.00    2.00     0.00    56.00    56.00     0.00    0.50    0.00    0.50   0.50   0.10
sdc               0.00     0.00 2287.00    0.00  9148.00     0.00     8.00     0.32    0.14    0.14    0.00   0.14  31.50
sdb               0.00     0.00 2144.00    0.00  8576.00     0.00     8.00     0.30    0.14    0.14    0.00   0.14  29.90
sdd               0.00     0.00 2238.00    0.00  8952.00     0.00     8.00     0.34    0.15    0.15    0.00   0.15  33.50
md0               0.00     0.00 6669.00    0.00 26676.00     0.00     8.00     0.00    0.00    0.00    0.00   0.00   0.00

avg-cpu:  %user   %nice %system %iowait  %steal   %idle
           3.10    0.00    0.19    0.31    0.00   96.40

Device:         rrqm/s   wrqm/s     r/s     w/s    rkB/s    wkB/s avgrq-sz avgqu-sz   await r_await w_await  svctm  %util
nvme0n1           0.00     0.00    0.00    0.00     0.00     0.00     0.00     0.00    0.00    0.00    0.00   0.00   0.00
sda               0.00     2.00    0.00   14.00     0.00    64.00     9.14     0.00    0.00    0.00    0.00   0.00   0.00
sdc               0.00     0.00 2109.00    0.00  8436.00     0.00     8.00     0.37    0.17    0.17    0.00   0.17  36.70
sdb               0.00     0.00 2055.00    0.00  8220.00     0.00     8.00     0.28    0.14    0.14    0.00   0.14  28.00
sdd               0.00     0.00 2134.00    0.00  8536.00     0.00     8.00     0.31    0.15    0.15    0.00   0.15  31.00
md0               0.00     0.00 6298.00    0.00 25192.00     0.00     8.00     0.00    0.00    0.00    0.00   0.00   0.00

avg-cpu:  %user   %nice %system %iowait  %steal   %idle
           3.07    0.00    0.19    0.28    0.00   96.46

Device:         rrqm/s   wrqm/s     r/s     w/s    rkB/s    wkB/s avgrq-sz avgqu-sz   await r_await w_await  svctm  %util
nvme0n1           0.00     0.00    0.00    0.00     0.00     0.00     0.00     0.00    0.00    0.00    0.00   0.00   0.00
sda               0.00     0.00    0.00    0.00     0.00     0.00     0.00     0.00    0.00    0.00    0.00   0.00   0.00
sdc               0.00     0.00 2292.00    0.00  9168.00     0.00     8.00     0.33    0.14    0.14    0.00   0.14  33.20
sdb               0.00     0.00 2262.00    0.00  9048.00     0.00     8.00     0.31    0.14    0.14    0.00   0.14  31.20
sdd               0.00     0.00 2182.00    0.00  8728.00     0.00     8.00     0.32    0.14    0.14    0.00   0.14  31.50
md0               0.00     0.00 6736.00    0.00 26944.00     0.00     8.00     0.00    0.00    0.00    0.00   0.00   0.00

avg-cpu:  %user   %nice %system %iowait  %steal   %idle
           3.10    0.00    0.22    0.31    0.00   96.37

Device:         rrqm/s   wrqm/s     r/s     w/s    rkB/s    wkB/s avgrq-sz avgqu-sz   await r_await w_await  svctm  %util
nvme0n1           0.00     0.00    0.00    0.00     0.00     0.00     0.00     0.00    0.00    0.00    0.00   0.00   0.00
sda               0.00     0.00    0.00    0.00     0.00     0.00     0.00     0.00    0.00    0.00    0.00   0.00   0.00
sdc               0.00     0.00 2059.00    0.00  8236.00     0.00     8.00     0.36    0.17    0.17    0.00   0.17  35.60
sdb               0.00     0.00 2168.00    0.00  8672.00     0.00     8.00     0.30    0.14    0.14    0.00   0.14  30.00
sdd               0.00     0.00 2177.00    0.00  8708.00     0.00     8.00     0.30    0.14    0.14    0.00   0.14  30.00
md0               0.00     0.00 6404.00    0.00 25616.00     0.00     8.00     0.00    0.00    0.00    0.00   0.00   0.00

avg-cpu:  %user   %nice %system %iowait  %steal   %idle
           3.07    0.00    0.19    0.34    0.00   96.40

Device:         rrqm/s   wrqm/s     r/s     w/s    rkB/s    wkB/s avgrq-sz avgqu-sz   await r_await w_await  svctm  %util
nvme0n1           0.00     0.00    0.00    0.00     0.00     0.00     0.00     0.00    0.00    0.00    0.00   0.00   0.00
sda               0.00     0.00    0.00    0.00     0.00     0.00     0.00     0.00    0.00    0.00    0.00   0.00   0.00
sdc               0.00     0.00 2062.00    0.00  8248.00     0.00     8.00     0.40    0.19    0.19    0.00   0.19  40.10
sdb               0.00     0.00 1988.00    0.00  7952.00     0.00     8.00     0.28    0.14    0.14    0.00   0.14  28.10
sdd               0.00     0.00 1953.00    0.00  7812.00     0.00     8.00     0.28    0.14    0.14    0.00   0.14  28.00
md0               0.00     0.00 6003.00    0.00 24012.00     0.00     8.00     0.00    0.00    0.00    0.00   0.00   0.00

avg-cpu:  %user   %nice %system %iowait  %steal   %idle
           3.10    0.00    0.25    0.28    0.00   96.37

Device:         rrqm/s   wrqm/s     r/s     w/s    rkB/s    wkB/s avgrq-sz avgqu-sz   await r_await w_await  svctm  %util
nvme0n1           0.00     0.00    0.00    0.00     0.00     0.00     0.00     0.00    0.00    0.00    0.00   0.00   0.00
sda               0.00     1.00    0.00    2.00     0.00    12.00    12.00     0.00    0.00    0.00    0.00   0.00   0.00
sdc               0.00     0.00 2174.00    0.00  8696.00     0.00     8.00     0.31    0.14    0.14    0.00   0.14  30.60
sdb               0.00     0.00 2218.00    0.00  8872.00     0.00     8.00     0.32    0.14    0.14    0.00   0.14  31.80
sdd               0.00     0.00 2246.00    0.00  8984.00     0.00     8.00     0.34    0.15    0.15    0.00   0.15  33.60
md0               0.00     0.00 6638.00    0.00 26552.00     0.00     8.00     0.00    0.00    0.00    0.00   0.00   0.00

avg-cpu:  %user   %nice %system %iowait  %steal   %idle
           3.10    0.00    0.22    0.31    0.00   96.37

Device:         rrqm/s   wrqm/s     r/s     w/s    rkB/s    wkB/s avgrq-sz avgqu-sz   await r_await w_await  svctm  %util
nvme0n1           0.00     0.00    0.00    0.00     0.00     0.00     0.00     0.00    0.00    0.00    0.00   0.00   0.00
sda               0.00     2.00    1.00    5.00     4.00    68.00    24.00     0.00    0.00    0.00    0.00   0.00   0.00
sdc               0.00     0.00 2304.00    0.00  9216.00     0.00     8.00     0.33    0.14    0.14    0.00   0.14  32.90
sdb               0.00     0.00 2141.00    0.00  8564.00     0.00     8.00     0.31    0.14    0.14    0.00   0.14  30.60
sdd               0.00     0.00 2230.00    0.00  8920.00     0.00     8.00     0.31    0.14    0.14    0.00   0.14  30.90
md0               0.00     0.00 6675.00    0.00 26700.00     0.00     8.00     0.00    0.00    0.00    0.00   0.00   0.00

avg-cpu:  %user   %nice %system %iowait  %steal   %idle
           3.07    0.00    0.19    0.34    0.00   96.40

Device:         rrqm/s   wrqm/s     r/s     w/s    rkB/s    wkB/s avgrq-sz avgqu-sz   await r_await w_await  svctm  %util
nvme0n1           0.00     0.00    0.00    0.00     0.00     0.00     0.00     0.00    0.00    0.00    0.00   0.00   0.00
sda               0.00     0.00    0.00    0.00     0.00     0.00     0.00     0.00    0.00    0.00    0.00   0.00   0.00
sdc               0.00     0.00 2034.00    0.00  8136.00     0.00     8.00     0.38    0.19    0.19    0.00   0.19  38.20
sdb               0.00     0.00 1959.00    0.00  7836.00     0.00     8.00     0.27    0.14    0.14    0.00   0.14  26.90
sdd               0.00     0.00 2146.00    0.00  8584.00     0.00     8.00     0.30    0.14    0.14    0.00   0.14  29.90
md0               0.00     0.00 6139.00    0.00 24556.00     0.00     8.00     0.00    0.00    0.00    0.00   0.00   0.00

avg-cpu:  %user   %nice %system %iowait  %steal   %idle
           3.10    0.00    0.25    0.34    0.00   96.31

Device:         rrqm/s   wrqm/s     r/s     w/s    rkB/s    wkB/s avgrq-sz avgqu-sz   await r_await w_await  svctm  %util
nvme0n1           0.00     0.00    0.00    0.00     0.00     0.00     0.00     0.00    0.00    0.00    0.00   0.00   0.00
sda               0.00     0.00    0.00    0.00     0.00     0.00     0.00     0.00    0.00    0.00    0.00   0.00   0.00
sdc               0.00     0.00 2203.00    0.00  8812.00     0.00     8.00     0.38    0.17    0.17    0.00   0.17  37.60
sdb               0.00     0.00 2117.00    0.00  8468.00     0.00     8.00     0.29    0.14    0.14    0.00   0.14  29.20
sdd               0.00     0.00 2025.00    0.00  8100.00     0.00     8.00     0.28    0.14    0.14    0.00   0.14  28.30
md0               0.00     0.00 6345.00    0.00 25380.00     0.00     8.00     0.00    0.00    0.00    0.00   0.00   0.00

avg-cpu:  %user   %nice %system %iowait  %steal   %idle
           3.13    0.00    0.22    0.31    0.00   96.34

Device:         rrqm/s   wrqm/s     r/s     w/s    rkB/s    wkB/s avgrq-sz avgqu-sz   await r_await w_await  svctm  %util
nvme0n1           0.00     0.00    0.00    0.00     0.00     0.00     0.00     0.00    0.00    0.00    0.00   0.00   0.00
sda               0.00     0.00    0.00    0.00     0.00     0.00     0.00     0.00    0.00    0.00    0.00   0.00   0.00
sdc               0.00     0.00 2217.00    0.00  8868.00     0.00     8.00     0.32    0.14    0.14    0.00   0.14  31.50
sdb               0.00     0.00 2192.00    0.00  8768.00     0.00     8.00     0.32    0.14    0.14    0.00   0.14  31.70
sdd               0.00     0.00 2278.00    0.00  9112.00     0.00     8.00     0.33    0.14    0.14    0.00   0.14  32.50
md0               0.00     0.00 6687.00    0.00 26748.00     0.00     8.00     0.00    0.00    0.00    0.00   0.00   0.00

avg-cpu:  %user   %nice %system %iowait  %steal   %idle
           3.07    0.00    0.19    0.31    0.00   96.43

Device:         rrqm/s   wrqm/s     r/s     w/s    rkB/s    wkB/s avgrq-sz avgqu-sz   await r_await w_await  svctm  %util
nvme0n1           0.00     0.00    0.00    0.00     0.00     0.00     0.00     0.00    0.00    0.00    0.00   0.00   0.00
sda               0.00     7.00    0.00    2.00     0.00    36.00    36.00     0.00    0.00    0.00    0.00   0.00   0.00
sdc               0.00     0.00 2238.00    0.00  8952.00     0.00     8.00     0.32    0.14    0.14    0.00   0.14  31.50
sdb               0.00     0.00 2249.00    0.00  8996.00     0.00     8.00     0.33    0.14    0.14    0.00   0.14  32.50
sdd               0.00     0.00 2242.00    0.00  8968.00     0.00     8.00     0.32    0.14    0.14    0.00   0.14  31.70
md0               0.00     0.00 6730.00    0.00 26920.00     0.00     8.00     0.00    0.00    0.00    0.00   0.00   0.00

avg-cpu:  %user   %nice %system %iowait  %steal   %idle
           3.10    0.00    0.22    0.28    0.00   96.40

Device:         rrqm/s   wrqm/s     r/s     w/s    rkB/s    wkB/s avgrq-sz avgqu-sz   await r_await w_await  svctm  %util
nvme0n1           0.00     0.00    0.00    0.00     0.00     0.00     0.00     0.00    0.00    0.00    0.00   0.00   0.00
sda               0.00     0.00    0.00    0.00     0.00     0.00     0.00     0.00    0.00    0.00    0.00   0.00   0.00
sdc               0.00     0.00 2324.00    0.00  9296.00     0.00     8.00     0.32    0.14    0.14    0.00   0.14  32.10
sdb               0.00     0.00 2167.00    0.00  8668.00     0.00     8.00     0.31    0.14    0.14    0.00   0.14  31.10
sdd               0.00     0.00 2260.00    0.00  9040.00     0.00     8.00     0.32    0.14    0.14    0.00   0.14  32.00
md0               0.00     0.00 6750.00    0.00 27000.00     0.00     8.00     0.00    0.00    0.00    0.00   0.00   0.00

avg-cpu:  %user   %nice %system %iowait  %steal   %idle
           3.13    0.00    0.22    0.31    0.00   96.34

Device:         rrqm/s   wrqm/s     r/s     w/s    rkB/s    wkB/s avgrq-sz avgqu-sz   await r_await w_await  svctm  %util
nvme0n1           0.00     0.00    0.00    0.00     0.00     0.00     0.00     0.00    0.00    0.00    0.00   0.00   0.00
sda               0.00     0.00    0.00    0.00     0.00     0.00     0.00     0.00    0.00    0.00    0.00   0.00   0.00
sdc               0.00     0.00 2142.00    0.00  8568.00     0.00     8.00     0.30    0.14    0.14    0.00   0.14  30.30
sdb               0.00     0.00 2233.00    0.00  8932.00     0.00     8.00     0.32    0.14    0.14    0.00   0.14  32.10
sdd               0.00     0.00 2318.00    0.00  9272.00     0.00     8.00     0.34    0.15    0.15    0.00   0.15  33.90
md0               0.00     0.00 6693.00    0.00 26772.00     0.00     8.00     0.00    0.00    0.00    0.00   0.00   0.00

avg-cpu:  %user   %nice %system %iowait  %steal   %idle
           3.07    0.00    0.16    0.28    0.00   96.49

Device:         rrqm/s   wrqm/s     r/s     w/s    rkB/s    wkB/s avgrq-sz avgqu-sz   await r_await w_await  svctm  %util
nvme0n1           0.00     0.00    0.00    0.00     0.00     0.00     0.00     0.00    0.00    0.00    0.00   0.00   0.00
sda               0.00     0.00    0.00    0.00     0.00     0.00     0.00     0.00    0.00    0.00    0.00   0.00   0.00
sdc               0.00     0.00 2208.00    0.00  8832.00     0.00     8.00     0.31    0.14    0.14    0.00   0.14  31.20
sdb               0.00     0.00 2183.00    0.00  8732.00     0.00     8.00     0.30    0.14    0.14    0.00   0.14  30.40
sdd               0.00     0.00 2318.00    0.00  9272.00     0.00     8.00     0.34    0.15    0.15    0.00   0.15  34.10
md0               0.00     0.00 6709.00    0.00 26836.00     0.00     8.00     0.00    0.00    0.00    0.00   0.00   0.00

avg-cpu:  %user   %nice %system %iowait  %steal   %idle
           3.10    0.00    0.25    0.31    0.00   96.34

Device:         rrqm/s   wrqm/s     r/s     w/s    rkB/s    wkB/s avgrq-sz avgqu-sz   await r_await w_await  svctm  %util
nvme0n1           0.00     0.00    0.00    0.00     0.00     0.00     0.00     0.00    0.00    0.00    0.00   0.00   0.00
sda               0.00     0.00    0.00    0.00     0.00     0.00     0.00     0.00    0.00    0.00    0.00   0.00   0.00
sdc               0.00     0.00 2215.00    0.00  8860.00     0.00     8.00     0.32    0.14    0.14    0.00   0.14  31.60
sdb               0.00     0.00 2288.00    0.00  9152.00     0.00     8.00     0.33    0.14    0.14    0.00   0.14  32.80
sdd               0.00     0.00 2219.00    0.00  8876.00     0.00     8.00     0.31    0.14    0.14    0.00   0.14  31.30
md0               0.00     0.00 6722.00    0.00 26888.00     0.00     8.00     0.00    0.00    0.00    0.00   0.00   0.00

