Linux 4.17.2 (bench2) 	08/03/2018 	_x86_64_	(32 CPU)

avg-cpu:  %user   %nice %system %iowait  %steal   %idle
           1.90    0.00    1.55    1.58    0.00   94.96

Device:         rrqm/s   wrqm/s     r/s     w/s    rkB/s    wkB/s avgrq-sz avgqu-sz   await r_await w_await  svctm  %util
nvme0n1         937.56     5.09 18900.82  520.40 105723.33 11736.53    12.10     1.35    0.05    0.03    0.67   0.02  39.57
sda               0.12     0.82   14.16    0.58   163.98     8.53    23.41     0.00    0.33    0.32    0.44   0.07   0.10
sdc              34.15     0.17  118.48    0.31  1791.14    97.42    31.80     0.07    0.57   12.52  380.35   0.91  10.86
sdb              32.11     0.19  120.47    0.33  1789.20    97.25    31.23     0.50    4.15    3.03  411.64   0.85  10.32
sdd              34.35     0.17  118.02    0.26  1787.14    96.92    31.86     0.82    6.90    4.91  907.87   0.92  10.86
md0               0.00     0.00  460.42    1.21  6652.54   351.61    30.35     0.00    0.00    0.00    0.00   0.00   0.00

avg-cpu:  %user   %nice %system %iowait  %steal   %idle
           3.07    0.00    0.38    0.25    0.00   96.30

Device:         rrqm/s   wrqm/s     r/s     w/s    rkB/s    wkB/s avgrq-sz avgqu-sz   await r_await w_await  svctm  %util
nvme0n1           0.00     0.00    0.00    0.00     0.00     0.00     0.00     0.00    0.00    0.00    0.00   0.00   0.00
sda               0.00     0.00    4.00    0.00    56.00     0.00    28.00     0.00    0.00    0.00    0.00   0.00   0.00
sdc               0.00     0.00 2086.00    0.00  8344.00     0.00     8.00     0.29    0.14    0.14    0.00   0.14  29.10
sdb               0.00     0.00 2030.00    0.00  8120.00     0.00     8.00     0.30    0.15    0.15    0.00   0.15  29.60
sdd               0.00     0.00 2209.00    0.00  8836.00     0.00     8.00     0.32    0.14    0.14    0.00   0.14  31.90
md0               0.00     0.00 6326.00    0.00 25304.00     0.00     8.00     0.00    0.00    0.00    0.00   0.00   0.00

avg-cpu:  %user   %nice %system %iowait  %steal   %idle
           3.07    0.00    0.28    0.22    0.00   96.43

Device:         rrqm/s   wrqm/s     r/s     w/s    rkB/s    wkB/s avgrq-sz avgqu-sz   await r_await w_await  svctm  %util
nvme0n1           0.00     0.00    0.00    0.00     0.00     0.00     0.00     0.00    0.00    0.00    0.00   0.00   0.00
sda               0.00    16.00    0.00    2.00     0.00    72.00    72.00     0.00    0.00    0.00    0.00   0.00   0.00
sdc               0.00     0.00 2087.00    0.00  8348.00     0.00     8.00     0.29    0.14    0.14    0.00   0.14  29.30
sdb               0.00     0.00 2275.00    0.00  9100.00     0.00     8.00     0.31    0.14    0.14    0.00   0.14  31.00
sdd               0.00     0.00 2220.00    0.00  8880.00     0.00     8.00     0.32    0.15    0.15    0.00   0.15  32.20
md0               0.00     0.00 6582.00    0.00 26328.00     0.00     8.00     0.00    0.00    0.00    0.00   0.00   0.00

avg-cpu:  %user   %nice %system %iowait  %steal   %idle
           3.10    0.00    0.38    0.19    0.00   96.34

Device:         rrqm/s   wrqm/s     r/s     w/s    rkB/s    wkB/s avgrq-sz avgqu-sz   await r_await w_await  svctm  %util
nvme0n1           0.00     0.00    0.00    0.00     0.00     0.00     0.00     0.00    0.00    0.00    0.00   0.00   0.00
sda               0.00     0.00    0.00    0.00     0.00     0.00     0.00     0.00    0.00    0.00    0.00   0.00   0.00
sdc               0.00     0.00 2220.00    0.00  8880.00     0.00     8.00     0.31    0.14    0.14    0.00   0.14  31.30
sdb               0.00     0.00 2070.00    0.00  8280.00     0.00     8.00     0.29    0.14    0.14    0.00   0.14  29.40
sdd               0.00     0.00 2128.00    0.00  8512.00     0.00     8.00     0.31    0.14    0.14    0.00   0.14  30.70
md0               0.00     0.00 6418.00    0.00 25672.00     0.00     8.00     0.00    0.00    0.00    0.00   0.00   0.00

avg-cpu:  %user   %nice %system %iowait  %steal   %idle
           3.07    0.00    0.25    0.22    0.00   96.46

Device:         rrqm/s   wrqm/s     r/s     w/s    rkB/s    wkB/s avgrq-sz avgqu-sz   await r_await w_await  svctm  %util
nvme0n1           0.00     0.00    0.00    0.00     0.00     0.00     0.00     0.00    0.00    0.00    0.00   0.00   0.00
sda               0.00     0.00    0.00    0.00     0.00     0.00     0.00     0.00    0.00    0.00    0.00   0.00   0.00
sdc               0.00     0.00 2178.00    0.00  8712.00     0.00     8.00     0.31    0.14    0.14    0.00   0.14  30.90
sdb               0.00     0.00 2151.00    0.00  8604.00     0.00     8.00     0.30    0.14    0.14    0.00   0.14  30.40
sdd               0.00     0.00 2235.00    0.00  8940.00     0.00     8.00     0.32    0.14    0.14    0.00   0.14  32.00
md0               0.00     0.00 6564.00    0.00 26256.00     0.00     8.00     0.00    0.00    0.00    0.00   0.00   0.00

avg-cpu:  %user   %nice %system %iowait  %steal   %idle
           3.10    0.00    0.38    0.19    0.00   96.34

Device:         rrqm/s   wrqm/s     r/s     w/s    rkB/s    wkB/s avgrq-sz avgqu-sz   await r_await w_await  svctm  %util
nvme0n1           0.00     0.00    0.00    0.00     0.00     0.00     0.00     0.00    0.00    0.00    0.00   0.00   0.00
sda               0.00     1.00    0.00    1.00     0.00    32.00    64.00     0.00    0.00    0.00    0.00   0.00   0.00
sdc               0.00     0.00 2192.00    0.00  8768.00     0.00     8.00     0.31    0.14    0.14    0.00   0.14  30.60
sdb               0.00     0.00 2192.00    0.00  8768.00     0.00     8.00     0.30    0.14    0.14    0.00   0.14  30.40
sdd               0.00     0.00 2249.00    0.00  8996.00     0.00     8.00     0.31    0.14    0.14    0.00   0.14  31.00
md0               0.00     0.00 6633.00    0.00 26532.00     0.00     8.00     0.00    0.00    0.00    0.00   0.00   0.00

avg-cpu:  %user   %nice %system %iowait  %steal   %idle
           3.07    0.00    0.41    0.22    0.00   96.31

Device:         rrqm/s   wrqm/s     r/s     w/s    rkB/s    wkB/s avgrq-sz avgqu-sz   await r_await w_await  svctm  %util
nvme0n1           0.00     0.00    0.00    0.00     0.00     0.00     0.00     0.00    0.00    0.00    0.00   0.00   0.00
sda               0.00     0.00    0.00    0.00     0.00     0.00     0.00     0.00    0.00    0.00    0.00   0.00   0.00
sdc               0.00     0.00 2202.00    0.00  8808.00     0.00     8.00     0.30    0.14    0.14    0.00   0.14  30.50
sdb               0.00     0.00 2202.00    0.00  8808.00     0.00     8.00     0.31    0.14    0.14    0.00   0.14  30.70
sdd               0.00     0.00 2206.00    0.00  8824.00     0.00     8.00     0.30    0.14    0.14    0.00   0.14  30.20
md0               0.00     0.00 6611.00    0.00 26444.00     0.00     8.00     0.00    0.00    0.00    0.00   0.00   0.00

avg-cpu:  %user   %nice %system %iowait  %steal   %idle
           3.07    0.00    0.28    0.19    0.00   96.46

Device:         rrqm/s   wrqm/s     r/s     w/s    rkB/s    wkB/s avgrq-sz avgqu-sz   await r_await w_await  svctm  %util
nvme0n1           0.00     0.00    0.00    0.00     0.00     0.00     0.00     0.00    0.00    0.00    0.00   0.00   0.00
sda               0.00     5.00    0.00    2.00     0.00    28.00    28.00     0.00    0.00    0.00    0.00   0.00   0.00
sdc               0.00     0.00 2026.00    0.00  8104.00     0.00     8.00     0.36    0.18    0.18    0.00   0.18  35.90
sdb               0.00     0.00 2082.00    0.00  8328.00     0.00     8.00     0.28    0.13    0.13    0.00   0.13  27.90
sdd               0.00     0.00 2112.00    0.00  8448.00     0.00     8.00     0.30    0.14    0.14    0.00   0.14  29.70
md0               0.00     0.00 6219.00    0.00 24876.00     0.00     8.00     0.00    0.00    0.00    0.00   0.00   0.00

avg-cpu:  %user   %nice %system %iowait  %steal   %idle
           3.10    0.00    0.34    0.19    0.00   96.37

Device:         rrqm/s   wrqm/s     r/s     w/s    rkB/s    wkB/s avgrq-sz avgqu-sz   await r_await w_await  svctm  %util
nvme0n1           0.00     0.00    0.00    0.00     0.00     0.00     0.00     0.00    0.00    0.00    0.00   0.00   0.00
sda               0.00     0.00    0.00    0.00     0.00     0.00     0.00     0.00    0.00    0.00    0.00   0.00   0.00
sdc               0.00     0.00 2152.00    0.00  8608.00     0.00     8.00     0.31    0.14    0.14    0.00   0.14  31.00
sdb               0.00     0.00 2182.00    0.00  8728.00     0.00     8.00     0.29    0.13    0.13    0.00   0.13  28.70
sdd               0.00     0.00 2308.00    0.00  9232.00     0.00     8.00     0.33    0.14    0.14    0.00   0.14  32.60
md0               0.00     0.00 6642.00    0.00 26568.00     0.00     8.00     0.00    0.00    0.00    0.00   0.00   0.00

avg-cpu:  %user   %nice %system %iowait  %steal   %idle
           3.07    0.00    0.31    0.22    0.00   96.40

Device:         rrqm/s   wrqm/s     r/s     w/s    rkB/s    wkB/s avgrq-sz avgqu-sz   await r_await w_await  svctm  %util
nvme0n1           0.00     0.00    0.00    0.00     0.00     0.00     0.00     0.00    0.00    0.00    0.00   0.00   0.00
sda               0.00     0.00    0.00    0.00     0.00     0.00     0.00     0.00    0.00    0.00    0.00   0.00   0.00
sdc               0.00     0.00 2095.00    0.00  8380.00     0.00     8.00     0.38    0.18    0.18    0.00   0.18  38.20
sdb               0.00     0.00 1913.00    0.00  7652.00     0.00     8.00     0.26    0.14    0.14    0.00   0.14  26.30
sdd               0.00     0.00 2006.00    0.00  8024.00     0.00     8.00     0.28    0.14    0.14    0.00   0.14  28.20
md0               0.00     0.00 6014.00    0.00 24056.00     0.00     8.00     0.00    0.00    0.00    0.00   0.00   0.00

avg-cpu:  %user   %nice %system %iowait  %steal   %idle
           3.07    0.00    0.34    0.22    0.00   96.37

Device:         rrqm/s   wrqm/s     r/s     w/s    rkB/s    wkB/s avgrq-sz avgqu-sz   await r_await w_await  svctm  %util
nvme0n1           0.00     0.00    0.00    0.00     0.00     0.00     0.00     0.00    0.00    0.00    0.00   0.00   0.00
sda               0.00     2.00    0.00   20.00     0.00    88.00     8.80     0.00    0.00    0.00    0.00   0.00   0.00
sdc               0.00     0.00 2178.00    0.00  8712.00     0.00     8.00     0.32    0.15    0.15    0.00   0.14  31.50
sdb               0.00     0.00 2187.00    0.00  8748.00     0.00     8.00     0.30    0.14    0.14    0.00   0.14  30.40
sdd               0.00     0.00 2197.00    0.00  8788.00     0.00     8.00     0.30    0.14    0.14    0.00   0.14  30.10
md0               0.00     0.00 6563.00    0.00 26252.00     0.00     8.00     0.00    0.00    0.00    0.00   0.00   0.00

avg-cpu:  %user   %nice %system %iowait  %steal   %idle
           3.07    0.00    0.34    0.22    0.00   96.37

Device:         rrqm/s   wrqm/s     r/s     w/s    rkB/s    wkB/s avgrq-sz avgqu-sz   await r_await w_await  svctm  %util
nvme0n1           0.00     0.00    0.00    0.00     0.00     0.00     0.00     0.00    0.00    0.00    0.00   0.00   0.00
sda               0.00     0.00    0.00    0.00     0.00     0.00     0.00     0.00    0.00    0.00    0.00   0.00   0.00
sdc               0.00     0.00 2006.00    0.00  8024.00     0.00     8.00     0.37    0.18    0.18    0.00   0.18  36.90
sdb               0.00     0.00 2042.00    0.00  8168.00     0.00     8.00     0.26    0.13    0.13    0.00   0.13  26.00
sdd               0.00     0.00 2084.00    0.00  8336.00     0.00     8.00     0.30    0.14    0.14    0.00   0.14  29.60
md0               0.00     0.00 6131.00    0.00 24524.00     0.00     8.00     0.00    0.00    0.00    0.00   0.00   0.00

avg-cpu:  %user   %nice %system %iowait  %steal   %idle
           3.10    0.00    0.31    0.22    0.00   96.36

Device:         rrqm/s   wrqm/s     r/s     w/s    rkB/s    wkB/s avgrq-sz avgqu-sz   await r_await w_await  svctm  %util
nvme0n1           0.00     0.00    0.00    0.00     0.00     0.00     0.00     0.00    0.00    0.00    0.00   0.00   0.00
sda               0.00     1.00    0.00    2.00     0.00    12.00    12.00     0.00    0.00    0.00    0.00   0.00   0.00
sdc               0.00     0.00 2199.00    0.00  8796.00     0.00     8.00     0.31    0.14    0.14    0.00   0.14  31.10
sdb               0.00     0.00 2129.00    0.00  8516.00     0.00     8.00     0.30    0.14    0.14    0.00   0.14  30.00
sdd               0.00     0.00 2172.00    0.00  8688.00     0.00     8.00     0.30    0.14    0.14    0.00   0.14  30.50
md0               0.00     0.00 6500.00    0.00 26000.00     0.00     8.00     0.00    0.00    0.00    0.00   0.00   0.00

avg-cpu:  %user   %nice %system %iowait  %steal   %idle
           3.07    0.00    0.31    0.22    0.00   96.40

Device:         rrqm/s   wrqm/s     r/s     w/s    rkB/s    wkB/s avgrq-sz avgqu-sz   await r_await w_await  svctm  %util
nvme0n1           0.00     0.00    0.00    0.00     0.00     0.00     0.00     0.00    0.00    0.00    0.00   0.00   0.00
sda               0.00     0.00    0.00    0.00     0.00     0.00     0.00     0.00    0.00    0.00    0.00   0.00   0.00
sdc               0.00     0.00 1999.00    0.00  7996.00     0.00     8.00     0.36    0.18    0.18    0.00   0.18  35.70
sdb               0.00     0.00 2119.00    0.00  8476.00     0.00     8.00     0.30    0.14    0.14    0.00   0.14  30.10
sdd               0.00     0.00 1972.00    0.00  7888.00     0.00     8.00     0.27    0.14    0.14    0.00   0.14  27.10
md0               0.00     0.00 6090.00    0.00 24360.00     0.00     8.00     0.00    0.00    0.00    0.00   0.00   0.00

avg-cpu:  %user   %nice %system %iowait  %steal   %idle
           3.10    0.00    0.34    0.19    0.00   96.37

Device:         rrqm/s   wrqm/s     r/s     w/s    rkB/s    wkB/s avgrq-sz avgqu-sz   await r_await w_await  svctm  %util
nvme0n1           0.00     0.00    0.00    0.00     0.00     0.00     0.00     0.00    0.00    0.00    0.00   0.00   0.00
sda               0.00     0.00    0.00    0.00     0.00     0.00     0.00     0.00    0.00    0.00    0.00   0.00   0.00
sdc               0.00     0.00 2148.00    0.00  8592.00     0.00     8.00     0.30    0.14    0.14    0.00   0.14  29.60
sdb               0.00     0.00 2287.00    0.00  9148.00     0.00     8.00     0.31    0.14    0.14    0.00   0.14  31.30
sdd               0.00     0.00 2194.00    0.00  8776.00     0.00     8.00     0.31    0.14    0.14    0.00   0.14  30.80
md0               0.00     0.00 6629.00    0.00 26516.00     0.00     8.00     0.00    0.00    0.00    0.00   0.00   0.00

avg-cpu:  %user   %nice %system %iowait  %steal   %idle
           3.04    0.00    0.41    0.22    0.00   96.34

Device:         rrqm/s   wrqm/s     r/s     w/s    rkB/s    wkB/s avgrq-sz avgqu-sz   await r_await w_await  svctm  %util
nvme0n1           0.00     0.00    0.00    0.00     0.00     0.00     0.00     0.00    0.00    0.00    0.00   0.00   0.00
sda               0.00     3.00    0.00    3.00     0.00    40.00    26.67     0.00    0.00    0.00    0.00   0.00   0.00
sdc               0.00     0.00 2068.00    0.00  8272.00     0.00     8.00     0.34    0.16    0.16    0.00   0.16  34.10
sdb               0.00     0.00 2152.00    0.00  8608.00     0.00     8.00     0.29    0.13    0.13    0.00   0.13  29.00
sdd               0.00     0.00 1999.00    0.00  7996.00     0.00     8.00     0.28    0.14    0.14    0.00   0.14  27.50
md0               0.00     0.00 6219.00    0.00 24876.00     0.00     8.00     0.00    0.00    0.00    0.00   0.00   0.00

avg-cpu:  %user   %nice %system %iowait  %steal   %idle
           3.07    0.00    0.38    0.19    0.00   96.36

Device:         rrqm/s   wrqm/s     r/s     w/s    rkB/s    wkB/s avgrq-sz avgqu-sz   await r_await w_await  svctm  %util
nvme0n1           0.00     0.00    0.00    0.00     0.00     0.00     0.00     0.00    0.00    0.00    0.00   0.00   0.00
sda               0.00     0.00    0.00    0.00     0.00     0.00     0.00     0.00    0.00    0.00    0.00   0.00   0.00
sdc               0.00     0.00 2165.00    0.00  8660.00     0.00     8.00     0.30    0.14    0.14    0.00   0.14  29.80
sdb               0.00     0.00 2225.00    0.00  8900.00     0.00     8.00     0.30    0.13    0.13    0.00   0.13  30.00
sdd               0.00     0.00 2219.00    0.00  8876.00     0.00     8.00     0.30    0.14    0.14    0.00   0.13  29.90
md0               0.00     0.00 6610.00    0.00 26440.00     0.00     8.00     0.00    0.00    0.00    0.00   0.00   0.00

avg-cpu:  %user   %nice %system %iowait  %steal   %idle
           3.07    0.00    0.31    0.22    0.00   96.40

Device:         rrqm/s   wrqm/s     r/s     w/s    rkB/s    wkB/s avgrq-sz avgqu-sz   await r_await w_await  svctm  %util
nvme0n1           0.00     0.00    0.00    0.00     0.00     0.00     0.00     0.00    0.00    0.00    0.00   0.00   0.00
sda               0.00     7.00    0.00    2.00     0.00    36.00    36.00     0.00    0.00    0.00    0.00   0.00   0.00
sdc               0.00     0.00 2231.00    0.00  8924.00     0.00     8.00     0.31    0.14    0.14    0.00   0.14  31.10
sdb               0.00     0.00 2193.00    0.00  8772.00     0.00     8.00     0.30    0.14    0.14    0.00   0.14  30.00
sdd               0.00     0.00 2236.00    0.00  8944.00     0.00     8.00     0.31    0.14    0.14    0.00   0.14  31.00
md0               0.00     0.00 6659.00    0.00 26636.00     0.00     8.00     0.00    0.00    0.00    0.00   0.00   0.00

avg-cpu:  %user   %nice %system %iowait  %steal   %idle
           3.07    0.00    0.31    0.19    0.00   96.43

Device:         rrqm/s   wrqm/s     r/s     w/s    rkB/s    wkB/s avgrq-sz avgqu-sz   await r_await w_await  svctm  %util
nvme0n1           0.00     0.00    0.00    0.00     0.00     0.00     0.00     0.00    0.00    0.00    0.00   0.00   0.00
sda               0.00     0.00    0.00    0.00     0.00     0.00     0.00     0.00    0.00    0.00    0.00   0.00   0.00
sdc               0.00     0.00 2238.00    0.00  8952.00     0.00     8.00     0.31    0.14    0.14    0.00   0.14  31.40
sdb               0.00     0.00 2277.00    0.00  9108.00     0.00     8.00     0.31    0.14    0.14    0.00   0.13  30.60
sdd               0.00     0.00 2136.00    0.00  8544.00     0.00     8.00     0.31    0.14    0.14    0.00   0.14  30.80
md0               0.00     0.00 6651.00    0.00 26604.00     0.00     8.00     0.00    0.00    0.00    0.00   0.00   0.00

avg-cpu:  %user   %nice %system %iowait  %steal   %idle
           3.07    0.00    0.41    0.22    0.00   96.31

Device:         rrqm/s   wrqm/s     r/s     w/s    rkB/s    wkB/s avgrq-sz avgqu-sz   await r_await w_await  svctm  %util
nvme0n1           0.00     0.00    0.00    0.00     0.00     0.00     0.00     0.00    0.00    0.00    0.00   0.00   0.00
sda               0.00     0.00    0.00    0.00     0.00     0.00     0.00     0.00    0.00    0.00    0.00   0.00   0.00
sdc               0.00     0.00 2192.00    0.00  8768.00     0.00     8.00     0.29    0.13    0.13    0.00   0.13  29.20
sdb               0.00     0.00 2092.00    0.00  8368.00     0.00     8.00     0.29    0.14    0.14    0.00   0.14  29.30
sdd               0.00     0.00 2329.00    0.00  9316.00     0.00     8.00     0.32    0.14    0.14    0.00   0.14  31.50
md0               0.00     0.00 6613.00    0.00 26452.00     0.00     8.00     0.00    0.00    0.00    0.00   0.00   0.00

avg-cpu:  %user   %nice %system %iowait  %steal   %idle
           3.07    0.00    0.34    0.22    0.00   96.36

Device:         rrqm/s   wrqm/s     r/s     w/s    rkB/s    wkB/s avgrq-sz avgqu-sz   await r_await w_await  svctm  %util
nvme0n1           0.00     0.00    0.00    0.00     0.00     0.00     0.00     0.00    0.00    0.00    0.00   0.00   0.00
sda               0.00     0.00    0.00    0.00     0.00     0.00     0.00     0.00    0.00    0.00    0.00   0.00   0.00
sdc               0.00     0.00 2158.00    0.00  8632.00     0.00     8.00     0.31    0.15    0.15    0.00   0.15  31.30
sdb               0.00     0.00 2217.00    0.00  8868.00     0.00     8.00     0.32    0.14    0.14    0.00   0.14  31.80
sdd               0.00     0.00 2108.00    0.00  8432.00     0.00     8.00     0.28    0.13    0.13    0.00   0.13  28.20
md0               0.00     0.00 6483.00    0.00 25932.00     0.00     8.00     0.00    0.00    0.00    0.00   0.00   0.00

