Linux 4.17.2 (bench2) 	08/03/2018 	_x86_64_	(32 CPU)

avg-cpu:  %user   %nice %system %iowait  %steal   %idle
           1.90    0.00    1.55    1.59    0.00   94.96

Device:         rrqm/s   wrqm/s     r/s     w/s    rkB/s    wkB/s avgrq-sz avgqu-sz   await r_await w_await  svctm  %util
nvme0n1         933.74     5.07 18823.89  518.28 105293.00 11688.76    12.10     1.34    0.05    0.03    0.67   0.02  39.41
sda               0.12     0.82   14.17    0.58   163.99     8.53    23.40     0.00    0.33    0.32    0.44   0.07   0.10
sdc              34.31     0.17  121.15    0.31  1827.14    97.03    31.68     0.09    0.74   12.38  380.35   0.91  11.02
sdb              32.28     0.19  123.14    0.33  1825.17    96.85    31.13     0.52    4.22    3.13  411.64   0.85  10.47
sdd              34.50     0.17  120.70    0.26  1823.18    96.53    31.74     0.84    6.90    4.96  907.87   0.91  11.02
md0               0.00     0.00  468.91    1.20  6791.44   350.18    30.38     0.00    0.00    0.00    0.00   0.00   0.00

avg-cpu:  %user   %nice %system %iowait  %steal   %idle
           3.10    0.00    0.03    0.03    0.00   96.84

Device:         rrqm/s   wrqm/s     r/s     w/s    rkB/s    wkB/s avgrq-sz avgqu-sz   await r_await w_await  svctm  %util
nvme0n1           0.00     0.00    0.00    0.00     0.00     0.00     0.00     0.00    0.00    0.00    0.00   0.00   0.00
sda               0.00     0.00    1.00    0.00     8.00     0.00    16.00     0.00    1.00    1.00    0.00   1.00   0.10
sdc               0.00     0.00  152.00    0.00   644.00     0.00     8.47     0.19    1.27    1.27    0.00   1.27  19.30
sdb               0.00     0.00  149.00    0.00   728.00     0.00     9.77     0.36    2.45    2.45    0.00   2.45  36.50
sdd               0.00     0.00  142.00    0.00   628.00     0.00     8.85     0.42    2.95    2.95    0.00   2.96  42.10
md0               0.00     0.00  444.00    0.00  2004.00     0.00     9.03     0.00    0.00    0.00    0.00   0.00   0.00

avg-cpu:  %user   %nice %system %iowait  %steal   %idle
           3.12    0.00    0.06    0.00    0.00   96.81

Device:         rrqm/s   wrqm/s     r/s     w/s    rkB/s    wkB/s avgrq-sz avgqu-sz   await r_await w_await  svctm  %util
nvme0n1           0.00     0.00    0.00    0.00     0.00     0.00     0.00     0.00    0.00    0.00    0.00   0.00   0.00
sda               0.00     0.00    0.00    0.00     0.00     0.00     0.00     0.00    0.00    0.00    0.00   0.00   0.00
sdc               0.00     0.00  167.00    0.00   700.00     0.00     8.38     0.33    1.97    1.97    0.00   1.99  33.30
sdb               0.00     0.00  139.00    0.00   748.00     0.00    10.76     0.25    1.81    1.81    0.00   1.81  25.20
sdd               0.00     0.00  157.00    0.00   640.00     0.00     8.15     0.39    2.51    2.51    0.00   2.50  39.20
md0               0.00     0.00  463.00    0.00  2100.00     0.00     9.07     0.00    0.00    0.00    0.00   0.00   0.00

avg-cpu:  %user   %nice %system %iowait  %steal   %idle
           3.12    0.00    0.03    0.03    0.00   96.81

Device:         rrqm/s   wrqm/s     r/s     w/s    rkB/s    wkB/s avgrq-sz avgqu-sz   await r_await w_await  svctm  %util
nvme0n1           0.00     0.00    0.00    0.00     0.00     0.00     0.00     0.00    0.00    0.00    0.00   0.00   0.00
sda               0.00     0.00    0.00    0.00     0.00     0.00     0.00     0.00    0.00    0.00    0.00   0.00   0.00
sdc               0.00     0.00  140.00    0.00   560.00     0.00     8.00     0.33    2.34    2.34    0.00   2.34  32.80
sdb               0.00     0.00  141.00    0.00   576.00     0.00     8.17     0.32    2.27    2.27    0.00   2.27  32.00
sdd               0.00     0.00  135.00    0.00   636.00     0.00     9.42     0.33    2.44    2.44    0.00   2.44  32.90
md0               0.00     0.00  416.00    0.00  1772.00     0.00     8.52     0.00    0.00    0.00    0.00   0.00   0.00

avg-cpu:  %user   %nice %system %iowait  %steal   %idle
           3.12    0.00    0.06    0.00    0.00   96.81

Device:         rrqm/s   wrqm/s     r/s     w/s    rkB/s    wkB/s avgrq-sz avgqu-sz   await r_await w_await  svctm  %util
nvme0n1           0.00     0.00    0.00    0.00     0.00     0.00     0.00     0.00    0.00    0.00    0.00   0.00   0.00
sda               0.00     0.00    0.00    0.00     0.00     0.00     0.00     0.00    0.00    0.00    0.00   0.00   0.00
sdc               0.00     0.00  158.00    0.00   656.00     0.00     8.30     0.32    2.08    2.08    0.00   2.05  32.40
sdb               0.00     0.00  138.00    0.00   576.00     0.00     8.35     0.33    2.35    2.35    0.00   2.36  32.50
sdd               0.00     0.00  150.00    0.00   624.00     0.00     8.32     0.33    2.19    2.19    0.00   2.19  32.90
md0               0.00     0.00  446.00    0.00  1856.00     0.00     8.32     0.00    0.00    0.00    0.00   0.00   0.00

