Linux 4.17.2 (bench2) 	08/03/2018 	_x86_64_	(32 CPU)

avg-cpu:  %user   %nice %system %iowait  %steal   %idle
           1.90    0.00    1.55    1.58    0.00   94.97

Device:         rrqm/s   wrqm/s     r/s     w/s    rkB/s    wkB/s avgrq-sz avgqu-sz   await r_await w_await  svctm  %util
nvme0n1         938.16     5.10 18912.91  520.73 105790.94 11744.04    12.10     1.35    0.05    0.03    0.67   0.02  39.59
sda               0.12     0.82   14.16    0.58   163.96     8.53    23.41     0.00    0.33    0.32    0.44   0.07   0.10
sdc              33.95     0.17  118.06    0.31  1782.27    97.49    31.76     0.06    0.52   12.52  380.35   0.91  10.83
sdb              31.91     0.19  120.06    0.33  1780.35    97.31    31.19     0.50    4.11    2.99  411.64   0.85  10.29
sdd              34.15     0.17  117.60    0.26  1778.27    96.98    31.82     0.81    6.87    4.87  907.87   0.92  10.83
md0               0.00     0.00  458.57    1.21  6617.78   351.83    30.32     0.00    0.00    0.00    0.00   0.00   0.00

avg-cpu:  %user   %nice %system %iowait  %steal   %idle
           3.01    0.00    0.31    1.28    0.00   95.40

Device:         rrqm/s   wrqm/s     r/s     w/s    rkB/s    wkB/s avgrq-sz avgqu-sz   await r_await w_await  svctm  %util
nvme0n1           0.00     0.00    0.00    0.00     0.00     0.00     0.00     0.00    0.00    0.00    0.00   0.00   0.00
sda               0.00     0.00    1.00    0.00     8.00     0.00    16.00     0.00    0.00    0.00    0.00   0.00   0.00
sdc              10.00     0.00 1619.00    0.00 19872.00     0.00    24.55     0.29    0.18    0.18    0.00   0.16  25.10
sdb               9.00     0.00 1595.00    0.00 20992.00     0.00    26.32     0.34    0.22    0.22    0.00   0.19  30.10
sdd              13.00     0.00 1534.00    0.00 19036.00     0.00    24.82     0.47    0.31    0.31    0.00   0.30  46.10
md0               0.00     0.00 4782.00    0.00 70192.00     0.00    29.36     0.00    0.00    0.00    0.00   0.00   0.00

avg-cpu:  %user   %nice %system %iowait  %steal   %idle
           3.04    0.00    0.34    0.44    0.00   96.18

Device:         rrqm/s   wrqm/s     r/s     w/s    rkB/s    wkB/s avgrq-sz avgqu-sz   await r_await w_await  svctm  %util
nvme0n1           0.00     0.00    0.00    0.00     0.00     0.00     0.00     0.00    0.00    0.00    0.00   0.00   0.00
sda               0.00    10.00    0.00    2.00     0.00    48.00    48.00     0.00    0.00    0.00    0.00   0.00   0.00
sdc              18.00     0.00 1593.00    0.00 26136.00     0.00    32.81     0.30    0.19    0.19    0.00   0.17  27.70
sdb              14.00     0.00 1577.00    0.00 22480.00     0.00    28.51     0.50    0.32    0.32    0.00   0.29  45.80
sdd              14.00     0.00 1595.00    0.00 21888.00     0.00    27.45     0.32    0.20    0.20    0.00   0.19  29.60
md0               0.00     0.00 4810.00    0.00 89560.00     0.00    37.24     0.00    0.00    0.00    0.00   0.00   0.00

