Linux 4.17.2 (bench2) 	08/03/2018 	_x86_64_	(32 CPU)

avg-cpu:  %user   %nice %system %iowait  %steal   %idle
           1.90    0.00    1.55    1.58    0.00   94.96

Device:         rrqm/s   wrqm/s     r/s     w/s    rkB/s    wkB/s avgrq-sz avgqu-sz   await r_await w_await  svctm  %util
nvme0n1         936.82     5.09 18886.01  519.99 105640.47 11727.34    12.10     1.34    0.05    0.03    0.67   0.02  39.54
sda               0.12     0.82   14.16    0.58   163.99     8.53    23.41     0.00    0.33    0.32    0.44   0.07   0.10
sdc              34.22     0.17  119.07    0.31  1792.86    97.35    31.67     0.07    0.58   12.46  380.35   0.91  10.88
sdb              32.18     0.19  121.07    0.33  1790.92    97.17    31.11     0.50    4.14    3.02  411.64   0.85  10.34
sdd              34.42     0.17  118.61    0.26  1788.87    96.85    31.73     0.82    6.87    4.89  907.87   0.92  10.88
md0               0.00     0.00  462.41    1.21  6656.71   351.33    30.23     0.00    0.00    0.00    0.00   0.00   0.00

avg-cpu:  %user   %nice %system %iowait  %steal   %idle
           3.10    0.00    0.19    0.50    0.00   96.22

Device:         rrqm/s   wrqm/s     r/s     w/s    rkB/s    wkB/s avgrq-sz avgqu-sz   await r_await w_await  svctm  %util
nvme0n1           0.00     0.00    0.00    0.00     0.00     0.00     0.00     0.00    0.00    0.00    0.00   0.00   0.00
sda               0.00     0.00   22.00    0.00   128.00     0.00    11.64     0.02    0.82    0.82    0.00   0.09   0.20
sdc               0.00     0.00 1448.00    0.00  5792.00     0.00     8.00     0.29    0.20    0.20    0.00   0.20  29.20
sdb               0.00     0.00 1538.00    0.00  6152.00     0.00     8.00     0.30    0.19    0.19    0.00   0.19  29.80
sdd               0.00     0.00 1503.00    0.00  6012.00     0.00     8.00     0.36    0.24    0.24    0.00   0.24  36.30
md0               0.00     0.00 4490.00    0.00 17960.00     0.00     8.00     0.00    0.00    0.00    0.00   0.00   0.00

avg-cpu:  %user   %nice %system %iowait  %steal   %idle
           3.10    0.00    0.19    0.41    0.00   96.31

Device:         rrqm/s   wrqm/s     r/s     w/s    rkB/s    wkB/s avgrq-sz avgqu-sz   await r_await w_await  svctm  %util
nvme0n1           0.00     0.00    0.00    0.00     0.00     0.00     0.00     0.00    0.00    0.00    0.00   0.00   0.00
sda               0.00    12.00    0.00    2.00     0.00    56.00    56.00     0.00    0.50    0.00    0.50   0.50   0.10
sdc               0.00     0.00 1425.00    0.00  5700.00     0.00     8.00     0.28    0.20    0.20    0.00   0.20  27.80
sdb               0.00     0.00 1476.00    0.00  5904.00     0.00     8.00     0.46    0.31    0.31    0.00   0.31  45.80
sdd               0.00     0.00 1452.00    0.00  5808.00     0.00     8.00     0.21    0.15    0.15    0.00   0.15  21.40
md0               0.00     0.00 4354.00    0.00 17416.00     0.00     8.00     0.00    0.00    0.00    0.00   0.00   0.00

avg-cpu:  %user   %nice %system %iowait  %steal   %idle
           3.07    0.00    0.19    0.44    0.00   96.31

Device:         rrqm/s   wrqm/s     r/s     w/s    rkB/s    wkB/s avgrq-sz avgqu-sz   await r_await w_await  svctm  %util
nvme0n1           0.00     0.00    0.00    0.00     0.00     0.00     0.00     0.00    0.00    0.00    0.00   0.00   0.00
sda               0.00     0.00    0.00    0.00     0.00     0.00     0.00     0.00    0.00    0.00    0.00   0.00   0.00
sdc               0.00     0.00 1709.00    0.00  6836.00     0.00     8.00     0.30    0.17    0.17    0.00   0.17  29.60
sdb               0.00     0.00 1585.00    0.00  6340.00     0.00     8.00     0.40    0.25    0.25    0.00   0.25  40.30
sdd               0.00     0.00 1563.00    0.00  6252.00     0.00     8.00     0.25    0.16    0.16    0.00   0.16  25.30
md0               0.00     0.00 4856.00    0.00 19424.00     0.00     8.00     0.00    0.00    0.00    0.00   0.00   0.00

avg-cpu:  %user   %nice %system %iowait  %steal   %idle
           3.07    0.00    0.19    0.47    0.00   96.28

Device:         rrqm/s   wrqm/s     r/s     w/s    rkB/s    wkB/s avgrq-sz avgqu-sz   await r_await w_await  svctm  %util
nvme0n1           0.00     0.00    0.00    0.00     0.00     0.00     0.00     0.00    0.00    0.00    0.00   0.00   0.00
sda               0.00     0.00    0.00    0.00     0.00     0.00     0.00     0.00    0.00    0.00    0.00   0.00   0.00
sdc               0.00     0.00 1552.00    0.00  6208.00     0.00     8.00     0.42    0.27    0.27    0.00   0.27  41.60
sdb               0.00     0.00 1563.00    0.00  6252.00     0.00     8.00     0.31    0.20    0.20    0.00   0.20  30.90
sdd               0.00     0.00 1420.00    0.00  5680.00     0.00     8.00     0.23    0.16    0.16    0.00   0.16  22.80
md0               0.00     0.00 4535.00    0.00 18140.00     0.00     8.00     0.00    0.00    0.00    0.00   0.00   0.00

avg-cpu:  %user   %nice %system %iowait  %steal   %idle
           3.13    0.00    0.19    0.41    0.00   96.28

Device:         rrqm/s   wrqm/s     r/s     w/s    rkB/s    wkB/s avgrq-sz avgqu-sz   await r_await w_await  svctm  %util
nvme0n1           0.00     0.00    0.00    0.00     0.00     0.00     0.00     0.00    0.00    0.00    0.00   0.00   0.00
sda               0.00     0.00    0.00    0.00     0.00     0.00     0.00     0.00    0.00    0.00    0.00   0.00   0.00
sdc               0.00     0.00 1464.00    0.00  5856.00     0.00     8.00     0.51    0.35    0.35    0.00   0.35  50.80
sdb               0.00     0.00 1402.00    0.00  5608.00     0.00     8.00     0.20    0.14    0.14    0.00   0.14  20.30
sdd               0.00     0.00 1397.00    0.00  5588.00     0.00     8.00     0.24    0.17    0.17    0.00   0.17  24.10
md0               0.00     0.00 4263.00    0.00 17052.00     0.00     8.00     0.00    0.00    0.00    0.00   0.00   0.00

avg-cpu:  %user   %nice %system %iowait  %steal   %idle
           3.10    0.00    0.16    0.47    0.00   96.28

Device:         rrqm/s   wrqm/s     r/s     w/s    rkB/s    wkB/s avgrq-sz avgqu-sz   await r_await w_await  svctm  %util
nvme0n1           0.00     0.00    0.00    0.00     0.00     0.00     0.00     0.00    0.00    0.00    0.00   0.00   0.00
sda               0.00     0.00    0.00    0.00     0.00     0.00     0.00     0.00    0.00    0.00    0.00   0.00   0.00
sdc               0.00     0.00 1599.00    0.00  6396.00     0.00     8.00     0.40    0.25    0.25    0.00   0.25  39.80
sdb               0.00     0.00 1570.00    0.00  6280.00     0.00     8.00     0.25    0.16    0.16    0.00   0.16  25.20
sdd               0.00     0.00 1501.00    0.00  6004.00     0.00     8.00     0.32    0.21    0.21    0.00   0.21  31.90
md0               0.00     0.00 4671.00    0.00 18684.00     0.00     8.00     0.00    0.00    0.00    0.00   0.00   0.00

avg-cpu:  %user   %nice %system %iowait  %steal   %idle
           3.10    0.00    0.13    0.44    0.00   96.34

Device:         rrqm/s   wrqm/s     r/s     w/s    rkB/s    wkB/s avgrq-sz avgqu-sz   await r_await w_await  svctm  %util
nvme0n1           0.00     0.00    0.00    0.00     0.00     0.00     0.00     0.00    0.00    0.00    0.00   0.00   0.00
sda               0.00     1.00    0.00    2.00     0.00    12.00    12.00     0.00    0.50    0.00    0.50   0.50   0.10
sdc               0.00     0.00 1441.00    0.00  5764.00     0.00     8.00     0.38    0.27    0.27    0.00   0.27  38.20
sdb               0.00     0.00 1382.00    0.00  5528.00     0.00     8.00     0.24    0.17    0.17    0.00   0.17  24.10
sdd               0.00     0.00 1385.00    0.00  5540.00     0.00     8.00     0.34    0.24    0.24    0.00   0.24  33.70
md0               0.00     0.00 4207.00    0.00 16828.00     0.00     8.00     0.00    0.00    0.00    0.00   0.00   0.00

avg-cpu:  %user   %nice %system %iowait  %steal   %idle
           3.10    0.00    0.16    0.44    0.00   96.31

Device:         rrqm/s   wrqm/s     r/s     w/s    rkB/s    wkB/s avgrq-sz avgqu-sz   await r_await w_await  svctm  %util
nvme0n1           0.00     0.00    0.00    0.00     0.00     0.00     0.00     0.00    0.00    0.00    0.00   0.00   0.00
sda               0.00     0.00    0.00    0.00     0.00     0.00     0.00     0.00    0.00    0.00    0.00   0.00   0.00
sdc               0.00     0.00 1407.00    0.00  5628.00     0.00     8.00     0.42    0.30    0.30    0.00   0.30  42.30
sdb               0.00     0.00 1451.00    0.00  5804.00     0.00     8.00     0.21    0.14    0.14    0.00   0.14  21.00
sdd               0.00     0.00 1421.00    0.00  5684.00     0.00     8.00     0.33    0.23    0.23    0.00   0.23  32.90
md0               0.00     0.00 4279.00    0.00 17116.00     0.00     8.00     0.00    0.00    0.00    0.00   0.00   0.00

avg-cpu:  %user   %nice %system %iowait  %steal   %idle
           3.10    0.00    0.19    0.41    0.00   96.31

Device:         rrqm/s   wrqm/s     r/s     w/s    rkB/s    wkB/s avgrq-sz avgqu-sz   await r_await w_await  svctm  %util
nvme0n1           0.00     0.00    0.00    0.00     0.00     0.00     0.00     0.00    0.00    0.00    0.00   0.00   0.00
sda               0.00     0.00    0.00    0.00     0.00     0.00     0.00     0.00    0.00    0.00    0.00   0.00   0.00
sdc               0.00     0.00 1407.00    0.00  5628.00     0.00     8.00     0.42    0.30    0.30    0.00   0.30  42.10
sdb               0.00     0.00 1278.00    0.00  5112.00     0.00     8.00     0.24    0.19    0.19    0.00   0.19  24.10
sdd               0.00     0.00 1350.00    0.00  5400.00     0.00     8.00     0.29    0.21    0.21    0.00   0.21  28.90
md0               0.00     0.00 4036.00    0.00 16144.00     0.00     8.00     0.00    0.00    0.00    0.00   0.00   0.00

avg-cpu:  %user   %nice %system %iowait  %steal   %idle
           3.10    0.00    0.16    0.38    0.00   96.37

Device:         rrqm/s   wrqm/s     r/s     w/s    rkB/s    wkB/s avgrq-sz avgqu-sz   await r_await w_await  svctm  %util
nvme0n1           0.00     0.00    0.00    0.00     0.00     0.00     0.00     0.00    0.00    0.00    0.00   0.00   0.00
sda               0.00     0.00    0.00    0.00     0.00     0.00     0.00     0.00    0.00    0.00    0.00   0.00   0.00
sdc               0.00     0.00 1756.00    0.00  7024.00     0.00     8.00     0.36    0.20    0.20    0.00   0.20  35.60
sdb               0.00     0.00 1704.00    0.00  6816.00     0.00     8.00     0.26    0.15    0.15    0.00   0.15  26.10
sdd               0.00     0.00 1771.00    0.00  7084.00     0.00     8.00     0.35    0.20    0.20    0.00   0.20  35.00
md0               0.00     0.00 5230.00    0.00 20920.00     0.00     8.00     0.00    0.00    0.00    0.00   0.00   0.00

avg-cpu:  %user   %nice %system %iowait  %steal   %idle
           3.10    0.00    0.19    0.47    0.00   96.25

Device:         rrqm/s   wrqm/s     r/s     w/s    rkB/s    wkB/s avgrq-sz avgqu-sz   await r_await w_await  svctm  %util
nvme0n1           0.00     0.00    0.00    0.00     0.00     0.00     0.00     0.00    0.00    0.00    0.00   0.00   0.00
sda               0.00     0.00    0.00    0.00     0.00     0.00     0.00     0.00    0.00    0.00    0.00   0.00   0.00
sdc               0.00     0.00 1607.00    0.00  6428.00     0.00     8.00     0.31    0.19    0.19    0.00   0.19  31.10
sdb               0.00     0.00 1572.00    0.00  6288.00     0.00     8.00     0.25    0.16    0.16    0.00   0.16  24.70
sdd               0.00     0.00 1589.00    0.00  6356.00     0.00     8.00     0.40    0.25    0.25    0.00   0.25  40.10
md0               0.00     0.00 4768.00    0.00 19072.00     0.00     8.00     0.00    0.00    0.00    0.00   0.00   0.00

avg-cpu:  %user   %nice %system %iowait  %steal   %idle
           3.10    0.00    0.22    0.44    0.00   96.25

Device:         rrqm/s   wrqm/s     r/s     w/s    rkB/s    wkB/s avgrq-sz avgqu-sz   await r_await w_await  svctm  %util
nvme0n1           0.00     0.00    0.00    0.00     0.00     0.00     0.00     0.00    0.00    0.00    0.00   0.00   0.00
sda               0.00     1.00    0.00    2.00     0.00    12.00    12.00     0.00    0.00    0.00    0.00   0.00   0.00
sdc               0.00     0.00 1408.00    0.00  5632.00     0.00     8.00     0.37    0.26    0.26    0.00   0.26  37.20
sdb               0.00     0.00 1511.00    0.00  6044.00     0.00     8.00     0.29    0.19    0.19    0.00   0.19  28.90
sdd               0.00     0.00 1500.00    0.00  6000.00     0.00     8.00     0.29    0.19    0.19    0.00   0.19  29.20
md0               0.00     0.00 4419.00    0.00 17676.00     0.00     8.00     0.00    0.00    0.00    0.00   0.00   0.00

avg-cpu:  %user   %nice %system %iowait  %steal   %idle
           3.06    0.00    0.22    0.59    0.00   96.12

Device:         rrqm/s   wrqm/s     r/s     w/s    rkB/s    wkB/s avgrq-sz avgqu-sz   await r_await w_await  svctm  %util
nvme0n1           0.00     0.00    0.00    0.00     0.00     0.00     0.00     0.00    0.00    0.00    0.00   0.00   0.00
sda               0.00     0.00    0.00    0.00     0.00     0.00     0.00     0.00    0.00    0.00    0.00   0.00   0.00
sdc               0.00     0.00 1370.00    0.00  5480.00     0.00     8.00     0.36    0.27    0.27    0.00   0.27  36.40
sdb               0.00     0.00 1421.00    0.00  5684.00     0.00     8.00     0.24    0.17    0.17    0.00   0.17  23.60
sdd               0.00     0.00 1534.00    0.00  6136.00     0.00     8.00     0.36    0.23    0.23    0.00   0.23  35.70
md0               0.00     0.00 4325.00    0.00 17300.00     0.00     8.00     0.00    0.00    0.00    0.00   0.00   0.00

avg-cpu:  %user   %nice %system %iowait  %steal   %idle
           3.10    0.00    0.19    0.53    0.00   96.18

Device:         rrqm/s   wrqm/s     r/s     w/s    rkB/s    wkB/s avgrq-sz avgqu-sz   await r_await w_await  svctm  %util
nvme0n1           0.00     0.00    0.00    0.00     0.00     0.00     0.00     0.00    0.00    0.00    0.00   0.00   0.00
sda               0.00     0.00    0.00    0.00     0.00     0.00     0.00     0.00    0.00    0.00    0.00   0.00   0.00
sdc               0.00     0.00 1456.00    0.00  5824.00     0.00     8.00     0.37    0.25    0.25    0.00   0.25  36.90
sdb               0.00     0.00 1551.00    0.00  6204.00     0.00     8.00     0.26    0.17    0.17    0.00   0.17  25.60
sdd               0.00     0.00 1506.00    0.00  6024.00     0.00     8.00     0.32    0.21    0.21    0.00   0.21  31.90
md0               0.00     0.00 4513.00    0.00 18052.00     0.00     8.00     0.00    0.00    0.00    0.00   0.00   0.00

avg-cpu:  %user   %nice %system %iowait  %steal   %idle
           3.10    0.00    0.16    0.53    0.00   96.22

Device:         rrqm/s   wrqm/s     r/s     w/s    rkB/s    wkB/s avgrq-sz avgqu-sz   await r_await w_await  svctm  %util
nvme0n1           0.00     0.00    0.00    0.00     0.00     0.00     0.00     0.00    0.00    0.00    0.00   0.00   0.00
sda               0.00     2.00    0.00    2.00     0.00    32.00    32.00     0.00    0.00    0.00    0.00   0.00   0.00
sdc               0.00     0.00 1495.00    0.00  5980.00     0.00     8.00     0.43    0.29    0.29    0.00   0.29  43.20
sdb               0.00     0.00 1554.00    0.00  6216.00     0.00     8.00     0.29    0.19    0.19    0.00   0.19  28.80
sdd               0.00     0.00 1518.00    0.00  6072.00     0.00     8.00     0.25    0.16    0.16    0.00   0.16  24.90
md0               0.00     0.00 4567.00    0.00 18268.00     0.00     8.00     0.00    0.00    0.00    0.00   0.00   0.00

avg-cpu:  %user   %nice %system %iowait  %steal   %idle
           3.10    0.00    0.19    0.47    0.00   96.24

Device:         rrqm/s   wrqm/s     r/s     w/s    rkB/s    wkB/s avgrq-sz avgqu-sz   await r_await w_await  svctm  %util
nvme0n1           0.00     0.00    0.00    0.00     0.00     0.00     0.00     0.00    0.00    0.00    0.00   0.00   0.00
sda               0.00     0.00    0.00    0.00     0.00     0.00     0.00     0.00    0.00    0.00    0.00   0.00   0.00
sdc               0.00     0.00 1542.00    0.00  6168.00     0.00     8.00     0.44    0.29    0.29    0.00   0.29  44.40
sdb               0.00     0.00 1575.00    0.00  6300.00     0.00     8.00     0.25    0.16    0.16    0.00   0.16  25.50
sdd               0.00     0.00 1562.00    0.00  6248.00     0.00     8.00     0.26    0.17    0.17    0.00   0.17  25.90
md0               0.00     0.00 4679.00    0.00 18716.00     0.00     8.00     0.00    0.00    0.00    0.00   0.00   0.00

avg-cpu:  %user   %nice %system %iowait  %steal   %idle
           3.13    0.00    0.16    0.44    0.00   96.28

Device:         rrqm/s   wrqm/s     r/s     w/s    rkB/s    wkB/s avgrq-sz avgqu-sz   await r_await w_await  svctm  %util
nvme0n1           0.00     0.00    0.00    0.00     0.00     0.00     0.00     0.00    0.00    0.00    0.00   0.00   0.00
sda               0.00     4.00    0.00    2.00     0.00    24.00    24.00     0.00    0.00    0.00    0.00   0.00   0.00
sdc               0.00     0.00 1468.00    0.00  5872.00     0.00     8.00     0.43    0.29    0.29    0.00   0.29  42.60
sdb               0.00     0.00 1510.00    0.00  6040.00     0.00     8.00     0.30    0.20    0.20    0.00   0.20  29.60
sdd               0.00     0.00 1429.00    0.00  5716.00     0.00     8.00     0.24    0.17    0.17    0.00   0.17  23.90
md0               0.00     0.00 4407.00    0.00 17628.00     0.00     8.00     0.00    0.00    0.00    0.00   0.00   0.00

avg-cpu:  %user   %nice %system %iowait  %steal   %idle
           3.09    0.00    0.22    0.47    0.00   96.22

Device:         rrqm/s   wrqm/s     r/s     w/s    rkB/s    wkB/s avgrq-sz avgqu-sz   await r_await w_await  svctm  %util
nvme0n1           0.00     0.00    0.00    0.00     0.00     0.00     0.00     0.00    0.00    0.00    0.00   0.00   0.00
sda               0.00     0.00    0.00    0.00     0.00     0.00     0.00     0.00    0.00    0.00    0.00   0.00   0.00
sdc               0.00     0.00 1522.00    0.00  6088.00     0.00     8.00     0.33    0.22    0.22    0.00   0.22  33.10
sdb               0.00     0.00 1449.00    0.00  5796.00     0.00     8.00     0.27    0.19    0.19    0.00   0.19  27.10
sdd               0.00     0.00 1477.00    0.00  5908.00     0.00     8.00     0.35    0.24    0.24    0.00   0.24  35.10
md0               0.00     0.00 4448.00    0.00 17792.00     0.00     8.00     0.00    0.00    0.00    0.00   0.00   0.00

avg-cpu:  %user   %nice %system %iowait  %steal   %idle
           3.10    0.00    0.19    0.47    0.00   96.25

Device:         rrqm/s   wrqm/s     r/s     w/s    rkB/s    wkB/s avgrq-sz avgqu-sz   await r_await w_await  svctm  %util
nvme0n1           0.00     0.00    0.00    0.00     0.00     0.00     0.00     0.00    0.00    0.00    0.00   0.00   0.00
sda               0.00     0.00    0.00    0.00     0.00     0.00     0.00     0.00    0.00    0.00    0.00   0.00   0.00
sdc               0.00     0.00 1469.00    0.00  5876.00     0.00     8.00     0.31    0.21    0.21    0.00   0.21  31.20
sdb               0.00     0.00 1597.00    0.00  6388.00     0.00     8.00     0.35    0.22    0.22    0.00   0.22  34.90
sdd               0.00     0.00 1612.00    0.00  6448.00     0.00     8.00     0.30    0.19    0.19    0.00   0.19  29.90
md0               0.00     0.00 4679.00    0.00 18716.00     0.00     8.00     0.00    0.00    0.00    0.00   0.00   0.00

avg-cpu:  %user   %nice %system %iowait  %steal   %idle
           3.03    0.00    0.16    0.09    0.00   96.72

Device:         rrqm/s   wrqm/s     r/s     w/s    rkB/s    wkB/s avgrq-sz avgqu-sz   await r_await w_await  svctm  %util
nvme0n1           0.00     0.00    0.00    0.00     0.00     0.00     0.00     0.00    0.00    0.00    0.00   0.00   0.00
sda               0.00     0.00    0.00    0.00     0.00     0.00     0.00     0.00    0.00    0.00    0.00   0.00   0.00
sdc               0.00     0.00 1522.00    0.00  6088.00     0.00     8.00     0.34    0.23    0.23    0.00   0.23  34.30
sdb               0.00     0.00 1554.00    0.00  6216.00     0.00     8.00     0.37    0.24    0.24    0.00   0.24  37.10
sdd               0.00     0.00 1538.00    0.00  6152.00     0.00     8.00     0.24    0.16    0.16    0.00   0.16  23.90
md0               0.00     0.00 4614.00    0.00 18456.00     0.00     8.00     0.00    0.00    0.00    0.00   0.00   0.00

