Linux 4.17.2 (bench2) 	08/03/2018 	_x86_64_	(32 CPU)

avg-cpu:  %user   %nice %system %iowait  %steal   %idle
           1.91    0.00    1.56    1.56    0.00   94.97

Device:         rrqm/s   wrqm/s     r/s     w/s    rkB/s    wkB/s avgrq-sz avgqu-sz   await r_await w_await  svctm  %util
nvme0n1         942.01     5.12 18990.46  522.87 106224.74 11792.20    12.10     1.35    0.05    0.03    0.67   0.02  39.75
sda               0.12     0.81   14.15    0.58   163.95     8.52    23.42     0.00    0.33    0.32    0.44   0.07   0.10
sdc              33.77     0.18  115.44    0.31  1743.70    97.89    31.82     0.03    0.29   12.60  380.35   0.92  10.65
sdb              31.72     0.19  117.45    0.33  1741.79    97.71    31.24     0.47    3.98    2.83  411.64   0.86  10.13
sdd              33.97     0.17  114.98    0.26  1739.70    97.38    31.88     0.79    6.81    4.76  907.87   0.92  10.66
md0               0.00     0.00  450.17    1.22  6467.91   353.28    30.22     0.00    0.00    0.00    0.00   0.00   0.00

avg-cpu:  %user   %nice %system %iowait  %steal   %idle
           3.09    0.00    0.21    2.89    0.00   93.81

Device:         rrqm/s   wrqm/s     r/s     w/s    rkB/s    wkB/s avgrq-sz avgqu-sz   await r_await w_await  svctm  %util
nvme0n1           0.00     0.00    0.00    0.00     0.00     0.00     0.00     0.00    0.00    0.00    0.00   0.00   0.00
sda               0.00     1.00    1.10    1.20     6.40     9.60    13.91     0.00    0.04    0.00    0.08   0.02   0.01
sdc               0.00     0.00 1014.35    0.00  4057.40     0.00     8.00     0.31    0.31    0.31    0.00   0.31  30.98
sdb               0.00     0.00 1041.45    0.00  4165.80     0.00     8.00     0.29    0.28    0.28    0.00   0.28  29.15
sdd               0.00     0.00 1076.90    0.00  4307.60     0.00     8.00     0.35    0.32    0.32    0.00   0.32  34.98
md0               0.00     0.00 3132.75    0.00 12531.00     0.00     8.00     0.00    0.00    0.00    0.00   0.00   0.00

