Linux 4.17.2 (bench2) 	08/03/2018 	_x86_64_	(32 CPU)

avg-cpu:  %user   %nice %system %iowait  %steal   %idle
           1.91    0.00    1.56    1.56    0.00   94.97

Device:         rrqm/s   wrqm/s     r/s     w/s    rkB/s    wkB/s avgrq-sz avgqu-sz   await r_await w_await  svctm  %util
nvme0n1         942.71     5.12 19004.68  523.26 106304.25 11801.02    12.10     1.35    0.05    0.03    0.67   0.02  39.78
sda               0.12     0.81   14.15    0.58   163.94     8.52    23.42     0.00    0.33    0.32    0.44   0.07   0.10
sdc              33.62     0.18  114.99    0.31  1738.50    97.96    31.85     0.03    0.27   12.65  380.35   0.92  10.63
sdb              31.57     0.19  117.00    0.33  1736.58    97.78    31.27     0.47    3.99    2.83  411.64   0.86  10.10
sdd              33.82     0.17  114.54    0.26  1734.49    97.45    31.92     0.78    6.83    4.77  907.87   0.93  10.63
md0               0.00     0.00  448.39    1.22  6448.03   353.54    30.26     0.00    0.00    0.00    0.00   0.00   0.00

avg-cpu:  %user   %nice %system %iowait  %steal   %idle
           2.86    0.00    0.48    0.59    0.00   96.07

Device:         rrqm/s   wrqm/s     r/s     w/s    rkB/s    wkB/s avgrq-sz avgqu-sz   await r_await w_await  svctm  %util
nvme0n1           0.00     0.00    0.00    0.00     0.00     0.00     0.00     0.00    0.00    0.00    0.00   0.00   0.00
sda               0.00     1.45    0.15    0.50     5.00     9.80    45.54     0.00    0.08    0.00    0.10   0.08   0.01
sdc             119.75     0.00  154.65    0.00 64031.40     0.00   828.08     1.48    9.59    9.59    0.00   4.52  69.85
sdb             121.15     0.00  152.90    0.00 63975.80     0.00   836.83     1.34    8.78    8.78    0.00   4.28  65.40
sdd             118.30     0.00  154.55    0.00 64049.60     0.00   828.85     1.45    9.41    9.41    0.00   4.35  67.27
md0               0.00     0.00  821.70    0.00 280135.20     0.00   681.84     0.00    0.00    0.00    0.00   0.00   0.00

