Linux 4.17.2 (bench2) 	08/03/2018 	_x86_64_	(32 CPU)

avg-cpu:  %user   %nice %system %iowait  %steal   %idle
           1.90    0.00    1.55    1.59    0.00   94.96

Device:         rrqm/s   wrqm/s     r/s     w/s    rkB/s    wkB/s avgrq-sz avgqu-sz   await r_await w_await  svctm  %util
nvme0n1         935.10     5.08 18851.21  519.03 105445.82 11705.73    12.10     1.34    0.05    0.03    0.67   0.02  39.46
sda               0.12     0.82   14.17    0.58   164.01     8.53    23.40     0.00    0.33    0.32    0.44   0.07   0.10
sdc              34.26     0.17  120.25    0.31  1806.98    97.17    31.59     0.08    0.63   12.37  380.35   0.91  10.95
sdb              32.22     0.19  122.24    0.33  1805.03    96.99    31.03     0.51    4.14    3.04  411.64   0.85  10.41
sdd              34.45     0.17  119.80    0.26  1803.00    96.67    31.65     0.82    6.85    4.89  907.87   0.91  10.95
md0               0.00     0.00  466.06    1.21  6710.31   350.69    30.22     0.00    0.00    0.00    0.00   0.00   0.00

avg-cpu:  %user   %nice %system %iowait  %steal   %idle
           3.06    0.00    0.13    1.25    0.00   95.56

Device:         rrqm/s   wrqm/s     r/s     w/s    rkB/s    wkB/s avgrq-sz avgqu-sz   await r_await w_await  svctm  %util
nvme0n1           0.00     0.00    0.00    0.00     0.00     0.00     0.00     0.00    0.00    0.00    0.00   0.00   0.00
sda               0.00     0.00    4.00    0.00   104.00     0.00    52.00     0.00    0.50    0.50    0.00   0.50   0.20
sdc               9.00     0.00  218.00    0.00 17256.00     0.00   158.31     0.79    3.61    3.61    0.00   1.94  42.30
sdb              10.00     0.00  186.00    0.00 15600.00     0.00   167.74     0.89    4.76    4.76    0.00   2.58  48.00
sdd               7.00     0.00  228.00    0.00 18692.00     0.00   163.96     0.85    3.71    3.71    0.00   2.33  53.10
md0               0.00     0.00  659.00    0.00 67064.00     0.00   203.53     0.00    0.00    0.00    0.00   0.00   0.00

avg-cpu:  %user   %nice %system %iowait  %steal   %idle
           3.09    0.00    0.13    2.97    0.00   93.81

Device:         rrqm/s   wrqm/s     r/s     w/s    rkB/s    wkB/s avgrq-sz avgqu-sz   await r_await w_await  svctm  %util
nvme0n1           0.00     0.00    0.00    0.00     0.00     0.00     0.00     0.00    0.00    0.00    0.00   0.00   0.00
sda               0.00     0.00    0.00    0.00     0.00     0.00     0.00     0.00    0.00    0.00    0.00   0.00   0.00
sdc               4.00     0.00  196.00    0.00 12540.00     0.00   127.96     0.66    3.36    3.36    0.00   2.24  43.90
sdb               5.00     0.00  184.00    0.00 13220.00     0.00   143.70     0.77    4.22    4.22    0.00   2.76  50.80
sdd               4.00     0.00  190.00    0.00 14688.00     0.00   154.61     0.51    2.58    2.58    0.00   1.66  31.60
md0               0.00     0.00  583.00    0.00 49376.00     0.00   169.39     0.00    0.00    0.00    0.00   0.00   0.00

avg-cpu:  %user   %nice %system %iowait  %steal   %idle
           3.07    0.00    0.13    2.91    0.00   93.90

Device:         rrqm/s   wrqm/s     r/s     w/s    rkB/s    wkB/s avgrq-sz avgqu-sz   await r_await w_await  svctm  %util
nvme0n1           0.00     0.00    0.00    0.00     0.00     0.00     0.00     0.00    0.00    0.00    0.00   0.00   0.00
sda               0.00     0.00    0.00    0.00     0.00     0.00     0.00     0.00    0.00    0.00    0.00   0.00   0.00
sdc              11.00     0.00  236.00    0.00 21532.00     0.00   182.47     0.48    2.04    2.04    0.00   1.60  37.70
sdb              14.00     0.00  233.00    0.00 21968.00     0.00   188.57     0.47    2.03    2.03    0.00   1.50  34.90
sdd              14.00     0.00  237.00    0.00 20520.00     0.00   173.16     0.86    3.68    3.68    0.00   2.60  61.70
md0               0.00     0.00  746.00    0.00 79472.00     0.00   213.06     0.00    0.00    0.00    0.00   0.00   0.00

avg-cpu:  %user   %nice %system %iowait  %steal   %idle
           3.09    0.00    0.19    2.91    0.00   93.81

Device:         rrqm/s   wrqm/s     r/s     w/s    rkB/s    wkB/s avgrq-sz avgqu-sz   await r_await w_await  svctm  %util
nvme0n1           0.00     0.00    0.00    0.00     0.00     0.00     0.00     0.00    0.00    0.00    0.00   0.00   0.00
sda               0.00     0.00    0.00    0.00     0.00     0.00     0.00     0.00    0.00    0.00    0.00   0.00   0.00
sdc              19.00     0.00  289.00    0.00 29560.00     0.00   204.57     0.65    2.26    2.26    0.00   1.51  43.50
sdb              20.00     0.00  308.00    0.00 30840.00     0.00   200.26     0.50    1.63    1.63    0.00   1.21  37.40
sdd              23.00     0.00  309.00    0.00 32988.00     0.00   213.51     0.76    2.46    2.46    0.00   1.88  58.20
md0               0.00     0.00  968.00    0.00 114016.00     0.00   235.57     0.00    0.00    0.00    0.00   0.00   0.00

avg-cpu:  %user   %nice %system %iowait  %steal   %idle
           3.07    0.00    0.13    2.94    0.00   93.87

Device:         rrqm/s   wrqm/s     r/s     w/s    rkB/s    wkB/s avgrq-sz avgqu-sz   await r_await w_await  svctm  %util
nvme0n1           0.00     0.00    0.00    0.00     0.00     0.00     0.00     0.00    0.00    0.00    0.00   0.00   0.00
sda               0.00     8.00    0.00    2.00     0.00    40.00    40.00     0.00    0.00    0.00    0.00   0.00   0.00
sdc              16.00     0.00  290.00    0.00 25856.00     0.00   178.32     0.51    1.76    1.76    0.00   1.49  43.20
sdb              15.00     0.00  239.00    0.00 24880.00     0.00   208.20     0.37    1.53    1.53    0.00   1.36  32.50
sdd              13.00     0.00  285.00    0.00 28008.00     0.00   196.55     0.71    2.49    2.49    0.00   1.97  56.10
md0               0.00     0.00  857.00    0.00 108712.00     0.00   253.70     0.00    0.00    0.00    0.00   0.00   0.00

avg-cpu:  %user   %nice %system %iowait  %steal   %idle
           3.06    0.00    0.19    2.85    0.00   93.90

Device:         rrqm/s   wrqm/s     r/s     w/s    rkB/s    wkB/s avgrq-sz avgqu-sz   await r_await w_await  svctm  %util
nvme0n1           0.00     0.00    0.00    0.00     0.00     0.00     0.00     0.00    0.00    0.00    0.00   0.00   0.00
sda               0.00     1.00    0.00    3.00     0.00    16.00    10.67     0.00    0.00    0.00    0.00   0.00   0.00
sdc              18.00     0.00  334.00    0.00 32828.00     0.00   196.57     0.48    1.40    1.40    0.00   1.18  39.50
sdb              16.00     0.00  352.00    0.00 33752.00     0.00   191.77     0.70    1.99    1.99    0.00   1.61  56.70
sdd              15.00     0.00  341.00    0.00 34160.00     0.00   200.35     0.51    1.49    1.49    0.00   1.16  39.70
md0               0.00     0.00 1076.00    0.00 129624.00     0.00   240.94     0.00    0.00    0.00    0.00   0.00   0.00

avg-cpu:  %user   %nice %system %iowait  %steal   %idle
           3.06    0.00    0.16    2.91    0.00   93.87

Device:         rrqm/s   wrqm/s     r/s     w/s    rkB/s    wkB/s avgrq-sz avgqu-sz   await r_await w_await  svctm  %util
nvme0n1           0.00     0.00    0.00    0.00     0.00     0.00     0.00     0.00    0.00    0.00    0.00   0.00   0.00
sda               0.00     0.00    0.00    0.00     0.00     0.00     0.00     0.00    0.00    0.00    0.00   0.00   0.00
sdc              16.00     0.00  313.00    0.00 27104.00     0.00   173.19     0.77    2.51    2.51    0.00   2.02  63.10
sdb              16.00     0.00  228.00    0.00 25712.00     0.00   225.54     0.41    1.79    1.79    0.00   1.40  32.00
sdd              17.00     0.00  243.00    0.00 24580.00     0.00   202.30     0.45    1.87    1.87    0.00   1.42  34.60
md0               0.00     0.00  833.00    0.00 102744.00     0.00   246.68     0.00    0.00    0.00    0.00   0.00   0.00

avg-cpu:  %user   %nice %system %iowait  %steal   %idle
           3.06    0.00    0.19    2.91    0.00   93.84

Device:         rrqm/s   wrqm/s     r/s     w/s    rkB/s    wkB/s avgrq-sz avgqu-sz   await r_await w_await  svctm  %util
nvme0n1           0.00     0.00    0.00    0.00     0.00     0.00     0.00     0.00    0.00    0.00    0.00   0.00   0.00
sda               0.00     0.00    0.00    0.00     0.00     0.00     0.00     0.00    0.00    0.00    0.00   0.00   0.00
sdc              28.00     0.00  277.00    0.00 33404.00     0.00   241.18     0.64    2.31    2.31    0.00   1.80  49.90
sdb              31.00     0.00  306.00    0.00 35096.00     0.00   229.39     0.62    2.02    2.02    0.00   1.54  47.10
sdd              31.00     0.00  317.00    0.00 35408.00     0.00   223.39     0.61    1.93    1.93    0.00   1.47  46.70
md0               0.00     0.00  990.00    0.00 140628.00     0.00   284.10     0.00    0.00    0.00    0.00   0.00   0.00

avg-cpu:  %user   %nice %system %iowait  %steal   %idle
           3.10    0.00    0.13    2.94    0.00   93.84

Device:         rrqm/s   wrqm/s     r/s     w/s    rkB/s    wkB/s avgrq-sz avgqu-sz   await r_await w_await  svctm  %util
nvme0n1           0.00     0.00    0.00    0.00     0.00     0.00     0.00     0.00    0.00    0.00    0.00   0.00   0.00
sda               0.00     0.00    0.00    0.00     0.00     0.00     0.00     0.00    0.00    0.00    0.00   0.00   0.00
sdc              12.00     0.00  262.00    0.00 25392.00     0.00   193.83     0.65    2.49    2.49    0.00   1.88  49.30
sdb              12.00     0.00  284.00    0.00 26772.00     0.00   188.54     0.72    2.51    2.51    0.00   2.09  59.30
sdd              10.00     0.00  290.00    0.00 27048.00     0.00   186.54     0.29    1.01    1.01    0.00   0.81  23.40
md0               0.00     0.00  870.00    0.00 106552.00     0.00   244.95     0.00    0.00    0.00    0.00   0.00   0.00

avg-cpu:  %user   %nice %system %iowait  %steal   %idle
           3.09    0.00    0.16    2.94    0.00   93.81

Device:         rrqm/s   wrqm/s     r/s     w/s    rkB/s    wkB/s avgrq-sz avgqu-sz   await r_await w_await  svctm  %util
nvme0n1           0.00     0.00    0.00    0.00     0.00     0.00     0.00     0.00    0.00    0.00    0.00   0.00   0.00
sda               0.00     4.00    0.00    2.00     0.00    24.00    24.00     0.00    0.00    0.00    0.00   0.00   0.00
sdc              12.00     0.00  248.00    0.00 25824.00     0.00   208.26     0.44    1.76    1.76    0.00   1.32  32.70
sdb              13.00     0.00  341.00    0.00 25928.00     0.00   152.07     0.29    0.87    0.87    0.00   0.72  24.70
sdd              11.00     0.00  264.00    0.00 24860.00     0.00   188.33     0.83    3.15    3.15    0.00   2.59  68.30
md0               0.00     0.00  889.00    0.00 97664.00     0.00   219.72     0.00    0.00    0.00    0.00   0.00   0.00

avg-cpu:  %user   %nice %system %iowait  %steal   %idle
           3.06    0.00    0.22    2.88    0.00   93.84

Device:         rrqm/s   wrqm/s     r/s     w/s    rkB/s    wkB/s avgrq-sz avgqu-sz   await r_await w_await  svctm  %util
nvme0n1           0.00     0.00    0.00    0.00     0.00     0.00     0.00     0.00    0.00    0.00    0.00   0.00   0.00
sda               0.00     3.00    0.00    2.00     0.00    60.00    60.00     0.00    0.00    0.00    0.00   0.00   0.00
sdc              17.00     0.00  297.00    0.00 29500.00     0.00   198.65     0.60    2.04    2.04    0.00   1.75  52.00
sdb              20.00     0.00  295.00    0.00 32064.00     0.00   217.38     0.38    1.27    1.27    0.00   1.06  31.40
sdd              18.00     0.00  296.00    0.00 29400.00     0.00   198.65     0.56    1.89    1.89    0.00   1.69  50.00
md0               0.00     0.00  943.00    0.00 120960.00     0.00   256.54     0.00    0.00    0.00    0.00   0.00   0.00

avg-cpu:  %user   %nice %system %iowait  %steal   %idle
           3.10    0.00    0.16    2.85    0.00   93.90

Device:         rrqm/s   wrqm/s     r/s     w/s    rkB/s    wkB/s avgrq-sz avgqu-sz   await r_await w_await  svctm  %util
nvme0n1           0.00     0.00    0.00    0.00     0.00     0.00     0.00     0.00    0.00    0.00    0.00   0.00   0.00
sda               0.00     0.00    0.00    0.00     0.00     0.00     0.00     0.00    0.00    0.00    0.00   0.00   0.00
sdc              28.00     0.00  321.00    0.00 36624.00     0.00   228.19     0.65    1.95    1.95    0.00   1.42  45.50
sdb              33.00     0.00  309.00    0.00 33212.00     0.00   214.96     0.61    1.99    1.99    0.00   1.50  46.40
sdd              28.00     0.00  313.00    0.00 37012.00     0.00   236.50     0.77    2.32    2.32    0.00   1.78  55.70
md0               0.00     0.00 1034.00    0.00 153804.00     0.00   297.49     0.00    0.00    0.00    0.00   0.00   0.00

avg-cpu:  %user   %nice %system %iowait  %steal   %idle
           3.03    0.00    0.22    2.91    0.00   93.84

Device:         rrqm/s   wrqm/s     r/s     w/s    rkB/s    wkB/s avgrq-sz avgqu-sz   await r_await w_await  svctm  %util
nvme0n1           0.00     0.00    0.00    0.00     0.00     0.00     0.00     0.00    0.00    0.00    0.00   0.00   0.00
sda               0.00     0.00    0.00    0.00     0.00     0.00     0.00     0.00    0.00    0.00    0.00   0.00   0.00
sdc              19.00     0.00  299.00    0.00 33788.00     0.00   226.01     0.79    2.72    2.72    0.00   2.13  63.70
sdb              18.00     0.00  311.00    0.00 28620.00     0.00   184.05     0.51    1.63    1.63    0.00   1.29  40.00
sdd              19.00     0.00  281.00    0.00 30128.00     0.00   214.43     0.42    1.66    1.66    0.00   1.23  34.70
md0               0.00     0.00  946.00    0.00 122896.00     0.00   259.82     0.00    0.00    0.00    0.00   0.00   0.00

avg-cpu:  %user   %nice %system %iowait  %steal   %idle
           3.09    0.00    0.22    2.94    0.00   93.75

Device:         rrqm/s   wrqm/s     r/s     w/s    rkB/s    wkB/s avgrq-sz avgqu-sz   await r_await w_await  svctm  %util
nvme0n1           0.00     0.00    0.00    0.00     0.00     0.00     0.00     0.00    0.00    0.00    0.00   0.00   0.00
sda               0.00     0.00    0.00    0.00     0.00     0.00     0.00     0.00    0.00    0.00    0.00   0.00   0.00
sdc              18.00     0.00  307.00    0.00 28768.00     0.00   187.41     0.78    2.57    2.57    0.00   1.98  60.80
sdb              16.00     0.00  289.00    0.00 27040.00     0.00   187.13     0.49    1.71    1.71    0.00   1.47  42.40
sdd              17.00     0.00  266.00    0.00 28468.00     0.00   214.05     0.41    1.52    1.52    0.00   1.22  32.40
md0               0.00     0.00  916.00    0.00 114740.00     0.00   250.52     0.00    0.00    0.00    0.00   0.00   0.00

avg-cpu:  %user   %nice %system %iowait  %steal   %idle
           3.10    0.00    0.13    2.88    0.00   93.90

Device:         rrqm/s   wrqm/s     r/s     w/s    rkB/s    wkB/s avgrq-sz avgqu-sz   await r_await w_await  svctm  %util
nvme0n1           0.00     0.00    0.00    0.00     0.00     0.00     0.00     0.00    0.00    0.00    0.00   0.00   0.00
sda               0.00     6.00    0.00    2.00     0.00    32.00    32.00     0.00    0.00    0.00    0.00   0.00   0.00
sdc              19.00     0.00  308.00    0.00 29596.00     0.00   192.18     0.42    1.37    1.37    0.00   1.05  32.40
sdb              20.00     0.00  308.00    0.00 30568.00     0.00   198.49     0.45    1.47    1.47    0.00   1.19  36.60
sdd              19.00     0.00  281.00    0.00 31172.00     0.00   221.86     0.87    3.09    3.09    0.00   2.39  67.20
md0               0.00     0.00  951.00    0.00 116712.00     0.00   245.45     0.00    0.00    0.00    0.00   0.00   0.00

avg-cpu:  %user   %nice %system %iowait  %steal   %idle
           3.06    0.00    0.19    2.91    0.00   93.84

Device:         rrqm/s   wrqm/s     r/s     w/s    rkB/s    wkB/s avgrq-sz avgqu-sz   await r_await w_await  svctm  %util
nvme0n1           0.00     0.00    0.00    0.00     0.00     0.00     0.00     0.00    0.00    0.00    0.00   0.00   0.00
sda               0.00     0.00    0.00    0.00     0.00     0.00     0.00     0.00    0.00    0.00    0.00   0.00   0.00
sdc              19.00     0.00  256.00    0.00 26648.00     0.00   208.19     0.50    1.93    1.93    0.00   1.62  41.60
sdb              23.00     0.00  306.00    0.00 31376.00     0.00   205.07     0.71    2.32    2.32    0.00   1.94  59.30
sdd              19.00     0.00  270.00    0.00 27852.00     0.00   206.31     0.41    1.52    1.52    0.00   1.24  33.40
md0               0.00     0.00  893.00    0.00 117880.00     0.00   264.01     0.00    0.00    0.00    0.00   0.00   0.00

avg-cpu:  %user   %nice %system %iowait  %steal   %idle
           3.06    0.00    0.16    2.91    0.00   93.87

Device:         rrqm/s   wrqm/s     r/s     w/s    rkB/s    wkB/s avgrq-sz avgqu-sz   await r_await w_await  svctm  %util
nvme0n1           0.00     0.00    0.00    0.00     0.00     0.00     0.00     0.00    0.00    0.00    0.00   0.00   0.00
sda               0.00     0.00    0.00    0.00     0.00     0.00     0.00     0.00    0.00    0.00    0.00   0.00   0.00
sdc              26.00     0.00  290.00    0.00 32248.00     0.00   222.40     0.44    1.53    1.53    0.00   1.07  30.90
sdb              27.00     0.00  315.00    0.00 33796.00     0.00   214.58     0.58    1.83    1.83    0.00   1.45  45.80
sdd              26.00     0.00  281.00    0.00 32116.00     0.00   228.58     0.86    3.03    3.03    0.00   2.25  63.30
md0               0.00     0.00  965.00    0.00 135244.00     0.00   280.30     0.00    0.00    0.00    0.00   0.00   0.00

avg-cpu:  %user   %nice %system %iowait  %steal   %idle
           3.10    0.00    0.06    2.94    0.00   93.90

Device:         rrqm/s   wrqm/s     r/s     w/s    rkB/s    wkB/s avgrq-sz avgqu-sz   await r_await w_await  svctm  %util
nvme0n1           0.00     0.00    0.00    0.00     0.00     0.00     0.00     0.00    0.00    0.00    0.00   0.00   0.00
sda               0.00     0.00    0.00    0.00     0.00     0.00     0.00     0.00    0.00    0.00    0.00   0.00   0.00
sdc              25.00     0.00  284.00    0.00 29288.00     0.00   206.25     0.49    1.74    1.74    0.00   1.38  39.10
sdb              25.00     0.00  294.00    0.00 31192.00     0.00   212.19     0.39    1.31    1.31    0.00   1.13  33.20
sdd              26.00     0.00  278.00    0.00 31360.00     0.00   225.61     0.86    3.12    3.12    0.00   2.50  69.40
md0               0.00     0.00  933.00    0.00 121668.00     0.00   260.81     0.00    0.00    0.00    0.00   0.00   0.00

avg-cpu:  %user   %nice %system %iowait  %steal   %idle
           3.06    0.00    0.22    2.84    0.00   93.87

Device:         rrqm/s   wrqm/s     r/s     w/s    rkB/s    wkB/s avgrq-sz avgqu-sz   await r_await w_await  svctm  %util
nvme0n1           0.00     0.00    0.00    0.00     0.00     0.00     0.00     0.00    0.00    0.00    0.00   0.00   0.00
sda               0.00     0.00    0.00    0.00     0.00     0.00     0.00     0.00    0.00    0.00    0.00   0.00   0.00
sdc              26.00     0.00  324.00    0.00 36616.00     0.00   226.02     0.95    2.91    2.91    0.00   1.70  55.20
sdb              28.00     0.00  323.00    0.00 35916.00     0.00   222.39     0.69    2.14    2.14    0.00   1.29  41.70
sdd              31.00     0.00  321.00    0.00 37980.00     0.00   236.64     0.76    2.37    2.37    0.00   1.75  56.10
md0               0.00     0.00 1052.00    0.00 147528.00     0.00   280.47     0.00    0.00    0.00    0.00   0.00   0.00

avg-cpu:  %user   %nice %system %iowait  %steal   %idle
           3.06    0.00    0.22    2.91    0.00   93.81

Device:         rrqm/s   wrqm/s     r/s     w/s    rkB/s    wkB/s avgrq-sz avgqu-sz   await r_await w_await  svctm  %util
nvme0n1           0.00     0.00    0.00    0.00     0.00     0.00     0.00     0.00    0.00    0.00    0.00   0.00   0.00
sda               0.00     1.00    0.00    2.00     0.00    12.00    12.00     0.00    0.00    0.00    0.00   0.00   0.00
sdc              22.00     0.00  356.00    0.00 31524.00     0.00   177.10     0.53    1.46    1.46    0.00   1.15  40.90
sdb              22.00     0.00  268.00    0.00 29640.00     0.00   221.19     0.55    2.02    2.02    0.00   1.63  43.80
sdd              23.00     0.00  294.00    0.00 31380.00     0.00   213.47     0.62    2.11    2.11    0.00   1.68  49.40
md0               0.00     0.00  987.00    0.00 125604.00     0.00   254.52     0.00    0.00    0.00    0.00   0.00   0.00

