Linux 4.17.2 (bench2) 	08/03/2018 	_x86_64_	(32 CPU)

avg-cpu:  %user   %nice %system %iowait  %steal   %idle
           1.91    0.00    1.56    1.57    0.00   94.97

Device:         rrqm/s   wrqm/s     r/s     w/s    rkB/s    wkB/s avgrq-sz avgqu-sz   await r_await w_await  svctm  %util
nvme0n1         939.52     5.10 18940.28  521.48 105944.01 11761.03    12.10     1.35    0.05    0.03    0.67   0.02  39.65
sda               0.12     0.82   14.16    0.58   163.98     8.52    23.42     0.00    0.33    0.32    0.44   0.07   0.10
sdc              33.85     0.17  117.44    0.31  1766.88    97.63    31.67     0.04    0.35   12.43  380.35   0.91  10.75
sdb              31.80     0.19  119.44    0.33  1764.96    97.45    31.10     0.48    3.98    2.84  411.64   0.85  10.22
sdd              34.04     0.17  116.98    0.26  1762.88    97.12    31.73     0.79    6.75    4.74  907.87   0.92  10.76
md0               0.00     0.00  456.40    1.21  6556.07   352.34    30.19     0.00    0.00    0.00    0.00   0.00   0.00

avg-cpu:  %user   %nice %system %iowait  %steal   %idle
           2.94    0.00    0.50    2.32    0.00   94.24

Device:         rrqm/s   wrqm/s     r/s     w/s    rkB/s    wkB/s avgrq-sz avgqu-sz   await r_await w_await  svctm  %util
nvme0n1           0.00     0.00    0.00    0.00     0.00     0.00     0.00     0.00    0.00    0.00    0.00   0.00   0.00
sda               0.00     0.00    1.00    0.00     8.00     0.00    16.00     0.00    0.00    0.00    0.00   0.00   0.00
sdc             135.00     0.00  137.00    0.00 64372.00     0.00   939.74     1.53   10.53   10.53    0.00   5.45  74.60
sdb             128.00     0.00  153.00    0.00 65232.00     0.00   852.71     1.74   11.18   11.18    0.00   4.96  75.90
sdd             125.00     0.00  147.00    0.00 65920.00     0.00   896.87     1.99   13.56   13.56    0.00   5.71  83.90
md0               0.00     0.00  828.00    0.00 262028.00     0.00   632.92     0.00    0.00    0.00    0.00   0.00   0.00

avg-cpu:  %user   %nice %system %iowait  %steal   %idle
           2.88    0.00    0.53    2.19    0.00   94.40

Device:         rrqm/s   wrqm/s     r/s     w/s    rkB/s    wkB/s avgrq-sz avgqu-sz   await r_await w_await  svctm  %util
nvme0n1           0.00     0.00    0.00    0.00     0.00     0.00     0.00     0.00    0.00    0.00    0.00   0.00   0.00
sda               0.00    10.00    0.00    2.00     0.00    48.00    48.00     0.00    0.00    0.00    0.00   0.00   0.00
sdc             136.00     0.00  151.00    0.00 70116.00     0.00   928.69     1.70   11.68   11.68    0.00   4.96  74.90
sdb             132.00     0.00  155.00    0.00 69684.00     0.00   899.15     1.75   11.50   11.50    0.00   4.80  74.40
sdd             140.00     0.00  143.00    0.00 68376.00     0.00   956.31     1.32    9.09    9.09    0.00   4.80  68.70
md0               0.00     0.00  857.00    0.00 294304.00     0.00   686.82     0.00    0.00    0.00    0.00   0.00   0.00

avg-cpu:  %user   %nice %system %iowait  %steal   %idle
           2.94    0.00    0.50    2.19    0.00   94.37

Device:         rrqm/s   wrqm/s     r/s     w/s    rkB/s    wkB/s avgrq-sz avgqu-sz   await r_await w_await  svctm  %util
nvme0n1           0.00     0.00    0.00    0.00     0.00     0.00     0.00     0.00    0.00    0.00    0.00   0.00   0.00
sda               0.00     0.00    0.00    0.00     0.00     0.00     0.00     0.00    0.00    0.00    0.00   0.00   0.00
sdc             132.00     0.00  157.00    0.00 66504.00     0.00   847.18     1.36    8.61    8.61    0.00   4.35  68.30
sdb             125.00     0.00  162.00    0.00 66820.00     0.00   824.94     1.39    8.50    8.50    0.00   4.10  66.40
sdd             132.00     0.00  162.00    0.00 67864.00     0.00   837.83     1.22    7.63    7.63    0.00   3.88  62.90
md0               0.00     0.00  873.00    0.00 298192.00     0.00   683.14     0.00    0.00    0.00    0.00   0.00   0.00

