Linux 4.17.2 (bench2) 	08/03/2018 	_x86_64_	(32 CPU)

avg-cpu:  %user   %nice %system %iowait  %steal   %idle
           1.90    0.00    1.55    1.58    0.00   94.96

Device:         rrqm/s   wrqm/s     r/s     w/s    rkB/s    wkB/s avgrq-sz avgqu-sz   await r_await w_await  svctm  %util
nvme0n1         937.15     5.09 18892.55  520.17 105677.03 11731.39    12.10     1.34    0.05    0.03    0.67   0.02  39.55
sda               0.12     0.82   14.16    0.58   163.99     8.53    23.41     0.00    0.33    0.32    0.44   0.07   0.10
sdc              34.18     0.17  118.84    0.31  1792.18    97.38    31.72     0.07    0.58   12.48  380.35   0.91  10.87
sdb              32.14     0.19  120.83    0.33  1790.24    97.21    31.16     0.50    4.14    3.02  411.64   0.85  10.33
sdd              34.38     0.17  118.38    0.26  1788.19    96.88    31.78     0.82    6.88    4.90  907.87   0.92  10.87
md0               0.00     0.00  461.59    1.21  6655.11   351.45    30.28     0.00    0.00    0.00    0.00   0.00   0.00

avg-cpu:  %user   %nice %system %iowait  %steal   %idle
           3.07    0.00    0.25    0.22    0.00   96.46

Device:         rrqm/s   wrqm/s     r/s     w/s    rkB/s    wkB/s avgrq-sz avgqu-sz   await r_await w_await  svctm  %util
nvme0n1           0.00     0.00    0.00    0.00     0.00     0.00     0.00     0.00    0.00    0.00    0.00   0.00   0.00
sda               0.00     0.00   21.00    0.00   124.00     0.00    11.81     0.00    0.00    0.00    0.00   0.00   0.00
sdc               0.00     0.00 2116.00    0.00  8488.00     0.00     8.02     0.31    0.15    0.15    0.00   0.15  31.40
sdb               0.00     0.00 2017.00    0.00  8068.00     0.00     8.00     0.32    0.16    0.16    0.00   0.16  31.70
sdd               0.00     0.00 2111.00    0.00  8444.00     0.00     8.00     0.31    0.15    0.15    0.00   0.15  31.10
md0               0.00     0.00 6245.00    0.00 25004.00     0.00     8.01     0.00    0.00    0.00    0.00   0.00   0.00

avg-cpu:  %user   %nice %system %iowait  %steal   %idle
           3.10    0.00    0.25    0.22    0.00   96.43

Device:         rrqm/s   wrqm/s     r/s     w/s    rkB/s    wkB/s avgrq-sz avgqu-sz   await r_await w_await  svctm  %util
nvme0n1           0.00     0.00    0.00    0.00     0.00     0.00     0.00     0.00    0.00    0.00    0.00   0.00   0.00
sda               0.00    11.00    0.00    2.00     0.00    52.00    52.00     0.00    0.00    0.00    0.00   0.00   0.00
sdc               0.00     0.00 2292.00    0.00  9168.00     0.00     8.00     0.33    0.14    0.14    0.00   0.14  33.20
sdb               0.00     0.00 2100.00    0.00  8400.00     0.00     8.00     0.30    0.14    0.14    0.00   0.14  29.70
sdd               0.00     0.00 2214.00    0.00  8856.00     0.00     8.00     0.31    0.14    0.14    0.00   0.14  31.30
md0               0.00     0.00 6606.00    0.00 26424.00     0.00     8.00     0.00    0.00    0.00    0.00   0.00   0.00

avg-cpu:  %user   %nice %system %iowait  %steal   %idle
           3.07    0.00    0.31    0.22    0.00   96.40

Device:         rrqm/s   wrqm/s     r/s     w/s    rkB/s    wkB/s avgrq-sz avgqu-sz   await r_await w_await  svctm  %util
nvme0n1           0.00     0.00    0.00    0.00     0.00     0.00     0.00     0.00    0.00    0.00    0.00   0.00   0.00
sda               0.00     0.00    0.00    0.00     0.00     0.00     0.00     0.00    0.00    0.00    0.00   0.00   0.00
sdc               0.00     0.00 2259.00    0.00  9036.00     0.00     8.00     0.32    0.14    0.14    0.00   0.14  32.10
sdb               0.00     0.00 2273.00    0.00  9092.00     0.00     8.00     0.33    0.14    0.14    0.00   0.14  32.50
sdd               0.00     0.00 2135.00    0.00  8540.00     0.00     8.00     0.29    0.14    0.14    0.00   0.14  29.30
md0               0.00     0.00 6667.00    0.00 26668.00     0.00     8.00     0.00    0.00    0.00    0.00   0.00   0.00

avg-cpu:  %user   %nice %system %iowait  %steal   %idle
           3.13    0.00    0.28    0.22    0.00   96.37

Device:         rrqm/s   wrqm/s     r/s     w/s    rkB/s    wkB/s avgrq-sz avgqu-sz   await r_await w_await  svctm  %util
nvme0n1           0.00     0.00    0.00    0.00     0.00     0.00     0.00     0.00    0.00    0.00    0.00   0.00   0.00
sda               0.00     0.00   58.00    0.00   444.00     0.00    15.31     0.01    0.16    0.16    0.00   0.03   0.20
sdc               0.00     0.00 2188.00    0.00  8752.00     0.00     8.00     0.32    0.14    0.14    0.00   0.14  31.50
sdb               0.00     0.00 2199.00    0.00  8796.00     0.00     8.00     0.31    0.14    0.14    0.00   0.14  31.30
sdd               0.00     0.00 2183.00    0.00  8732.00     0.00     8.00     0.31    0.14    0.14    0.00   0.14  31.20
md0               0.00     0.00 6570.00    0.00 26280.00     0.00     8.00     0.00    0.00    0.00    0.00   0.00   0.00

avg-cpu:  %user   %nice %system %iowait  %steal   %idle
           3.07    0.00    0.28    0.22    0.00   96.43

Device:         rrqm/s   wrqm/s     r/s     w/s    rkB/s    wkB/s avgrq-sz avgqu-sz   await r_await w_await  svctm  %util
nvme0n1           0.00     0.00    0.00    0.00     0.00     0.00     0.00     0.00    0.00    0.00    0.00   0.00   0.00
sda               0.00     0.00    0.00    0.00     0.00     0.00     0.00     0.00    0.00    0.00    0.00   0.00   0.00
sdc               0.00     0.00 2213.00    0.00  8852.00     0.00     8.00     0.31    0.14    0.14    0.00   0.14  31.10
sdb               0.00     0.00 2226.00    0.00  8904.00     0.00     8.00     0.31    0.14    0.14    0.00   0.14  31.30
sdd               0.00     0.00 2150.00    0.00  8600.00     0.00     8.00     0.31    0.15    0.15    0.00   0.15  31.40
md0               0.00     0.00 6589.00    0.00 26356.00     0.00     8.00     0.00    0.00    0.00    0.00   0.00   0.00

avg-cpu:  %user   %nice %system %iowait  %steal   %idle
           3.07    0.00    0.22    0.25    0.00   96.46

Device:         rrqm/s   wrqm/s     r/s     w/s    rkB/s    wkB/s avgrq-sz avgqu-sz   await r_await w_await  svctm  %util
nvme0n1           0.00     0.00    0.00    0.00     0.00     0.00     0.00     0.00    0.00    0.00    0.00   0.00   0.00
sda               0.00     2.00    0.00   13.00     0.00    60.00     9.23     0.00    0.00    0.00    0.00   0.00   0.00
sdc               0.00     0.00 2260.00    0.00  9040.00     0.00     8.00     0.32    0.14    0.14    0.00   0.14  32.30
sdb               0.00     0.00 2176.00    0.00  8704.00     0.00     8.00     0.31    0.14    0.14    0.00   0.14  31.10
sdd               0.00     0.00 2170.00    0.00  8680.00     0.00     8.00     0.31    0.14    0.14    0.00   0.14  31.20
md0               0.00     0.00 6607.00    0.00 26428.00     0.00     8.00     0.00    0.00    0.00    0.00   0.00   0.00

avg-cpu:  %user   %nice %system %iowait  %steal   %idle
           3.13    0.00    0.19    0.25    0.00   96.43

Device:         rrqm/s   wrqm/s     r/s     w/s    rkB/s    wkB/s avgrq-sz avgqu-sz   await r_await w_await  svctm  %util
nvme0n1           0.00     0.00    0.00    0.00     0.00     0.00     0.00     0.00    0.00    0.00    0.00   0.00   0.00
sda               0.00     3.00    0.00    2.00     0.00    20.00    20.00     0.00    0.00    0.00    0.00   0.00   0.00
sdc               0.00     0.00 2019.00    0.00  8076.00     0.00     8.00     0.38    0.19    0.19    0.00   0.19  37.90
sdb               0.00     0.00 1952.00    0.00  7808.00     0.00     8.00     0.27    0.14    0.14    0.00   0.14  27.40
sdd               0.00     0.00 2046.00    0.00  8184.00     0.00     8.00     0.30    0.15    0.15    0.00   0.15  30.50
md0               0.00     0.00 6017.00    0.00 24068.00     0.00     8.00     0.00    0.00    0.00    0.00   0.00   0.00

avg-cpu:  %user   %nice %system %iowait  %steal   %idle
           3.07    0.00    0.22    0.22    0.00   96.49

Device:         rrqm/s   wrqm/s     r/s     w/s    rkB/s    wkB/s avgrq-sz avgqu-sz   await r_await w_await  svctm  %util
nvme0n1           0.00     0.00    0.00    0.00     0.00     0.00     0.00     0.00    0.00    0.00    0.00   0.00   0.00
sda               0.00     0.00    0.00    0.00     0.00     0.00     0.00     0.00    0.00    0.00    0.00   0.00   0.00
sdc               0.00     0.00 2234.00    0.00  8936.00     0.00     8.00     0.31    0.14    0.14    0.00   0.14  31.10
sdb               0.00     0.00 2152.00    0.00  8608.00     0.00     8.00     0.30    0.14    0.14    0.00   0.14  30.20
sdd               0.00     0.00 2309.00    0.00  9236.00     0.00     8.00     0.33    0.14    0.14    0.00   0.14  32.80
md0               0.00     0.00 6694.00    0.00 26776.00     0.00     8.00     0.00    0.00    0.00    0.00   0.00   0.00

avg-cpu:  %user   %nice %system %iowait  %steal   %idle
           3.10    0.00    0.19    0.22    0.00   96.49

Device:         rrqm/s   wrqm/s     r/s     w/s    rkB/s    wkB/s avgrq-sz avgqu-sz   await r_await w_await  svctm  %util
nvme0n1           0.00     0.00    0.00    0.00     0.00     0.00     0.00     0.00    0.00    0.00    0.00   0.00   0.00
sda               0.00     0.00    0.00    0.00     0.00     0.00     0.00     0.00    0.00    0.00    0.00   0.00   0.00
sdc               0.00     0.00 1974.00    0.00  7896.00     0.00     8.00     0.34    0.17    0.17    0.00   0.17  33.80
sdb               0.00     0.00 2190.00    0.00  8760.00     0.00     8.00     0.31    0.14    0.14    0.00   0.14  30.90
sdd               0.00     0.00 2050.00    0.00  8200.00     0.00     8.00     0.29    0.14    0.14    0.00   0.14  29.30
md0               0.00     0.00 6215.00    0.00 24860.00     0.00     8.00     0.00    0.00    0.00    0.00   0.00   0.00

avg-cpu:  %user   %nice %system %iowait  %steal   %idle
           3.07    0.00    0.38    0.31    0.00   96.25

Device:         rrqm/s   wrqm/s     r/s     w/s    rkB/s    wkB/s avgrq-sz avgqu-sz   await r_await w_await  svctm  %util
nvme0n1           0.00     0.00    0.00    0.00     0.00     0.00     0.00     0.00    0.00    0.00    0.00   0.00   0.00
sda               0.00     0.00    0.00    0.00     0.00     0.00     0.00     0.00    0.00    0.00    0.00   0.00   0.00
sdc               0.00     0.00 2104.00    0.00  8416.00     0.00     8.00     0.33    0.15    0.15    0.00   0.16  33.30
sdb               0.00     0.00 2203.00    0.00  8812.00     0.00     8.00     0.30    0.14    0.14    0.00   0.14  30.30
sdd               0.00     0.00 2075.00    0.00  8300.00     0.00     8.00     0.30    0.14    0.14    0.00   0.14  29.70
md0               0.00     0.00 6381.00    0.00 25524.00     0.00     8.00     0.00    0.00    0.00    0.00   0.00   0.00

avg-cpu:  %user   %nice %system %iowait  %steal   %idle
           3.10    0.00    0.22    0.16    0.00   96.52

Device:         rrqm/s   wrqm/s     r/s     w/s    rkB/s    wkB/s avgrq-sz avgqu-sz   await r_await w_await  svctm  %util
nvme0n1           0.00     0.00    0.00    0.00     0.00     0.00     0.00     0.00    0.00    0.00    0.00   0.00   0.00
sda               0.00     2.00    0.00    2.00     0.00    32.00    32.00     0.00    0.00    0.00    0.00   0.00   0.00
sdc               0.00     0.00 1962.00    0.00  7848.00     0.00     8.00     0.39    0.21    0.21    0.00   0.20  38.70
sdb               0.00     0.00 1992.00    0.00  7968.00     0.00     8.00     0.28    0.14    0.14    0.00   0.14  27.80
sdd               0.00     0.00 2035.00    0.00  8140.00     0.00     8.00     0.28    0.14    0.14    0.00   0.14  28.00
md0               0.00     0.00 5989.00    0.00 23956.00     0.00     8.00     0.00    0.00    0.00    0.00   0.00   0.00

avg-cpu:  %user   %nice %system %iowait  %steal   %idle
           3.07    0.00    0.28    0.22    0.00   96.43

Device:         rrqm/s   wrqm/s     r/s     w/s    rkB/s    wkB/s avgrq-sz avgqu-sz   await r_await w_await  svctm  %util
nvme0n1           0.00     0.00    0.00    0.00     0.00     0.00     0.00     0.00    0.00    0.00    0.00   0.00   0.00
sda               0.00     3.00    0.00    2.00     0.00    20.00    20.00     0.00    0.00    0.00    0.00   0.00   0.00
sdc               0.00     0.00 2233.00    0.00  8932.00     0.00     8.00     0.31    0.14    0.14    0.00   0.14  30.90
sdb               0.00     0.00 2290.00    0.00  9160.00     0.00     8.00     0.32    0.14    0.14    0.00   0.14  32.30
sdd               0.00     0.00 2138.00    0.00  8552.00     0.00     8.00     0.30    0.14    0.14    0.00   0.14  30.00
md0               0.00     0.00 6661.00    0.00 26644.00     0.00     8.00     0.00    0.00    0.00    0.00   0.00   0.00

avg-cpu:  %user   %nice %system %iowait  %steal   %idle
           3.10    0.00    0.28    0.22    0.00   96.40

Device:         rrqm/s   wrqm/s     r/s     w/s    rkB/s    wkB/s avgrq-sz avgqu-sz   await r_await w_await  svctm  %util
nvme0n1           0.00     0.00    0.00    0.00     0.00     0.00     0.00     0.00    0.00    0.00    0.00   0.00   0.00
sda               0.00     0.00    0.00    0.00     0.00     0.00     0.00     0.00    0.00    0.00    0.00   0.00   0.00
sdc               0.00     0.00 2059.00    0.00  8236.00     0.00     8.00     0.35    0.17    0.17    0.00   0.17  35.00
sdb               0.00     0.00 2144.00    0.00  8576.00     0.00     8.00     0.30    0.14    0.14    0.00   0.14  29.80
sdd               0.00     0.00 2030.00    0.00  8120.00     0.00     8.00     0.29    0.14    0.14    0.00   0.14  29.00
md0               0.00     0.00 6233.00    0.00 24932.00     0.00     8.00     0.00    0.00    0.00    0.00   0.00   0.00

avg-cpu:  %user   %nice %system %iowait  %steal   %idle
           3.07    0.00    0.28    0.22    0.00   96.43

Device:         rrqm/s   wrqm/s     r/s     w/s    rkB/s    wkB/s avgrq-sz avgqu-sz   await r_await w_await  svctm  %util
nvme0n1           0.00     0.00    0.00    0.00     0.00     0.00     0.00     0.00    0.00    0.00    0.00   0.00   0.00
sda               0.00     0.00    0.00    0.00     0.00     0.00     0.00     0.00    0.00    0.00    0.00   0.00   0.00
sdc               0.00     0.00 2260.00    0.00  9040.00     0.00     8.00     0.32    0.14    0.14    0.00   0.14  32.10
sdb               0.00     0.00 2187.00    0.00  8748.00     0.00     8.00     0.31    0.14    0.14    0.00   0.14  30.90
sdd               0.00     0.00 2121.00    0.00  8484.00     0.00     8.00     0.31    0.15    0.15    0.00   0.15  31.10
md0               0.00     0.00 6568.00    0.00 26272.00     0.00     8.00     0.00    0.00    0.00    0.00   0.00   0.00

avg-cpu:  %user   %nice %system %iowait  %steal   %idle
           3.10    0.00    0.25    0.22    0.00   96.43

Device:         rrqm/s   wrqm/s     r/s     w/s    rkB/s    wkB/s avgrq-sz avgqu-sz   await r_await w_await  svctm  %util
nvme0n1           0.00     0.00    0.00    0.00     0.00     0.00     0.00     0.00    0.00    0.00    0.00   0.00   0.00
sda               0.00     0.00    0.00    0.00     0.00     0.00     0.00     0.00    0.00    0.00    0.00   0.00   0.00
sdc               0.00     0.00 2013.00    0.00  8052.00     0.00     8.00     0.36    0.18    0.18    0.00   0.18  36.10
sdb               0.00     0.00 2026.00    0.00  8104.00     0.00     8.00     0.28    0.14    0.14    0.00   0.14  27.50
sdd               0.00     0.00 2148.00    0.00  8592.00     0.00     8.00     0.30    0.14    0.14    0.00   0.14  30.10
md0               0.00     0.00 6187.00    0.00 24748.00     0.00     8.00     0.00    0.00    0.00    0.00   0.00   0.00

avg-cpu:  %user   %nice %system %iowait  %steal   %idle
           3.07    0.00    0.25    0.22    0.00   96.46

Device:         rrqm/s   wrqm/s     r/s     w/s    rkB/s    wkB/s avgrq-sz avgqu-sz   await r_await w_await  svctm  %util
nvme0n1           0.00     0.00    0.00    0.00     0.00     0.00     0.00     0.00    0.00    0.00    0.00   0.00   0.00
sda               0.00     0.00    0.00    0.00     0.00     0.00     0.00     0.00    0.00    0.00    0.00   0.00   0.00
sdc               0.00     0.00 2196.00    0.00  8784.00     0.00     8.00     0.31    0.14    0.14    0.00   0.14  31.10
sdb               0.00     0.00 2210.00    0.00  8840.00     0.00     8.00     0.31    0.14    0.14    0.00   0.14  30.90
sdd               0.00     0.00 2216.00    0.00  8864.00     0.00     8.00     0.32    0.15    0.15    0.00   0.15  32.30
md0               0.00     0.00 6621.00    0.00 26484.00     0.00     8.00     0.00    0.00    0.00    0.00   0.00   0.00

avg-cpu:  %user   %nice %system %iowait  %steal   %idle
           3.10    0.00    0.25    0.25    0.00   96.40

Device:         rrqm/s   wrqm/s     r/s     w/s    rkB/s    wkB/s avgrq-sz avgqu-sz   await r_await w_await  svctm  %util
nvme0n1           0.00     0.00    0.00    0.00     0.00     0.00     0.00     0.00    0.00    0.00    0.00   0.00   0.00
sda               0.00     1.00    0.00    2.00     0.00    12.00    12.00     0.00    0.00    0.00    0.00   0.00   0.00
sdc               0.00     0.00 2181.00    0.00  8724.00     0.00     8.00     0.31    0.14    0.14    0.00   0.14  30.70
sdb               0.00     0.00 2211.00    0.00  8844.00     0.00     8.00     0.31    0.14    0.14    0.00   0.14  31.30
sdd               0.00     0.00 2214.00    0.00  8856.00     0.00     8.00     0.32    0.15    0.15    0.00   0.15  32.30
md0               0.00     0.00 6607.00    0.00 26428.00     0.00     8.00     0.00    0.00    0.00    0.00   0.00   0.00

avg-cpu:  %user   %nice %system %iowait  %steal   %idle
           3.10    0.00    0.25    0.22    0.00   96.43

Device:         rrqm/s   wrqm/s     r/s     w/s    rkB/s    wkB/s avgrq-sz avgqu-sz   await r_await w_await  svctm  %util
nvme0n1           0.00     0.00    0.00    0.00     0.00     0.00     0.00     0.00    0.00    0.00    0.00   0.00   0.00
sda               0.00     0.00    0.00    0.00     0.00     0.00     0.00     0.00    0.00    0.00    0.00   0.00   0.00
sdc               0.00     0.00 2175.00    0.00  8700.00     0.00     8.00     0.30    0.14    0.14    0.00   0.14  30.10
sdb               0.00     0.00 2161.00    0.00  8644.00     0.00     8.00     0.30    0.14    0.14    0.00   0.14  30.40
sdd               0.00     0.00 2293.00    0.00  9172.00     0.00     8.00     0.33    0.14    0.14    0.00   0.14  33.20
md0               0.00     0.00 6629.00    0.00 26516.00     0.00     8.00     0.00    0.00    0.00    0.00   0.00   0.00

avg-cpu:  %user   %nice %system %iowait  %steal   %idle
           3.07    0.00    0.28    0.19    0.00   96.46

Device:         rrqm/s   wrqm/s     r/s     w/s    rkB/s    wkB/s avgrq-sz avgqu-sz   await r_await w_await  svctm  %util
nvme0n1           0.00     0.00    0.00    0.00     0.00     0.00     0.00     0.00    0.00    0.00    0.00   0.00   0.00
sda               0.00     0.00    0.00    0.00     0.00     0.00     0.00     0.00    0.00    0.00    0.00   0.00   0.00
sdc               0.00     0.00 2140.00    0.00  8560.00     0.00     8.00     0.30    0.14    0.14    0.00   0.14  29.80
sdb               0.00     0.00 2273.00    0.00  9092.00     0.00     8.00     0.32    0.14    0.14    0.00   0.14  32.00
sdd               0.00     0.00 2181.00    0.00  8724.00     0.00     8.00     0.31    0.14    0.14    0.00   0.14  30.80
md0               0.00     0.00 6594.00    0.00 26376.00     0.00     8.00     0.00    0.00    0.00    0.00   0.00   0.00

avg-cpu:  %user   %nice %system %iowait  %steal   %idle
           3.10    0.00    0.19    0.25    0.00   96.46

Device:         rrqm/s   wrqm/s     r/s     w/s    rkB/s    wkB/s avgrq-sz avgqu-sz   await r_await w_await  svctm  %util
nvme0n1           0.00     0.00    0.00    0.00     0.00     0.00     0.00     0.00    0.00    0.00    0.00   0.00   0.00
sda               0.00     0.00    0.00    0.00     0.00     0.00     0.00     0.00    0.00    0.00    0.00   0.00   0.00
sdc               0.00     0.00 2172.00    0.00  8688.00     0.00     8.00     0.32    0.15    0.15    0.00   0.15  32.00
sdb               0.00     0.00 2216.00    0.00  8864.00     0.00     8.00     0.30    0.14    0.14    0.00   0.14  30.00
sdd               0.00     0.00 2157.00    0.00  8628.00     0.00     8.00     0.32    0.15    0.15    0.00   0.15  32.20
md0               0.00     0.00 6545.00    0.00 26180.00     0.00     8.00     0.00    0.00    0.00    0.00   0.00   0.00

