Linux 4.17.2 (bench2) 	08/03/2018 	_x86_64_	(32 CPU)

avg-cpu:  %user   %nice %system %iowait  %steal   %idle
           1.91    0.00    1.56    1.56    0.00   94.97

Device:         rrqm/s   wrqm/s     r/s     w/s    rkB/s    wkB/s avgrq-sz avgqu-sz   await r_await w_await  svctm  %util
nvme0n1         942.51     5.12 19000.61  523.15 106281.49 11798.50    12.10     1.35    0.05    0.03    0.67   0.02  39.78
sda               0.12     0.81   14.15    0.58   163.94     8.52    23.42     0.00    0.33    0.32    0.44   0.07   0.10
sdc              33.74     0.18  115.10    0.31  1742.82    97.94    31.90     0.03    0.28   12.64  380.35   0.92  10.64
sdb              31.69     0.19  117.11    0.33  1740.90    97.76    31.31     0.47    3.99    2.83  411.64   0.86  10.11
sdd              33.93     0.17  114.64    0.26  1738.82    97.43    31.96     0.79    6.83    4.77  907.87   0.93  10.64
md0               0.00     0.00  449.05    1.22  6465.93   353.46    30.29     0.00    0.00    0.00    0.00   0.00   0.00

avg-cpu:  %user   %nice %system %iowait  %steal   %idle
           3.07    0.00    0.28    2.79    0.00   93.87

Device:         rrqm/s   wrqm/s     r/s     w/s    rkB/s    wkB/s avgrq-sz avgqu-sz   await r_await w_await  svctm  %util
nvme0n1           0.00     0.00    0.00    0.00     0.00     0.00     0.00     0.00    0.00    0.00    0.00   0.00   0.00
sda               0.00     0.00   20.00    0.00   120.00     0.00    12.00     0.00    0.00    0.00    0.00   0.00   0.00
sdc               0.00     0.00 1987.00    0.00  7972.00     0.00     8.02     0.30    0.15    0.15    0.00   0.15  29.90
sdb               0.00     0.00 2149.00    0.00  8596.00     0.00     8.00     0.32    0.15    0.15    0.00   0.15  31.80
sdd               0.00     0.00 2051.00    0.00  8204.00     0.00     8.00     0.31    0.15    0.15    0.00   0.15  31.10
md0               0.00     0.00 6188.00    0.00 24776.00     0.00     8.01     0.00    0.00    0.00    0.00   0.00   0.00

avg-cpu:  %user   %nice %system %iowait  %steal   %idle
           3.09    0.00    0.34    2.81    0.00   93.75

Device:         rrqm/s   wrqm/s     r/s     w/s    rkB/s    wkB/s avgrq-sz avgqu-sz   await r_await w_await  svctm  %util
nvme0n1           0.00     0.00    0.00    0.00     0.00     0.00     0.00     0.00    0.00    0.00    0.00   0.00   0.00
sda               0.00     0.00    0.00    0.00     0.00     0.00     0.00     0.00    0.00    0.00    0.00   0.00   0.00
sdc               0.00     0.00 2159.00    0.00  8636.00     0.00     8.00     0.31    0.14    0.14    0.00   0.14  31.00
sdb               0.00     0.00 2223.00    0.00  8892.00     0.00     8.00     0.32    0.15    0.15    0.00   0.15  32.30
sdd               0.00     0.00 2093.00    0.00  8372.00     0.00     8.00     0.30    0.14    0.14    0.00   0.14  30.20
md0               0.00     0.00 6475.00    0.00 25900.00     0.00     8.00     0.00    0.00    0.00    0.00   0.00   0.00

avg-cpu:  %user   %nice %system %iowait  %steal   %idle
           3.10    0.00    0.31    2.78    0.00   93.81

Device:         rrqm/s   wrqm/s     r/s     w/s    rkB/s    wkB/s avgrq-sz avgqu-sz   await r_await w_await  svctm  %util
nvme0n1           0.00     0.00    0.00    0.00     0.00     0.00     0.00     0.00    0.00    0.00    0.00   0.00   0.00
sda               0.00     0.00    0.00    0.00     0.00     0.00     0.00     0.00    0.00    0.00    0.00   0.00   0.00
sdc               0.00     0.00 2172.00    0.00  8688.00     0.00     8.00     0.31    0.14    0.14    0.00   0.14  31.20
sdb               0.00     0.00 2134.00    0.00  8536.00     0.00     8.00     0.30    0.14    0.14    0.00   0.14  30.50
sdd               0.00     0.00 2125.00    0.00  8500.00     0.00     8.00     0.30    0.14    0.14    0.00   0.14  30.50
md0               0.00     0.00 6431.00    0.00 25724.00     0.00     8.00     0.00    0.00    0.00    0.00   0.00   0.00

avg-cpu:  %user   %nice %system %iowait  %steal   %idle
           3.09    0.00    0.38    2.78    0.00   93.75

Device:         rrqm/s   wrqm/s     r/s     w/s    rkB/s    wkB/s avgrq-sz avgqu-sz   await r_await w_await  svctm  %util
nvme0n1           0.00     0.00    0.00    0.00     0.00     0.00     0.00     0.00    0.00    0.00    0.00   0.00   0.00
sda               0.00     0.00    0.00    0.00     0.00     0.00     0.00     0.00    0.00    0.00    0.00   0.00   0.00
sdc               0.00     0.00 2145.00    0.00  8580.00     0.00     8.00     0.31    0.14    0.14    0.00   0.14  30.70
sdb               0.00     0.00 2209.00    0.00  8836.00     0.00     8.00     0.33    0.15    0.15    0.00   0.15  33.00
sdd               0.00     0.00 2109.00    0.00  8436.00     0.00     8.00     0.30    0.14    0.14    0.00   0.14  29.80
md0               0.00     0.00 6463.00    0.00 25852.00     0.00     8.00     0.00    0.00    0.00    0.00   0.00   0.00

avg-cpu:  %user   %nice %system %iowait  %steal   %idle
           3.10    0.00    0.28    2.78    0.00   93.84

Device:         rrqm/s   wrqm/s     r/s     w/s    rkB/s    wkB/s avgrq-sz avgqu-sz   await r_await w_await  svctm  %util
nvme0n1           0.00     0.00    0.00    0.00     0.00     0.00     0.00     0.00    0.00    0.00    0.00   0.00   0.00
sda               0.00     0.00    0.00    0.00     0.00     0.00     0.00     0.00    0.00    0.00    0.00   0.00   0.00
sdc               0.00     0.00 2221.00    0.00  8884.00     0.00     8.00     0.32    0.14    0.14    0.00   0.14  32.20
sdb               0.00     0.00 1999.00    0.00  7996.00     0.00     8.00     0.28    0.14    0.14    0.00   0.14  28.20
sdd               0.00     0.00 2244.00    0.00  8976.00     0.00     8.00     0.33    0.15    0.15    0.00   0.15  33.00
md0               0.00     0.00 6464.00    0.00 25856.00     0.00     8.00     0.00    0.00    0.00    0.00   0.00   0.00

avg-cpu:  %user   %nice %system %iowait  %steal   %idle
           3.10    0.00    0.31    2.78    0.00   93.81

Device:         rrqm/s   wrqm/s     r/s     w/s    rkB/s    wkB/s avgrq-sz avgqu-sz   await r_await w_await  svctm  %util
nvme0n1           0.00     0.00    0.00    0.00     0.00     0.00     0.00     0.00    0.00    0.00    0.00   0.00   0.00
sda               0.00    12.00    0.00    2.00     0.00    56.00    56.00     0.00    0.00    0.00    0.00   0.00   0.00
sdc               0.00     0.00 2177.00    0.00  8708.00     0.00     8.00     0.31    0.14    0.14    0.00   0.14  31.40
sdb               0.00     0.00 2173.00    0.00  8692.00     0.00     8.00     0.32    0.15    0.15    0.00   0.14  31.50
sdd               0.00     0.00 2159.00    0.00  8636.00     0.00     8.00     0.30    0.14    0.14    0.00   0.14  29.60
md0               0.00     0.00 6509.00    0.00 26036.00     0.00     8.00     0.00    0.00    0.00    0.00   0.00   0.00

avg-cpu:  %user   %nice %system %iowait  %steal   %idle
           3.06    0.00    0.34    2.81    0.00   93.78

Device:         rrqm/s   wrqm/s     r/s     w/s    rkB/s    wkB/s avgrq-sz avgqu-sz   await r_await w_await  svctm  %util
nvme0n1           0.00     0.00    0.00    0.00     0.00     0.00     0.00     0.00    0.00    0.00    0.00   0.00   0.00
sda               0.00     0.00    0.00    0.00     0.00     0.00     0.00     0.00    0.00    0.00    0.00   0.00   0.00
sdc               0.00     0.00 2014.00    0.00  8056.00     0.00     8.00     0.34    0.17    0.17    0.00   0.17  34.30
sdb               0.00     0.00 2030.00    0.00  8120.00     0.00     8.00     0.28    0.14    0.14    0.00   0.14  27.80
sdd               0.00     0.00 2121.00    0.00  8484.00     0.00     8.00     0.30    0.14    0.14    0.00   0.14  30.30
md0               0.00     0.00 6165.00    0.00 24660.00     0.00     8.00     0.00    0.00    0.00    0.00   0.00   0.00

avg-cpu:  %user   %nice %system %iowait  %steal   %idle
           3.07    0.00    0.28    2.78    0.00   93.87

Device:         rrqm/s   wrqm/s     r/s     w/s    rkB/s    wkB/s avgrq-sz avgqu-sz   await r_await w_await  svctm  %util
nvme0n1           0.00     0.00    0.00    0.00     0.00     0.00     0.00     0.00    0.00    0.00    0.00   0.00   0.00
sda               0.00     0.00    0.00    0.00     0.00     0.00     0.00     0.00    0.00    0.00    0.00   0.00   0.00
sdc               0.00     0.00 2139.00    0.00  8556.00     0.00     8.00     0.30    0.14    0.14    0.00   0.14  30.40
sdb               0.00     0.00 2276.00    0.00  9104.00     0.00     8.00     0.32    0.14    0.14    0.00   0.14  31.50
sdd               0.00     0.00 2156.00    0.00  8624.00     0.00     8.00     0.30    0.14    0.14    0.00   0.14  30.30
md0               0.00     0.00 6571.00    0.00 26284.00     0.00     8.00     0.00    0.00    0.00    0.00   0.00   0.00

avg-cpu:  %user   %nice %system %iowait  %steal   %idle
           3.07    0.00    0.34    2.78    0.00   93.81

Device:         rrqm/s   wrqm/s     r/s     w/s    rkB/s    wkB/s avgrq-sz avgqu-sz   await r_await w_await  svctm  %util
nvme0n1           0.00     0.00    0.00    0.00     0.00     0.00     0.00     0.00    0.00    0.00    0.00   0.00   0.00
sda               0.00     0.00    0.00    0.00     0.00     0.00     0.00     0.00    0.00    0.00    0.00   0.00   0.00
sdc               0.00     0.00 2031.00    0.00  8124.00     0.00     8.00     0.37    0.18    0.18    0.00   0.18  36.60
sdb               0.00     0.00 1923.00    0.00  7692.00     0.00     8.00     0.27    0.14    0.14    0.00   0.14  26.90
sdd               0.00     0.00 2054.00    0.00  8216.00     0.00     8.00     0.28    0.14    0.14    0.00   0.14  28.50
md0               0.00     0.00 6008.00    0.00 24032.00     0.00     8.00     0.00    0.00    0.00    0.00   0.00   0.00

avg-cpu:  %user   %nice %system %iowait  %steal   %idle
           3.09    0.00    0.31    2.81    0.00   93.78

Device:         rrqm/s   wrqm/s     r/s     w/s    rkB/s    wkB/s avgrq-sz avgqu-sz   await r_await w_await  svctm  %util
nvme0n1           0.00     0.00    0.00    0.00     0.00     0.00     0.00     0.00    0.00    0.00    0.00   0.00   0.00
sda               0.00     0.00    0.00    0.00     0.00     0.00     0.00     0.00    0.00    0.00    0.00   0.00   0.00
sdc               0.00     0.00 2207.00    0.00  8828.00     0.00     8.00     0.32    0.15    0.15    0.00   0.15  32.10
sdb               0.00     0.00 2223.00    0.00  8892.00     0.00     8.00     0.32    0.14    0.14    0.00   0.14  31.70
sdd               0.00     0.00 1977.00    0.00  7908.00     0.00     8.00     0.29    0.15    0.15    0.00   0.15  29.00
md0               0.00     0.00 6408.00    0.00 25632.00     0.00     8.00     0.00    0.00    0.00    0.00   0.00   0.00

avg-cpu:  %user   %nice %system %iowait  %steal   %idle
           3.06    0.00    0.31    2.81    0.00   93.81

Device:         rrqm/s   wrqm/s     r/s     w/s    rkB/s    wkB/s avgrq-sz avgqu-sz   await r_await w_await  svctm  %util
nvme0n1           0.00     0.00    0.00    0.00     0.00     0.00     0.00     0.00    0.00    0.00    0.00   0.00   0.00
sda               0.00     3.00    0.00    4.00     0.00    44.00    22.00     0.00    0.00    0.00    0.00   0.00   0.00
sdc               0.00     0.00 1887.00    0.00  7548.00     0.00     8.00     0.36    0.19    0.19    0.00   0.19  36.50
sdb               0.00     0.00 1955.00    0.00  7820.00     0.00     8.00     0.28    0.14    0.14    0.00   0.14  27.70
sdd               0.00     0.00 1998.00    0.00  7992.00     0.00     8.00     0.29    0.15    0.15    0.00   0.15  29.50
md0               0.00     0.00 5839.00    0.00 23356.00     0.00     8.00     0.00    0.00    0.00    0.00   0.00   0.00

avg-cpu:  %user   %nice %system %iowait  %steal   %idle
           3.07    0.00    0.31    2.78    0.00   93.84

Device:         rrqm/s   wrqm/s     r/s     w/s    rkB/s    wkB/s avgrq-sz avgqu-sz   await r_await w_await  svctm  %util
nvme0n1           0.00     0.00    0.00    0.00     0.00     0.00     0.00     0.00    0.00    0.00    0.00   0.00   0.00
sda               0.00     0.00    0.00    0.00     0.00     0.00     0.00     0.00    0.00    0.00    0.00   0.00   0.00
sdc               0.00     0.00 2292.00    0.00  9168.00     0.00     8.00     0.33    0.14    0.14    0.00   0.14  32.50
sdb               0.00     0.00 2149.00    0.00  8596.00     0.00     8.00     0.31    0.15    0.15    0.00   0.15  31.30
sdd               0.00     0.00 2089.00    0.00  8356.00     0.00     8.00     0.29    0.14    0.14    0.00   0.14  28.60
md0               0.00     0.00 6530.00    0.00 26120.00     0.00     8.00     0.00    0.00    0.00    0.00   0.00   0.00

avg-cpu:  %user   %nice %system %iowait  %steal   %idle
           3.10    0.00    0.34    2.78    0.00   93.78

Device:         rrqm/s   wrqm/s     r/s     w/s    rkB/s    wkB/s avgrq-sz avgqu-sz   await r_await w_await  svctm  %util
nvme0n1           0.00     0.00    0.00    0.00     0.00     0.00     0.00     0.00    0.00    0.00    0.00   0.00   0.00
sda               0.00     0.00    0.00    0.00     0.00     0.00     0.00     0.00    0.00    0.00    0.00   0.00   0.00
sdc               0.00     0.00 2086.00    0.00  8344.00     0.00     8.00     0.33    0.16    0.16    0.00   0.16  32.80
sdb               0.00     0.00 2139.00    0.00  8556.00     0.00     8.00     0.30    0.14    0.14    0.00   0.14  30.00
sdd               0.00     0.00 2088.00    0.00  8352.00     0.00     8.00     0.29    0.14    0.14    0.00   0.14  29.00
md0               0.00     0.00 6313.00    0.00 25252.00     0.00     8.00     0.00    0.00    0.00    0.00   0.00   0.00

avg-cpu:  %user   %nice %system %iowait  %steal   %idle
           3.07    0.00    0.31    2.78    0.00   93.84

Device:         rrqm/s   wrqm/s     r/s     w/s    rkB/s    wkB/s avgrq-sz avgqu-sz   await r_await w_await  svctm  %util
nvme0n1           0.00     0.00    0.00    0.00     0.00     0.00     0.00     0.00    0.00    0.00    0.00   0.00   0.00
sda               0.00     0.00    0.00    0.00     0.00     0.00     0.00     0.00    0.00    0.00    0.00   0.00   0.00
sdc               0.00     0.00 2146.00    0.00  8584.00     0.00     8.00     0.31    0.14    0.14    0.00   0.14  31.10
sdb               0.00     0.00 2159.00    0.00  8636.00     0.00     8.00     0.31    0.14    0.14    0.00   0.14  30.70
sdd               0.00     0.00 2079.00    0.00  8316.00     0.00     8.00     0.30    0.15    0.15    0.00   0.15  30.30
md0               0.00     0.00 6384.00    0.00 25536.00     0.00     8.00     0.00    0.00    0.00    0.00   0.00   0.00

avg-cpu:  %user   %nice %system %iowait  %steal   %idle
           3.06    0.00    0.34    2.81    0.00   93.78

Device:         rrqm/s   wrqm/s     r/s     w/s    rkB/s    wkB/s avgrq-sz avgqu-sz   await r_await w_await  svctm  %util
nvme0n1           0.00     0.00    0.00    0.00     0.00     0.00     0.00     0.00    0.00    0.00    0.00   0.00   0.00
sda               0.00     0.00    0.00    0.00     0.00     0.00     0.00     0.00    0.00    0.00    0.00   0.00   0.00
sdc               0.00     0.00 2061.00    0.00  8244.00     0.00     8.00     0.36    0.17    0.17    0.00   0.17  35.70
sdb               0.00     0.00 2048.00    0.00  8192.00     0.00     8.00     0.28    0.14    0.14    0.00   0.14  28.40
sdd               0.00     0.00 1975.00    0.00  7900.00     0.00     8.00     0.28    0.14    0.14    0.00   0.14  27.70
md0               0.00     0.00 6084.00    0.00 24336.00     0.00     8.00     0.00    0.00    0.00    0.00   0.00   0.00

avg-cpu:  %user   %nice %system %iowait  %steal   %idle
           3.07    0.00    0.31    2.78    0.00   93.84

Device:         rrqm/s   wrqm/s     r/s     w/s    rkB/s    wkB/s avgrq-sz avgqu-sz   await r_await w_await  svctm  %util
nvme0n1           0.00     0.00    0.00    0.00     0.00     0.00     0.00     0.00    0.00    0.00    0.00   0.00   0.00
sda               0.00     7.00    0.00   15.00     0.00   112.00    14.93     0.00    0.00    0.00    0.00   0.00   0.00
sdc               0.00     0.00 2061.00    0.00  8244.00     0.00     8.00     0.29    0.14    0.14    0.00   0.14  28.80
sdb               0.00     0.00 2166.00    0.00  8664.00     0.00     8.00     0.31    0.14    0.14    0.00   0.14  31.00
sdd               0.00     0.00 2262.00    0.00  9048.00     0.00     8.00     0.32    0.14    0.14    0.00   0.14  31.80
md0               0.00     0.00 6489.00    0.00 25956.00     0.00     8.00     0.00    0.00    0.00    0.00   0.00   0.00

avg-cpu:  %user   %nice %system %iowait  %steal   %idle
           3.07    0.00    0.31    2.78    0.00   93.84

Device:         rrqm/s   wrqm/s     r/s     w/s    rkB/s    wkB/s avgrq-sz avgqu-sz   await r_await w_await  svctm  %util
nvme0n1           0.00     0.00    0.00    0.00     0.00     0.00     0.00     0.00    0.00    0.00    0.00   0.00   0.00
sda               0.00     0.00    0.00    0.00     0.00     0.00     0.00     0.00    0.00    0.00    0.00   0.00   0.00
sdc               0.00     0.00 2213.00    0.00  8852.00     0.00     8.00     0.31    0.14    0.14    0.00   0.14  31.40
sdb               0.00     0.00 2147.00    0.00  8588.00     0.00     8.00     0.31    0.14    0.14    0.00   0.14  30.60
sdd               0.00     0.00 2091.00    0.00  8364.00     0.00     8.00     0.30    0.14    0.14    0.00   0.14  30.30
md0               0.00     0.00 6451.00    0.00 25804.00     0.00     8.00     0.00    0.00    0.00    0.00   0.00   0.00

avg-cpu:  %user   %nice %system %iowait  %steal   %idle
           3.09    0.00    0.38    2.78    0.00   93.75

Device:         rrqm/s   wrqm/s     r/s     w/s    rkB/s    wkB/s avgrq-sz avgqu-sz   await r_await w_await  svctm  %util
nvme0n1           0.00     0.00    0.00    0.00     0.00     0.00     0.00     0.00    0.00    0.00    0.00   0.00   0.00
sda               0.00     0.00    0.00    0.00     0.00     0.00     0.00     0.00    0.00    0.00    0.00   0.00   0.00
sdc               0.00     0.00 2108.00    0.00  8432.00     0.00     8.00     0.30    0.14    0.14    0.00   0.14  29.70
sdb               0.00     0.00 2223.00    0.00  8892.00     0.00     8.00     0.31    0.14    0.14    0.00   0.14  31.20
sdd               0.00     0.00 2238.00    0.00  8952.00     0.00     8.00     0.31    0.14    0.14    0.00   0.14  31.10
md0               0.00     0.00 6569.00    0.00 26276.00     0.00     8.00     0.00    0.00    0.00    0.00   0.00   0.00

avg-cpu:  %user   %nice %system %iowait  %steal   %idle
           3.09    0.00    0.34    2.78    0.00   93.78

Device:         rrqm/s   wrqm/s     r/s     w/s    rkB/s    wkB/s avgrq-sz avgqu-sz   await r_await w_await  svctm  %util
nvme0n1           0.00     0.00    0.00    0.00     0.00     0.00     0.00     0.00    0.00    0.00    0.00   0.00   0.00
sda               0.00     0.00    0.00    0.00     0.00     0.00     0.00     0.00    0.00    0.00    0.00   0.00   0.00
sdc               0.00     0.00 2165.00    0.00  8660.00     0.00     8.00     0.29    0.14    0.14    0.00   0.14  29.30
sdb               0.00     0.00 2174.00    0.00  8696.00     0.00     8.00     0.31    0.14    0.14    0.00   0.14  30.90
sdd               0.00     0.00 2169.00    0.00  8676.00     0.00     8.00     0.31    0.14    0.14    0.00   0.14  31.30
md0               0.00     0.00 6508.00    0.00 26032.00     0.00     8.00     0.00    0.00    0.00    0.00   0.00   0.00

avg-cpu:  %user   %nice %system %iowait  %steal   %idle
           3.07    0.00    0.28    2.82    0.00   93.84

Device:         rrqm/s   wrqm/s     r/s     w/s    rkB/s    wkB/s avgrq-sz avgqu-sz   await r_await w_await  svctm  %util
nvme0n1           0.00     0.00    0.00    0.00     0.00     0.00     0.00     0.00    0.00    0.00    0.00   0.00   0.00
sda               0.00     5.00    0.00    2.00     0.00    28.00    28.00     0.00    0.00    0.00    0.00   0.00   0.00
sdc               0.00     0.00 2088.00    0.00  8352.00     0.00     8.00     0.32    0.15    0.15    0.00   0.15  31.70
sdb               0.00     0.00 2085.00    0.00  8340.00     0.00     8.00     0.30    0.15    0.15    0.00   0.15  30.30
sdd               0.00     0.00 2173.00    0.00  8692.00     0.00     8.00     0.32    0.14    0.14    0.00   0.14  31.50
md0               0.00     0.00 6346.00    0.00 25384.00     0.00     8.00     0.00    0.00    0.00    0.00   0.00   0.00

