Linux 4.17.2 (bench2) 	08/04/2018 	_x86_64_	(32 CPU)

avg-cpu:  %user   %nice %system %iowait  %steal   %idle
           1.90    0.00    1.55    1.60    0.00   94.96

Device:         rrqm/s   wrqm/s     r/s     w/s    rkB/s    wkB/s avgrq-sz avgqu-sz   await r_await w_await  svctm  %util
nvme0n1         933.46     5.07 18818.27  518.13 105261.58 11685.27    12.10     1.34    0.05    0.03    0.67   0.02  39.39
sda               0.12     0.82   14.17    0.58   163.99     8.53    23.40     0.00    0.33    0.32    0.44   0.07   0.10
sdc              34.36     0.17  121.24    0.31  1829.65    97.00    31.70     0.10    0.80   12.42  380.35   0.91  11.04
sdb              32.33     0.19  123.23    0.33  1827.69    96.82    31.15     0.53    4.26    3.17  411.64   0.85  10.49
sdd              34.56     0.17  120.79    0.26  1825.69    96.50    31.76     0.84    6.95    5.01  907.87   0.91  11.04
md0               0.00     0.00  469.34    1.20  6800.83   350.07    30.39     0.00    0.00    0.00    0.00   0.00   0.00

avg-cpu:  %user   %nice %system %iowait  %steal   %idle
           3.06    0.00    0.31    0.31    0.00   96.31

Device:         rrqm/s   wrqm/s     r/s     w/s    rkB/s    wkB/s avgrq-sz avgqu-sz   await r_await w_await  svctm  %util
nvme0n1           0.00     0.00    0.00    0.00     0.00     0.00     0.00     0.00    0.00    0.00    0.00   0.00   0.00
sda               0.00     0.00    1.00    0.00     8.00     0.00    16.00     0.00    0.00    0.00    0.00   0.00   0.00
sdc              11.00     0.00 1598.00    0.00 18984.00     0.00    23.76     0.27    0.17    0.17    0.00   0.15  24.60
sdb              10.00     0.00 1651.00    0.00 20396.00     0.00    24.71     0.31    0.19    0.19    0.00   0.18  29.10
sdd              11.00     0.00 1610.00    0.00 20328.00     0.00    25.25     0.54    0.34    0.34    0.00   0.29  46.60
md0               0.00     0.00 4891.00    0.00 75584.00     0.00    30.91     0.00    0.00    0.00    0.00   0.00   0.00

avg-cpu:  %user   %nice %system %iowait  %steal   %idle
           3.07    0.00    0.19    0.22    0.00   96.52

Device:         rrqm/s   wrqm/s     r/s     w/s    rkB/s    wkB/s avgrq-sz avgqu-sz   await r_await w_await  svctm  %util
nvme0n1           0.00     0.00    0.00    0.00     0.00     0.00     0.00     0.00    0.00    0.00    0.00   0.00   0.00
sda               0.00     0.00    0.00    0.00     0.00     0.00     0.00     0.00    0.00    0.00    0.00   0.00   0.00
sdc              20.00     0.00 1580.00    0.00 25292.00     0.00    32.02     0.43    0.27    0.27    0.00   0.25  39.70
sdb              20.00     0.00 1571.00    0.00 24440.00     0.00    31.11     0.43    0.27    0.27    0.00   0.25  38.80
sdd              18.00     0.00 1576.00    0.00 26236.00     0.00    33.29     0.32    0.20    0.20    0.00   0.19  30.60
md0               0.00     0.00 4785.00    0.00 96376.00     0.00    40.28     0.00    0.00    0.00    0.00   0.00   0.00

