Linux 4.17.2 (bench2) 	08/03/2018 	_x86_64_	(32 CPU)

avg-cpu:  %user   %nice %system %iowait  %steal   %idle
           1.91    0.00    1.56    1.55    0.00   94.98

Device:         rrqm/s   wrqm/s     r/s     w/s    rkB/s    wkB/s avgrq-sz avgqu-sz   await r_await w_await  svctm  %util
nvme0n1         944.87     5.13 19048.22  524.46 106547.80 11828.06    12.10     1.36    0.05    0.03    0.67   0.02  39.88
sda               0.12     0.81   14.15    0.58   163.96     8.51    23.43     0.00    0.33    0.32    0.45   0.07   0.10
sdc              33.45     0.18  113.75    0.31  1709.46    98.18    31.69     0.00    0.04   12.58  380.35   0.92  10.52
sdb              31.39     0.19  115.77    0.33  1707.55    98.01    31.10     0.44    3.81    2.64  411.64   0.86   9.99
sdd              33.64     0.17  113.29    0.26  1705.47    97.68    31.76     0.76    6.69    4.59  907.87   0.93  10.52
md0               0.00     0.00  444.15    1.22  6332.76   354.35    30.03     0.00    0.00    0.00    0.00   0.00   0.00

avg-cpu:  %user   %nice %system %iowait  %steal   %idle
           0.01    0.00    0.10    0.68    0.00   99.21

Device:         rrqm/s   wrqm/s     r/s     w/s    rkB/s    wkB/s avgrq-sz avgqu-sz   await r_await w_await  svctm  %util
nvme0n1           0.00     0.00    0.00    0.00     0.00     0.00     0.00     0.00    0.00    0.00    0.00   0.00   0.00
sda               0.00     1.05    0.15    0.80     5.00     9.60    30.74     0.00    0.05    0.00    0.06   0.05   0.01
sdc               0.00     0.00   87.50    0.00   350.00     0.00     8.00     4.58   52.23   52.23    0.00   9.06  79.28
sdb               0.00     0.00   95.10    0.00   380.40     0.00     8.00     5.30   55.60   55.60    0.00   8.95  85.15
sdd               0.00     0.00   91.55    0.00   366.20     0.00     8.00     4.77   51.99   51.99    0.00   8.70  79.67
md0               0.00     0.00  275.10    0.00  1100.40     0.00     8.00     0.00    0.00    0.00    0.00   0.00   0.00

