Linux 4.17.2 (bench2) 	08/03/2018 	_x86_64_	(32 CPU)

avg-cpu:  %user   %nice %system %iowait  %steal   %idle
           1.91    0.00    1.56    1.57    0.00   94.97

Device:         rrqm/s   wrqm/s     r/s     w/s    rkB/s    wkB/s avgrq-sz avgqu-sz   await r_await w_await  svctm  %util
nvme0n1         940.36     5.11 18957.36  521.95 106039.58 11771.64    12.10     1.35    0.05    0.03    0.67   0.02  39.68
sda               0.12     0.81   14.15    0.58   163.97     8.52    23.42     0.00    0.33    0.32    0.44   0.07   0.10
sdc              33.86     0.18  116.81    0.31  1753.01    97.72    31.60     0.04    0.34   12.49  380.35   0.92  10.72
sdb              31.81     0.19  118.81    0.33  1751.08    97.54    31.03     0.47    3.98    2.84  411.64   0.85  10.19
sdd              34.06     0.17  116.35    0.26  1749.01    97.21    31.66     0.79    6.77    4.75  907.87   0.92  10.72
md0               0.00     0.00  454.54    1.21  6500.06   352.66    30.07     0.00    0.00    0.00    0.00   0.00   0.00

avg-cpu:  %user   %nice %system %iowait  %steal   %idle
           0.09    0.00    0.63    8.35    0.00   90.92

Device:         rrqm/s   wrqm/s     r/s     w/s    rkB/s    wkB/s avgrq-sz avgqu-sz   await r_await w_await  svctm  %util
nvme0n1           0.00     0.00    0.00    0.00     0.00     0.00     0.00     0.00    0.00    0.00    0.00   0.00   0.00
sda               0.00     0.00    4.00    0.00   104.00     0.00    52.00     0.00    0.25    0.25    0.00   0.25   0.10
sdc               1.00     0.00 1043.00    0.00  8536.00     0.00    16.37     0.90    0.87    0.87    0.00   0.18  18.90
sdb               2.00     0.00 1078.00    0.00  8368.00     0.00    15.53     2.06    1.91    1.91    0.00   0.36  38.70
sdd               1.00     0.00 1012.00    0.00  6948.00     0.00    13.73     1.86    1.84    1.84    0.00   0.47  47.70
md0               0.00     0.00 3143.00    0.00 24508.00     0.00    15.60     0.00    0.00    0.00    0.00   0.00   0.00

avg-cpu:  %user   %nice %system %iowait  %steal   %idle
           0.06    0.00    1.03    7.80    0.00   91.11

Device:         rrqm/s   wrqm/s     r/s     w/s    rkB/s    wkB/s avgrq-sz avgqu-sz   await r_await w_await  svctm  %util
nvme0n1           0.00     0.00    0.00    0.00     0.00     0.00     0.00     0.00    0.00    0.00    0.00   0.00   0.00
sda               0.00     0.00    0.00    0.00     0.00     0.00     0.00     0.00    0.00    0.00    0.00   0.00   0.00
sdc               1.00     0.00 1157.00    0.00  7512.00     0.00    12.99     1.56    1.32    1.32    0.00   0.34  39.60
sdb               2.00     0.00 1090.00    0.00  7292.00     0.00    13.38     0.77    0.71    0.71    0.00   0.19  21.10
sdd               2.00     0.00 1126.00    0.00  8252.00     0.00    14.66     1.65    1.47    1.47    0.00   0.38  42.40
md0               0.00     0.00 3455.00    0.00 25608.00     0.00    14.82     0.00    0.00    0.00    0.00   0.00   0.00

avg-cpu:  %user   %nice %system %iowait  %steal   %idle
           0.13    0.00    0.88    5.89    0.00   93.11

Device:         rrqm/s   wrqm/s     r/s     w/s    rkB/s    wkB/s avgrq-sz avgqu-sz   await r_await w_await  svctm  %util
nvme0n1           0.00     0.00    0.00    0.00     0.00     0.00     0.00     0.00    0.00    0.00    0.00   0.00   0.00
sda               0.00     0.00    0.00    0.00     0.00     0.00     0.00     0.00    0.00    0.00    0.00   0.00   0.00
sdc               0.00     0.00 1091.00    0.00  6356.00     0.00    11.65     1.02    0.94    0.94    0.00   0.24  26.40
sdb               2.00     0.00 1101.00    0.00  5960.00     0.00    10.83     1.83    1.65    1.65    0.00   0.47  51.90
sdd               2.00     0.00 1139.00    0.00  7084.00     0.00    12.44     0.75    0.67    0.67    0.00   0.18  20.30
md0               0.00     0.00 3334.00    0.00 20820.00     0.00    12.49     0.00    0.00    0.00    0.00   0.00   0.00

avg-cpu:  %user   %nice %system %iowait  %steal   %idle
           0.13    0.00    0.94    5.24    0.00   93.70

Device:         rrqm/s   wrqm/s     r/s     w/s    rkB/s    wkB/s avgrq-sz avgqu-sz   await r_await w_await  svctm  %util
nvme0n1           0.00     0.00    0.00    0.00     0.00     0.00     0.00     0.00    0.00    0.00    0.00   0.00   0.00
sda               0.00     0.00    0.00    0.00     0.00     0.00     0.00     0.00    0.00    0.00    0.00   0.00   0.00
sdc               1.00     0.00 1163.00    0.00  6468.00     0.00    11.12     1.07    0.94    0.94    0.00   0.25  28.50
sdb               1.00     0.00 1302.00    0.00  6968.00     0.00    10.70     1.70    1.33    1.33    0.00   0.36  47.20
sdd               1.00     0.00 1218.00    0.00  6072.00     0.00     9.97     0.97    0.80    0.80    0.00   0.21  25.70
md0               0.00     0.00 3688.00    0.00 21188.00     0.00    11.49     0.00    0.00    0.00    0.00   0.00   0.00

avg-cpu:  %user   %nice %system %iowait  %steal   %idle
           0.09    0.00    0.60    5.22    0.00   94.09

Device:         rrqm/s   wrqm/s     r/s     w/s    rkB/s    wkB/s avgrq-sz avgqu-sz   await r_await w_await  svctm  %util
nvme0n1           0.00     0.00    0.00    0.00     0.00     0.00     0.00     0.00    0.00    0.00    0.00   0.00   0.00
sda               0.00     0.00    0.00    0.00     0.00     0.00     0.00     0.00    0.00    0.00    0.00   0.00   0.00
sdc               1.00     0.00 1124.00    0.00  7912.00     0.00    14.08     0.68    0.61    0.61    0.00   0.17  18.60
sdb               1.00     0.00 1163.00    0.00  7144.00     0.00    12.29     2.44    2.07    2.07    0.00   0.55  64.30
sdd               2.00     0.00 1141.00    0.00  6872.00     0.00    12.05     0.73    0.64    0.64    0.00   0.17  19.70
md0               0.00     0.00 3436.00    0.00 22640.00     0.00    13.18     0.00    0.00    0.00    0.00   0.00   0.00

avg-cpu:  %user   %nice %system %iowait  %steal   %idle
           0.13    0.00    0.88    4.05    0.00   94.95

Device:         rrqm/s   wrqm/s     r/s     w/s    rkB/s    wkB/s avgrq-sz avgqu-sz   await r_await w_await  svctm  %util
nvme0n1           0.00     0.00    0.00    0.00     0.00     0.00     0.00     0.00    0.00    0.00    0.00   0.00   0.00
sda               0.00     8.00    0.00    2.00     0.00    40.00    40.00     0.00    0.00    0.00    0.00   0.00   0.00
sdc               4.00     0.00 1187.00    0.00  9156.00     0.00    15.43     1.09    0.92    0.92    0.00   0.25  30.20
sdb               4.00     0.00 1145.00    0.00  8084.00     0.00    14.12     1.89    1.67    1.67    0.00   0.45  51.80
sdd               5.00     0.00 1174.00    0.00  8416.00     0.00    14.34     0.70    0.60    0.60    0.00   0.18  21.00
md0               0.00     0.00 3520.00    0.00 28336.00     0.00    16.10     0.00    0.00    0.00    0.00   0.00   0.00

avg-cpu:  %user   %nice %system %iowait  %steal   %idle
           0.06    0.00    0.85    3.89    0.00   95.20

Device:         rrqm/s   wrqm/s     r/s     w/s    rkB/s    wkB/s avgrq-sz avgqu-sz   await r_await w_await  svctm  %util
nvme0n1           0.00     0.00    0.00    0.00     0.00     0.00     0.00     0.00    0.00    0.00    0.00   0.00   0.00
sda               0.00     0.00    0.00    0.00     0.00     0.00     0.00     0.00    0.00    0.00    0.00   0.00   0.00
sdc               5.00     0.00 1087.00    0.00  8600.00     0.00    15.82     0.98    0.90    0.90    0.00   0.27  29.10
sdb               6.00     0.00 1088.00    0.00  8368.00     0.00    15.38     1.18    1.10    1.10    0.00   0.31  34.00
sdd               5.00     0.00 1148.00    0.00  8408.00     0.00    14.65     1.74    1.51    1.51    0.00   0.38  43.60
md0               0.00     0.00 3338.00    0.00 27600.00     0.00    16.54     0.00    0.00    0.00    0.00   0.00   0.00

avg-cpu:  %user   %nice %system %iowait  %steal   %idle
           0.06    0.00    1.03    4.01    0.00   94.89

Device:         rrqm/s   wrqm/s     r/s     w/s    rkB/s    wkB/s avgrq-sz avgqu-sz   await r_await w_await  svctm  %util
nvme0n1           0.00     0.00    0.00    0.00     0.00     0.00     0.00     0.00    0.00    0.00    0.00   0.00   0.00
sda               0.00     1.00    0.00    2.00     0.00    12.00    12.00     0.00    0.00    0.00    0.00   0.00   0.00
sdc               2.00     0.00 1103.00    0.00  7040.00     0.00    12.77     1.76    1.60    1.60    0.00   0.43  47.70
sdb               1.00     0.00 1177.00    0.00  7500.00     0.00    12.74     0.75    0.64    0.64    0.00   0.17  20.50
sdd               1.00     0.00 1128.00    0.00  6784.00     0.00    12.03     1.10    0.98    0.98    0.00   0.27  30.40
md0               0.00     0.00 3410.00    0.00 23384.00     0.00    13.71     0.00    0.00    0.00    0.00   0.00   0.00

avg-cpu:  %user   %nice %system %iowait  %steal   %idle
           0.13    0.00    0.91    3.72    0.00   95.24

Device:         rrqm/s   wrqm/s     r/s     w/s    rkB/s    wkB/s avgrq-sz avgqu-sz   await r_await w_await  svctm  %util
nvme0n1           0.00     0.00    0.00    0.00     0.00     0.00     0.00     0.00    0.00    0.00    0.00   0.00   0.00
sda               0.00     0.00    0.00    0.00     0.00     0.00     0.00     0.00    0.00    0.00    0.00   0.00   0.00
sdc               1.00     0.00  985.00    0.00  4928.00     0.00    10.01     1.33    1.36    1.36    0.00   0.37  36.80
sdb               1.00     0.00  975.00    0.00  5212.00     0.00    10.69     0.49    0.51    0.51    0.00   0.14  13.40
sdd               1.00     0.00  997.00    0.00  5132.00     0.00    10.29     1.78    1.78    1.78    0.00   0.50  50.10
md0               0.00     0.00 2961.00    0.00 16160.00     0.00    10.92     0.00    0.00    0.00    0.00   0.00   0.00

avg-cpu:  %user   %nice %system %iowait  %steal   %idle
           0.06    0.00    0.63    3.07    0.00   96.23

Device:         rrqm/s   wrqm/s     r/s     w/s    rkB/s    wkB/s avgrq-sz avgqu-sz   await r_await w_await  svctm  %util
nvme0n1           0.00     0.00    0.00    0.00     0.00     0.00     0.00     0.00    0.00    0.00    0.00   0.00   0.00
sda               0.00     0.00    0.00    0.00     0.00     0.00     0.00     0.00    0.00    0.00    0.00   0.00   0.00
sdc               0.00     0.00 1006.00    0.00  5936.00     0.00    11.80     1.86    1.85    1.85    0.00   0.50  50.50
sdb               1.00     0.00  958.00    0.00  4872.00     0.00    10.17     0.69    0.73    0.73    0.00   0.22  21.30
sdd               0.00     0.00 1024.00    0.00  5980.00     0.00    11.68     1.12    1.10    1.10    0.00   0.29  29.40
md0               0.00     0.00 2992.00    0.00 17492.00     0.00    11.69     0.00    0.00    0.00    0.00   0.00   0.00

avg-cpu:  %user   %nice %system %iowait  %steal   %idle
           0.09    0.00    0.97    2.51    0.00   96.43

Device:         rrqm/s   wrqm/s     r/s     w/s    rkB/s    wkB/s avgrq-sz avgqu-sz   await r_await w_await  svctm  %util
nvme0n1           0.00     0.00    0.00    0.00     0.00     0.00     0.00     0.00    0.00    0.00    0.00   0.00   0.00
sda               0.00     3.00    0.00    2.00     0.00    20.00    20.00     0.00    0.00    0.00    0.00   0.00   0.00
sdc               0.00     0.00 1189.00    0.00  7036.00     0.00    11.84     1.54    1.29    1.29    0.00   0.35  42.20
sdb               2.00     0.00 1193.00    0.00  7012.00     0.00    11.76     0.94    0.79    0.79    0.00   0.23  27.30
sdd               1.00     0.00 1148.00    0.00  6196.00     0.00    10.79     1.12    0.98    0.98    0.00   0.28  31.70
md0               0.00     0.00 3533.00    0.00 21768.00     0.00    12.32     0.00    0.00    0.00    0.00   0.00   0.00

avg-cpu:  %user   %nice %system %iowait  %steal   %idle
           0.09    0.00    0.69    4.20    0.00   95.01

Device:         rrqm/s   wrqm/s     r/s     w/s    rkB/s    wkB/s avgrq-sz avgqu-sz   await r_await w_await  svctm  %util
nvme0n1           0.00     0.00    0.00    0.00     0.00     0.00     0.00     0.00    0.00    0.00    0.00   0.00   0.00
sda               0.00     0.00    0.00    0.00     0.00     0.00     0.00     0.00    0.00    0.00    0.00   0.00   0.00
sdc               1.00     0.00 1105.00    0.00  5384.00     0.00     9.74     1.19    1.05    1.05    0.00   0.24  26.90
sdb               1.00     0.00 1126.00    0.00  5820.00     0.00    10.34     1.53    1.36    1.36    0.00   0.34  38.00
sdd               1.00     0.00 1069.00    0.00  5456.00     0.00    10.21     1.23    1.15    1.15    0.00   0.31  33.10
md0               0.00     0.00 3307.00    0.00 17552.00     0.00    10.62     0.00    0.00    0.00    0.00   0.00   0.00

avg-cpu:  %user   %nice %system %iowait  %steal   %idle
           0.09    0.00    0.88    2.45    0.00   96.58

Device:         rrqm/s   wrqm/s     r/s     w/s    rkB/s    wkB/s avgrq-sz avgqu-sz   await r_await w_await  svctm  %util
nvme0n1           0.00     0.00    0.00    0.00     0.00     0.00     0.00     0.00    0.00    0.00    0.00   0.00   0.00
sda               0.00     2.00    0.00    1.00     0.00    28.00    56.00     0.00    0.00    0.00    0.00   0.00   0.00
sdc               1.00     0.00 1193.00    0.00  5408.00     0.00     9.07     1.99    1.71    1.71    0.00   0.44  52.40
sdb               0.00     0.00 1221.00    0.00  7216.00     0.00    11.82     1.00    0.83    0.83    0.00   0.21  26.00
sdd               2.00     0.00 1207.00    0.00  6636.00     0.00    11.00     0.77    0.64    0.64    0.00   0.17  20.70
md0               0.00     0.00 3627.00    0.00 20096.00     0.00    11.08     0.00    0.00    0.00    0.00   0.00   0.00

avg-cpu:  %user   %nice %system %iowait  %steal   %idle
           0.06    0.00    0.66    1.63    0.00   97.65

Device:         rrqm/s   wrqm/s     r/s     w/s    rkB/s    wkB/s avgrq-sz avgqu-sz   await r_await w_await  svctm  %util
nvme0n1           0.00     0.00    0.00    0.00     0.00     0.00     0.00     0.00    0.00    0.00    0.00   0.00   0.00
sda               0.00     0.00    0.00    0.00     0.00     0.00     0.00     0.00    0.00    0.00    0.00   0.00   0.00
sdc               2.00     0.00  968.00    0.00  7500.00     0.00    15.50     1.63    1.67    1.67    0.00   0.51  49.70
sdb               4.00     0.00 1012.00    0.00  7824.00     0.00    15.46     1.13    1.12    1.12    0.00   0.28  28.70
sdd               4.00     0.00  922.00    0.00  7764.00     0.00    16.84     0.88    0.94    0.94    0.00   0.27  25.10
md0               0.00     0.00 2916.00    0.00 25004.00     0.00    17.15     0.00    0.00    0.00    0.00   0.00   0.00

avg-cpu:  %user   %nice %system %iowait  %steal   %idle
           0.09    0.00    0.85    1.53    0.00   97.53

Device:         rrqm/s   wrqm/s     r/s     w/s    rkB/s    wkB/s avgrq-sz avgqu-sz   await r_await w_await  svctm  %util
nvme0n1           0.00     0.00    0.00    0.00     0.00     0.00     0.00     0.00    0.00    0.00    0.00   0.00   0.00
sda               0.00     0.00    0.00    0.00     0.00     0.00     0.00     0.00    0.00    0.00    0.00   0.00   0.00
sdc               3.00     0.00 1038.00    0.00  7016.00     0.00    13.52     1.12    1.10    1.10    0.00   0.31  32.50
sdb               2.00     0.00 1094.00    0.00  6972.00     0.00    12.75     0.77    0.70    0.70    0.00   0.20  21.50
sdd               2.00     0.00 1088.00    0.00  7172.00     0.00    13.18     1.78    1.64    1.64    0.00   0.43  47.10
md0               0.00     0.00 3227.00    0.00 24196.00     0.00    15.00     0.00    0.00    0.00    0.00   0.00   0.00

avg-cpu:  %user   %nice %system %iowait  %steal   %idle
           0.09    0.00    0.84    0.94    0.00   98.12

Device:         rrqm/s   wrqm/s     r/s     w/s    rkB/s    wkB/s avgrq-sz avgqu-sz   await r_await w_await  svctm  %util
nvme0n1           0.00     0.00    0.00    0.00     0.00     0.00     0.00     0.00    0.00    0.00    0.00   0.00   0.00
sda               0.00     3.00    0.00    2.00     0.00    20.00    20.00     0.00    0.00    0.00    0.00   0.00   0.00
sdc               7.00     0.00 1018.00    0.00  8776.00     0.00    17.24     0.71    0.70    0.70    0.00   0.21  21.60
sdb               7.00     0.00 1037.00    0.00  7936.00     0.00    15.31     0.87    0.84    0.84    0.00   0.25  25.60
sdd               8.00     0.00 1008.00    0.00  9472.00     0.00    18.79     2.04    2.00    2.00    0.00   0.58  58.10
md0               0.00     0.00 3115.00    0.00 33552.00     0.00    21.54     0.00    0.00    0.00    0.00   0.00   0.00

avg-cpu:  %user   %nice %system %iowait  %steal   %idle
           0.13    0.00    0.81    0.28    0.00   98.78

Device:         rrqm/s   wrqm/s     r/s     w/s    rkB/s    wkB/s avgrq-sz avgqu-sz   await r_await w_await  svctm  %util
nvme0n1           0.00     0.00    0.00    0.00     0.00     0.00     0.00     0.00    0.00    0.00    0.00   0.00   0.00
sda               0.00     0.00    0.00    0.00     0.00     0.00     0.00     0.00    0.00    0.00    0.00   0.00   0.00
sdc               1.00     0.00 1116.00    0.00  5960.00     0.00    10.68     0.81    0.73    0.73    0.00   0.19  20.80
sdb               1.00     0.00 1128.00    0.00  6196.00     0.00    10.99     0.86    0.76    0.76    0.00   0.21  23.90
sdd               1.00     0.00 1173.00    0.00  6192.00     0.00    10.56     2.14    1.82    1.82    0.00   0.47  54.80
md0               0.00     0.00 3445.00    0.00 19228.00     0.00    11.16     0.00    0.00    0.00    0.00   0.00   0.00

avg-cpu:  %user   %nice %system %iowait  %steal   %idle
           0.06    0.00    0.91    0.34    0.00   98.69

Device:         rrqm/s   wrqm/s     r/s     w/s    rkB/s    wkB/s avgrq-sz avgqu-sz   await r_await w_await  svctm  %util
nvme0n1           0.00     0.00    0.00    0.00     0.00     0.00     0.00     0.00    0.00    0.00    0.00   0.00   0.00
sda               0.00     1.00    0.00    1.00     0.00    32.00    64.00     0.00    0.00    0.00    0.00   0.00   0.00
sdc               0.00     0.00 1111.00    0.00  5224.00     0.00     9.40     0.66    0.59    0.59    0.00   0.16  18.30
sdb               0.00     0.00 1135.00    0.00  6420.00     0.00    11.31     1.99    1.67    1.67    0.00   0.41  46.00
sdd               2.00     0.00 1120.00    0.00  5552.00     0.00     9.91     1.28    1.14    1.14    0.00   0.31  34.70
md0               0.00     0.00 3381.00    0.00 18136.00     0.00    10.73     0.00    0.00    0.00    0.00   0.00   0.00

avg-cpu:  %user   %nice %system %iowait  %steal   %idle
           0.16    0.00    0.91    1.41    0.00   97.53

Device:         rrqm/s   wrqm/s     r/s     w/s    rkB/s    wkB/s avgrq-sz avgqu-sz   await r_await w_await  svctm  %util
nvme0n1           0.00     0.00    0.00    0.00     0.00     0.00     0.00     0.00    0.00    0.00    0.00   0.00   0.00
sda               0.00     0.00    0.00    0.00     0.00     0.00     0.00     0.00    0.00    0.00    0.00   0.00   0.00
sdc               2.00     0.00 1095.00    0.00  6312.00     0.00    11.53     0.88    0.81    0.81    0.00   0.22  24.30
sdb               1.00     0.00 1098.00    0.00  6292.00     0.00    11.46     0.66    0.69    0.69    0.00   0.18  19.40
sdd               1.00     0.00 1116.00    0.00  6116.00     0.00    10.96     2.02    1.81    1.81    0.00   0.50  55.50
md0               0.00     0.00 3302.00    0.00 19432.00     0.00    11.77     0.00    0.00    0.00    0.00   0.00   0.00

avg-cpu:  %user   %nice %system %iowait  %steal   %idle
           0.13    0.00    0.75    1.60    0.00   97.52

Device:         rrqm/s   wrqm/s     r/s     w/s    rkB/s    wkB/s avgrq-sz avgqu-sz   await r_await w_await  svctm  %util
nvme0n1           0.00     0.00    0.00    0.00     0.00     0.00     0.00     0.00    0.00    0.00    0.00   0.00   0.00
sda               0.00     0.00    0.00    0.00     0.00     0.00     0.00     0.00    0.00    0.00    0.00   0.00   0.00
sdc               2.00     0.00 1082.00    0.00  6128.00     0.00    11.33     1.32    1.22    1.22    0.00   0.31  34.00
sdb               1.00     0.00 1065.00    0.00  5204.00     0.00     9.77     0.78    0.73    0.73    0.00   0.20  21.40
sdd               2.00     0.00 1104.00    0.00  5756.00     0.00    10.43     1.77    1.60    1.60    0.00   0.40  44.20
md0               0.00     0.00 3263.00    0.00 18304.00     0.00    11.22     0.00    0.00    0.00    0.00   0.00   0.00

