Linux 4.17.2 (bench2) 	08/03/2018 	_x86_64_	(32 CPU)

avg-cpu:  %user   %nice %system %iowait  %steal   %idle
           1.91    0.00    1.56    1.57    0.00   94.97

Device:         rrqm/s   wrqm/s     r/s     w/s    rkB/s    wkB/s avgrq-sz avgqu-sz   await r_await w_await  svctm  %util
nvme0n1         940.83     5.11 18966.72  522.21 106091.90 11777.45    12.10     1.35    0.05    0.03    0.67   0.02  39.70
sda               0.12     0.81   14.15    0.58   163.97     8.52    23.42     0.00    0.33    0.32    0.44   0.07   0.10
sdc              33.87     0.18  116.51    0.31  1746.98    97.76    31.58     0.04    0.34   12.53  380.35   0.92  10.70
sdb              31.82     0.19  118.51    0.33  1745.06    97.59    31.01     0.47    3.99    2.85  411.64   0.86  10.17
sdd              34.07     0.17  116.05    0.26  1742.98    97.26    31.64     0.79    6.79    4.76  907.87   0.92  10.70
md0               0.00     0.00  453.67    1.21  6476.21   352.83    30.03     0.00    0.00    0.00    0.00   0.00   0.00

avg-cpu:  %user   %nice %system %iowait  %steal   %idle
           0.03    0.00    0.13    2.97    0.00   96.87

Device:         rrqm/s   wrqm/s     r/s     w/s    rkB/s    wkB/s avgrq-sz avgqu-sz   await r_await w_await  svctm  %util
nvme0n1           0.00     0.00    0.00    0.00     0.00     0.00     0.00     0.00    0.00    0.00    0.00   0.00   0.00
sda               0.00     0.00   18.00    0.00    76.00     0.00     8.44     0.01    0.61    0.61    0.00   0.06   0.10
sdc               0.00     0.00  177.00    0.00  2184.00     0.00    24.68     0.11    0.63    0.63    0.00   0.60  10.60
sdb               0.00     0.00  194.00    0.00  3568.00     0.00    36.78     0.45    2.34    2.34    0.00   2.27  44.00
sdd               0.00     0.00  213.00    0.00  3200.00     0.00    30.05     0.44    2.07    2.07    0.00   2.03  43.30
md0               0.00     0.00  584.00    0.00 10160.00     0.00    34.79     0.00    0.00    0.00    0.00   0.00   0.00

avg-cpu:  %user   %nice %system %iowait  %steal   %idle
           0.00    0.00    0.09    2.97    0.00   96.94

Device:         rrqm/s   wrqm/s     r/s     w/s    rkB/s    wkB/s avgrq-sz avgqu-sz   await r_await w_await  svctm  %util
nvme0n1           0.00     0.00    0.00    0.00     0.00     0.00     0.00     0.00    0.00    0.00    0.00   0.00   0.00
sda               0.00    11.00    0.00    2.00     0.00    52.00    52.00     0.00    0.00    0.00    0.00   0.00   0.00
sdc               1.00     0.00  182.00    0.00  3140.00     0.00    34.51     0.35    1.95    1.95    0.00   1.91  34.80
sdb               2.00     0.00  188.00    0.00  3684.00     0.00    39.19     0.40    2.13    2.13    0.00   2.11  39.60
sdd               1.00     0.00  212.00    0.00  3556.00     0.00    33.55     0.25    1.19    1.19    0.00   1.18  25.00
md0               0.00     0.00  586.00    0.00 11424.00     0.00    38.99     0.00    0.00    0.00    0.00   0.00   0.00

