Linux 4.17.2 (bench2) 	08/03/2018 	_x86_64_	(32 CPU)

avg-cpu:  %user   %nice %system %iowait  %steal   %idle
           1.91    0.00    1.56    1.55    0.00   94.98

Device:         rrqm/s   wrqm/s     r/s     w/s    rkB/s    wkB/s avgrq-sz avgqu-sz   await r_await w_await  svctm  %util
nvme0n1         946.07     5.14 19072.47  525.12 106683.47 11843.12    12.10     1.36    0.05    0.03    0.67   0.02  39.93
sda               0.11     0.81   14.15    0.58   163.95     8.51    23.43     0.00    0.33    0.32    0.45   0.07   0.10
sdc              33.42     0.18  112.93    0.31  1697.60    98.31    31.72     0.00   13.66   12.64  380.35   0.92  10.47
sdb              31.37     0.19  114.94    0.33  1695.70    98.13    31.12     0.44    3.81    2.62  411.64   0.86   9.95
sdd              33.62     0.17  112.47    0.26  1693.61    97.80    31.78     0.76    6.70    4.59  907.87   0.93  10.47
md0               0.00     0.00  441.60    1.22  6286.65   354.80    30.00     0.00    0.00    0.00    0.00   0.00   0.00

avg-cpu:  %user   %nice %system %iowait  %steal   %idle
           0.00    0.00    0.04   38.92    0.00   61.04

Device:         rrqm/s   wrqm/s     r/s     w/s    rkB/s    wkB/s avgrq-sz avgqu-sz   await r_await w_await  svctm  %util
nvme0n1           0.00     0.00    0.00    0.00     0.00     0.00     0.00     0.00    0.00    0.00    0.00   0.00   0.00
sda               0.00     1.20    0.15    1.35     2.60    12.60    20.27     0.00    0.03    0.00    0.04   0.03   0.01
sdc               0.00     0.00  116.10    0.00   465.60     0.00     8.02     9.13   78.63   78.63    0.00   8.47  98.32
sdb               0.00     0.00  118.70    0.00   474.80     0.00     8.00    11.23   94.25   94.25    0.00   8.28  98.33
sdd               0.00     0.00  115.15    0.00   460.60     0.00     8.00     8.27   71.54   71.54    0.00   8.34  96.05
md0               0.00     0.00  351.05    0.00  1405.40     0.00     8.01     0.00    0.00    0.00    0.00   0.00   0.00

