Linux 4.17.2 (bench2) 	08/03/2018 	_x86_64_	(32 CPU)

avg-cpu:  %user   %nice %system %iowait  %steal   %idle
           1.91    0.00    1.56    1.55    0.00   94.98

Device:         rrqm/s   wrqm/s     r/s     w/s    rkB/s    wkB/s avgrq-sz avgqu-sz   await r_await w_await  svctm  %util
nvme0n1         943.96     5.13 19029.90  523.95 106445.35 11816.69    12.10     1.35    0.05    0.03    0.67   0.02  39.84
sda               0.12     0.81   14.15    0.58   163.96     8.52    23.43     0.00    0.33    0.32    0.44   0.07   0.10
sdc              33.43     0.18  114.27    0.31  1720.58    98.09    31.74     0.01    0.07   12.54  380.35   0.92  10.56
sdb              31.38     0.19  116.28    0.33  1718.67    97.91    31.15     0.45    3.82    2.65  411.64   0.86  10.03
sdd              33.63     0.17  113.81    0.26  1716.59    97.58    31.81     0.76    6.68    4.60  907.87   0.93  10.56
md0               0.00     0.00  445.65    1.22  6377.64   354.01    30.13     0.00    0.00    0.00    0.00   0.00   0.00

avg-cpu:  %user   %nice %system %iowait  %steal   %idle
           0.00    0.00    0.03    0.06    0.00   99.91

Device:         rrqm/s   wrqm/s     r/s     w/s    rkB/s    wkB/s avgrq-sz avgqu-sz   await r_await w_await  svctm  %util
nvme0n1           0.00     0.00    0.00    0.00     0.00     0.00     0.00     0.00    0.00    0.00    0.00   0.00   0.00
sda               0.00     0.00    4.00    0.00   104.00     0.00    52.00     0.00    0.25    0.25    0.00   0.25   0.10
sdc               5.00     0.00  333.00    0.00  1352.00     0.00     8.12    11.79   33.61   33.61    0.00   2.43  80.90
sdb              18.00     0.00  371.00    0.00  1556.00     0.00     8.39    14.31   36.30   36.30    0.00   2.26  83.80
sdd               7.00     0.00  340.00    0.00  1388.00     0.00     8.16    14.13   39.92   39.92    0.00   2.61  88.90
md0               0.00     0.00 1131.00    0.00  4524.00     0.00     8.00     0.00    0.00    0.00    0.00   0.00   0.00

avg-cpu:  %user   %nice %system %iowait  %steal   %idle
           0.00    0.00    0.00    0.09    0.00   99.91

Device:         rrqm/s   wrqm/s     r/s     w/s    rkB/s    wkB/s avgrq-sz avgqu-sz   await r_await w_await  svctm  %util
nvme0n1           0.00     0.00    0.00    0.00     0.00     0.00     0.00     0.00    0.00    0.00    0.00   0.00   0.00
sda               0.00     0.00    0.00    0.00     0.00     0.00     0.00     0.00    0.00    0.00    0.00   0.00   0.00
sdc               9.00     0.00  362.00    0.00  1484.00     0.00     8.20    13.96   40.20   40.20    0.00   2.40  86.70
sdb               3.00     0.00  359.00    0.00  1448.00     0.00     8.07    14.14   41.74   41.74    0.00   2.46  88.40
sdd              13.00     0.00  346.00    0.00  1424.00     0.00     8.23    10.34   31.51   31.51    0.00   2.11  72.90
md0               0.00     0.00 1129.00    0.00  4516.00     0.00     8.00     0.00    0.00    0.00    0.00   0.00   0.00

avg-cpu:  %user   %nice %system %iowait  %steal   %idle
           0.03    0.00    0.03    0.06    0.00   99.88

Device:         rrqm/s   wrqm/s     r/s     w/s    rkB/s    wkB/s avgrq-sz avgqu-sz   await r_await w_await  svctm  %util
nvme0n1           0.00     0.00    0.00    0.00     0.00     0.00     0.00     0.00    0.00    0.00    0.00   0.00   0.00
sda               0.00    14.00    0.00    2.00     0.00    64.00    64.00     0.00    0.50    0.00    0.50   0.50   0.10
sdc               2.00     0.00  300.00    0.00  1208.00     0.00     8.05    12.57   39.77   39.77    0.00   2.74  82.20
sdb              18.00     0.00  349.00    0.00  1452.00     0.00     8.32    13.63   37.58   37.58    0.00   2.35  81.90
sdd               2.00     0.00  339.00    0.00  1376.00     0.00     8.12    14.50   40.86   40.86    0.00   2.49  84.30
md0               0.00     0.00  944.00    0.00  3776.00     0.00     8.00     0.00    0.00    0.00    0.00   0.00   0.00

avg-cpu:  %user   %nice %system %iowait  %steal   %idle
           0.00    0.00    0.03    0.00    0.00  100.03

Device:         rrqm/s   wrqm/s     r/s     w/s    rkB/s    wkB/s avgrq-sz avgqu-sz   await r_await w_await  svctm  %util
nvme0n1           0.00     0.00    0.00    0.00     0.00     0.00     0.00     0.00    0.00    0.00    0.00   0.00   0.00
sda               0.00     0.00    0.00    0.00     0.00     0.00     0.00     0.00    0.00    0.00    0.00   0.00   0.00
sdc               2.00     0.00  351.00    0.00  1412.00     0.00     8.05    13.54   38.79   38.79    0.00   2.17  76.20
sdb              12.00     0.00  361.00    0.00  1508.00     0.00     8.35    15.16   42.84   42.84    0.00   2.44  88.00
sdd               9.00     0.00  345.00    0.00  1416.00     0.00     8.21    12.54   38.01   38.01    0.00   2.47  85.20
md0               0.00     0.00 1064.00    0.00  4256.00     0.00     8.00     0.00    0.00    0.00    0.00   0.00   0.00

avg-cpu:  %user   %nice %system %iowait  %steal   %idle
           0.00    0.00    0.03    0.03    0.00   99.94

Device:         rrqm/s   wrqm/s     r/s     w/s    rkB/s    wkB/s avgrq-sz avgqu-sz   await r_await w_await  svctm  %util
nvme0n1           0.00     0.00    0.00    0.00     0.00     0.00     0.00     0.00    0.00    0.00    0.00   0.00   0.00
sda               0.00     0.00    0.00    0.00     0.00     0.00     0.00     0.00    0.00    0.00    0.00   0.00   0.00
sdc               1.00     0.00  305.00    0.00  1224.00     0.00     8.03    12.95   43.72   43.72    0.00   2.76  84.30
sdb              10.00     0.00  306.00    0.00  1260.00     0.00     8.24    11.52   37.35   37.35    0.00   2.62  80.30
sdd              18.00     0.00  338.00    0.00  1424.00     0.00     8.43    16.06   46.91   46.91    0.00   2.54  85.70
md0               0.00     0.00 1050.00    0.00  4200.00     0.00     8.00     0.00    0.00    0.00    0.00   0.00   0.00

avg-cpu:  %user   %nice %system %iowait  %steal   %idle
           0.00    0.00    0.00    0.00    0.00  100.03

Device:         rrqm/s   wrqm/s     r/s     w/s    rkB/s    wkB/s avgrq-sz avgqu-sz   await r_await w_await  svctm  %util
nvme0n1           0.00     0.00    0.00    0.00     0.00     0.00     0.00     0.00    0.00    0.00    0.00   0.00   0.00
sda               0.00     0.00    0.00    0.00     0.00     0.00     0.00     0.00    0.00    0.00    0.00   0.00   0.00
sdc              12.00     0.00  372.00    0.00  1536.00     0.00     8.26    14.51   39.26   39.26    0.00   2.48  92.10
sdb               2.00     0.00  349.00    0.00  1408.00     0.00     8.07    12.75   37.40   37.40    0.00   2.36  82.40
sdd               9.00     0.00  379.00    0.00  1552.00     0.00     8.19    12.26   33.05   33.05    0.00   1.99  75.60
md0               0.00     0.00 1040.00    0.00  4160.00     0.00     8.00     0.00    0.00    0.00    0.00   0.00   0.00

avg-cpu:  %user   %nice %system %iowait  %steal   %idle
           0.00    0.00    0.03    0.09    0.00   99.87

Device:         rrqm/s   wrqm/s     r/s     w/s    rkB/s    wkB/s avgrq-sz avgqu-sz   await r_await w_await  svctm  %util
nvme0n1           0.00     0.00    0.00    0.00     0.00     0.00     0.00     0.00    0.00    0.00    0.00   0.00   0.00
sda               0.00     0.00    0.00    0.00     0.00     0.00     0.00     0.00    0.00    0.00    0.00   0.00   0.00
sdc              18.00     0.00  411.00    0.00  1712.00     0.00     8.33    16.06   37.98   37.98    0.00   2.31  94.90
sdb               1.00     0.00  302.00    0.00  1212.00     0.00     8.03    10.11   31.69   31.69    0.00   2.48  74.80
sdd              10.00     0.00  364.00    0.00  1496.00     0.00     8.22    14.38   37.87   37.87    0.00   2.47  89.90
md0               0.00     0.00 1136.00    0.00  4544.00     0.00     8.00     0.00    0.00    0.00    0.00   0.00   0.00

avg-cpu:  %user   %nice %system %iowait  %steal   %idle
           0.03    0.00    0.03    0.00    0.00  100.00

Device:         rrqm/s   wrqm/s     r/s     w/s    rkB/s    wkB/s avgrq-sz avgqu-sz   await r_await w_await  svctm  %util
nvme0n1           0.00     0.00    0.00    0.00     0.00     0.00     0.00     0.00    0.00    0.00    0.00   0.00   0.00
sda               0.00     1.00    0.00    2.00     0.00    12.00    12.00     0.00    0.00    0.00    0.00   0.00   0.00
sdc               8.00     0.00  312.00    0.00  1284.00     0.00     8.23    10.47   34.77   34.77    0.00   2.58  80.50
sdb              19.00     0.00  383.00    0.00  1608.00     0.00     8.40    14.77   39.84   39.84    0.00   2.20  84.10
sdd               5.00     0.00  338.00    0.00  1372.00     0.00     8.12    13.32   40.23   40.23    0.00   2.58  87.30
md0               0.00     0.00 1044.00    0.00  4176.00     0.00     8.00     0.00    0.00    0.00    0.00   0.00   0.00

avg-cpu:  %user   %nice %system %iowait  %steal   %idle
           0.00    0.00    0.03    0.00    0.00   99.97

Device:         rrqm/s   wrqm/s     r/s     w/s    rkB/s    wkB/s avgrq-sz avgqu-sz   await r_await w_await  svctm  %util
nvme0n1           0.00     0.00    0.00    0.00     0.00     0.00     0.00     0.00    0.00    0.00    0.00   0.00   0.00
sda               0.00     0.00    0.00    0.00     0.00     0.00     0.00     0.00    0.00    0.00    0.00   0.00   0.00
sdc              16.00     0.00  330.00    0.00  1384.00     0.00     8.39    12.58   38.58   38.58    0.00   2.51  82.70
sdb              27.00     0.00  379.00    0.00  1616.00     0.00     8.53    16.48   43.46   43.46    0.00   2.46  93.20
sdd               5.00     0.00  327.00    0.00  1328.00     0.00     8.12    11.63   36.52   36.52    0.00   2.37  77.60
md0               0.00     0.00 1075.00    0.00  4300.00     0.00     8.00     0.00    0.00    0.00    0.00   0.00   0.00

avg-cpu:  %user   %nice %system %iowait  %steal   %idle
           0.00    0.00    0.03    0.16    0.00   99.81

Device:         rrqm/s   wrqm/s     r/s     w/s    rkB/s    wkB/s avgrq-sz avgqu-sz   await r_await w_await  svctm  %util
nvme0n1           0.00     0.00    0.00    0.00     0.00     0.00     0.00     0.00    0.00    0.00    0.00   0.00   0.00
sda               0.00     4.00    0.00    1.00     0.00    36.00    72.00     0.00    0.00    0.00    0.00   0.00   0.00
sdc              15.00     0.00  375.00    0.00  1560.00     0.00     8.32    14.63   38.65   38.65    0.00   2.43  91.10
sdb               5.00     0.00  342.00    0.00  1396.00     0.00     8.16    13.34   37.58   37.58    0.00   2.51  85.90
sdd              15.00     0.00  398.00    0.00  1652.00     0.00     8.30    16.07   40.37   40.37    0.00   2.21  87.80
md0               0.00     0.00 1159.00    0.00  4636.00     0.00     8.00     0.00    0.00    0.00    0.00   0.00   0.00

avg-cpu:  %user   %nice %system %iowait  %steal   %idle
           0.00    0.00    0.03    0.00    0.00  100.09

Device:         rrqm/s   wrqm/s     r/s     w/s    rkB/s    wkB/s avgrq-sz avgqu-sz   await r_await w_await  svctm  %util
nvme0n1           0.00     0.00    0.00    0.00     0.00     0.00     0.00     0.00    0.00    0.00    0.00   0.00   0.00
sda               0.00     0.00   57.00    0.00   440.00     0.00    15.44     0.01    0.11    0.11    0.00   0.07   0.40
sdc               8.00     0.00  396.00    0.00  1616.00     0.00     8.16    17.13   43.42   43.42    0.00   2.42  95.90
sdb               5.00     0.00  381.00    0.00  1544.00     0.00     8.10    14.40   38.33   38.33    0.00   2.41  91.90
sdd               2.00     0.00  360.00    0.00  1448.00     0.00     8.04    12.63   35.10   35.10    0.00   2.28  82.10
md0               0.00     0.00 1148.00    0.00  4592.00     0.00     8.00     0.00    0.00    0.00    0.00   0.00   0.00

avg-cpu:  %user   %nice %system %iowait  %steal   %idle
           0.00    0.00    0.03    0.00    0.00   99.97

Device:         rrqm/s   wrqm/s     r/s     w/s    rkB/s    wkB/s avgrq-sz avgqu-sz   await r_await w_await  svctm  %util
nvme0n1           0.00     0.00    0.00    0.00     0.00     0.00     0.00     0.00    0.00    0.00    0.00   0.00   0.00
sda               0.00     0.00    0.00    0.00     0.00     0.00     0.00     0.00    0.00    0.00    0.00   0.00   0.00
sdc               6.00     0.00  322.00    0.00  1312.00     0.00     8.15    12.80   39.42   39.42    0.00   2.57  82.80
sdb               6.00     0.00  339.00    0.00  1380.00     0.00     8.14    13.90   41.56   41.56    0.00   2.68  90.90
sdd              19.00     0.00  356.00    0.00  1500.00     0.00     8.43    14.59   40.56   40.56    0.00   2.45  87.30
md0               0.00     0.00 1138.00    0.00  4552.00     0.00     8.00     0.00    0.00    0.00    0.00   0.00   0.00

avg-cpu:  %user   %nice %system %iowait  %steal   %idle
           0.03    0.00    0.03    0.00    0.00   99.97

Device:         rrqm/s   wrqm/s     r/s     w/s    rkB/s    wkB/s avgrq-sz avgqu-sz   await r_await w_await  svctm  %util
nvme0n1           0.00     0.00    0.00    0.00     0.00     0.00     0.00     0.00    0.00    0.00    0.00   0.00   0.00
sda               0.00     6.00    0.00    2.00     0.00    32.00    32.00     0.00    0.00    0.00    0.00   0.00   0.00
sdc               1.00     0.00  353.00    0.00  1416.00     0.00     8.02    14.45   41.44   41.44    0.00   2.63  92.70
sdb               3.00     0.00  322.00    0.00  1300.00     0.00     8.07    11.26   34.45   34.45    0.00   2.37  76.30
sdd               7.00     0.00  345.00    0.00  1408.00     0.00     8.16    13.93   40.47   40.47    0.00   2.45  84.50
md0               0.00     0.00  942.00    0.00  3768.00     0.00     8.00     0.00    0.00    0.00    0.00   0.00   0.00

avg-cpu:  %user   %nice %system %iowait  %steal   %idle
           0.00    0.00    0.03    0.00    0.00   99.97

Device:         rrqm/s   wrqm/s     r/s     w/s    rkB/s    wkB/s avgrq-sz avgqu-sz   await r_await w_await  svctm  %util
nvme0n1           0.00     0.00    0.00    0.00     0.00     0.00     0.00     0.00    0.00    0.00    0.00   0.00   0.00
sda               0.00     0.00    0.00    0.00     0.00     0.00     0.00     0.00    0.00    0.00    0.00   0.00   0.00
sdc               4.00     0.00  325.00    0.00  1316.00     0.00     8.10    13.26   40.33   40.33    0.00   2.61  84.70
sdb               9.00     0.00  361.00    0.00  1480.00     0.00     8.20    13.54   38.01   38.01    0.00   2.24  80.80
sdd              18.00     0.00  359.00    0.00  1508.00     0.00     8.40    13.39   37.23   37.23    0.00   2.38  85.30
md0               0.00     0.00 1156.00    0.00  4624.00     0.00     8.00     0.00    0.00    0.00    0.00   0.00   0.00

avg-cpu:  %user   %nice %system %iowait  %steal   %idle
           0.00    0.00    0.00    0.03    0.00   99.97

Device:         rrqm/s   wrqm/s     r/s     w/s    rkB/s    wkB/s avgrq-sz avgqu-sz   await r_await w_await  svctm  %util
nvme0n1           0.00     0.00    0.00    0.00     0.00     0.00     0.00     0.00    0.00    0.00    0.00   0.00   0.00
sda               0.00     0.00    0.00    0.00     0.00     0.00     0.00     0.00    0.00    0.00    0.00   0.00   0.00
sdc              10.00     0.00  290.00    0.00  1200.00     0.00     8.28    16.31   56.22   56.22    0.00   3.36  97.30
sdb               2.00     0.00  250.00    0.00  1008.00     0.00     8.06     9.87   38.90   38.90    0.00   2.43  60.80
sdd              19.00     0.00  304.00    0.00  1292.00     0.00     8.50    10.40   33.94   33.94    0.00   2.08  63.20
md0               0.00     0.00  872.00    0.00  3488.00     0.00     8.00     0.00    0.00    0.00    0.00   0.00   0.00

avg-cpu:  %user   %nice %system %iowait  %steal   %idle
           0.00    0.00    0.03    0.03    0.00   99.94

Device:         rrqm/s   wrqm/s     r/s     w/s    rkB/s    wkB/s avgrq-sz avgqu-sz   await r_await w_await  svctm  %util
nvme0n1           0.00     0.00    0.00    0.00     0.00     0.00     0.00     0.00    0.00    0.00    0.00   0.00   0.00
sda               0.00     0.00    0.00    0.00     0.00     0.00     0.00     0.00    0.00    0.00    0.00   0.00   0.00
sdc               7.00     0.00  401.00    0.00  1632.00     0.00     8.14    14.09   34.56   34.56    0.00   2.03  81.60
sdb              10.00     0.00  405.00    0.00  1660.00     0.00     8.20    14.57   35.60   35.60    0.00   2.23  90.50
sdd               8.00     0.00  350.00    0.00  1432.00     0.00     8.18    11.47   31.05   31.05    0.00   2.28  79.70
md0               0.00     0.00 1158.00    0.00  4632.00     0.00     8.00     0.00    0.00    0.00    0.00   0.00   0.00

avg-cpu:  %user   %nice %system %iowait  %steal   %idle
           0.00    0.00    0.03    0.03    0.00   99.94

Device:         rrqm/s   wrqm/s     r/s     w/s    rkB/s    wkB/s avgrq-sz avgqu-sz   await r_await w_await  svctm  %util
nvme0n1           0.00     0.00    0.00    0.00     0.00     0.00     0.00     0.00    0.00    0.00    0.00   0.00   0.00
sda               0.00     0.00    0.00    0.00     0.00     0.00     0.00     0.00    0.00    0.00    0.00   0.00   0.00
sdc               9.00     0.00  339.00    0.00  1392.00     0.00     8.21    13.85   40.51   40.51    0.00   2.41  81.60
sdb               9.00     0.00  331.00    0.00  1356.00     0.00     8.19    13.64   40.91   40.91    0.00   2.60  85.90
sdd              18.00     0.00  370.00    0.00  1552.00     0.00     8.39    14.48   39.74   39.74    0.00   2.29  84.70
md0               0.00     0.00 1055.00    0.00  4220.00     0.00     8.00     0.00    0.00    0.00    0.00   0.00   0.00

avg-cpu:  %user   %nice %system %iowait  %steal   %idle
           0.03    0.00    0.03    0.09    0.00   99.84

Device:         rrqm/s   wrqm/s     r/s     w/s    rkB/s    wkB/s avgrq-sz avgqu-sz   await r_await w_await  svctm  %util
nvme0n1           0.00     0.00    0.00    0.00     0.00     0.00     0.00     0.00    0.00    0.00    0.00   0.00   0.00
sda               0.00     1.00    0.00    2.00     0.00    12.00    12.00     0.00    0.00    0.00    0.00   0.00   0.00
sdc               7.00     0.00  362.00    0.00  1476.00     0.00     8.15    13.59   36.73   36.73    0.00   2.27  82.00
sdb               7.00     0.00  370.00    0.00  1512.00     0.00     8.17    15.37   41.79   41.79    0.00   2.43  89.80
sdd              11.00     0.00  379.00    0.00  1560.00     0.00     8.23    15.87   41.16   41.16    0.00   2.39  90.50
md0               0.00     0.00 1158.00    0.00  4632.00     0.00     8.00     0.00    0.00    0.00    0.00   0.00   0.00

avg-cpu:  %user   %nice %system %iowait  %steal   %idle
           0.00    0.00    0.03    0.03    0.00   99.94

Device:         rrqm/s   wrqm/s     r/s     w/s    rkB/s    wkB/s avgrq-sz avgqu-sz   await r_await w_await  svctm  %util
nvme0n1           0.00     0.00    0.00    0.00     0.00     0.00     0.00     0.00    0.00    0.00    0.00   0.00   0.00
sda               0.00     0.00    0.00    0.00     0.00     0.00     0.00     0.00    0.00    0.00    0.00   0.00   0.00
sdc               6.00     0.00  391.00    0.00  1584.00     0.00     8.10    14.21   37.32   37.32    0.00   2.31  90.50
sdb              21.00     0.00  418.00    0.00  1756.00     0.00     8.40    15.82   37.32   37.32    0.00   2.13  89.10
sdd               1.00     0.00  364.00    0.00  1460.00     0.00     8.02    12.68   35.82   35.82    0.00   2.36  85.80
md0               0.00     0.00 1175.00    0.00  4700.00     0.00     8.00     0.00    0.00    0.00    0.00   0.00   0.00

avg-cpu:  %user   %nice %system %iowait  %steal   %idle
           0.03    0.00    0.03    0.44    0.00   99.50

Device:         rrqm/s   wrqm/s     r/s     w/s    rkB/s    wkB/s avgrq-sz avgqu-sz   await r_await w_await  svctm  %util
nvme0n1           0.00     0.00    0.00    0.00     0.00     0.00     0.00     0.00    0.00    0.00    0.00   0.00   0.00
sda               0.00     3.00    0.00   14.00     0.00    68.00     9.71     0.00    0.00    0.00    0.00   0.00   0.00
sdc               5.00     0.00  339.00    0.00  1380.00     0.00     8.14    12.69   38.59   38.59    0.00   2.39  81.10
sdb               0.00     0.00  315.00    0.00  1260.00     0.00     8.00    11.67   39.14   39.14    0.00   2.57  80.90
sdd              32.00     0.00  381.00    0.00  1652.00     0.00     8.67    14.67   39.66   39.66    0.00   2.34  89.10
md0               0.00     0.00 1037.00    0.00  4148.00     0.00     8.00     0.00    0.00    0.00    0.00   0.00   0.00

