Linux 4.17.2 (bench2) 	08/03/2018 	_x86_64_	(32 CPU)

avg-cpu:  %user   %nice %system %iowait  %steal   %idle
           1.90    0.00    1.56    1.57    0.00   94.97

Device:         rrqm/s   wrqm/s     r/s     w/s    rkB/s    wkB/s avgrq-sz avgqu-sz   await r_await w_await  svctm  %util
nvme0n1         939.28     5.10 18935.58  521.35 105917.72 11758.11    12.10     1.35    0.05    0.03    0.67   0.02  39.64
sda               0.12     0.82   14.16    0.58   163.98     8.52    23.42     0.00    0.33    0.32    0.44   0.07   0.10
sdc              33.84     0.17  117.49    0.31  1768.70    97.60    31.69     0.04    0.37   12.43  380.35   0.91  10.77
sdb              31.80     0.19  119.49    0.33  1766.77    97.43    31.12     0.48    3.99    2.85  411.64   0.85  10.23
sdd              34.04     0.17  117.03    0.26  1764.69    97.10    31.75     0.79    6.76    4.75  907.87   0.92  10.77
md0               0.00     0.00  456.54    1.21  6564.05   352.25    30.22     0.00    0.00    0.00    0.00   0.00   0.00

avg-cpu:  %user   %nice %system %iowait  %steal   %idle
           0.00    0.00    0.06   16.70    0.00   83.24

Device:         rrqm/s   wrqm/s     r/s     w/s    rkB/s    wkB/s avgrq-sz avgqu-sz   await r_await w_await  svctm  %util
nvme0n1           0.00     0.00    0.00    0.00     0.00     0.00     0.00     0.00    0.00    0.00    0.00   0.00   0.00
sda               0.00     0.00    1.00    0.00     8.00     0.00    16.00     0.00    0.00    0.00    0.00   0.00   0.00
sdc               0.00     0.00  163.00    0.00   676.00     0.00     8.29     2.88   17.09   17.09    0.00   4.45  72.60
sdb               0.00     0.00  188.00    0.00   776.00     0.00     8.26     4.51   23.72   23.72    0.00   4.97  93.50
sdd               0.00     0.00  175.00    0.00   744.00     0.00     8.50     4.62   24.26   24.26    0.00   5.21  91.20
md0               0.00     0.00  524.00    0.00  2188.00     0.00     8.35     0.00    0.00    0.00    0.00   0.00   0.00

avg-cpu:  %user   %nice %system %iowait  %steal   %idle
           0.00    0.00    0.09   13.82    0.00   86.09

Device:         rrqm/s   wrqm/s     r/s     w/s    rkB/s    wkB/s avgrq-sz avgqu-sz   await r_await w_await  svctm  %util
nvme0n1           0.00     0.00    0.00    0.00     0.00     0.00     0.00     0.00    0.00    0.00    0.00   0.00   0.00
sda               0.00     0.00    0.00    0.00     0.00     0.00     0.00     0.00    0.00    0.00    0.00   0.00   0.00
sdc               0.00     0.00  199.00    0.00   832.00     0.00     8.36     4.35   21.24   21.24    0.00   4.49  89.30
sdb               0.00     0.00  162.00    0.00   696.00     0.00     8.59     2.97   17.98   17.98    0.00   5.30  85.80
sdd               0.00     0.00  196.00    0.00   796.00     0.00     8.12     4.19   23.02   23.02    0.00   4.57  89.50
md0               0.00     0.00  559.00    0.00  2332.00     0.00     8.34     0.00    0.00    0.00    0.00   0.00   0.00

