Linux 4.17.2 (bench2) 	08/03/2018 	_x86_64_	(32 CPU)

avg-cpu:  %user   %nice %system %iowait  %steal   %idle
           1.91    0.00    1.56    1.55    0.00   94.98

Device:         rrqm/s   wrqm/s     r/s     w/s    rkB/s    wkB/s avgrq-sz avgqu-sz   await r_await w_await  svctm  %util
nvme0n1         945.02     5.13 19051.19  524.54 106564.40 11829.90    12.10     1.36    0.05    0.03    0.67   0.02  39.88
sda               0.12     0.81   14.15    0.58   163.96     8.51    23.43     0.00    0.33    0.32    0.45   0.07   0.10
sdc              33.45     0.18  113.71    0.31  1708.01    98.20    31.68     0.00    0.04   12.58  380.35   0.92  10.51
sdb              31.39     0.19  115.72    0.33  1706.11    98.02    31.09     0.44    3.81    2.63  411.64   0.86   9.99
sdd              33.65     0.17  113.25    0.26  1704.02    97.69    31.75     0.76    6.69    4.59  907.87   0.93  10.51
md0               0.00     0.00  444.01    1.22  6326.51   354.41    30.01     0.00    0.00    0.00    0.00   0.00   0.00

avg-cpu:  %user   %nice %system %iowait  %steal   %idle
           0.06    0.00    0.38    2.64    0.00   96.92

Device:         rrqm/s   wrqm/s     r/s     w/s    rkB/s    wkB/s avgrq-sz avgqu-sz   await r_await w_await  svctm  %util
nvme0n1           0.00     0.00    0.00    0.00     0.00     0.00     0.00     0.00    0.00    0.00    0.00   0.00   0.00
sda               0.00     1.30    0.20    1.45     5.20    11.80    20.61     0.00    0.09    0.25    0.07   0.09   0.01
sdc             121.50     0.00  165.80    0.00 66016.20     0.00   796.34     1.46    8.83    8.83    0.00   4.21  69.81
sdb             122.25     0.00  163.05    0.00 65942.60     0.00   808.86     1.32    8.12    8.12    0.00   3.94  64.23
sdd             122.60     0.00  162.00    0.00 65968.40     0.00   814.42     1.46    9.01    9.01    0.00   4.24  68.67
md0               0.00     0.00  857.45    0.00 285699.40     0.00   666.39     0.00    0.00    0.00    0.00   0.00   0.00

