Linux 4.17.2 (bench2) 	08/03/2018 	_x86_64_	(32 CPU)

avg-cpu:  %user   %nice %system %iowait  %steal   %idle
           1.91    0.00    1.56    1.56    0.00   94.97

Device:         rrqm/s   wrqm/s     r/s     w/s    rkB/s    wkB/s avgrq-sz avgqu-sz   await r_await w_await  svctm  %util
nvme0n1         942.26     5.12 18995.54  523.01 106253.12 11795.35    12.10     1.35    0.05    0.03    0.67   0.02  39.76
sda               0.12     0.81   14.15    0.58   163.94     8.52    23.42     0.00    0.33    0.32    0.44   0.07   0.10
sdc              33.77     0.18  115.34    0.31  1743.62    97.91    31.85     0.03    0.28   12.61  380.35   0.92  10.64
sdb              31.72     0.19  117.35    0.33  1741.70    97.74    31.26     0.47    3.98    2.83  411.64   0.86  10.12
sdd              33.97     0.17  114.88    0.26  1739.61    97.41    31.91     0.79    6.82    4.76  907.87   0.92  10.65
md0               0.00     0.00  449.88    1.22  6467.99   353.37    30.24     0.00    0.00    0.00    0.00   0.00   0.00

avg-cpu:  %user   %nice %system %iowait  %steal   %idle
           0.02    0.00    0.31    0.80    0.00   98.86

Device:         rrqm/s   wrqm/s     r/s     w/s    rkB/s    wkB/s avgrq-sz avgqu-sz   await r_await w_await  svctm  %util
nvme0n1           0.00     0.00    0.00    0.00     0.00     0.00     0.00     0.00    0.00    0.00    0.00   0.00   0.00
sda               0.00     0.95    3.95    0.45    28.40     6.40    15.82     0.00    0.34    0.37    0.11   0.06   0.03
sdc               0.00     0.00 1935.30    0.00  7741.20     0.00     8.00     0.31    0.16    0.16    0.00   0.16  30.77
sdb               0.00     0.00 1930.70    0.00  7722.80     0.00     8.00     0.30    0.15    0.15    0.00   0.15  29.82
sdd               0.00     0.00 1969.25    0.00  7877.00     0.00     8.00     0.31    0.16    0.16    0.00   0.16  30.96
md0               0.00     0.00 5835.35    0.00 23341.40     0.00     8.00     0.00    0.00    0.00    0.00   0.00   0.00

