Linux 4.17.2 (bench2) 	08/03/2018 	_x86_64_	(32 CPU)

avg-cpu:  %user   %nice %system %iowait  %steal   %idle
           1.91    0.00    1.56    1.55    0.00   94.98

Device:         rrqm/s   wrqm/s     r/s     w/s    rkB/s    wkB/s avgrq-sz avgqu-sz   await r_await w_await  svctm  %util
nvme0n1         943.42     5.12 19018.87  523.65 106383.61 11809.83    12.10     1.35    0.05    0.03    0.67   0.02  39.81
sda               0.12     0.81   14.15    0.58   163.95     8.52    23.42     0.00    0.33    0.32    0.44   0.07   0.10
sdc              33.50     0.18  114.74    0.31  1732.01    98.03    31.81     0.01    0.10   12.51  380.35   0.92  10.59
sdb              31.45     0.19  116.75    0.33  1730.09    97.86    31.22     0.45    3.84    2.67  411.64   0.86  10.06
sdd              33.69     0.17  114.28    0.26  1728.00    97.53    31.87     0.77    6.68    4.61  907.87   0.92  10.59
md0               0.00     0.00  447.27    1.22  6423.22   353.80    30.22     0.00    0.00    0.00    0.00   0.00   0.00

avg-cpu:  %user   %nice %system %iowait  %steal   %idle
           0.00    0.00    0.00    0.03    0.00   99.97

Device:         rrqm/s   wrqm/s     r/s     w/s    rkB/s    wkB/s avgrq-sz avgqu-sz   await r_await w_await  svctm  %util
nvme0n1           0.00     0.00    0.00    0.00     0.00     0.00     0.00     0.00    0.00    0.00    0.00   0.00   0.00
sda               0.00     0.00   18.00    0.00    76.00     0.00     8.44     0.00    0.00    0.00    0.00   0.00   0.00
sdc               0.00     0.00   29.00    0.00   116.00     0.00     8.00     0.27    9.24    9.24    0.00   9.21  26.70
sdb               0.00     0.00   36.00    0.00   144.00     0.00     8.00     0.34    9.31    9.31    0.00   9.42  33.90
sdd               0.00     0.00   41.00    0.00   164.00     0.00     8.00     0.39    9.56    9.56    0.00   9.56  39.20
md0               0.00     0.00  106.00    0.00   424.00     0.00     8.00     0.00    0.00    0.00    0.00   0.00   0.00

avg-cpu:  %user   %nice %system %iowait  %steal   %idle
           0.00    0.00    0.03    0.03    0.00   99.94

Device:         rrqm/s   wrqm/s     r/s     w/s    rkB/s    wkB/s avgrq-sz avgqu-sz   await r_await w_await  svctm  %util
nvme0n1           0.00     0.00    0.00    0.00     0.00     0.00     0.00     0.00    0.00    0.00    0.00   0.00   0.00
sda               0.00    10.00    0.00    2.00     0.00    48.00    48.00     0.00    0.00    0.00    0.00   0.00   0.00
sdc               0.00     0.00   30.00    0.00   120.00     0.00     8.00     0.29    9.63    9.63    0.00   9.63  28.90
sdb               0.00     0.00   42.00    0.00   168.00     0.00     8.00     0.38    9.19    9.19    0.00   9.10  38.20
sdd               0.00     0.00   32.00    0.00   128.00     0.00     8.00     0.32    9.50    9.50    0.00  10.03  32.10
md0               0.00     0.00  104.00    0.00   416.00     0.00     8.00     0.00    0.00    0.00    0.00   0.00   0.00

avg-cpu:  %user   %nice %system %iowait  %steal   %idle
           0.00    0.00    0.00    0.00    0.00  100.03

Device:         rrqm/s   wrqm/s     r/s     w/s    rkB/s    wkB/s avgrq-sz avgqu-sz   await r_await w_await  svctm  %util
nvme0n1           0.00     0.00    0.00    0.00     0.00     0.00     0.00     0.00    0.00    0.00    0.00   0.00   0.00
sda               0.00     2.00    1.00    1.00     4.00    36.00    40.00     0.00    0.00    0.00    0.00   0.00   0.00
sdc               0.00     0.00   42.00    0.00   168.00     0.00     8.00     0.39    9.26    9.26    0.00   9.29  39.00
sdb               0.00     0.00   32.00    0.00   128.00     0.00     8.00     0.30    9.31    9.31    0.00   9.31  29.80
sdd               0.00     0.00   34.00    0.00   136.00     0.00     8.00     0.31    9.50    9.50    0.00   9.00  30.60
md0               0.00     0.00  108.00    0.00   432.00     0.00     8.00     0.00    0.00    0.00    0.00   0.00   0.00

avg-cpu:  %user   %nice %system %iowait  %steal   %idle
           0.00    0.00    0.00    0.00    0.00  100.00

Device:         rrqm/s   wrqm/s     r/s     w/s    rkB/s    wkB/s avgrq-sz avgqu-sz   await r_await w_await  svctm  %util
nvme0n1           0.00     0.00    0.00    0.00     0.00     0.00     0.00     0.00    0.00    0.00    0.00   0.00   0.00
sda               0.00     0.00    0.00    0.00     0.00     0.00     0.00     0.00    0.00    0.00    0.00   0.00   0.00
sdc               0.00     0.00   29.00    0.00   116.00     0.00     8.00     0.32   10.76   10.76    0.00  10.86  31.50
sdb               0.00     0.00   35.00    0.00   140.00     0.00     8.00     0.33    9.54    9.54    0.00   9.54  33.40
sdd               0.00     0.00   35.00    0.00   140.00     0.00     8.00     0.34    9.86    9.86    0.00   9.86  34.50
md0               0.00     0.00   99.00    0.00   396.00     0.00     8.00     0.00    0.00    0.00    0.00   0.00   0.00

avg-cpu:  %user   %nice %system %iowait  %steal   %idle
           0.00    0.00    0.00    0.00    0.00  100.00

Device:         rrqm/s   wrqm/s     r/s     w/s    rkB/s    wkB/s avgrq-sz avgqu-sz   await r_await w_await  svctm  %util
nvme0n1           0.00     0.00    0.00    0.00     0.00     0.00     0.00     0.00    0.00    0.00    0.00   0.00   0.00
sda               0.00     0.00    0.00    0.00     0.00     0.00     0.00     0.00    0.00    0.00    0.00   0.00   0.00
sdc               0.00     0.00   39.00    0.00   156.00     0.00     8.00     0.38    9.67    9.67    0.00   9.64  37.60
sdb               0.00     0.00   29.00    0.00   116.00     0.00     8.00     0.27    9.17    9.17    0.00   9.17  26.60
sdd               0.00     0.00   35.00    0.00   140.00     0.00     8.00     0.35   10.09   10.09    0.00  10.09  35.30
md0               0.00     0.00  103.00    0.00   412.00     0.00     8.00     0.00    0.00    0.00    0.00   0.00   0.00

avg-cpu:  %user   %nice %system %iowait  %steal   %idle
           0.00    0.00    0.03    0.03    0.00   99.94

Device:         rrqm/s   wrqm/s     r/s     w/s    rkB/s    wkB/s avgrq-sz avgqu-sz   await r_await w_await  svctm  %util
nvme0n1           0.00     0.00    0.00    0.00     0.00     0.00     0.00     0.00    0.00    0.00    0.00   0.00   0.00
sda               0.00     0.00    0.00    0.00     0.00     0.00     0.00     0.00    0.00    0.00    0.00   0.00   0.00
sdc               0.00     0.00   41.00    0.00   164.00     0.00     8.00     0.38    9.34    9.34    0.00   9.27  38.00
sdb               0.00     0.00   26.00    0.00   104.00     0.00     8.00     0.24    9.19    9.19    0.00   9.19  23.90
sdd               0.00     0.00   43.00    0.00   172.00     0.00     8.00     0.37    8.51    8.51    0.00   8.70  37.40
md0               0.00     0.00  110.00    0.00   440.00     0.00     8.00     0.00    0.00    0.00    0.00   0.00   0.00

avg-cpu:  %user   %nice %system %iowait  %steal   %idle
           0.00    0.00    0.00    0.03    0.00   99.97

Device:         rrqm/s   wrqm/s     r/s     w/s    rkB/s    wkB/s avgrq-sz avgqu-sz   await r_await w_await  svctm  %util
nvme0n1           0.00     0.00    0.00    0.00     0.00     0.00     0.00     0.00    0.00    0.00    0.00   0.00   0.00
sda               0.00     3.00    0.00    2.00     0.00    20.00    20.00     0.00    0.50    0.00    0.50   0.50   0.10
sdc               0.00     0.00   33.00    0.00   132.00     0.00     8.00     0.31    9.39    9.39    0.00   9.39  31.00
sdb               0.00     0.00   37.00    0.00   148.00     0.00     8.00     0.34    8.89    8.89    0.00   9.11  33.70
sdd               0.00     0.00   35.00    0.00   140.00     0.00     8.00     0.34   10.03   10.03    0.00   9.80  34.30
md0               0.00     0.00  105.00    0.00   420.00     0.00     8.00     0.00    0.00    0.00    0.00   0.00   0.00

avg-cpu:  %user   %nice %system %iowait  %steal   %idle
           0.00    0.00    0.03    0.00    0.00  100.00

Device:         rrqm/s   wrqm/s     r/s     w/s    rkB/s    wkB/s avgrq-sz avgqu-sz   await r_await w_await  svctm  %util
nvme0n1           0.00     0.00    0.00    0.00     0.00     0.00     0.00     0.00    0.00    0.00    0.00   0.00   0.00
sda               0.00     0.00    0.00    0.00     0.00     0.00     0.00     0.00    0.00    0.00    0.00   0.00   0.00
sdc               0.00     0.00   29.00    0.00   116.00     0.00     8.00     0.28    9.62    9.62    0.00   9.62  27.90
sdb               0.00     0.00   40.00    0.00   160.00     0.00     8.00     0.36    9.20    9.20    0.00   9.07  36.30
sdd               0.00     0.00   36.00    0.00   144.00     0.00     8.00     0.34    9.56    9.56    0.00   9.56  34.40
md0               0.00     0.00  105.00    0.00   420.00     0.00     8.00     0.00    0.00    0.00    0.00   0.00   0.00

avg-cpu:  %user   %nice %system %iowait  %steal   %idle
           0.00    0.00    0.03    0.09    0.00   99.88

Device:         rrqm/s   wrqm/s     r/s     w/s    rkB/s    wkB/s avgrq-sz avgqu-sz   await r_await w_await  svctm  %util
nvme0n1           0.00     0.00    0.00    0.00     0.00     0.00     0.00     0.00    0.00    0.00    0.00   0.00   0.00
sda               0.00     0.00    0.00    0.00     0.00     0.00     0.00     0.00    0.00    0.00    0.00   0.00   0.00
sdc               0.00     0.00   31.00    0.00   124.00     0.00     8.00     0.32   10.16   10.16    0.00  10.16  31.50
sdb               0.00     0.00   35.00    0.00   140.00     0.00     8.00     0.32    9.09    9.09    0.00   9.00  31.50
sdd               0.00     0.00   37.00    0.00   148.00     0.00     8.00     0.36    9.65    9.65    0.00   9.73  36.00
md0               0.00     0.00  103.00    0.00   412.00     0.00     8.00     0.00    0.00    0.00    0.00   0.00   0.00

avg-cpu:  %user   %nice %system %iowait  %steal   %idle
           0.00    0.00    0.03    0.00    0.00   99.97

Device:         rrqm/s   wrqm/s     r/s     w/s    rkB/s    wkB/s avgrq-sz avgqu-sz   await r_await w_await  svctm  %util
nvme0n1           0.00     0.00    0.00    0.00     0.00     0.00     0.00     0.00    0.00    0.00    0.00   0.00   0.00
sda               0.00     0.00    0.00    0.00     0.00     0.00     0.00     0.00    0.00    0.00    0.00   0.00   0.00
sdc               0.00     0.00   37.00    0.00   148.00     0.00     8.00     0.37    9.97    9.97    0.00  10.08  37.30
sdb               0.00     0.00   31.00    0.00   124.00     0.00     8.00     0.29    9.39    9.39    0.00   9.39  29.10
sdd               0.00     0.00   37.00    0.00   148.00     0.00     8.00     0.33    8.95    8.95    0.00   8.86  32.80
md0               0.00     0.00  105.00    0.00   420.00     0.00     8.00     0.00    0.00    0.00    0.00   0.00   0.00

avg-cpu:  %user   %nice %system %iowait  %steal   %idle
           0.00    0.00    0.00    0.03    0.00   99.97

Device:         rrqm/s   wrqm/s     r/s     w/s    rkB/s    wkB/s avgrq-sz avgqu-sz   await r_await w_await  svctm  %util
nvme0n1           0.00     0.00    0.00    0.00     0.00     0.00     0.00     0.00    0.00    0.00    0.00   0.00   0.00
sda               0.00     0.00    0.00    0.00     0.00     0.00     0.00     0.00    0.00    0.00    0.00   0.00   0.00
sdc               0.00     0.00   33.00    0.00   132.00     0.00     8.00     0.31    9.48    9.48    0.00   9.36  30.90
sdb               0.00     0.00   37.00    0.00   148.00     0.00     8.00     0.35    9.35    9.35    0.00   9.35  34.60
sdd               0.00     0.00   35.00    0.00   140.00     0.00     8.00     0.34    9.49    9.49    0.00   9.71  34.00
md0               0.00     0.00  105.00    0.00   420.00     0.00     8.00     0.00    0.00    0.00    0.00   0.00   0.00

avg-cpu:  %user   %nice %system %iowait  %steal   %idle
           0.00    0.00    0.00    0.00    0.00  100.03

Device:         rrqm/s   wrqm/s     r/s     w/s    rkB/s    wkB/s avgrq-sz avgqu-sz   await r_await w_await  svctm  %util
nvme0n1           0.00     0.00    0.00    0.00     0.00     0.00     0.00     0.00    0.00    0.00    0.00   0.00   0.00
sda               0.00     1.00    0.00    2.00     0.00    12.00    12.00     0.00    0.50    0.00    0.50   0.50   0.10
sdc               0.00     0.00   36.00    0.00   144.00     0.00     8.00     0.37   10.31   10.31    0.00  10.31  37.10
sdb               0.00     0.00   28.00    0.00   112.00     0.00     8.00     0.27    9.54    9.54    0.00   9.54  26.70
sdd               0.00     0.00   39.00    0.00   156.00     0.00     8.00     0.35    9.18    9.18    0.00   9.05  35.30
md0               0.00     0.00  103.00    0.00   412.00     0.00     8.00     0.00    0.00    0.00    0.00   0.00   0.00

avg-cpu:  %user   %nice %system %iowait  %steal   %idle
           0.00    0.00    0.03    0.00    0.00   99.97

Device:         rrqm/s   wrqm/s     r/s     w/s    rkB/s    wkB/s avgrq-sz avgqu-sz   await r_await w_await  svctm  %util
nvme0n1           0.00     0.00    0.00    0.00     0.00     0.00     0.00     0.00    0.00    0.00    0.00   0.00   0.00
sda               0.00     0.00    0.00    0.00     0.00     0.00     0.00     0.00    0.00    0.00    0.00   0.00   0.00
sdc               0.00     0.00   31.00    0.00   124.00     0.00     8.00     0.29    9.52    9.52    0.00   9.52  29.50
sdb               0.00     0.00   36.00    0.00   144.00     0.00     8.00     0.34    9.33    9.33    0.00   9.33  33.60
sdd               0.00     0.00   36.00    0.00   144.00     0.00     8.00     0.36   10.11   10.11    0.00  10.03  36.10
md0               0.00     0.00  103.00    0.00   412.00     0.00     8.00     0.00    0.00    0.00    0.00   0.00   0.00

avg-cpu:  %user   %nice %system %iowait  %steal   %idle
           0.03    0.00    0.00    0.03    0.00   99.94

Device:         rrqm/s   wrqm/s     r/s     w/s    rkB/s    wkB/s avgrq-sz avgqu-sz   await r_await w_await  svctm  %util
nvme0n1           0.00     0.00    0.00    0.00     0.00     0.00     0.00     0.00    0.00    0.00    0.00   0.00   0.00
sda               0.00     0.00    0.00    0.00     0.00     0.00     0.00     0.00    0.00    0.00    0.00   0.00   0.00
sdc               0.00     0.00   30.00    0.00   120.00     0.00     8.00     0.27    9.10    9.10    0.00   9.10  27.30
sdb               0.00     0.00   31.00    0.00   124.00     0.00     8.00     0.32    9.77    9.77    0.00  10.16  31.50
sdd               0.00     0.00   45.00    0.00   180.00     0.00     8.00     0.41    9.07    9.07    0.00   9.07  40.80
md0               0.00     0.00  106.00    0.00   424.00     0.00     8.00     0.00    0.00    0.00    0.00   0.00   0.00

avg-cpu:  %user   %nice %system %iowait  %steal   %idle
           0.00    0.00    0.03    0.03    0.00   99.94

Device:         rrqm/s   wrqm/s     r/s     w/s    rkB/s    wkB/s avgrq-sz avgqu-sz   await r_await w_await  svctm  %util
nvme0n1           0.00     0.00    0.00    0.00     0.00     0.00     0.00     0.00    0.00    0.00    0.00   0.00   0.00
sda               0.00     0.00    0.00    0.00     0.00     0.00     0.00     0.00    0.00    0.00    0.00   0.00   0.00
sdc               0.00     0.00   45.00    0.00   180.00     0.00     8.00     0.41    8.84    8.84    0.00   9.00  40.50
sdb               0.00     0.00   27.00    0.00   108.00     0.00     8.00     0.25    9.70    9.70    0.00   9.26  25.00
sdd               0.00     0.00   34.00    0.00   136.00     0.00     8.00     0.33    9.71    9.71    0.00   9.71  33.00
md0               0.00     0.00  106.00    0.00   424.00     0.00     8.00     0.00    0.00    0.00    0.00   0.00   0.00

avg-cpu:  %user   %nice %system %iowait  %steal   %idle
           0.00    0.00    0.00    0.00    0.00  100.00

Device:         rrqm/s   wrqm/s     r/s     w/s    rkB/s    wkB/s avgrq-sz avgqu-sz   await r_await w_await  svctm  %util
nvme0n1           0.00     0.00    0.00    0.00     0.00     0.00     0.00     0.00    0.00    0.00    0.00   0.00   0.00
sda               0.00     0.00    0.00    0.00     0.00     0.00     0.00     0.00    0.00    0.00    0.00   0.00   0.00
sdc               0.00     0.00   31.00    0.00   124.00     0.00     8.00     0.25    8.45    8.45    0.00   8.23  25.50
sdb               0.00     0.00   51.00    0.00   204.00     0.00     8.00     0.47    9.22    9.22    0.00   9.22  47.00
sdd               0.00     0.00   30.00    0.00   120.00     0.00     8.00     0.27    8.73    8.73    0.00   9.03  27.10
md0               0.00     0.00  112.00    0.00   448.00     0.00     8.00     0.00    0.00    0.00    0.00   0.00   0.00

avg-cpu:  %user   %nice %system %iowait  %steal   %idle
           0.00    0.00    0.03    0.00    0.00   99.97

Device:         rrqm/s   wrqm/s     r/s     w/s    rkB/s    wkB/s avgrq-sz avgqu-sz   await r_await w_await  svctm  %util
nvme0n1           0.00     0.00    0.00    0.00     0.00     0.00     0.00     0.00    0.00    0.00    0.00   0.00   0.00
sda               0.00     1.00   57.00    2.00   576.00    12.00    19.93     0.01    0.14    0.14    0.00   0.10   0.60
sdc               0.00     0.00   42.00    0.00   168.00     0.00     8.00     0.38    9.12    9.12    0.00   9.12  38.30
sdb               0.00     0.00   33.00    0.00   132.00     0.00     8.00     0.30    9.09    9.09    0.00   9.09  30.00
sdd               0.00     0.00   35.00    0.00   140.00     0.00     8.00     0.31    9.06    9.06    0.00   8.89  31.10
md0               0.00     0.00  110.00    0.00   440.00     0.00     8.00     0.00    0.00    0.00    0.00   0.00   0.00

avg-cpu:  %user   %nice %system %iowait  %steal   %idle
           0.00    0.00    0.03    0.06    0.00   99.91

Device:         rrqm/s   wrqm/s     r/s     w/s    rkB/s    wkB/s avgrq-sz avgqu-sz   await r_await w_await  svctm  %util
nvme0n1           0.00     0.00    0.00    0.00     0.00     0.00     0.00     0.00    0.00    0.00    0.00   0.00   0.00
sda               0.00     0.00    0.00    0.00     0.00     0.00     0.00     0.00    0.00    0.00    0.00   0.00   0.00
sdc               0.00     0.00   26.00    0.00   104.00     0.00     8.00     0.23    8.85    8.85    0.00   8.85  23.00
sdb               0.00     0.00   37.00    0.00   148.00     0.00     8.00     0.35    9.19    9.19    0.00   9.38  34.70
sdd               0.00     0.00   42.00    0.00   168.00     0.00     8.00     0.41    9.93    9.93    0.00   9.86  41.40
md0               0.00     0.00  105.00    0.00   420.00     0.00     8.00     0.00    0.00    0.00    0.00   0.00   0.00

avg-cpu:  %user   %nice %system %iowait  %steal   %idle
           0.00    0.00    0.00    0.00    0.00  100.00

Device:         rrqm/s   wrqm/s     r/s     w/s    rkB/s    wkB/s avgrq-sz avgqu-sz   await r_await w_await  svctm  %util
nvme0n1           0.00     0.00    0.00    0.00     0.00     0.00     0.00     0.00    0.00    0.00    0.00   0.00   0.00
sda               0.00     0.00    0.00    0.00     0.00     0.00     0.00     0.00    0.00    0.00    0.00   0.00   0.00
sdc               0.00     0.00   42.00    0.00   168.00     0.00     8.00     0.38    9.00    9.00    0.00   9.00  37.80
sdb               0.00     0.00   37.00    0.00   148.00     0.00     8.00     0.36   10.05   10.05    0.00   9.86  36.50
sdd               0.00     0.00   25.00    0.00   100.00     0.00     8.00     0.25    9.92    9.92    0.00  10.00  25.00
md0               0.00     0.00  104.00    0.00   416.00     0.00     8.00     0.00    0.00    0.00    0.00   0.00   0.00

