Linux 4.17.2 (bench2) 	08/03/2018 	_x86_64_	(32 CPU)

avg-cpu:  %user   %nice %system %iowait  %steal   %idle
           1.90    0.00    1.55    1.59    0.00   94.96

Device:         rrqm/s   wrqm/s     r/s     w/s    rkB/s    wkB/s avgrq-sz avgqu-sz   await r_await w_await  svctm  %util
nvme0n1         935.90     5.08 18867.38  519.48 105536.28 11715.77    12.10     1.34    0.05    0.03    0.67   0.02  39.50
sda               0.12     0.82   14.16    0.58   164.01     8.53    23.40     0.00    0.33    0.32    0.44   0.07   0.10
sdc              34.28     0.17  119.90    0.31  1798.92    97.25    31.55     0.08    0.62   12.41  380.35   0.91  10.92
sdb              32.24     0.19  121.89    0.33  1796.99    97.08    30.99     0.51    4.15    3.04  411.64   0.85  10.38
sdd              34.47     0.17  119.44    0.26  1794.94    96.75    31.61     0.82    6.86    4.90  907.87   0.91  10.92
md0               0.00     0.00  465.05    1.21  6678.13   350.99    30.15     0.00    0.00    0.00    0.00   0.00   0.00

avg-cpu:  %user   %nice %system %iowait  %steal   %idle
           0.00    0.00    0.01    0.03    0.00   99.96

Device:         rrqm/s   wrqm/s     r/s     w/s    rkB/s    wkB/s avgrq-sz avgqu-sz   await r_await w_await  svctm  %util
nvme0n1           0.00     0.00    0.00    0.00     0.00     0.00     0.00     0.00    0.00    0.00    0.00   0.00   0.00
sda               0.00     0.85    0.20    0.50     5.20     7.60    36.57     0.00    0.07    0.25    0.00   0.07   0.01
sdc               0.00     0.00   69.60    0.00   278.40     0.00     8.00     1.43   20.49   20.49    0.00   9.50  66.09
sdb               0.00     0.00   67.00    0.00   268.00     0.00     8.00     1.32   19.70   19.70    0.00   9.35  62.65
sdd               0.00     0.00   69.35    0.00   277.40     0.00     8.00     1.40   20.15   20.15    0.00   9.34  64.78
md0               0.00     0.00  206.00    0.00   824.00     0.00     8.00     0.00    0.00    0.00    0.00   0.00   0.00

