Linux 4.17.2 (bench2) 	08/03/2018 	_x86_64_	(32 CPU)

avg-cpu:  %user   %nice %system %iowait  %steal   %idle
           1.90    0.00    1.56    1.57    0.00   94.97

Device:         rrqm/s   wrqm/s     r/s     w/s    rkB/s    wkB/s avgrq-sz avgqu-sz   await r_await w_await  svctm  %util
nvme0n1         939.11     5.10 18932.04  521.26 105897.96 11755.92    12.10     1.35    0.05    0.03    0.67   0.02  39.63
sda               0.12     0.82   14.16    0.58   163.98     8.52    23.42     0.00    0.33    0.32    0.44   0.07   0.10
sdc              33.84     0.17  117.52    0.31  1769.44    97.59    31.69     0.04    0.38   12.44  380.35   0.91  10.78
sdb              31.80     0.19  119.52    0.33  1767.51    97.41    31.12     0.48    3.99    2.86  411.64   0.85  10.24
sdd              34.04     0.17  117.06    0.26  1765.43    97.08    31.75     0.79    6.76    4.75  907.87   0.92  10.78
md0               0.00     0.00  456.63    1.21  6566.83   352.19    30.22     0.00    0.00    0.00    0.00   0.00   0.00

avg-cpu:  %user   %nice %system %iowait  %steal   %idle
           0.00    0.00    0.09    0.13    0.00   99.78

Device:         rrqm/s   wrqm/s     r/s     w/s    rkB/s    wkB/s avgrq-sz avgqu-sz   await r_await w_await  svctm  %util
nvme0n1           0.00     0.00    0.00    0.00     0.00     0.00     0.00     0.00    0.00    0.00    0.00   0.00   0.00
sda               0.00     2.00    5.00    2.00   108.00    40.00    42.29     0.00    0.14    0.20    0.00   0.14   0.10
sdc             245.00     0.00 1177.00    0.00  5620.00     0.00     9.55     7.94    6.71    6.71    0.00   0.41  48.40
sdb             285.00     0.00 1171.00    0.00  5824.00     0.00     9.95     4.16    3.38    3.38    0.00   0.27  31.90
sdd             343.00     0.00 1301.00    0.00  6576.00     0.00    10.11    18.48   14.20   14.20    0.00   0.74  96.00
md0               0.00     0.00 4550.00    0.00 18200.00     0.00     8.00     0.00    0.00    0.00    0.00   0.00   0.00

avg-cpu:  %user   %nice %system %iowait  %steal   %idle
           0.00    0.00    0.09    0.16    0.00   99.75

Device:         rrqm/s   wrqm/s     r/s     w/s    rkB/s    wkB/s avgrq-sz avgqu-sz   await r_await w_await  svctm  %util
nvme0n1           0.00     0.00    0.00    0.00     0.00     0.00     0.00     0.00    0.00    0.00    0.00   0.00   0.00
sda               0.00     0.00    0.00    0.00     0.00     0.00     0.00     0.00    0.00    0.00    0.00   0.00   0.00
sdc             333.00     0.00 1128.00    0.00  5912.00     0.00    10.48     8.81    7.85    7.85    0.00   0.59  66.90
sdb             373.00     0.00 1091.00    0.00  5768.00     0.00    10.57    14.53   13.47   13.47    0.00   0.85  93.10
sdd             386.00     0.00 1078.00    0.00  5856.00     0.00    10.86     5.98    5.50    5.50    0.00   0.50  53.80
md0               0.00     0.00 4404.00    0.00 17616.00     0.00     8.00     0.00    0.00    0.00    0.00   0.00   0.00

avg-cpu:  %user   %nice %system %iowait  %steal   %idle
           0.03    0.00    0.06    0.16    0.00   99.75

Device:         rrqm/s   wrqm/s     r/s     w/s    rkB/s    wkB/s avgrq-sz avgqu-sz   await r_await w_await  svctm  %util
nvme0n1           0.00     0.00    0.00    0.00     0.00     0.00     0.00     0.00    0.00    0.00    0.00   0.00   0.00
sda               0.00     0.00    0.00    0.00     0.00     0.00     0.00     0.00    0.00    0.00    0.00   0.00   0.00
sdc             389.00     0.00 1135.00    0.00  6048.00     0.00    10.66     6.54    5.71    5.71    0.00   0.43  48.50
sdb             701.00     0.00 1271.00    0.00  7976.00     0.00    12.55     5.94    4.69    4.69    0.00   0.38  48.10
sdd             330.00     0.00 1092.00    0.00  5688.00     0.00    10.42    13.21   11.75   11.75    0.00   0.88  96.40
md0               0.00     0.00 4892.00    0.00 19568.00     0.00     8.00     0.00    0.00    0.00    0.00   0.00   0.00

avg-cpu:  %user   %nice %system %iowait  %steal   %idle
           0.00    0.00    0.06    0.09    0.00   99.84

Device:         rrqm/s   wrqm/s     r/s     w/s    rkB/s    wkB/s avgrq-sz avgqu-sz   await r_await w_await  svctm  %util
nvme0n1           0.00     0.00    0.00    0.00     0.00     0.00     0.00     0.00    0.00    0.00    0.00   0.00   0.00
sda               0.00    25.00    0.00    2.00     0.00   108.00   108.00     0.00    0.00    0.00    0.00   0.00   0.00
sdc             345.00     0.00 1138.00    0.00  5980.00     0.00    10.51    11.32    9.52    9.52    0.00   0.70  79.30
sdb             336.00     0.00 1122.00    0.00  5832.00     0.00    10.40     4.26    3.80    3.80    0.00   0.30  34.00
sdd             335.00     0.00 1161.00    0.00  5984.00     0.00    10.31    11.71   10.46   10.46    0.00   0.61  70.80
md0               0.00     0.00 4425.00    0.00 17700.00     0.00     8.00     0.00    0.00    0.00    0.00   0.00   0.00

avg-cpu:  %user   %nice %system %iowait  %steal   %idle
           0.03    0.00    0.06    0.06    0.00   99.84

Device:         rrqm/s   wrqm/s     r/s     w/s    rkB/s    wkB/s avgrq-sz avgqu-sz   await r_await w_await  svctm  %util
nvme0n1           0.00     0.00    0.00    0.00     0.00     0.00     0.00     0.00    0.00    0.00    0.00   0.00   0.00
sda               0.00     0.00    0.00    0.00     0.00     0.00     0.00     0.00    0.00    0.00    0.00   0.00   0.00
sdc             293.00     0.00 1137.00    0.00  5720.00     0.00    10.06     8.93    8.33    8.33    0.00   0.55  63.10
sdb             335.00     0.00 1114.00    0.00  5796.00     0.00    10.41     4.33    3.89    3.89    0.00   0.31  34.20
sdd             430.00     0.00 1118.00    0.00  6192.00     0.00    11.08    13.11   11.68   11.68    0.00   0.74  82.50
md0               0.00     0.00 4429.00    0.00 17716.00     0.00     8.00     0.00    0.00    0.00    0.00   0.00   0.00

avg-cpu:  %user   %nice %system %iowait  %steal   %idle
           0.03    0.00    0.06    0.13    0.00   99.78

Device:         rrqm/s   wrqm/s     r/s     w/s    rkB/s    wkB/s avgrq-sz avgqu-sz   await r_await w_await  svctm  %util
nvme0n1           0.00     0.00    0.00    0.00     0.00     0.00     0.00     0.00    0.00    0.00    0.00   0.00   0.00
sda               0.00     0.00    0.00    0.00     0.00     0.00     0.00     0.00    0.00    0.00    0.00   0.00   0.00
sdc             313.00     0.00 1002.00    0.00  5260.00     0.00    10.50    13.15   13.11   13.11    0.00   0.77  76.80
sdb             392.00     0.00 1101.00    0.00  5936.00     0.00    10.78     4.29    3.87    3.87    0.00   0.31  34.10
sdd             430.00     0.00 1019.00    0.00  5712.00     0.00    11.21     7.82    7.67    7.67    0.00   0.49  49.80
md0               0.00     0.00 4326.00    0.00 17304.00     0.00     8.00     0.00    0.00    0.00    0.00   0.00   0.00

avg-cpu:  %user   %nice %system %iowait  %steal   %idle
           0.00    0.00    0.06    0.19    0.00   99.75

Device:         rrqm/s   wrqm/s     r/s     w/s    rkB/s    wkB/s avgrq-sz avgqu-sz   await r_await w_await  svctm  %util
nvme0n1           0.00     0.00    0.00    0.00     0.00     0.00     0.00     0.00    0.00    0.00    0.00   0.00   0.00
sda               0.00     0.00    0.00    0.00     0.00     0.00     0.00     0.00    0.00    0.00    0.00   0.00   0.00
sdc             504.00     0.00 1238.00    0.00  6968.00     0.00    11.26    14.64   11.84   11.84    0.00   0.65  80.30
sdb             288.00     0.00 1059.00    0.00  5424.00     0.00    10.24     5.66    5.38    5.38    0.00   0.47  49.90
sdd             262.00     0.00 1123.00    0.00  5624.00     0.00    10.02    12.76   11.41   11.41    0.00   0.70  78.40
md0               0.00     0.00 4437.00    0.00 17748.00     0.00     8.00     0.00    0.00    0.00    0.00   0.00   0.00

avg-cpu:  %user   %nice %system %iowait  %steal   %idle
           0.00    0.00    0.13    0.00    0.00   99.87

Device:         rrqm/s   wrqm/s     r/s     w/s    rkB/s    wkB/s avgrq-sz avgqu-sz   await r_await w_await  svctm  %util
nvme0n1           0.00     0.00    0.00    0.00     0.00     0.00     0.00     0.00    0.00    0.00    0.00   0.00   0.00
sda               0.00     0.00    0.00    0.00     0.00     0.00     0.00     0.00    0.00    0.00    0.00   0.00   0.00
sdc             471.00     0.00 1267.00    0.00  6952.00     0.00    10.97    17.40   13.72   13.72    0.00   0.78  98.60
sdb             395.00     0.00 1100.00    0.00  5820.00     0.00    10.58     7.00    6.35    6.35    0.00   0.43  47.60
sdd             346.00     0.00 1174.00    0.00  6080.00     0.00    10.36     5.09    4.25    4.25    0.00   0.28  33.40
md0               0.00     0.00 4739.00    0.00 18956.00     0.00     8.00     0.00    0.00    0.00    0.00   0.00   0.00

avg-cpu:  %user   %nice %system %iowait  %steal   %idle
           0.03    0.00    0.03    0.09    0.00   99.84

Device:         rrqm/s   wrqm/s     r/s     w/s    rkB/s    wkB/s avgrq-sz avgqu-sz   await r_await w_await  svctm  %util
nvme0n1           0.00     0.00    0.00    0.00     0.00     0.00     0.00     0.00    0.00    0.00    0.00   0.00   0.00
sda               0.00     2.00    0.00    2.00     0.00    16.00    16.00     0.00    0.00    0.00    0.00   0.00   0.00
sdc             359.00     0.00 1000.00    0.00  5436.00     0.00    10.87    11.97   11.91   11.91    0.00   0.84  84.50
sdb             363.00     0.00 1016.00    0.00  5576.00     0.00    10.98     9.24    9.07    9.07    0.00   0.70  71.30
sdd             267.00     0.00 1040.00    0.00  5224.00     0.00    10.05     9.16    8.78    8.78    0.00   0.61  63.00
md0               0.00     0.00 4081.00    0.00 16324.00     0.00     8.00     0.00    0.00    0.00    0.00   0.00   0.00

avg-cpu:  %user   %nice %system %iowait  %steal   %idle
           0.00    0.00    0.06    0.13    0.00   99.81

Device:         rrqm/s   wrqm/s     r/s     w/s    rkB/s    wkB/s avgrq-sz avgqu-sz   await r_await w_await  svctm  %util
nvme0n1           0.00     0.00    0.00    0.00     0.00     0.00     0.00     0.00    0.00    0.00    0.00   0.00   0.00
sda               0.00     0.00    0.00    0.00     0.00     0.00     0.00     0.00    0.00    0.00    0.00   0.00   0.00
sdc             408.00     0.00 1229.00    0.00  6548.00     0.00    10.66     5.79    4.78    4.78    0.00   0.31  37.90
sdb             397.00     0.00 1096.00    0.00  6072.00     0.00    11.08     8.66    7.94    7.94    0.00   0.59  64.80
sdd             274.00     0.00 1056.00    0.00  5324.00     0.00    10.08    13.71   13.00   13.00    0.00   0.89  94.20
md0               0.00     0.00 4409.00    0.00 17636.00     0.00     8.00     0.00    0.00    0.00    0.00   0.00   0.00

avg-cpu:  %user   %nice %system %iowait  %steal   %idle
           0.03    0.00    0.09    0.13    0.00   99.75

Device:         rrqm/s   wrqm/s     r/s     w/s    rkB/s    wkB/s avgrq-sz avgqu-sz   await r_await w_await  svctm  %util
nvme0n1           0.00     0.00    0.00    0.00     0.00     0.00     0.00     0.00    0.00    0.00    0.00   0.00   0.00
sda               0.00     4.00    0.00    1.00     0.00    36.00    72.00     0.00    0.00    0.00    0.00   0.00   0.00
sdc             399.00     0.00 1336.00    0.00  6940.00     0.00    10.39     4.41    3.08    3.08    0.00   0.24  31.70
sdb             422.00     0.00 1253.00    0.00  6700.00     0.00    10.69     4.86    3.86    3.86    0.00   0.32  40.10
sdd             338.00     0.00 1262.00    0.00  6396.00     0.00    10.14    16.50   13.15   13.15    0.00   0.77  96.70
md0               0.00     0.00 5018.00    0.00 20072.00     0.00     8.00     0.00    0.00    0.00    0.00   0.00   0.00

avg-cpu:  %user   %nice %system %iowait  %steal   %idle
           0.00    0.00    0.09    0.13    0.00   99.78

Device:         rrqm/s   wrqm/s     r/s     w/s    rkB/s    wkB/s avgrq-sz avgqu-sz   await r_await w_await  svctm  %util
nvme0n1           0.00     0.00    0.00    0.00     0.00     0.00     0.00     0.00    0.00    0.00    0.00   0.00   0.00
sda               0.00     0.00    0.00    0.00     0.00     0.00     0.00     0.00    0.00    0.00    0.00   0.00   0.00
sdc             463.00     0.00 1369.00    0.00  7328.00     0.00    10.71    10.78    8.10    8.10    0.00   0.61  84.00
sdb             493.00     0.00 1340.00    0.00  7332.00     0.00    10.94     5.92    4.43    4.43    0.00   0.31  41.80
sdd             328.00     0.00 1270.00    0.00  6392.00     0.00    10.07     9.96    7.84    7.84    0.00   0.48  60.60
md0               0.00     0.00 5246.00    0.00 20984.00     0.00     8.00     0.00    0.00    0.00    0.00   0.00   0.00

avg-cpu:  %user   %nice %system %iowait  %steal   %idle
           0.03    0.00    0.09    0.06    0.00   99.81

Device:         rrqm/s   wrqm/s     r/s     w/s    rkB/s    wkB/s avgrq-sz avgqu-sz   await r_await w_await  svctm  %util
nvme0n1           0.00     0.00    0.00    0.00     0.00     0.00     0.00     0.00    0.00    0.00    0.00   0.00   0.00
sda               0.00     0.00    0.00    0.00     0.00     0.00     0.00     0.00    0.00    0.00    0.00   0.00   0.00
sdc             460.00     0.00 1327.00    0.00  7148.00     0.00    10.77     8.50    6.40    6.40    0.00   0.43  57.60
sdb             357.00     0.00 1141.00    0.00  5992.00     0.00    10.50    12.61   10.97   10.97    0.00   0.72  81.70
sdd             269.00     0.00 1096.00    0.00  5464.00     0.00     9.97     8.83    8.08    8.08    0.00   0.54  59.70
md0               0.00     0.00 4653.00    0.00 18612.00     0.00     8.00     0.00    0.00    0.00    0.00   0.00   0.00

avg-cpu:  %user   %nice %system %iowait  %steal   %idle
           0.03    0.00    0.03    0.06    0.00   99.87

Device:         rrqm/s   wrqm/s     r/s     w/s    rkB/s    wkB/s avgrq-sz avgqu-sz   await r_await w_await  svctm  %util
nvme0n1           0.00     0.00    0.00    0.00     0.00     0.00     0.00     0.00    0.00    0.00    0.00   0.00   0.00
sda               0.00     4.00    0.00    2.00     0.00    24.00    24.00     0.00    0.50    0.00    0.50   0.50   0.10
sdc             386.00     0.00 1174.00    0.00  6240.00     0.00    10.63     5.64    4.80    4.80    0.00   0.43  51.00
sdb             358.00     0.00 1209.00    0.00  6268.00     0.00    10.37     9.62    8.03    8.03    0.00   0.61  73.40
sdd             430.00     0.00 1190.00    0.00  6456.00     0.00    10.85    12.09   10.08   10.08    0.00   0.64  76.10
md0               0.00     0.00 4745.00    0.00 18980.00     0.00     8.00     0.00    0.00    0.00    0.00   0.00   0.00

avg-cpu:  %user   %nice %system %iowait  %steal   %idle
           0.00    0.00    0.09    0.03    0.00   99.87

Device:         rrqm/s   wrqm/s     r/s     w/s    rkB/s    wkB/s avgrq-sz avgqu-sz   await r_await w_await  svctm  %util
nvme0n1           0.00     0.00    0.00    0.00     0.00     0.00     0.00     0.00    0.00    0.00    0.00   0.00   0.00
sda               0.00     0.00    0.00    0.00     0.00     0.00     0.00     0.00    0.00    0.00    0.00   0.00   0.00
sdc             596.00     0.00 1314.00    0.00  7640.00     0.00    11.63    11.09    8.44    8.44    0.00   0.54  71.60
sdb             335.00     0.00 1155.00    0.00  5960.00     0.00    10.32     5.96    5.04    5.04    0.00   0.43  50.10
sdd             404.00     0.00 1185.00    0.00  6328.00     0.00    10.68    10.67    9.06    9.06    0.00   0.66  78.70
md0               0.00     0.00 5020.00    0.00 20080.00     0.00     8.00     0.00    0.00    0.00    0.00   0.00   0.00

avg-cpu:  %user   %nice %system %iowait  %steal   %idle
           0.00    0.00    0.06    0.09    0.00   99.84

Device:         rrqm/s   wrqm/s     r/s     w/s    rkB/s    wkB/s avgrq-sz avgqu-sz   await r_await w_await  svctm  %util
nvme0n1           0.00     0.00    0.00    0.00     0.00     0.00     0.00     0.00    0.00    0.00    0.00   0.00   0.00
sda               0.00     0.00    0.00    0.00     0.00     0.00     0.00     0.00    0.00    0.00    0.00   0.00   0.00
sdc             362.00     0.00 1163.00    0.00  6100.00     0.00    10.49     2.77    2.38    2.38    0.00   0.18  21.00
sdb             440.00     0.00 1226.00    0.00  6664.00     0.00    10.87     4.47    3.76    3.76    0.00   0.26  31.80
sdd             429.00     0.00 1154.00    0.00  6388.00     0.00    11.07    15.09   12.62   12.62    0.00   0.86  99.30
md0               0.00     0.00 4766.00    0.00 19064.00     0.00     8.00     0.00    0.00    0.00    0.00   0.00   0.00

avg-cpu:  %user   %nice %system %iowait  %steal   %idle
           0.03    0.00    0.06    0.13    0.00   99.78

Device:         rrqm/s   wrqm/s     r/s     w/s    rkB/s    wkB/s avgrq-sz avgqu-sz   await r_await w_await  svctm  %util
nvme0n1           0.00     0.00    0.00    0.00     0.00     0.00     0.00     0.00    0.00    0.00    0.00   0.00   0.00
sda               0.00     0.00    0.00    0.00     0.00     0.00     0.00     0.00    0.00    0.00    0.00   0.00   0.00
sdc             375.00     0.00 1224.00    0.00  6396.00     0.00    10.45    11.20    9.15    9.15    0.00   0.55  67.30
sdb             395.00     0.00 1116.00    0.00  6044.00     0.00    10.83     3.10    2.78    2.78    0.00   0.26  29.00
sdd             455.00     0.00 1349.00    0.00  7212.00     0.00    10.69    12.49    9.55    9.55    0.00   0.65  87.20
md0               0.00     0.00 4894.00    0.00 19576.00     0.00     8.00     0.00    0.00    0.00    0.00   0.00   0.00

avg-cpu:  %user   %nice %system %iowait  %steal   %idle
           0.00    0.00    0.06    0.06    0.00   99.87

Device:         rrqm/s   wrqm/s     r/s     w/s    rkB/s    wkB/s avgrq-sz avgqu-sz   await r_await w_await  svctm  %util
nvme0n1           0.00     0.00    0.00    0.00     0.00     0.00     0.00     0.00    0.00    0.00    0.00   0.00   0.00
sda               0.00     0.00    0.00    0.00     0.00     0.00     0.00     0.00    0.00    0.00    0.00   0.00   0.00
sdc             367.00     0.00 1133.00    0.00  5928.00     0.00    10.46     6.81    5.80    5.80    0.00   0.41  46.70
sdb             287.00     0.00 1170.00    0.00  5828.00     0.00     9.96     5.54    4.74    4.74    0.00   0.34  39.90
sdd             484.00     0.00 1187.00    0.00  6652.00     0.00    11.21    14.63   12.42   12.42    0.00   0.82  97.80
md0               0.00     0.00 4650.00    0.00 18600.00     0.00     8.00     0.00    0.00    0.00    0.00   0.00   0.00

avg-cpu:  %user   %nice %system %iowait  %steal   %idle
           0.00    0.00    0.03    0.28    0.00   99.69

Device:         rrqm/s   wrqm/s     r/s     w/s    rkB/s    wkB/s avgrq-sz avgqu-sz   await r_await w_await  svctm  %util
nvme0n1           0.00     0.00    0.00    0.00     0.00     0.00     0.00     0.00    0.00    0.00    0.00   0.00   0.00
sda               0.00     2.00    0.00    2.00     0.00    16.00    16.00     0.00    0.50    0.00    0.50   0.50   0.10
sdc             280.00     0.00  708.00    0.00  3884.00     0.00    10.97    12.22   17.08   17.08    0.00   1.39  98.40
sdb             182.00     0.00  552.00    0.00  2936.00     0.00    10.64     3.56    6.45    6.45    0.00   0.46  25.40
sdd             145.00     0.00  607.00    0.00  3040.00     0.00    10.02     2.39    4.01    4.01    0.00   0.29  17.90
md0               0.00     0.00 2449.00    0.00  9796.00     0.00     8.00     0.00    0.00    0.00    0.00   0.00   0.00

avg-cpu:  %user   %nice %system %iowait  %steal   %idle
           0.00    0.00    0.06    0.00    0.00  100.09

Device:         rrqm/s   wrqm/s     r/s     w/s    rkB/s    wkB/s avgrq-sz avgqu-sz   await r_await w_await  svctm  %util
nvme0n1           0.00     0.00    0.00    0.00     0.00     0.00     0.00     0.00    0.00    0.00    0.00   0.00   0.00
sda               0.00     0.00    0.00    0.00     0.00     0.00     0.00     0.00    0.00    0.00    0.00   0.00   0.00
sdc             325.00     0.00 1046.00    0.00  5624.00     0.00    10.75     7.17    7.19    7.19    0.00   0.55  57.20
sdb             347.00     0.00 1105.00    0.00  5808.00     0.00    10.51     3.16    2.86    2.86    0.00   0.24  27.00
sdd             469.00     0.00 1144.00    0.00  6392.00     0.00    11.17    14.21   12.35   12.35    0.00   0.74  85.20
md0               0.00     0.00 4437.00    0.00 17748.00     0.00     8.00     0.00    0.00    0.00    0.00   0.00   0.00

