Linux 4.17.2 (bench2) 	08/03/2018 	_x86_64_	(32 CPU)

avg-cpu:  %user   %nice %system %iowait  %steal   %idle
           1.90    0.00    1.55    1.59    0.00   94.96

Device:         rrqm/s   wrqm/s     r/s     w/s    rkB/s    wkB/s avgrq-sz avgqu-sz   await r_await w_await  svctm  %util
nvme0n1         934.58     5.08 18840.72  518.74 105387.13 11699.21    12.10     1.34    0.05    0.03    0.67   0.02  39.44
sda               0.12     0.82   14.17    0.58   164.01     8.53    23.40     0.00    0.33    0.32    0.44   0.07   0.10
sdc              34.25     0.17  120.68    0.31  1816.22    97.12    31.63     0.08    0.65   12.34  380.35   0.91  10.98
sdb              32.22     0.19  122.67    0.33  1814.26    96.94    31.08     0.51    4.14    3.05  411.64   0.85  10.43
sdd              34.45     0.17  120.23    0.26  1812.24    96.61    31.69     0.82    6.84    4.89  907.87   0.91  10.98
md0               0.00     0.00  467.33    1.21  6747.77   350.49    30.30     0.00    0.00    0.00    0.00   0.00   0.00

avg-cpu:  %user   %nice %system %iowait  %steal   %idle
           0.03    0.00    0.06   17.20    0.00   82.71

Device:         rrqm/s   wrqm/s     r/s     w/s    rkB/s    wkB/s avgrq-sz avgqu-sz   await r_await w_await  svctm  %util
nvme0n1           0.00     0.00    0.00    0.00     0.00     0.00     0.00     0.00    0.00    0.00    0.00   0.00   0.00
sda               0.00     0.00    1.00    0.00     8.00     0.00    16.00     0.00    0.00    0.00    0.00   0.00   0.00
sdc               0.00     0.00  166.00    0.00   676.00     0.00     8.14     4.15   24.55   24.55    0.00   4.99  82.80
sdb               0.00     0.00  165.00    0.00   672.00     0.00     8.15     4.03   23.93   23.93    0.00   5.22  86.10
sdd               0.00     0.00  160.00    0.00   700.00     0.00     8.75     3.85   23.21   23.21    0.00   4.92  78.80
md0               0.00     0.00  491.00    0.00  2048.00     0.00     8.34     0.00    0.00    0.00    0.00   0.00   0.00

avg-cpu:  %user   %nice %system %iowait  %steal   %idle
           0.00    0.00    0.09   16.47    0.00   83.43

Device:         rrqm/s   wrqm/s     r/s     w/s    rkB/s    wkB/s avgrq-sz avgqu-sz   await r_await w_await  svctm  %util
nvme0n1           0.00     0.00    0.00    0.00     0.00     0.00     0.00     0.00    0.00    0.00    0.00   0.00   0.00
sda               0.00     0.00    0.00    0.00     0.00     0.00     0.00     0.00    0.00    0.00    0.00   0.00   0.00
sdc               0.00     0.00  183.00    0.00   744.00     0.00     8.13     4.83   26.40   26.40    0.00   5.02  91.80
sdb               0.00     0.00  178.00    0.00   868.00     0.00     9.75     2.87   16.47   16.47    0.00   4.61  82.00
sdd               0.00     0.00  168.00    0.00   696.00     0.00     8.29     4.23   26.01   26.01    0.00   4.90  82.30
md0               0.00     0.00  521.00    0.00  2276.00     0.00     8.74     0.00    0.00    0.00    0.00   0.00   0.00

