Linux 4.17.2 (bench2) 	08/03/2018 	_x86_64_	(32 CPU)

avg-cpu:  %user   %nice %system %iowait  %steal   %idle
           1.90    0.00    1.56    1.57    0.00   94.97

Device:         rrqm/s   wrqm/s     r/s     w/s    rkB/s    wkB/s avgrq-sz avgqu-sz   await r_await w_await  svctm  %util
nvme0n1         939.06     5.10 18931.13  521.23 105892.86 11755.35    12.10     1.35    0.05    0.03    0.67   0.02  39.63
sda               0.12     0.82   14.16    0.58   163.98     8.52    23.41     0.00    0.33    0.32    0.44   0.07   0.10
sdc              33.85     0.17  117.54    0.31  1770.28    97.58    31.70     0.04    0.38   12.44  380.35   0.91  10.78
sdb              31.80     0.19  119.54    0.33  1768.35    97.40    31.13     0.48    3.99    2.86  411.64   0.85  10.24
sdd              34.04     0.17  117.08    0.26  1766.26    97.08    31.76     0.79    6.76    4.75  907.87   0.92  10.78
md0               0.00     0.00  456.70    1.21  6570.11   352.17    30.23     0.00    0.00    0.00    0.00   0.00   0.00

avg-cpu:  %user   %nice %system %iowait  %steal   %idle
           0.03    0.00    0.38    0.03    0.00   99.56

Device:         rrqm/s   wrqm/s     r/s     w/s    rkB/s    wkB/s avgrq-sz avgqu-sz   await r_await w_await  svctm  %util
nvme0n1           0.00     0.00    0.00    0.00     0.00     0.00     0.00     0.00    0.00    0.00    0.00   0.00   0.00
sda               0.00     0.00    4.00    0.00   104.00     0.00    52.00     0.00    0.00    0.00    0.00   0.00   0.00
sdc             198.00     0.00  964.00    0.00  4648.00     0.00     9.64    11.06   11.43   11.43    0.00   0.64  61.30
sdb             197.00     0.00  774.00    0.00  3848.00     0.00     9.94     8.55   10.95   10.95    0.00   0.85  65.60
sdd             289.00     0.00 1046.00    0.00  5340.00     0.00    10.21    14.69   14.03   14.03    0.00   0.70  73.60
md0               0.00     0.00 3546.00    0.00 14184.00     0.00     8.00     0.00    0.00    0.00    0.00   0.00   0.00

avg-cpu:  %user   %nice %system %iowait  %steal   %idle
           0.00    0.00    0.25    0.19    0.00   99.56

Device:         rrqm/s   wrqm/s     r/s     w/s    rkB/s    wkB/s avgrq-sz avgqu-sz   await r_await w_await  svctm  %util
nvme0n1           0.00     0.00    0.00    0.00     0.00     0.00     0.00     0.00    0.00    0.00    0.00   0.00   0.00
sda               0.00     0.00    0.00    0.00     0.00     0.00     0.00     0.00    0.00    0.00    0.00   0.00   0.00
sdc             194.00     0.00 1100.00    0.00  5176.00     0.00     9.41    14.74   13.44   13.44    0.00   0.65  71.70
sdb             164.00     0.00 1056.00    0.00  4916.00     0.00     9.31    12.90   12.26   12.26    0.00   0.64  68.10
sdd             196.00     0.00  967.00    0.00  4636.00     0.00     9.59    10.66   10.97   10.97    0.00   0.62  60.20
md0               0.00     0.00 3603.00    0.00 14412.00     0.00     8.00     0.00    0.00    0.00    0.00   0.00   0.00

avg-cpu:  %user   %nice %system %iowait  %steal   %idle
           0.00    0.00    0.56    0.00    0.00   99.47

Device:         rrqm/s   wrqm/s     r/s     w/s    rkB/s    wkB/s avgrq-sz avgqu-sz   await r_await w_await  svctm  %util
nvme0n1           0.00     0.00    0.00    0.00     0.00     0.00     0.00     0.00    0.00    0.00    0.00   0.00   0.00
sda               0.00     0.00    0.00    0.00     0.00     0.00     0.00     0.00    0.00    0.00    0.00   0.00   0.00
sdc             270.00     0.00 1057.00    0.00  5268.00     0.00     9.97    12.26   11.17   11.17    0.00   0.58  61.40
sdb             271.00     0.00 1035.00    0.00  5224.00     0.00    10.09    14.24   13.80   13.80    0.00   0.72  74.70
sdd             169.00     0.00  983.00    0.00  4616.00     0.00     9.39    13.83   13.77   13.77    0.00   0.69  67.50
md0               0.00     0.00 3851.00    0.00 15404.00     0.00     8.00     0.00    0.00    0.00    0.00   0.00   0.00

avg-cpu:  %user   %nice %system %iowait  %steal   %idle
           0.03    0.00    0.38    0.00    0.00   99.59

Device:         rrqm/s   wrqm/s     r/s     w/s    rkB/s    wkB/s avgrq-sz avgqu-sz   await r_await w_await  svctm  %util
nvme0n1           0.00     0.00    0.00    0.00     0.00     0.00     0.00     0.00    0.00    0.00    0.00   0.00   0.00
sda               0.00     0.00    0.00    0.00     0.00     0.00     0.00     0.00    0.00    0.00    0.00   0.00   0.00
sdc             258.00     0.00  931.00    0.00  4796.00     0.00    10.30    10.17   11.42   11.42    0.00   0.57  53.00
sdb             137.00     0.00  798.00    0.00  3720.00     0.00     9.32    12.66   15.81   15.81    0.00   0.76  60.50
sdd             293.00     0.00 1043.00    0.00  5284.00     0.00    10.13    15.44   15.16   15.16    0.00   0.72  75.00
md0               0.00     0.00 3480.00    0.00 13920.00     0.00     8.00     0.00    0.00    0.00    0.00   0.00   0.00

avg-cpu:  %user   %nice %system %iowait  %steal   %idle
           0.00    0.00    0.59    0.06    0.00   99.34

Device:         rrqm/s   wrqm/s     r/s     w/s    rkB/s    wkB/s avgrq-sz avgqu-sz   await r_await w_await  svctm  %util
nvme0n1           0.00     0.00    0.00    0.00     0.00     0.00     0.00     0.00    0.00    0.00    0.00   0.00   0.00
sda               0.00     0.00    0.00    0.00     0.00     0.00     0.00     0.00    0.00    0.00    0.00   0.00   0.00
sdc             147.00     0.00  952.00    0.00  4376.00     0.00     9.19    14.15   14.66   14.66    0.00   0.73  69.60
sdb             263.00     0.00  999.00    0.00  5068.00     0.00    10.15    14.23   14.29   14.29    0.00   0.68  67.70
sdd             202.00     0.00 1018.00    0.00  4948.00     0.00     9.72    12.22   12.04   12.04    0.00   0.61  62.50
md0               0.00     0.00 3497.00    0.00 13988.00     0.00     8.00     0.00    0.00    0.00    0.00   0.00   0.00

avg-cpu:  %user   %nice %system %iowait  %steal   %idle
           0.03    0.00    0.63    0.00    0.00   99.34

Device:         rrqm/s   wrqm/s     r/s     w/s    rkB/s    wkB/s avgrq-sz avgqu-sz   await r_await w_await  svctm  %util
nvme0n1           0.00     0.00    0.00    0.00     0.00     0.00     0.00     0.00    0.00    0.00    0.00   0.00   0.00
sda               0.00     9.00    0.00    2.00     0.00    44.00    44.00     0.00    0.50    0.00    0.50   0.50   0.10
sdc             316.00     0.00 1043.00    0.00  5456.00     0.00    10.46    15.05   14.65   14.65    0.00   0.68  71.40
sdb             270.00     0.00 1006.00    0.00  5060.00     0.00    10.06    14.59   14.42   14.42    0.00   0.67  67.50
sdd             178.00     0.00  939.00    0.00  4468.00     0.00     9.52    11.59   12.34   12.34    0.00   0.62  58.00
md0               0.00     0.00 3756.00    0.00 15024.00     0.00     8.00     0.00    0.00    0.00    0.00   0.00   0.00

avg-cpu:  %user   %nice %system %iowait  %steal   %idle
           0.03    0.00    0.72    0.09    0.00   99.16

Device:         rrqm/s   wrqm/s     r/s     w/s    rkB/s    wkB/s avgrq-sz avgqu-sz   await r_await w_await  svctm  %util
nvme0n1           0.00     0.00    0.00    0.00     0.00     0.00     0.00     0.00    0.00    0.00    0.00   0.00   0.00
sda               0.00     0.00    0.00    0.00     0.00     0.00     0.00     0.00    0.00    0.00    0.00   0.00   0.00
sdc             130.00     0.00  831.00    0.00  3844.00     0.00     9.25     8.31   10.01   10.01    0.00   0.62  51.80
sdb             260.00     0.00 1003.00    0.00  5060.00     0.00    10.09    15.41   14.81   14.81    0.00   0.79  79.10
sdd             270.00     0.00 1013.00    0.00  5132.00     0.00    10.13    10.78   10.67   10.67    0.00   0.52  53.10
md0               0.00     0.00 3520.00    0.00 14080.00     0.00     8.00     0.00    0.00    0.00    0.00   0.00   0.00

avg-cpu:  %user   %nice %system %iowait  %steal   %idle
           0.00    0.00    0.41    0.00    0.00   99.59

Device:         rrqm/s   wrqm/s     r/s     w/s    rkB/s    wkB/s avgrq-sz avgqu-sz   await r_await w_await  svctm  %util
nvme0n1           0.00     0.00    0.00    0.00     0.00     0.00     0.00     0.00    0.00    0.00    0.00   0.00   0.00
sda               0.00     0.00    0.00    0.00     0.00     0.00     0.00     0.00    0.00    0.00    0.00   0.00   0.00
sdc             242.00     0.00 1000.00    0.00  4968.00     0.00     9.94    15.68   15.69   15.69    0.00   0.76  75.80
sdb             179.00     0.00  938.00    0.00  4504.00     0.00     9.60    10.66   12.07   12.07    0.00   0.64  60.00
sdd             253.00     0.00  999.00    0.00  4928.00     0.00     9.87    12.63   11.75   11.75    0.00   0.66  66.30
md0               0.00     0.00 3620.00    0.00 14480.00     0.00     8.00     0.00    0.00    0.00    0.00   0.00   0.00

avg-cpu:  %user   %nice %system %iowait  %steal   %idle
           0.03    0.00    0.63    0.03    0.00   99.31

Device:         rrqm/s   wrqm/s     r/s     w/s    rkB/s    wkB/s avgrq-sz avgqu-sz   await r_await w_await  svctm  %util
nvme0n1           0.00     0.00    0.00    0.00     0.00     0.00     0.00     0.00    0.00    0.00    0.00   0.00   0.00
sda               0.00     4.00    0.00    2.00     0.00    40.00    40.00     0.00    0.00    0.00    0.00   0.00   0.00
sdc             262.00     0.00  975.00    0.00  4924.00     0.00    10.10     9.47    9.61    9.61    0.00   0.54  53.00
sdb             252.00     0.00 1055.00    0.00  5228.00     0.00     9.91    14.44   13.65   13.65    0.00   0.63  66.20
sdd             198.00     0.00  955.00    0.00  4640.00     0.00     9.72    12.59   14.04   14.04    0.00   0.74  70.50
md0               0.00     0.00 3743.00    0.00 14972.00     0.00     8.00     0.00    0.00    0.00    0.00   0.00   0.00

avg-cpu:  %user   %nice %system %iowait  %steal   %idle
           0.03    0.00    0.44    0.03    0.00   99.50

Device:         rrqm/s   wrqm/s     r/s     w/s    rkB/s    wkB/s avgrq-sz avgqu-sz   await r_await w_await  svctm  %util
nvme0n1           0.00     0.00    0.00    0.00     0.00     0.00     0.00     0.00    0.00    0.00    0.00   0.00   0.00
sda               0.00     0.00    0.00    0.00     0.00     0.00     0.00     0.00    0.00    0.00    0.00   0.00   0.00
sdc             225.00     0.00  808.00    0.00  4120.00     0.00    10.20    14.32   17.77   17.77    0.00   0.83  66.90
sdb             197.00     0.00  818.00    0.00  4048.00     0.00     9.90    14.58   17.72   17.72    0.00   0.83  67.50
sdd             108.00     0.00  641.00    0.00  3028.00     0.00     9.45     6.25    9.76    9.76    0.00   0.56  35.80
md0               0.00     0.00 2791.00    0.00 11164.00     0.00     8.00     0.00    0.00    0.00    0.00   0.00   0.00

avg-cpu:  %user   %nice %system %iowait  %steal   %idle
           0.03    0.00    0.59    0.00    0.00   99.38

Device:         rrqm/s   wrqm/s     r/s     w/s    rkB/s    wkB/s avgrq-sz avgqu-sz   await r_await w_await  svctm  %util
nvme0n1           0.00     0.00    0.00    0.00     0.00     0.00     0.00     0.00    0.00    0.00    0.00   0.00   0.00
sda               0.00     4.00    0.00    2.00     0.00    24.00    24.00     0.00    0.00    0.00    0.00   0.00   0.00
sdc             164.00     0.00  864.00    0.00  4148.00     0.00     9.60    13.19   15.20   15.20    0.00   0.81  70.20
sdb             145.00     0.00  891.00    0.00  4156.00     0.00     9.33    11.59   13.19   13.19    0.00   0.74  66.00
sdd             175.00     0.00  930.00    0.00  4432.00     0.00     9.53    12.85   13.86   13.86    0.00   0.67  62.00
md0               0.00     0.00 3129.00    0.00 12516.00     0.00     8.00     0.00    0.00    0.00    0.00   0.00   0.00

avg-cpu:  %user   %nice %system %iowait  %steal   %idle
           0.00    0.00    0.62    0.16    0.00   99.22

Device:         rrqm/s   wrqm/s     r/s     w/s    rkB/s    wkB/s avgrq-sz avgqu-sz   await r_await w_await  svctm  %util
nvme0n1           0.00     0.00    0.00    0.00     0.00     0.00     0.00     0.00    0.00    0.00    0.00   0.00   0.00
sda               0.00     0.00    0.00    0.00     0.00     0.00     0.00     0.00    0.00    0.00    0.00   0.00   0.00
sdc             116.00     0.00  920.00    0.00  4144.00     0.00     9.01     9.64   10.63   10.63    0.00   0.56  51.40
sdb             187.00     0.00  850.00    0.00  4148.00     0.00     9.76    13.01   15.32   15.32    0.00   0.87  73.80
sdd             304.00     0.00 1000.00    0.00  5200.00     0.00    10.40    15.96   15.84   15.84    0.00   0.77  77.40
md0               0.00     0.00 3350.00    0.00 13400.00     0.00     8.00     0.00    0.00    0.00    0.00   0.00   0.00

avg-cpu:  %user   %nice %system %iowait  %steal   %idle
           0.03    0.00    0.47    0.00    0.00   99.50

Device:         rrqm/s   wrqm/s     r/s     w/s    rkB/s    wkB/s avgrq-sz avgqu-sz   await r_await w_await  svctm  %util
nvme0n1           0.00     0.00    0.00    0.00     0.00     0.00     0.00     0.00    0.00    0.00    0.00   0.00   0.00
sda               0.00     0.00    0.00    0.00     0.00     0.00     0.00     0.00    0.00    0.00    0.00   0.00   0.00
sdc             255.00     0.00  991.00    0.00  4984.00     0.00    10.06    11.75   11.87   11.87    0.00   0.63  62.40
sdb             236.00     0.00  976.00    0.00  4840.00     0.00     9.92    14.91   15.16   15.16    0.00   0.74  72.20
sdd             133.00     0.00  884.00    0.00  4092.00     0.00     9.26    11.40   13.09   13.09    0.00   0.70  61.50
md0               0.00     0.00 3472.00    0.00 13888.00     0.00     8.00     0.00    0.00    0.00    0.00   0.00   0.00

avg-cpu:  %user   %nice %system %iowait  %steal   %idle
           0.03    0.00    0.50    0.00    0.00   99.47

Device:         rrqm/s   wrqm/s     r/s     w/s    rkB/s    wkB/s avgrq-sz avgqu-sz   await r_await w_await  svctm  %util
nvme0n1           0.00     0.00    0.00    0.00     0.00     0.00     0.00     0.00    0.00    0.00    0.00   0.00   0.00
sda               0.00     0.00    0.00    0.00     0.00     0.00     0.00     0.00    0.00    0.00    0.00   0.00   0.00
sdc             197.00     0.00  873.00    0.00  4280.00     0.00     9.81     8.75   10.03   10.03    0.00   0.54  47.40
sdb             231.00     0.00  821.00    0.00  4180.00     0.00    10.18     9.80   11.38   11.38    0.00   0.59  48.10
sdd             216.00     0.00  879.00    0.00  4380.00     0.00     9.97    15.70   17.65   17.65    0.00   0.88  77.40
md0               0.00     0.00 3247.00    0.00 12988.00     0.00     8.00     0.00    0.00    0.00    0.00   0.00   0.00

avg-cpu:  %user   %nice %system %iowait  %steal   %idle
           0.03    0.00    0.41    1.19    0.00   98.37

Device:         rrqm/s   wrqm/s     r/s     w/s    rkB/s    wkB/s avgrq-sz avgqu-sz   await r_await w_await  svctm  %util
nvme0n1           0.00     0.00    0.00    0.00     0.00     0.00     0.00     0.00    0.00    0.00    0.00   0.00   0.00
sda               0.00     0.00   70.00    0.00   492.00     0.00    14.06     0.00    0.06    0.06    0.00   0.03   0.20
sdc             206.00     0.00  987.00    0.00  4772.00     0.00     9.67    15.61   15.78   15.78    0.00   0.77  75.60
sdb             227.00     0.00 1021.00    0.00  5028.00     0.00     9.85    14.13   14.36   14.36    0.00   0.71  72.00
sdd             156.00     0.00  942.00    0.00  4296.00     0.00     9.12    10.86   11.57   11.57    0.00   0.73  68.50
md0               0.00     0.00 3570.00    0.00 14280.00     0.00     8.00     0.00    0.00    0.00    0.00   0.00   0.00

avg-cpu:  %user   %nice %system %iowait  %steal   %idle
           0.03    0.00    0.56    3.00    0.00   96.40

Device:         rrqm/s   wrqm/s     r/s     w/s    rkB/s    wkB/s avgrq-sz avgqu-sz   await r_await w_await  svctm  %util
nvme0n1           0.00     0.00    0.00    0.00     0.00     0.00     0.00     0.00    0.00    0.00    0.00   0.00   0.00
sda               0.00     3.00    0.00    2.00     0.00    20.00    20.00     0.00    0.00    0.00    0.00   0.00   0.00
sdc             232.00     0.00 1051.00    0.00  5108.00     0.00     9.72    10.88   10.29   10.29    0.00   0.61  64.40
sdb             215.00     0.00  988.00    0.00  4812.00     0.00     9.74    10.51   10.68   10.68    0.00   0.64  63.40
sdd             347.00     0.00 1225.00    0.00  6384.00     0.00    10.42    15.81   13.04   13.04    0.00   0.62  76.00
md0               0.00     0.00 4004.00    0.00 16016.00     0.00     8.00     0.00    0.00    0.00    0.00   0.00   0.00

avg-cpu:  %user   %nice %system %iowait  %steal   %idle
           0.03    0.00    0.56    2.97    0.00   96.43

Device:         rrqm/s   wrqm/s     r/s     w/s    rkB/s    wkB/s avgrq-sz avgqu-sz   await r_await w_await  svctm  %util
nvme0n1           0.00     0.00    0.00    0.00     0.00     0.00     0.00     0.00    0.00    0.00    0.00   0.00   0.00
sda               0.00     0.00    0.00    0.00     0.00     0.00     0.00     0.00    0.00    0.00    0.00   0.00   0.00
sdc             141.00     0.00 1018.00    0.00  4660.00     0.00     9.16    15.17   15.01   15.01    0.00   0.74  75.30
sdb             211.00     0.00  900.00    0.00  4444.00     0.00     9.88    11.45   12.71   12.71    0.00   0.71  63.90
sdd             342.00     0.00 1005.00    0.00  5388.00     0.00    10.72    13.28   13.15   13.15    0.00   0.65  65.40
md0               0.00     0.00 3614.00    0.00 14456.00     0.00     8.00     0.00    0.00    0.00    0.00   0.00   0.00

avg-cpu:  %user   %nice %system %iowait  %steal   %idle
           0.03    0.00    0.59    3.00    0.00   96.37

Device:         rrqm/s   wrqm/s     r/s     w/s    rkB/s    wkB/s avgrq-sz avgqu-sz   await r_await w_await  svctm  %util
nvme0n1           0.00     0.00    0.00    0.00     0.00     0.00     0.00     0.00    0.00    0.00    0.00   0.00   0.00
sda               0.00     0.00    0.00    0.00     0.00     0.00     0.00     0.00    0.00    0.00    0.00   0.00   0.00
sdc             205.00     0.00  976.00    0.00  4724.00     0.00     9.68    12.60   12.93   12.93    0.00   0.68  66.50
sdb             301.00     0.00 1019.00    0.00  5280.00     0.00    10.36    13.32   13.10   13.10    0.00   0.62  63.50
sdd             252.00     0.00  984.00    0.00  4904.00     0.00     9.97    11.45   11.16   11.16    0.00   0.59  58.30
md0               0.00     0.00 3742.00    0.00 14968.00     0.00     8.00     0.00    0.00    0.00    0.00   0.00   0.00

avg-cpu:  %user   %nice %system %iowait  %steal   %idle
           0.00    0.00    0.53    3.00    0.00   96.46

Device:         rrqm/s   wrqm/s     r/s     w/s    rkB/s    wkB/s avgrq-sz avgqu-sz   await r_await w_await  svctm  %util
nvme0n1           0.00     0.00    0.00    0.00     0.00     0.00     0.00     0.00    0.00    0.00    0.00   0.00   0.00
sda               0.00     0.00    0.00    0.00     0.00     0.00     0.00     0.00    0.00    0.00    0.00   0.00   0.00
sdc             175.00     0.00  938.00    0.00  4452.00     0.00     9.49    14.30   15.26   15.26    0.00   0.83  77.90
sdb             206.00     0.00  975.00    0.00  4664.00     0.00     9.57    13.38   13.21   13.21    0.00   0.65  63.30
sdd             188.00     0.00 1007.00    0.00  4820.00     0.00     9.57    12.10   12.56   12.56    0.00   0.61  61.60
md0               0.00     0.00 3496.00    0.00 13984.00     0.00     8.00     0.00    0.00    0.00    0.00   0.00   0.00

avg-cpu:  %user   %nice %system %iowait  %steal   %idle
           0.03    0.00    0.28    2.98    0.00   96.71

Device:         rrqm/s   wrqm/s     r/s     w/s    rkB/s    wkB/s avgrq-sz avgqu-sz   await r_await w_await  svctm  %util
nvme0n1           0.00     0.00    0.00    0.00     0.00     0.00     0.00     0.00    0.00    0.00    0.00   0.00   0.00
sda               0.00     0.00    0.00    0.00     0.00     0.00     0.00     0.00    0.00    0.00    0.00   0.00   0.00
sdc             207.00     0.00 1019.00    0.00  4904.00     0.00     9.63    14.74   14.42   14.42    0.00   0.64  64.80
sdb             218.00     0.00 1002.00    0.00  4936.00     0.00     9.85    12.59   12.82   12.82    0.00   0.61  60.70
sdd             235.00     0.00  990.00    0.00  4856.00     0.00     9.81    15.14   15.03   15.03    0.00   0.72  71.60
md0               0.00     0.00 3726.00    0.00 14904.00     0.00     8.00     0.00    0.00    0.00    0.00   0.00   0.00

