Linux 4.17.2 (bench2) 	08/03/2018 	_x86_64_	(32 CPU)

avg-cpu:  %user   %nice %system %iowait  %steal   %idle
           1.91    0.00    1.56    1.56    0.00   94.97

Device:         rrqm/s   wrqm/s     r/s     w/s    rkB/s    wkB/s avgrq-sz avgqu-sz   await r_await w_await  svctm  %util
nvme0n1         943.11     5.12 19012.64  523.48 106348.79 11805.97    12.10     1.35    0.05    0.03    0.67   0.02  39.80
sda               0.12     0.81   14.15    0.58   163.94     8.52    23.42     0.00    0.33    0.32    0.44   0.07   0.10
sdc              33.49     0.18  114.75    0.31  1731.76    98.00    31.80     0.02    0.19   12.59  380.35   0.92  10.60
sdb              31.44     0.19  116.76    0.33  1729.83    97.82    31.22     0.46    3.91    2.75  411.64   0.86  10.08
sdd              33.69     0.17  114.29    0.26  1727.75    97.50    31.87     0.78    6.76    4.69  907.87   0.93  10.61
md0               0.00     0.00  447.28    1.22  6422.12   353.69    30.22     0.00    0.00    0.00    0.00   0.00   0.00

avg-cpu:  %user   %nice %system %iowait  %steal   %idle
           0.03    0.00    0.09    3.16    0.00   96.72

Device:         rrqm/s   wrqm/s     r/s     w/s    rkB/s    wkB/s avgrq-sz avgqu-sz   await r_await w_await  svctm  %util
nvme0n1           0.00     0.00    0.00    0.00     0.00     0.00     0.00     0.00    0.00    0.00    0.00   0.00   0.00
sda               0.00     0.00  328.00    0.00  6520.00     0.00    39.76     0.10    0.31    0.31    0.00   0.09   2.90
sdc             157.00     0.00  245.00    0.00  1432.00     0.00    11.69    87.99  251.05  251.05    0.00   3.86  94.60
sdb             144.00     0.00  262.00    0.00  1496.00     0.00    11.42    90.49  262.30  262.30    0.00   3.79  99.30
sdd             160.00     0.00  288.00    0.00  1596.00     0.00    11.08    95.42  237.90  237.90    0.00   3.39  97.50
md0               0.00     0.00 1504.00    0.00  6016.00     0.00     8.00     0.00    0.00    0.00    0.00   0.00   0.00

avg-cpu:  %user   %nice %system %iowait  %steal   %idle
           0.00    0.00    0.03    1.47    0.00   98.50

Device:         rrqm/s   wrqm/s     r/s     w/s    rkB/s    wkB/s avgrq-sz avgqu-sz   await r_await w_await  svctm  %util
nvme0n1           0.00     0.00    0.00    0.00     0.00     0.00     0.00     0.00    0.00    0.00    0.00   0.00   0.00
sda               0.00     0.00    0.00    0.00     0.00     0.00     0.00     0.00    0.00    0.00    0.00   0.00   0.00
sdc              77.00     0.00  263.00    0.00  1528.00     0.00    11.62    74.08  363.13  363.13    0.00   3.80 100.00
sdb              70.00     0.00  246.00    0.00  1392.00     0.00    11.32    56.09  316.50  316.50    0.00   3.67  90.30
sdd              65.00     0.00  260.00    0.00  1496.00     0.00    11.51    57.61  325.06  325.06    0.00   3.37  87.70
md0               0.00     0.00  741.00    0.00  2964.00     0.00     8.00     0.00    0.00    0.00    0.00   0.00   0.00

avg-cpu:  %user   %nice %system %iowait  %steal   %idle
           0.03    0.00    0.03    1.34    0.00   98.59

Device:         rrqm/s   wrqm/s     r/s     w/s    rkB/s    wkB/s avgrq-sz avgqu-sz   await r_await w_await  svctm  %util
nvme0n1           0.00     0.00    0.00    0.00     0.00     0.00     0.00     0.00    0.00    0.00    0.00   0.00   0.00
sda               0.00     0.00    0.00    2.00     0.00     8.00     8.00     0.00    0.00    0.00    0.00   0.00   0.00
sdc             188.00     0.00  275.00    0.00  1556.00     0.00    11.32    93.57  265.21  265.21    0.00   3.63  99.80
sdb             132.00     0.00  268.00    0.00  1440.00     0.00    10.75    88.84  245.16  245.16    0.00   3.49  93.40
sdd             162.00     0.00  269.00    0.00  1552.00     0.00    11.54    79.87  224.75  224.75    0.00   3.37  90.70
md0               0.00     0.00 1538.00    0.00  6152.00     0.00     8.00     0.00    0.00    0.00    0.00   0.00   0.00

avg-cpu:  %user   %nice %system %iowait  %steal   %idle
           0.00    0.00    0.03    0.84    0.00   99.12

Device:         rrqm/s   wrqm/s     r/s     w/s    rkB/s    wkB/s avgrq-sz avgqu-sz   await r_await w_await  svctm  %util
nvme0n1           0.00     0.00    0.00    0.00     0.00     0.00     0.00     0.00    0.00    0.00    0.00   0.00   0.00
sda               0.00     0.00    0.00    0.00     0.00     0.00     0.00     0.00    0.00    0.00    0.00   0.00   0.00
sdc              76.00     0.00  274.00    0.00  1704.00     0.00    12.44    63.45  325.32  325.32    0.00   3.36  92.00
sdb              68.00     0.00  252.00    0.00  1440.00     0.00    11.43    56.97  317.87  317.87    0.00   3.60  90.60
sdd              82.00     0.00  255.00    0.00  1496.00     0.00    11.73    72.45  329.55  329.55    0.00   3.75  95.50
md0               0.00     0.00  769.00    0.00  3076.00     0.00     8.00     0.00    0.00    0.00    0.00   0.00   0.00

avg-cpu:  %user   %nice %system %iowait  %steal   %idle
           0.00    0.00    0.06    1.35    0.00   98.59

Device:         rrqm/s   wrqm/s     r/s     w/s    rkB/s    wkB/s avgrq-sz avgqu-sz   await r_await w_await  svctm  %util
nvme0n1           0.00     0.00    0.00    0.00     0.00     0.00     0.00     0.00    0.00    0.00    0.00   0.00   0.00
sda               0.00     0.00   72.00    0.00   432.00     0.00    12.00     0.01    0.18    0.18    0.00   0.10   0.70
sdc             138.00     0.00  274.00    0.00  1460.00     0.00    10.66    85.67  229.07  229.07    0.00   3.43  94.00
sdb             154.00     0.00  275.00    0.00  1528.00     0.00    11.11    90.41  228.88  228.88    0.00   3.42  94.00
sdd             138.00     0.00  275.00    0.00  1552.00     0.00    11.29    85.38  242.12  242.12    0.00   3.50  96.20
md0               0.00     0.00 1535.00    0.00  6140.00     0.00     8.00     0.00    0.00    0.00    0.00   0.00   0.00

avg-cpu:  %user   %nice %system %iowait  %steal   %idle
           0.00    0.00    0.03    0.72    0.00   99.25

Device:         rrqm/s   wrqm/s     r/s     w/s    rkB/s    wkB/s avgrq-sz avgqu-sz   await r_await w_await  svctm  %util
nvme0n1           0.00     0.00    0.00    0.00     0.00     0.00     0.00     0.00    0.00    0.00    0.00   0.00   0.00
sda               0.00    11.00    0.00    2.00     0.00    52.00    52.00     0.00    0.50    0.00    0.50   0.50   0.10
sdc              75.00     0.00  243.00    0.00  1396.00     0.00    11.49    63.16  321.65  321.65    0.00   3.88  94.20
sdb              92.00     0.00  269.00    0.00  1612.00     0.00    11.99    73.79  345.03  345.03    0.00   3.59  96.50
sdd              62.00     0.00  263.00    0.00  1408.00     0.00    10.71    79.33  361.26  361.26    0.00   3.80  99.90
md0               0.00     0.00  760.00    0.00  3040.00     0.00     8.00     0.00    0.00    0.00    0.00   0.00   0.00

avg-cpu:  %user   %nice %system %iowait  %steal   %idle
           0.03    0.00    0.06    1.94    0.00   97.97

Device:         rrqm/s   wrqm/s     r/s     w/s    rkB/s    wkB/s avgrq-sz avgqu-sz   await r_await w_await  svctm  %util
nvme0n1           0.00     0.00    0.00    0.00     0.00     0.00     0.00     0.00    0.00    0.00    0.00   0.00   0.00
sda               0.00     0.00    0.00    0.00     0.00     0.00     0.00     0.00    0.00    0.00    0.00   0.00   0.00
sdc             123.00     0.00  296.00    0.00  1624.00     0.00    10.97    85.94  241.38  241.38    0.00   3.16  93.40
sdb             144.00     0.00  275.00    0.00  1472.00     0.00    10.71    89.80  257.88  257.88    0.00   3.61  99.40
sdd             139.00     0.00  265.00    0.00  1408.00     0.00    10.63    82.63  266.91  266.91    0.00   3.61  95.70
md0               0.00     0.00 1536.00    0.00  6144.00     0.00     8.00     0.00    0.00    0.00    0.00   0.00   0.00

avg-cpu:  %user   %nice %system %iowait  %steal   %idle
           0.00    0.00    0.03    1.53    0.00   98.44

Device:         rrqm/s   wrqm/s     r/s     w/s    rkB/s    wkB/s avgrq-sz avgqu-sz   await r_await w_await  svctm  %util
nvme0n1           0.00     0.00    0.00    0.00     0.00     0.00     0.00     0.00    0.00    0.00    0.00   0.00   0.00
sda               0.00     1.00    0.00    3.00     0.00    16.00    10.67     0.00    0.00    0.00    0.00   0.00   0.00
sdc              73.00     0.00  245.00    0.00  1312.00     0.00    10.71    77.00  299.99  299.99    0.00   3.57  87.50
sdb              77.00     0.00  277.00    0.00  1608.00     0.00    11.61    68.88  316.48  316.48    0.00   3.61  99.90
sdd              72.00     0.00  253.00    0.00  1416.00     0.00    11.19    73.69  307.06  307.06    0.00   3.71  93.90
md0               0.00     0.00  768.00    0.00  3072.00     0.00     8.00     0.00    0.00    0.00    0.00   0.00   0.00

avg-cpu:  %user   %nice %system %iowait  %steal   %idle
           0.00    0.00    0.06    2.81    0.00   97.12

Device:         rrqm/s   wrqm/s     r/s     w/s    rkB/s    wkB/s avgrq-sz avgqu-sz   await r_await w_await  svctm  %util
nvme0n1           0.00     0.00    0.00    0.00     0.00     0.00     0.00     0.00    0.00    0.00    0.00   0.00   0.00
sda               0.00     0.00    1.00    0.00     4.00     0.00     8.00     0.00    0.00    0.00    0.00   0.00   0.00
sdc             129.00     0.00  271.00    0.00  1420.00     0.00    10.48    67.84  309.72  309.72    0.00   3.39  91.90
sdb             164.00     0.00  259.00    0.00  1440.00     0.00    11.12    78.99  283.96  283.96    0.00   3.51  91.00
sdd             129.00     0.00  271.00    0.00  1476.00     0.00    10.89    70.42  284.45  284.45    0.00   3.25  88.00
md0               0.00     0.00 1502.00    0.00  6008.00     0.00     8.00     0.00    0.00    0.00    0.00   0.00   0.00

avg-cpu:  %user   %nice %system %iowait  %steal   %idle
           0.00    0.00    0.03    0.00    0.00  100.28

Device:         rrqm/s   wrqm/s     r/s     w/s    rkB/s    wkB/s avgrq-sz avgqu-sz   await r_await w_await  svctm  %util
nvme0n1           0.00     0.00    0.00    0.00     0.00     0.00     0.00     0.00    0.00    0.00    0.00   0.00   0.00
sda               0.00     0.00    0.00    0.00     0.00     0.00     0.00     0.00    0.00    0.00    0.00   0.00   0.00
sdc              71.00     0.00  271.00    0.00  1604.00     0.00    11.84    70.62  244.55  244.55    0.00   3.40  92.20
sdb              66.00     0.00  296.00    0.00  1616.00     0.00    10.92    98.16  287.04  287.04    0.00   3.37  99.80
sdd              76.00     0.00  269.00    0.00  1540.00     0.00    11.45    80.39  270.50  270.50    0.00   3.63  97.70
md0               0.00     0.00  808.00    0.00  3232.00     0.00     8.00     0.00    0.00    0.00    0.00   0.00   0.00

avg-cpu:  %user   %nice %system %iowait  %steal   %idle
           0.00    0.00    0.03    2.78    0.00   97.19

Device:         rrqm/s   wrqm/s     r/s     w/s    rkB/s    wkB/s avgrq-sz avgqu-sz   await r_await w_await  svctm  %util
nvme0n1           0.00     0.00    0.00    0.00     0.00     0.00     0.00     0.00    0.00    0.00    0.00   0.00   0.00
sda               0.00     4.00    0.00    2.00     0.00    24.00    24.00     0.00    0.50    0.00    0.50   0.50   0.10
sdc             142.00     0.00  267.00    0.00  1424.00     0.00    10.67    65.72  264.11  264.11    0.00   3.08  82.20
sdb             118.00     0.00  266.00    0.00  1424.00     0.00    10.71    63.76  305.36  305.36    0.00   3.54  94.20
sdd             144.00     0.00  281.00    0.00  1464.00     0.00    10.42    76.32  305.58  305.58    0.00   3.33  93.70
md0               0.00     0.00 1459.00    0.00  5836.00     0.00     8.00     0.00    0.00    0.00    0.00   0.00   0.00

avg-cpu:  %user   %nice %system %iowait  %steal   %idle
           0.00    0.00    0.06    0.00    0.00  100.38

Device:         rrqm/s   wrqm/s     r/s     w/s    rkB/s    wkB/s avgrq-sz avgqu-sz   await r_await w_await  svctm  %util
nvme0n1           0.00     0.00    0.00    0.00     0.00     0.00     0.00     0.00    0.00    0.00    0.00   0.00   0.00
sda               0.00     0.00    0.00    0.00     0.00     0.00     0.00     0.00    0.00    0.00    0.00   0.00   0.00
sdc              72.00     0.00  268.00    0.00  1468.00     0.00    10.96    81.14  256.29  256.29    0.00   3.37  90.40
sdb              88.00     0.00  241.00    0.00  1376.00     0.00    11.42    78.18  253.37  253.37    0.00   3.67  88.40
sdd              98.00     0.00  263.00    0.00  1568.00     0.00    11.92    89.85  287.98  287.98    0.00   3.80  99.90
md0               0.00     0.00  838.00    0.00  3352.00     0.00     8.00     0.00    0.00    0.00    0.00   0.00   0.00

avg-cpu:  %user   %nice %system %iowait  %steal   %idle
           0.00    0.00    0.03    1.06    0.00   98.91

Device:         rrqm/s   wrqm/s     r/s     w/s    rkB/s    wkB/s avgrq-sz avgqu-sz   await r_await w_await  svctm  %util
nvme0n1           0.00     0.00    0.00    0.00     0.00     0.00     0.00     0.00    0.00    0.00    0.00   0.00   0.00
sda               0.00     2.00    0.00    1.00     0.00    28.00    56.00     0.00    0.00    0.00    0.00   0.00   0.00
sdc              86.00     0.00  227.00    0.00  1376.00     0.00    12.12    52.61  327.89  327.89    0.00   3.84  87.20
sdb              77.00     0.00  248.00    0.00  1468.00     0.00    11.84    56.93  337.82  337.82    0.00   3.40  84.30
sdd              67.00     0.00  246.00    0.00  1424.00     0.00    11.58    75.48  371.04  371.04    0.00   4.07 100.00
md0               0.00     0.00  761.00    0.00  3044.00     0.00     8.00     0.00    0.00    0.00    0.00   0.00   0.00

avg-cpu:  %user   %nice %system %iowait  %steal   %idle
           0.03    0.00    0.03    2.75    0.00   97.19

Device:         rrqm/s   wrqm/s     r/s     w/s    rkB/s    wkB/s avgrq-sz avgqu-sz   await r_await w_await  svctm  %util
nvme0n1           0.00     0.00    0.00    0.00     0.00     0.00     0.00     0.00    0.00    0.00    0.00   0.00   0.00
sda               0.00     0.00    0.00    0.00     0.00     0.00     0.00     0.00    0.00    0.00    0.00   0.00   0.00
sdc             138.00     0.00  248.00    0.00  1388.00     0.00    11.19    83.19  232.89  232.89    0.00   3.60  89.30
sdb             153.00     0.00  286.00    0.00  1640.00     0.00    11.47    86.45  231.72  231.72    0.00   3.18  91.00
sdd             180.00     0.00  274.00    0.00  1560.00     0.00    11.39    89.19  268.51  268.51    0.00   3.65  99.90
md0               0.00     0.00 1551.00    0.00  6204.00     0.00     8.00     0.00    0.00    0.00    0.00   0.00   0.00

avg-cpu:  %user   %nice %system %iowait  %steal   %idle
           0.00    0.00    0.00    0.53    0.00   99.47

Device:         rrqm/s   wrqm/s     r/s     w/s    rkB/s    wkB/s avgrq-sz avgqu-sz   await r_await w_await  svctm  %util
nvme0n1           0.00     0.00    0.00    0.00     0.00     0.00     0.00     0.00    0.00    0.00    0.00   0.00   0.00
sda               0.00     0.00    0.00    0.00     0.00     0.00     0.00     0.00    0.00    0.00    0.00   0.00   0.00
sdc              77.00     0.00  257.00    0.00  1460.00     0.00    11.36    81.28  352.89  352.89    0.00   3.89  99.90
sdb              78.00     0.00  242.00    0.00  1352.00     0.00    11.17    59.75  285.96  285.96    0.00   3.33  80.60
sdd              81.00     0.00  269.00    0.00  1640.00     0.00    12.19    64.87  314.53  314.53    0.00   3.39  91.20
md0               0.00     0.00  782.00    0.00  3128.00     0.00     8.00     0.00    0.00    0.00    0.00   0.00   0.00

avg-cpu:  %user   %nice %system %iowait  %steal   %idle
           0.00    0.00    0.06    1.38    0.00   98.56

Device:         rrqm/s   wrqm/s     r/s     w/s    rkB/s    wkB/s avgrq-sz avgqu-sz   await r_await w_await  svctm  %util
nvme0n1           0.00     0.00    0.00    0.00     0.00     0.00     0.00     0.00    0.00    0.00    0.00   0.00   0.00
sda               0.00     4.00    0.00    2.00     0.00    24.00    24.00     0.00    0.00    0.00    0.00   0.00   0.00
sdc             154.00     0.00  282.00    0.00  1536.00     0.00    10.89    82.88  288.61  288.61    0.00   3.49  98.30
sdb             147.00     0.00  267.00    0.00  1420.00     0.00    10.64    87.47  277.18  277.18    0.00   3.64  97.30
sdd             136.00     0.00  281.00    0.00  1476.00     0.00    10.51    85.62  244.96  244.96    0.00   3.41  95.90
md0               0.00     0.00 1528.00    0.00  6112.00     0.00     8.00     0.00    0.00    0.00    0.00   0.00   0.00

avg-cpu:  %user   %nice %system %iowait  %steal   %idle
           0.00    0.00    0.06    0.78    0.00   99.16

Device:         rrqm/s   wrqm/s     r/s     w/s    rkB/s    wkB/s avgrq-sz avgqu-sz   await r_await w_await  svctm  %util
nvme0n1           0.00     0.00    0.00    0.00     0.00     0.00     0.00     0.00    0.00    0.00    0.00   0.00   0.00
sda               0.00     0.00    0.00    0.00     0.00     0.00     0.00     0.00    0.00    0.00    0.00   0.00   0.00
sdc              75.00     0.00  255.00    0.00  1504.00     0.00    11.80    64.71  295.95  295.95    0.00   3.53  90.00
sdb              75.00     0.00  268.00    0.00  1564.00     0.00    11.67    89.54  329.16  329.16    0.00   3.72  99.80
sdd              78.00     0.00  259.00    0.00  1560.00     0.00    12.05    70.37  328.40  328.40    0.00   3.86  99.90
md0               0.00     0.00  770.00    0.00  3080.00     0.00     8.00     0.00    0.00    0.00    0.00   0.00   0.00

avg-cpu:  %user   %nice %system %iowait  %steal   %idle
           0.00    0.00    0.03    1.81    0.00   98.16

Device:         rrqm/s   wrqm/s     r/s     w/s    rkB/s    wkB/s avgrq-sz avgqu-sz   await r_await w_await  svctm  %util
nvme0n1           0.00     0.00    0.00    0.00     0.00     0.00     0.00     0.00    0.00    0.00    0.00   0.00   0.00
sda               0.00     0.00    0.00    0.00     0.00     0.00     0.00     0.00    0.00    0.00    0.00   0.00   0.00
sdc             136.63     0.00  256.44    0.00  1409.90     0.00    11.00    76.95  252.44  252.44    0.00   3.29  84.26
sdb             162.38     0.00  299.01    0.00  1639.60     0.00    10.97    82.09  299.86  299.86    0.00   3.26  97.43
sdd             137.62     0.00  248.51    0.00  1287.13     0.00    10.36    69.33  233.56  233.56    0.00   3.24  80.59
md0               0.00     0.00 1512.87    0.00  6051.49     0.00     8.00     0.00    0.00    0.00    0.00   0.00   0.00

avg-cpu:  %user   %nice %system %iowait  %steal   %idle
           0.03    0.00    0.03    1.19    0.00   98.75

Device:         rrqm/s   wrqm/s     r/s     w/s    rkB/s    wkB/s avgrq-sz avgqu-sz   await r_await w_await  svctm  %util
nvme0n1           0.00     0.00    0.00    0.00     0.00     0.00     0.00     0.00    0.00    0.00    0.00   0.00   0.00
sda               0.00     0.00    0.00    0.00     0.00     0.00     0.00     0.00    0.00    0.00    0.00   0.00   0.00
sdc              74.00     0.00  268.00    0.00  1576.00     0.00    11.76    76.19  323.51  323.51    0.00   3.73  99.90
sdb              58.00     0.00  285.00    0.00  1664.00     0.00    11.68    70.93  304.74  304.74    0.00   3.44  97.90
sdd             113.00     0.00  296.00    0.00  1880.00     0.00    12.70    81.47  301.56  301.56    0.00   3.36  99.60
md0               0.00     0.00  780.00    0.00  3120.00     0.00     8.00     0.00    0.00    0.00    0.00   0.00   0.00

avg-cpu:  %user   %nice %system %iowait  %steal   %idle
           0.00    0.00    0.06    1.47    0.00   98.47

Device:         rrqm/s   wrqm/s     r/s     w/s    rkB/s    wkB/s avgrq-sz avgqu-sz   await r_await w_await  svctm  %util
nvme0n1           0.00     0.00    0.00    0.00     0.00     0.00     0.00     0.00    0.00    0.00    0.00   0.00   0.00
sda               0.00     0.00    0.00    0.00     0.00     0.00     0.00     0.00    0.00    0.00    0.00   0.00   0.00
sdc             143.00     0.00  272.00    0.00  1436.00     0.00    10.56    90.04  261.01  261.01    0.00   3.54  96.40
sdb             130.00     0.00  260.00    0.00  1360.00     0.00    10.46    89.10  241.28  241.28    0.00   3.67  95.40
sdd             148.00     0.00  305.00    0.00  1644.00     0.00    10.78    89.80  261.08  261.08    0.00   3.28  99.90
md0               0.00     0.00 1527.00    0.00  6108.00     0.00     8.00     0.00    0.00    0.00    0.00   0.00   0.00

