Linux 4.17.2 (bench2) 	08/03/2018 	_x86_64_	(32 CPU)

avg-cpu:  %user   %nice %system %iowait  %steal   %idle
           1.91    0.00    1.56    1.56    0.00   94.97

Device:         rrqm/s   wrqm/s     r/s     w/s    rkB/s    wkB/s avgrq-sz avgqu-sz   await r_await w_await  svctm  %util
nvme0n1         942.91     5.12 19008.73  523.37 106326.90 11803.54    12.10     1.35    0.05    0.03    0.67   0.02  39.79
sda               0.12     0.81   14.15    0.58   163.94     8.52    23.42     0.00    0.33    0.32    0.44   0.07   0.10
sdc              33.54     0.18  114.83    0.31  1734.22    97.98    31.83     0.03    0.22   12.61  380.35   0.92  10.62
sdb              31.49     0.19  116.84    0.33  1732.30    97.80    31.24     0.46    3.94    2.78  411.64   0.86  10.09
sdd              33.74     0.17  114.37    0.26  1730.22    97.48    31.89     0.78    6.79    4.72  907.87   0.93  10.62
md0               0.00     0.00  447.65    1.22  6431.40   353.62    30.23     0.00    0.00    0.00    0.00   0.00   0.00

avg-cpu:  %user   %nice %system %iowait  %steal   %idle
           0.00    0.00    0.09    1.50    0.00   98.40

Device:         rrqm/s   wrqm/s     r/s     w/s    rkB/s    wkB/s avgrq-sz avgqu-sz   await r_await w_await  svctm  %util
nvme0n1           0.00     0.00    0.00    0.00     0.00     0.00     0.00     0.00    0.00    0.00    0.00   0.00   0.00
sda               0.00     0.00    1.00    0.00     8.00     0.00    16.00     0.00    0.00    0.00    0.00   0.00   0.00
sdc             207.00     0.00 1725.00    0.00  7692.00     0.00     8.92    78.52   44.30   44.30    0.00   0.51  88.20
sdb             191.00     0.00 1676.00    0.00  7412.00     0.00     8.84    99.82   56.37   56.37    0.00   0.58  97.50
sdd             197.00     0.00 1668.00    0.00  7440.00     0.00     8.92   100.06   57.25   57.25    0.00   0.59  99.10
md0               0.00     0.00 5958.00    0.00 23832.00     0.00     8.00     0.00    0.00    0.00    0.00   0.00   0.00

avg-cpu:  %user   %nice %system %iowait  %steal   %idle
           0.00    0.00    0.06    1.44    0.00   98.50

Device:         rrqm/s   wrqm/s     r/s     w/s    rkB/s    wkB/s avgrq-sz avgqu-sz   await r_await w_await  svctm  %util
nvme0n1           0.00     0.00    0.00    0.00     0.00     0.00     0.00     0.00    0.00    0.00    0.00   0.00   0.00
sda               0.00     0.00    0.00    0.00     0.00     0.00     0.00     0.00    0.00    0.00    0.00   0.00   0.00
sdc             162.00     0.00 1561.00    0.00  6940.00     0.00     8.89    78.97   51.93   51.93    0.00   0.58  90.20
sdb             167.00     0.00 1694.00    0.00  7500.00     0.00     8.85    90.71   56.62   56.62    0.00   0.57  97.00
sdd             164.00     0.00 1643.00    0.00  7248.00     0.00     8.82    82.20   52.81   52.81    0.00   0.55  90.30
md0               0.00     0.00 5097.00    0.00 20388.00     0.00     8.00     0.00    0.00    0.00    0.00   0.00   0.00

