Linux 4.17.2 (bench2) 	08/03/2018 	_x86_64_	(32 CPU)

avg-cpu:  %user   %nice %system %iowait  %steal   %idle
           1.91    0.00    1.56    1.55    0.00   94.98

Device:         rrqm/s   wrqm/s     r/s     w/s    rkB/s    wkB/s avgrq-sz avgqu-sz   await r_await w_await  svctm  %util
nvme0n1         944.77     5.13 19046.21  524.40 106536.56 11826.81    12.10     1.36    0.05    0.03    0.67   0.02  39.87
sda               0.12     0.81   14.15    0.58   163.96     8.51    23.43     0.00    0.33    0.32    0.45   0.07   0.10
sdc              33.44     0.18  113.76    0.31  1709.35    98.17    31.69     0.01    0.04   12.58  380.35   0.92  10.52
sdb              31.39     0.19  115.77    0.33  1707.45    98.00    31.10     0.44    3.81    2.64  411.64   0.86  10.00
sdd              33.64     0.17  113.30    0.26  1705.36    97.67    31.75     0.76    6.69    4.60  907.87   0.93  10.52
md0               0.00     0.00  444.15    1.22  6332.31   354.31    30.03     0.00    0.00    0.00    0.00   0.00   0.00

avg-cpu:  %user   %nice %system %iowait  %steal   %idle
           0.03    0.00    0.32   23.81    0.00   75.85

Device:         rrqm/s   wrqm/s     r/s     w/s    rkB/s    wkB/s avgrq-sz avgqu-sz   await r_await w_await  svctm  %util
nvme0n1           0.00     0.00    0.00    0.00     0.00     0.00     0.00     0.00    0.00    0.00    0.00   0.00   0.00
sda               0.00     1.20    0.25    0.55     5.40     7.80    33.00     0.00    0.12    0.20    0.09   0.12   0.01
sdc               0.00     0.00  217.25    0.00   875.00     0.00     8.06     4.69   21.61   21.61    0.00   3.67  79.69
sdb               0.00     0.00  215.05    0.00   861.40     0.00     8.01     4.49   20.86   20.86    0.00   3.59  77.29
sdd               0.00     0.00  213.55    0.00   856.40     0.00     8.02     4.53   21.12   21.12    0.00   3.64  77.75
md0               0.00     0.00  646.35    0.00  2594.80     0.00     8.03     0.00    0.00    0.00    0.00   0.00   0.00

