Linux 4.17.2 (bench2) 	08/03/2018 	_x86_64_	(32 CPU)

avg-cpu:  %user   %nice %system %iowait  %steal   %idle
           1.91    0.00    1.56    1.56    0.00   94.98

Device:         rrqm/s   wrqm/s     r/s     w/s    rkB/s    wkB/s avgrq-sz avgqu-sz   await r_await w_await  svctm  %util
nvme0n1         943.36     5.12 19017.83  523.62 106377.80 11809.19    12.10     1.35    0.05    0.03    0.67   0.02  39.81
sda               0.12     0.81   14.15    0.58   163.95     8.52    23.42     0.00    0.33    0.32    0.44   0.07   0.10
sdc              33.50     0.18  114.74    0.31  1731.93    98.03    31.81     0.01    0.11   12.52  380.35   0.92  10.59
sdb              31.45     0.19  116.75    0.33  1730.01    97.85    31.22     0.45    3.84    2.68  411.64   0.86  10.06
sdd              33.69     0.17  114.28    0.26  1727.92    97.52    31.87     0.77    6.69    4.62  907.87   0.92  10.59
md0               0.00     0.00  447.25    1.22  6422.92   353.79    30.22     0.00    0.00    0.00    0.00   0.00   0.00

avg-cpu:  %user   %nice %system %iowait  %steal   %idle
           0.00    0.00    0.00   15.47    0.00   84.53

Device:         rrqm/s   wrqm/s     r/s     w/s    rkB/s    wkB/s avgrq-sz avgqu-sz   await r_await w_await  svctm  %util
nvme0n1           0.00     0.00    0.00    0.00     0.00     0.00     0.00     0.00    0.00    0.00    0.00   0.00   0.00
sda               0.00     0.00   18.00    0.00    76.00     0.00     8.44     0.01    0.56    0.56    0.00   0.06   0.10
sdc               0.00     0.00  121.00    0.00   484.00     0.00     8.00   133.88  421.73  421.73    0.00   8.26 100.00
sdb               0.00     0.00  117.00    0.00   468.00     0.00     8.00   141.13  425.76  425.76    0.00   8.54  99.90
sdd               0.00     0.00  129.00    0.00   516.00     0.00     8.00   130.32  401.28  401.28    0.00   7.74  99.90
md0               0.00     0.00  384.00    0.00  1536.00     0.00     8.00     0.00    0.00    0.00    0.00   0.00   0.00

avg-cpu:  %user   %nice %system %iowait  %steal   %idle
           0.00    0.00    0.00    0.00    0.00  100.66

Device:         rrqm/s   wrqm/s     r/s     w/s    rkB/s    wkB/s avgrq-sz avgqu-sz   await r_await w_await  svctm  %util
nvme0n1           0.00     0.00    0.00    0.00     0.00     0.00     0.00     0.00    0.00    0.00    0.00   0.00   0.00
sda               0.00     0.00    0.00    0.00     0.00     0.00     0.00     0.00    0.00    0.00    0.00   0.00   0.00
sdc               0.00     0.00  121.00    0.00   484.00     0.00     8.00   127.90  868.45  868.45    0.00   8.26 100.00
sdb               0.00     0.00  126.00    0.00   504.00     0.00     8.00   135.56  902.43  902.43    0.00   7.94 100.00
sdd               0.00     0.00  131.00    0.00   524.00     0.00     8.00   117.12  879.77  879.77    0.00   7.63 100.00
md0               0.00     0.00  236.00    0.00   944.00     0.00     8.00     0.00    0.00    0.00    0.00   0.00   0.00

avg-cpu:  %user   %nice %system %iowait  %steal   %idle
           0.00    0.00    0.00    2.75    0.00   97.25

Device:         rrqm/s   wrqm/s     r/s     w/s    rkB/s    wkB/s avgrq-sz avgqu-sz   await r_await w_await  svctm  %util
nvme0n1           0.00     0.00    0.00    0.00     0.00     0.00     0.00     0.00    0.00    0.00    0.00   0.00   0.00
sda               0.00    10.00    0.00    2.00     0.00    48.00    48.00     0.00    0.50    0.00    0.50   0.50   0.10
sdc               0.00     0.00  118.00    0.00   472.00     0.00     8.00    56.51 1235.98 1235.98    0.00   7.92  93.40
sdb               0.00     0.00  125.00    0.00   500.00     0.00     8.00    61.75 1274.96 1274.96    0.00   8.00 100.00
sdd               0.00     0.00  100.00    0.00   400.00     0.00     8.00    39.46 1058.40 1058.40    0.00   7.40  74.00
md0               0.00     0.00  461.00    0.00  1844.00     0.00     8.00     0.00    0.00    0.00    0.00   0.00   0.00

avg-cpu:  %user   %nice %system %iowait  %steal   %idle
           0.00    0.00    0.03   13.63    0.00   86.34

Device:         rrqm/s   wrqm/s     r/s     w/s    rkB/s    wkB/s avgrq-sz avgqu-sz   await r_await w_await  svctm  %util
nvme0n1           0.00     0.00    0.00    0.00     0.00     0.00     0.00     0.00    0.00    0.00    0.00   0.00   0.00
sda               0.00     1.00    0.00    4.00     0.00    24.00    12.00     0.00    0.00    0.00    0.00   0.00   0.00
sdc               0.00     0.00  124.00    0.00   496.00     0.00     8.00   136.47  527.53  527.53    0.00   8.06 100.00
sdb               0.00     0.00  118.00    0.00   472.00     0.00     8.00   126.33  536.35  536.35    0.00   8.47 100.00
sdd               0.00     0.00  128.00    0.00   512.00     0.00     8.00   105.19  491.79  491.79    0.00   7.81 100.00
md0               0.00     0.00  327.00    0.00  1308.00     0.00     8.00     0.00    0.00    0.00    0.00   0.00   0.00

avg-cpu:  %user   %nice %system %iowait  %steal   %idle
           0.00    0.00    0.00    0.00    0.00  108.41

Device:         rrqm/s   wrqm/s     r/s     w/s    rkB/s    wkB/s avgrq-sz avgqu-sz   await r_await w_await  svctm  %util
nvme0n1           0.00     0.00    0.00    0.00     0.00     0.00     0.00     0.00    0.00    0.00    0.00   0.00   0.00
sda               0.00     0.00    0.00    0.00     0.00     0.00     0.00     0.00    0.00    0.00    0.00   0.00   0.00
sdc               0.00     0.00  127.00    0.00   508.00     0.00     8.00   125.30  864.65  864.65    0.00   7.88 100.10
sdb               0.00     0.00  124.00    0.00   496.00     0.00     8.00   115.24  799.90  799.90    0.00   8.07 100.10
sdd               0.00     0.00  128.00    0.00   512.00     0.00     8.00    73.68  748.11  748.11    0.00   7.82 100.10
md0               0.00     0.00  236.00    0.00   944.00     0.00     8.00     0.00    0.00    0.00    0.00   0.00   0.00

