Linux 4.17.2 (bench2) 	08/03/2018 	_x86_64_	(32 CPU)

avg-cpu:  %user   %nice %system %iowait  %steal   %idle
           1.91    0.00    1.56    1.56    0.00   94.97

Device:         rrqm/s   wrqm/s     r/s     w/s    rkB/s    wkB/s avgrq-sz avgqu-sz   await r_await w_await  svctm  %util
nvme0n1         942.89     5.12 19008.25  523.36 106324.24 11803.24    12.10     1.35    0.05    0.03    0.67   0.02  39.79
sda               0.12     0.81   14.15    0.58   163.94     8.52    23.42     0.00    0.33    0.32    0.44   0.07   0.10
sdc              33.54     0.18  114.85    0.31  1734.44    97.98    31.82     0.03    0.23   12.62  380.35   0.92  10.62
sdb              31.49     0.19  116.86    0.33  1732.52    97.80    31.23     0.46    3.95    2.79  411.64   0.86  10.09
sdd              33.74     0.17  114.40    0.26  1730.44    97.47    31.88     0.78    6.79    4.73  907.87   0.93  10.62
md0               0.00     0.00  447.73    1.22  6432.17   353.61    30.23     0.00    0.00    0.00    0.00   0.00   0.00

avg-cpu:  %user   %nice %system %iowait  %steal   %idle
           0.01    0.00    0.09    6.67    0.00   93.23

Device:         rrqm/s   wrqm/s     r/s     w/s    rkB/s    wkB/s avgrq-sz avgqu-sz   await r_await w_await  svctm  %util
nvme0n1           0.00     0.00    0.00    0.00     0.00     0.00     0.00     0.00    0.00    0.00    0.00   0.00   0.00
sda               0.00     0.80    0.20    0.45     5.20     5.80    33.85     0.00    0.31    0.50    0.22   0.31   0.02
sdc              94.00     0.00  848.25    0.00  3766.40     0.00     8.88    95.40  111.66  111.66    0.00   1.07  91.16
sdb              90.65     0.00  831.50    0.00  3686.00     0.00     8.87    91.95  109.80  109.80    0.00   1.08  89.48
sdd              87.65     0.00  839.60    0.00  3705.40     0.00     8.83    97.24  114.94  114.94    0.00   1.10  92.20
md0               0.00     0.00 2811.20    0.00 11244.80     0.00     8.00     0.00    0.00    0.00    0.00   0.00   0.00

