Linux 4.17.2 (bench2) 	08/03/2018 	_x86_64_	(32 CPU)

avg-cpu:  %user   %nice %system %iowait  %steal   %idle
           1.91    0.00    1.56    1.55    0.00   94.98

Device:         rrqm/s   wrqm/s     r/s     w/s    rkB/s    wkB/s avgrq-sz avgqu-sz   await r_await w_await  svctm  %util
nvme0n1         945.38     5.13 19058.53  524.74 106605.48 11834.46    12.10     1.36    0.05    0.03    0.67   0.02  39.90
sda               0.11     0.81   14.15    0.58   163.96     8.51    23.43     0.00    0.33    0.32    0.45   0.07   0.10
sdc              33.46     0.18  113.46    0.31  1702.79    98.24    31.66     0.00    0.03   12.61  380.35   0.92  10.50
sdb              31.40     0.19  115.48    0.33  1700.88    98.06    31.07     0.44    3.82    2.64  411.64   0.86   9.98
sdd              33.65     0.17  113.00    0.26  1698.80    97.73    31.72     0.76    6.70    4.60  907.87   0.93  10.50
md0               0.00     0.00  443.31    1.22  6305.88   354.54    29.97     0.00    0.00    0.00    0.00   0.00   0.00

avg-cpu:  %user   %nice %system %iowait  %steal   %idle
           0.00    0.00    0.03    0.03    0.00   99.94

Device:         rrqm/s   wrqm/s     r/s     w/s    rkB/s    wkB/s avgrq-sz avgqu-sz   await r_await w_await  svctm  %util
nvme0n1           0.00     0.00    0.00    0.00     0.00     0.00     0.00     0.00    0.00    0.00    0.00   0.00   0.00
sda               0.00     0.00    3.00    0.00   100.00     0.00    66.67     0.00    0.00    0.00    0.00   0.00   0.00
sdc               0.00     0.00   56.00    0.00   224.00     0.00     8.00     1.01   18.02   18.02    0.00   9.09  50.90
sdb               0.00     0.00   65.00    0.00   260.00     0.00     8.00     1.60   24.60   24.60    0.00  10.66  69.30
sdd               0.00     0.00   67.00    0.00   268.00     0.00     8.00     1.53   21.33   21.33    0.00   9.49  63.60
md0               0.00     0.00  192.00    0.00   768.00     0.00     8.00     0.00    0.00    0.00    0.00   0.00   0.00

avg-cpu:  %user   %nice %system %iowait  %steal   %idle
           0.00    0.00    0.03    0.03    0.00   99.94

Device:         rrqm/s   wrqm/s     r/s     w/s    rkB/s    wkB/s avgrq-sz avgqu-sz   await r_await w_await  svctm  %util
nvme0n1           0.00     0.00    0.00    0.00     0.00     0.00     0.00     0.00    0.00    0.00    0.00   0.00   0.00
sda               0.00     0.00    0.00    0.00     0.00     0.00     0.00     0.00    0.00    0.00    0.00   0.00   0.00
sdc               0.00     0.00   71.00    0.00   284.00     0.00     8.00     1.59   20.87   20.87    0.00   8.94  63.50
sdb               0.00     0.00   67.00    0.00   268.00     0.00     8.00     1.30   19.43   19.43    0.00   8.84  59.20
sdd               0.00     0.00   71.00    0.00   284.00     0.00     8.00     1.33   20.18   20.18    0.00   8.62  61.20
md0               0.00     0.00  208.00    0.00   832.00     0.00     8.00     0.00    0.00    0.00    0.00   0.00   0.00

avg-cpu:  %user   %nice %system %iowait  %steal   %idle
           0.00    0.00    0.00    0.00    0.00  100.03

Device:         rrqm/s   wrqm/s     r/s     w/s    rkB/s    wkB/s avgrq-sz avgqu-sz   await r_await w_await  svctm  %util
nvme0n1           0.00     0.00    0.00    0.00     0.00     0.00     0.00     0.00    0.00    0.00    0.00   0.00   0.00
sda               0.00     0.00    0.00    0.00     0.00     0.00     0.00     0.00    0.00    0.00    0.00   0.00   0.00
sdc               0.00     0.00   76.00    0.00   304.00     0.00     8.00     1.65   22.99   22.99    0.00   9.58  72.80
sdb               0.00     0.00   64.00    0.00   256.00     0.00     8.00     1.31   20.36   20.36    0.00   9.77  62.50
sdd               0.00     0.00   63.00    0.00   252.00     0.00     8.00     1.17   18.40   18.40    0.00   9.44  59.50
md0               0.00     0.00  208.00    0.00   832.00     0.00     8.00     0.00    0.00    0.00    0.00   0.00   0.00

avg-cpu:  %user   %nice %system %iowait  %steal   %idle
           0.00    0.00    0.00    0.06    0.00   99.94

Device:         rrqm/s   wrqm/s     r/s     w/s    rkB/s    wkB/s avgrq-sz avgqu-sz   await r_await w_await  svctm  %util
nvme0n1           0.00     0.00    0.00    0.00     0.00     0.00     0.00     0.00    0.00    0.00    0.00   0.00   0.00
sda               0.00     8.00    0.00    2.00     0.00    40.00    40.00     0.00    0.00    0.00    0.00   0.00   0.00
sdc               0.00     0.00   74.00    0.00   296.00     0.00     8.00     1.52   20.04   20.04    0.00   9.22  68.20
sdb               0.00     0.00   78.00    0.00   312.00     0.00     8.00     1.54   19.77   19.77    0.00   9.08  70.80
sdd               0.00     0.00   70.00    0.00   280.00     0.00     8.00     1.24   17.73   17.73    0.00   8.93  62.50
md0               0.00     0.00  216.00    0.00   864.00     0.00     8.00     0.00    0.00    0.00    0.00   0.00   0.00

avg-cpu:  %user   %nice %system %iowait  %steal   %idle
           0.00    0.00    0.03    0.03    0.00   99.94

Device:         rrqm/s   wrqm/s     r/s     w/s    rkB/s    wkB/s avgrq-sz avgqu-sz   await r_await w_await  svctm  %util
nvme0n1           0.00     0.00    0.00    0.00     0.00     0.00     0.00     0.00    0.00    0.00    0.00   0.00   0.00
sda               0.00     0.00    0.00    0.00     0.00     0.00     0.00     0.00    0.00    0.00    0.00   0.00   0.00
sdc               0.00     0.00   74.00    0.00   296.00     0.00     8.00     1.61   22.46   22.46    0.00   8.80  65.10
sdb               0.00     0.00   58.00    0.00   232.00     0.00     8.00     1.16   19.93   19.93    0.00   9.71  56.30
sdd               0.00     0.00   62.00    0.00   248.00     0.00     8.00     1.41   22.79   22.79    0.00  10.31  63.90
md0               0.00     0.00  192.00    0.00   768.00     0.00     8.00     0.00    0.00    0.00    0.00   0.00   0.00

avg-cpu:  %user   %nice %system %iowait  %steal   %idle
           0.00    0.00    0.00    0.03    0.00   99.97

Device:         rrqm/s   wrqm/s     r/s     w/s    rkB/s    wkB/s avgrq-sz avgqu-sz   await r_await w_await  svctm  %util
nvme0n1           0.00     0.00    0.00    0.00     0.00     0.00     0.00     0.00    0.00    0.00    0.00   0.00   0.00
sda               0.00     2.00    0.00    1.00     0.00    28.00    56.00     0.00    0.00    0.00    0.00   0.00   0.00
sdc               0.00     0.00   62.00    0.00   248.00     0.00     8.00     1.35   21.77   21.77    0.00  10.73  66.50
sdb               0.00     0.00   59.00    0.00   236.00     0.00     8.00     1.22   19.31   19.31    0.00   9.63  56.80
sdd               0.00     0.00   77.00    0.00   308.00     0.00     8.00     1.65   21.44   21.44    0.00   9.39  72.30
md0               0.00     0.00  200.00    0.00   800.00     0.00     8.00     0.00    0.00    0.00    0.00   0.00   0.00

avg-cpu:  %user   %nice %system %iowait  %steal   %idle
           0.00    0.00    0.03    0.00    0.00  100.00

Device:         rrqm/s   wrqm/s     r/s     w/s    rkB/s    wkB/s avgrq-sz avgqu-sz   await r_await w_await  svctm  %util
nvme0n1           0.00     0.00    0.00    0.00     0.00     0.00     0.00     0.00    0.00    0.00    0.00   0.00   0.00
sda               0.00     0.00    0.00    0.00     0.00     0.00     0.00     0.00    0.00    0.00    0.00   0.00   0.00
sdc               0.00     0.00   72.00    0.00   288.00     0.00     8.00     1.57   21.14   21.14    0.00   9.08  65.40
sdb               0.00     0.00   73.00    0.00   292.00     0.00     8.00     1.62   23.00   23.00    0.00   9.88  72.10
sdd               0.00     0.00   46.00    0.00   184.00     0.00     8.00     0.83   18.09   18.09    0.00   9.93  45.70
md0               0.00     0.00  192.00    0.00   768.00     0.00     8.00     0.00    0.00    0.00    0.00   0.00   0.00

avg-cpu:  %user   %nice %system %iowait  %steal   %idle
           0.00    0.00    0.00    0.09    0.00   99.91

Device:         rrqm/s   wrqm/s     r/s     w/s    rkB/s    wkB/s avgrq-sz avgqu-sz   await r_await w_await  svctm  %util
nvme0n1           0.00     0.00    0.00    0.00     0.00     0.00     0.00     0.00    0.00    0.00    0.00   0.00   0.00
sda               0.00     0.00    0.00    0.00     0.00     0.00     0.00     0.00    0.00    0.00    0.00   0.00   0.00
sdc               0.00     0.00   66.00    0.00   264.00     0.00     8.00     1.29   20.27   20.27    0.00   9.55  63.00
sdb               0.00     0.00   58.00    0.00   232.00     0.00     8.00     1.04   18.45   18.45    0.00   9.47  54.90
sdd               0.00     0.00   78.00    0.00   312.00     0.00     8.00     1.85   23.10   23.10    0.00   9.64  75.20
md0               0.00     0.00  200.00    0.00   800.00     0.00     8.00     0.00    0.00    0.00    0.00   0.00   0.00

avg-cpu:  %user   %nice %system %iowait  %steal   %idle
           0.00    0.00    0.03    0.00    0.00  100.03

Device:         rrqm/s   wrqm/s     r/s     w/s    rkB/s    wkB/s avgrq-sz avgqu-sz   await r_await w_await  svctm  %util
nvme0n1           0.00     0.00    0.00    0.00     0.00     0.00     0.00     0.00    0.00    0.00    0.00   0.00   0.00
sda               0.00     4.00    0.00    2.00     0.00    24.00    24.00     0.00    0.00    0.00    0.00   0.00   0.00
sdc               0.00     0.00   69.00    0.00   276.00     0.00     8.00     1.36   19.43   19.43    0.00   9.07  62.60
sdb               0.00     0.00   73.00    0.00   292.00     0.00     8.00     1.50   20.42   20.42    0.00   8.86  64.70
sdd               0.00     0.00   59.00    0.00   236.00     0.00     8.00     1.19   20.69   20.69    0.00   9.36  55.20
md0               0.00     0.00  208.00    0.00   832.00     0.00     8.00     0.00    0.00    0.00    0.00   0.00   0.00

avg-cpu:  %user   %nice %system %iowait  %steal   %idle
           0.00    0.00    0.00    0.00    0.00  100.00

Device:         rrqm/s   wrqm/s     r/s     w/s    rkB/s    wkB/s avgrq-sz avgqu-sz   await r_await w_await  svctm  %util
nvme0n1           0.00     0.00    0.00    0.00     0.00     0.00     0.00     0.00    0.00    0.00    0.00   0.00   0.00
sda               0.00     0.00    0.00    0.00     0.00     0.00     0.00     0.00    0.00    0.00    0.00   0.00   0.00
sdc               0.00     0.00   77.00    0.00   308.00     0.00     8.00     1.61   20.79   20.79    0.00   9.71  74.80
sdb               0.00     0.00   72.00    0.00   288.00     0.00     8.00     1.46   19.86   19.86    0.00   9.38  67.50
sdd               0.00     0.00   67.00    0.00   268.00     0.00     8.00     1.19   17.96   17.96    0.00   9.27  62.10
md0               0.00     0.00  216.00    0.00   864.00     0.00     8.00     0.00    0.00    0.00    0.00   0.00   0.00

avg-cpu:  %user   %nice %system %iowait  %steal   %idle
           0.00    0.00    0.00    0.00    0.00  100.00

Device:         rrqm/s   wrqm/s     r/s     w/s    rkB/s    wkB/s avgrq-sz avgqu-sz   await r_await w_await  svctm  %util
nvme0n1           0.00     0.00    0.00    0.00     0.00     0.00     0.00     0.00    0.00    0.00    0.00   0.00   0.00
sda               0.00     0.00    0.00    0.00     0.00     0.00     0.00     0.00    0.00    0.00    0.00   0.00   0.00
sdc               0.00     0.00   71.00    0.00   284.00     0.00     8.00     1.45   20.82   20.82    0.00   9.48  67.30
sdb               0.00     0.00   68.00    0.00   272.00     0.00     8.00     1.40   19.47   19.47    0.00   9.44  64.20
sdd               0.00     0.00   66.00    0.00   264.00     0.00     8.00     1.32   20.00   20.00    0.00   9.45  62.40
md0               0.00     0.00  200.00    0.00   800.00     0.00     8.00     0.00    0.00    0.00    0.00   0.00   0.00

avg-cpu:  %user   %nice %system %iowait  %steal   %idle
           0.03    0.00    0.03    0.00    0.00   99.94

Device:         rrqm/s   wrqm/s     r/s     w/s    rkB/s    wkB/s avgrq-sz avgqu-sz   await r_await w_await  svctm  %util
nvme0n1           0.00     0.00    0.00    0.00     0.00     0.00     0.00     0.00    0.00    0.00    0.00   0.00   0.00
sda               0.00     0.00    0.00    0.00     0.00     0.00     0.00     0.00    0.00    0.00    0.00   0.00   0.00
sdc               0.00     0.00   59.00    0.00   236.00     0.00     8.00     1.09   18.49   18.49    0.00   9.88  58.30
sdb               0.00     0.00   81.00    0.00   324.00     0.00     8.00     1.83   23.19   23.19    0.00   9.27  75.10
sdd               0.00     0.00   62.00    0.00   248.00     0.00     8.00     1.23   19.77   19.77    0.00   9.37  58.10
md0               0.00     0.00  200.00    0.00   800.00     0.00     8.00     0.00    0.00    0.00    0.00   0.00   0.00

avg-cpu:  %user   %nice %system %iowait  %steal   %idle
           0.00    0.00    0.03    0.00    0.00   99.97

Device:         rrqm/s   wrqm/s     r/s     w/s    rkB/s    wkB/s avgrq-sz avgqu-sz   await r_await w_await  svctm  %util
nvme0n1           0.00     0.00    0.00    0.00     0.00     0.00     0.00     0.00    0.00    0.00    0.00   0.00   0.00
sda               0.00     0.00    0.00    0.00     0.00     0.00     0.00     0.00    0.00    0.00    0.00   0.00   0.00
sdc               0.00     0.00   49.00    0.00   196.00     0.00     8.00     0.82   16.80   16.80    0.00   9.41  46.10
sdb               0.00     0.00   70.00    0.00   280.00     0.00     8.00     1.56   23.10   23.10    0.00   9.30  65.10
sdd               0.00     0.00   78.00    0.00   312.00     0.00     8.00     1.81   21.91   21.91    0.00   9.14  71.30
md0               0.00     0.00  200.00    0.00   800.00     0.00     8.00     0.00    0.00    0.00    0.00   0.00   0.00

avg-cpu:  %user   %nice %system %iowait  %steal   %idle
           0.00    0.00    0.00    0.00    0.00  100.00

Device:         rrqm/s   wrqm/s     r/s     w/s    rkB/s    wkB/s avgrq-sz avgqu-sz   await r_await w_await  svctm  %util
nvme0n1           0.00     0.00    0.00    0.00     0.00     0.00     0.00     0.00    0.00    0.00    0.00   0.00   0.00
sda               0.00     1.00    0.00    2.00     0.00    12.00    12.00     0.00    0.50    0.00    0.50   0.50   0.10
sdc               0.00     0.00   65.00    0.00   260.00     0.00     8.00     1.32   20.09   20.09    0.00   9.32  60.60
sdb               0.00     0.00   66.00    0.00   264.00     0.00     8.00     1.27   18.76   18.76    0.00   9.38  61.90
sdd               0.00     0.00   75.00    0.00   300.00     0.00     8.00     1.62   23.00   23.00    0.00   9.75  73.10
md0               0.00     0.00  208.00    0.00   832.00     0.00     8.00     0.00    0.00    0.00    0.00   0.00   0.00

avg-cpu:  %user   %nice %system %iowait  %steal   %idle
           0.00    0.00    0.03    0.00    0.00  100.00

Device:         rrqm/s   wrqm/s     r/s     w/s    rkB/s    wkB/s avgrq-sz avgqu-sz   await r_await w_await  svctm  %util
nvme0n1           0.00     0.00    0.00    0.00     0.00     0.00     0.00     0.00    0.00    0.00    0.00   0.00   0.00
sda               0.00     0.00    0.00    0.00     0.00     0.00     0.00     0.00    0.00    0.00    0.00   0.00   0.00
sdc               0.00     0.00   66.00    0.00   264.00     0.00     8.00     1.33   19.62   19.62    0.00   8.98  59.30
sdb               0.00     0.00   71.00    0.00   284.00     0.00     8.00     1.46   21.04   21.04    0.00   9.07  64.40
sdd               0.00     0.00   64.00    0.00   256.00     0.00     8.00     1.31   20.28   20.28    0.00   9.59  61.40
md0               0.00     0.00  200.00    0.00   800.00     0.00     8.00     0.00    0.00    0.00    0.00   0.00   0.00

avg-cpu:  %user   %nice %system %iowait  %steal   %idle
           0.00    0.00    0.00    0.03    0.00   99.97

Device:         rrqm/s   wrqm/s     r/s     w/s    rkB/s    wkB/s avgrq-sz avgqu-sz   await r_await w_await  svctm  %util
nvme0n1           0.00     0.00    0.00    0.00     0.00     0.00     0.00     0.00    0.00    0.00    0.00   0.00   0.00
sda               0.00     0.00    0.00    0.00     0.00     0.00     0.00     0.00    0.00    0.00    0.00   0.00   0.00
sdc               0.00     0.00   68.00    0.00   272.00     0.00     8.00     1.50   22.82   22.82    0.00   9.60  65.30
sdb               0.00     0.00   56.00    0.00   224.00     0.00     8.00     1.14   19.39   19.39    0.00   9.70  54.30
sdd               0.00     0.00   68.00    0.00   272.00     0.00     8.00     1.42   20.59   20.59    0.00   9.41  64.00
md0               0.00     0.00  192.00    0.00   768.00     0.00     8.00     0.00    0.00    0.00    0.00   0.00   0.00

avg-cpu:  %user   %nice %system %iowait  %steal   %idle
           0.00    0.00    0.03    0.00    0.00   99.97

Device:         rrqm/s   wrqm/s     r/s     w/s    rkB/s    wkB/s avgrq-sz avgqu-sz   await r_await w_await  svctm  %util
nvme0n1           0.00     0.00    0.00    0.00     0.00     0.00     0.00     0.00    0.00    0.00    0.00   0.00   0.00
sda               0.00     0.00    0.00    0.00     0.00     0.00     0.00     0.00    0.00    0.00    0.00   0.00   0.00
sdc               0.00     0.00   60.00    0.00   240.00     0.00     8.00     1.15   19.10   19.10    0.00   9.38  56.30
sdb               0.00     0.00   73.00    0.00   292.00     0.00     8.00     1.56   20.95   20.95    0.00   9.27  67.70
sdd               0.00     0.00   70.00    0.00   280.00     0.00     8.00     1.37   20.10   20.10    0.00   8.91  62.40
md0               0.00     0.00  200.00    0.00   800.00     0.00     8.00     0.00    0.00    0.00    0.00   0.00   0.00

avg-cpu:  %user   %nice %system %iowait  %steal   %idle
           0.00    0.00    0.03    0.00    0.00   99.97

Device:         rrqm/s   wrqm/s     r/s     w/s    rkB/s    wkB/s avgrq-sz avgqu-sz   await r_await w_await  svctm  %util
nvme0n1           0.00     0.00    0.00    0.00     0.00     0.00     0.00     0.00    0.00    0.00    0.00   0.00   0.00
sda               0.00     0.00    0.00    0.00     0.00     0.00     0.00     0.00    0.00    0.00    0.00   0.00   0.00
sdc               0.00     0.00   70.00    0.00   280.00     0.00     8.00     1.42   19.79   19.79    0.00   9.73  68.10
sdb               0.00     0.00   63.00    0.00   252.00     0.00     8.00     1.17   19.94   19.94    0.00   9.10  57.30
sdd               0.00     0.00   75.00    0.00   300.00     0.00     8.00     1.56   20.33   20.33    0.00   9.08  68.10
md0               0.00     0.00  208.00    0.00   832.00     0.00     8.00     0.00    0.00    0.00    0.00   0.00   0.00

avg-cpu:  %user   %nice %system %iowait  %steal   %idle
           0.00    0.00    0.00    0.00    0.00  100.00

Device:         rrqm/s   wrqm/s     r/s     w/s    rkB/s    wkB/s avgrq-sz avgqu-sz   await r_await w_await  svctm  %util
nvme0n1           0.00     0.00    0.00    0.00     0.00     0.00     0.00     0.00    0.00    0.00    0.00   0.00   0.00
sda               0.00     1.00    0.00    2.00     0.00    12.00    12.00     0.00    0.00    0.00    0.00   0.00   0.00
sdc               0.00     0.00   72.00    0.00   288.00     0.00     8.00     1.60   22.24   22.24    0.00   9.26  66.70
sdb               0.00     0.00   54.00    0.00   216.00     0.00     8.00     0.87   16.11   16.11    0.00   9.11  49.20
sdd               0.00     0.00   77.00    0.00   308.00     0.00     8.00     1.68   21.94   21.94    0.00   9.30  71.60
md0               0.00     0.00  208.00    0.00   832.00     0.00     8.00     0.00    0.00    0.00    0.00   0.00   0.00

avg-cpu:  %user   %nice %system %iowait  %steal   %idle
           0.00    0.00    0.03    0.00    0.00   99.97

Device:         rrqm/s   wrqm/s     r/s     w/s    rkB/s    wkB/s avgrq-sz avgqu-sz   await r_await w_await  svctm  %util
nvme0n1           0.00     0.00    0.00    0.00     0.00     0.00     0.00     0.00    0.00    0.00    0.00   0.00   0.00
sda               0.00     0.00    0.00    0.00     0.00     0.00     0.00     0.00    0.00    0.00    0.00   0.00   0.00
sdc               0.00     0.00   71.00    0.00   284.00     0.00     8.00     1.53   21.97   21.97    0.00   9.76  69.30
sdb               0.00     0.00   58.00    0.00   232.00     0.00     8.00     1.09   18.21   18.21    0.00   9.31  54.00
sdd               0.00     0.00   76.00    0.00   304.00     0.00     8.00     1.55   20.30   20.30    0.00   9.11  69.20
md0               0.00     0.00  200.00    0.00   800.00     0.00     8.00     0.00    0.00    0.00    0.00   0.00   0.00

