Linux 4.17.2 (bench2) 	08/03/2018 	_x86_64_	(32 CPU)

avg-cpu:  %user   %nice %system %iowait  %steal   %idle
           1.91    0.00    1.56    1.57    0.00   94.97

Device:         rrqm/s   wrqm/s     r/s     w/s    rkB/s    wkB/s avgrq-sz avgqu-sz   await r_await w_await  svctm  %util
nvme0n1         941.10     5.11 18972.22  522.36 106122.71 11780.87    12.10     1.35    0.05    0.03    0.67   0.02  39.72
sda               0.12     0.81   14.15    0.58   163.97     8.52    23.42     0.00    0.33    0.32    0.44   0.07   0.10
sdc              33.84     0.18  116.24    0.31  1746.11    97.79    31.64     0.04    0.33   12.55  380.35   0.92  10.69
sdb              31.79     0.19  118.25    0.33  1744.19    97.62    31.06     0.47    3.99    2.85  411.64   0.86  10.16
sdd              34.04     0.17  115.78    0.26  1742.10    97.29    31.70     0.79    6.80    4.76  907.87   0.92  10.69
md0               0.00     0.00  452.80    1.21  6473.94   352.94    30.07     0.00    0.00    0.00    0.00   0.00   0.00

avg-cpu:  %user   %nice %system %iowait  %steal   %idle
           0.01    0.00    0.23    0.67    0.00   99.09

Device:         rrqm/s   wrqm/s     r/s     w/s    rkB/s    wkB/s avgrq-sz avgqu-sz   await r_await w_await  svctm  %util
nvme0n1           0.00     0.00    0.00    0.00     0.00     0.00     0.00     0.00    0.00    0.00    0.00   0.00   0.00
sda               0.00     0.95    5.25    0.35    33.60     6.00    14.14     0.00    0.06    0.07    0.00   0.05   0.03
sdc               0.00     0.00 1517.90    0.00  6072.80     0.00     8.00     0.32    0.21    0.21    0.00   0.21  32.30
sdb               0.00     0.00 1506.90    0.00  6027.60     0.00     8.00     0.32    0.21    0.21    0.00   0.21  31.70
sdd               0.00     0.00 1501.80    0.00  6007.20     0.00     8.00     0.30    0.20    0.20    0.00   0.20  30.39
md0               0.00     0.00 4526.60    0.00 18107.00     0.00     8.00     0.00    0.00    0.00    0.00   0.00   0.00

