Linux 4.17.2 (bench2) 	08/03/2018 	_x86_64_	(32 CPU)

avg-cpu:  %user   %nice %system %iowait  %steal   %idle
           1.91    0.00    1.56    1.55    0.00   94.98

Device:         rrqm/s   wrqm/s     r/s     w/s    rkB/s    wkB/s avgrq-sz avgqu-sz   await r_await w_await  svctm  %util
nvme0n1         946.05     5.14 19072.05  525.11 106681.07 11842.85    12.10     1.36    0.05    0.03    0.67   0.02  39.92
sda               0.11     0.81   14.15    0.58   163.96     8.51    23.43     0.00    0.33    0.32    0.45   0.07   0.10
sdc              33.42     0.18  112.93    0.31  1697.58    98.31    31.72     0.00    0.00   12.65  380.35   0.92  10.47
sdb              31.36     0.19  114.95    0.33  1695.68    98.13    31.12     0.44    3.81    2.63  411.64   0.86   9.95
sdd              33.62     0.17  112.47    0.26  1693.59    97.80    31.78     0.76    6.71    4.60  907.87   0.93  10.47
md0               0.00     0.00  441.61    1.22  6286.57   354.79    30.00     0.00    0.00    0.00    0.00   0.00   0.00

avg-cpu:  %user   %nice %system %iowait  %steal   %idle
           0.00    0.00    0.04    0.93    0.00   99.02

Device:         rrqm/s   wrqm/s     r/s     w/s    rkB/s    wkB/s avgrq-sz avgqu-sz   await r_await w_await  svctm  %util
nvme0n1           0.00     0.00    0.00    0.00     0.00     0.00     0.00     0.00    0.00    0.00    0.00   0.00   0.00
sda               0.00     1.40    1.65    1.05     8.60    11.80    15.11     0.00    0.02    0.00    0.05   0.02   0.01
sdc               0.00     0.00  166.25    0.00   666.20     0.00     8.01     0.34    2.06    2.06    0.00   2.06  34.20
sdb               0.00     0.00  161.40    0.00   645.60     0.00     8.00     0.27    1.69    1.69    0.00   1.69  27.27
sdd               0.00     0.00  167.60    0.00   670.40     0.00     8.00     0.36    2.17    2.17    0.00   2.17  36.33
md0               0.00     0.00  495.30    0.00  1982.40     0.00     8.00     0.00    0.00    0.00    0.00   0.00   0.00

