Linux 4.17.2 (bench2) 	08/03/2018 	_x86_64_	(32 CPU)

avg-cpu:  %user   %nice %system %iowait  %steal   %idle
           1.90    0.00    1.55    1.58    0.00   94.96

Device:         rrqm/s   wrqm/s     r/s     w/s    rkB/s    wkB/s avgrq-sz avgqu-sz   await r_await w_await  svctm  %util
nvme0n1         936.73     5.09 18884.12  519.94 105629.87 11726.16    12.10     1.34    0.05    0.03    0.67   0.02  39.53
sda               0.12     0.82   14.16    0.58   163.99     8.53    23.41     0.00    0.33    0.32    0.44   0.07   0.10
sdc              34.22     0.17  119.21    0.31  1793.30    97.34    31.64     0.07    0.59   12.45  380.35   0.91  10.89
sdb              32.18     0.19  121.20    0.33  1791.36    97.16    31.08     0.50    4.13    3.02  411.64   0.85  10.35
sdd              34.42     0.17  118.75    0.26  1789.31    96.84    31.70     0.82    6.87    4.89  907.87   0.91  10.89
md0               0.00     0.00  462.82    1.21  6657.89   351.30    30.21     0.00    0.00    0.00    0.00   0.00   0.00

avg-cpu:  %user   %nice %system %iowait  %steal   %idle
           0.00    0.00    0.41   11.39    0.00   88.20

Device:         rrqm/s   wrqm/s     r/s     w/s    rkB/s    wkB/s avgrq-sz avgqu-sz   await r_await w_await  svctm  %util
nvme0n1           0.00     0.00    0.00    0.00     0.00     0.00     0.00     0.00    0.00    0.00    0.00   0.00   0.00
sda               0.00     0.00   21.00    0.00   120.00     0.00    11.43     0.00    0.05    0.05    0.00   0.05   0.10
sdc               0.00     0.00  990.00    0.00  3960.00     0.00     8.00     2.71    2.69    2.69    0.00   0.74  73.00
sdb               0.00     0.00  970.00    0.00  3880.00     0.00     8.00     2.48    2.56    2.56    0.00   0.70  68.10
sdd               0.00     0.00  958.00    0.00  3832.00     0.00     8.00     1.96    1.95    1.95    0.00   0.59  56.20
md0               0.00     0.00 2923.00    0.00 11692.00     0.00     8.00     0.00    0.00    0.00    0.00   0.00   0.00

avg-cpu:  %user   %nice %system %iowait  %steal   %idle
           0.03    0.00    0.28    9.87    0.00   89.82

Device:         rrqm/s   wrqm/s     r/s     w/s    rkB/s    wkB/s avgrq-sz avgqu-sz   await r_await w_await  svctm  %util
nvme0n1           0.00     0.00    0.00    0.00     0.00     0.00     0.00     0.00    0.00    0.00    0.00   0.00   0.00
sda               0.00    11.00    0.00    2.00     0.00    52.00    52.00     0.00    0.00    0.00    0.00   0.00   0.00
sdc               0.00     0.00  876.00    0.00  3504.00     0.00     8.00     1.85    2.17    2.17    0.00   0.66  58.20
sdb               0.00     0.00  899.00    0.00  3596.00     0.00     8.00     2.10    2.22    2.22    0.00   0.66  59.70
sdd               0.00     0.00  916.00    0.00  3664.00     0.00     8.00     2.52    2.85    2.85    0.00   0.76  69.20
md0               0.00     0.00 2689.00    0.00 10756.00     0.00     8.00     0.00    0.00    0.00    0.00   0.00   0.00

avg-cpu:  %user   %nice %system %iowait  %steal   %idle
           0.03    0.00    0.28   10.27    0.00   89.42

Device:         rrqm/s   wrqm/s     r/s     w/s    rkB/s    wkB/s avgrq-sz avgqu-sz   await r_await w_await  svctm  %util
nvme0n1           0.00     0.00    0.00    0.00     0.00     0.00     0.00     0.00    0.00    0.00    0.00   0.00   0.00
sda               0.00     0.00    0.00    0.00     0.00     0.00     0.00     0.00    0.00    0.00    0.00   0.00   0.00
sdc               0.00     0.00  842.00    0.00  3368.00     0.00     8.00     2.25    2.68    2.68    0.00   0.74  62.20
sdb               0.00     0.00  895.00    0.00  3580.00     0.00     8.00     2.34    2.74    2.74    0.00   0.70  62.60
sdd               0.00     0.00  850.00    0.00  3400.00     0.00     8.00     2.03    2.38    2.38    0.00   0.75  63.40
md0               0.00     0.00 2600.00    0.00 10400.00     0.00     8.00     0.00    0.00    0.00    0.00   0.00   0.00

avg-cpu:  %user   %nice %system %iowait  %steal   %idle
           0.03    0.00    0.25   13.19    0.00   86.53

Device:         rrqm/s   wrqm/s     r/s     w/s    rkB/s    wkB/s avgrq-sz avgqu-sz   await r_await w_await  svctm  %util
nvme0n1           0.00     0.00    0.00    0.00     0.00     0.00     0.00     0.00    0.00    0.00    0.00   0.00   0.00
sda               0.00     0.00    0.00    0.00     0.00     0.00     0.00     0.00    0.00    0.00    0.00   0.00   0.00
sdc               1.00     0.00  947.00    0.00  3792.00     0.00     8.01     2.73    2.89    2.89    0.00   0.77  72.80
sdb               0.00     0.00  881.00    0.00  3524.00     0.00     8.00     2.26    2.56    2.56    0.00   0.78  68.60
sdd               0.00     0.00  977.00    0.00  3908.00     0.00     8.00     2.81    2.87    2.87    0.00   0.79  76.90
md0               0.00     0.00 2791.00    0.00 11164.00     0.00     8.00     0.00    0.00    0.00    0.00   0.00   0.00

avg-cpu:  %user   %nice %system %iowait  %steal   %idle
           0.00    0.00    0.25    9.12    0.00   90.63

Device:         rrqm/s   wrqm/s     r/s     w/s    rkB/s    wkB/s avgrq-sz avgqu-sz   await r_await w_await  svctm  %util
nvme0n1           0.00     0.00    0.00    0.00     0.00     0.00     0.00     0.00    0.00    0.00    0.00   0.00   0.00
sda               0.00     0.00    0.00    0.00     0.00     0.00     0.00     0.00    0.00    0.00    0.00   0.00   0.00
sdc               0.00     0.00  812.00    0.00  3248.00     0.00     8.00     2.40    2.88    2.88    0.00   0.88  71.60
sdb               0.00     0.00  881.00    0.00  3524.00     0.00     8.00     2.19    2.50    2.50    0.00   0.73  64.00
sdd               0.00     0.00  839.00    0.00  3356.00     0.00     8.00     2.00    2.35    2.35    0.00   0.72  60.50
md0               0.00     0.00 2537.00    0.00 10148.00     0.00     8.00     0.00    0.00    0.00    0.00   0.00   0.00

avg-cpu:  %user   %nice %system %iowait  %steal   %idle
           0.03    0.00    0.31    9.76    0.00   89.90

Device:         rrqm/s   wrqm/s     r/s     w/s    rkB/s    wkB/s avgrq-sz avgqu-sz   await r_await w_await  svctm  %util
nvme0n1           0.00     0.00    0.00    0.00     0.00     0.00     0.00     0.00    0.00    0.00    0.00   0.00   0.00
sda               0.00     0.00    0.00    0.00     0.00     0.00     0.00     0.00    0.00    0.00    0.00   0.00   0.00
sdc               0.00     0.00  765.00    0.00  3060.00     0.00     8.00     2.55    3.34    3.34    0.00   0.85  65.10
sdb               0.00     0.00  801.00    0.00  3204.00     0.00     8.00     2.21    2.72    2.72    0.00   0.76  61.10
sdd               0.00     0.00  746.00    0.00  2984.00     0.00     8.00     2.43    3.29    3.29    0.00   1.01  75.00
md0               0.00     0.00 2313.00    0.00  9252.00     0.00     8.00     0.00    0.00    0.00    0.00   0.00   0.00

avg-cpu:  %user   %nice %system %iowait  %steal   %idle
           0.00    0.00    0.38    9.96    0.00   89.67

Device:         rrqm/s   wrqm/s     r/s     w/s    rkB/s    wkB/s avgrq-sz avgqu-sz   await r_await w_await  svctm  %util
nvme0n1           0.00     0.00    0.00    0.00     0.00     0.00     0.00     0.00    0.00    0.00    0.00   0.00   0.00
sda               0.00     1.00    0.00    2.00     0.00    12.00    12.00     0.00    0.00    0.00    0.00   0.00   0.00
sdc               0.00     0.00 1090.00    0.00  4360.00     0.00     8.00     2.79    2.62    2.62    0.00   0.65  71.10
sdb               0.00     0.00  907.00    0.00  3628.00     0.00     8.00     2.23    2.40    2.40    0.00   0.73  65.80
sdd               0.00     0.00  931.00    0.00  3724.00     0.00     8.00     2.89    3.11    3.11    0.00   0.80  74.70
md0               0.00     0.00 2927.00    0.00 11708.00     0.00     8.00     0.00    0.00    0.00    0.00   0.00   0.00

avg-cpu:  %user   %nice %system %iowait  %steal   %idle
           0.03    0.00    0.28    8.29    0.00   91.39

Device:         rrqm/s   wrqm/s     r/s     w/s    rkB/s    wkB/s avgrq-sz avgqu-sz   await r_await w_await  svctm  %util
nvme0n1           0.00     0.00    0.00    0.00     0.00     0.00     0.00     0.00    0.00    0.00    0.00   0.00   0.00
sda               0.00     0.00    0.00    0.00     0.00     0.00     0.00     0.00    0.00    0.00    0.00   0.00   0.00
sdc               0.00     0.00  790.00    0.00  3160.00     0.00     8.00     2.08    2.63    2.63    0.00   0.81  64.30
sdb               0.00     0.00  876.00    0.00  3504.00     0.00     8.00     2.64    3.11    3.11    0.00   0.77  67.30
sdd               0.00     0.00  793.00    0.00  3172.00     0.00     8.00     2.37    2.99    2.99    0.00   0.79  62.90
md0               0.00     0.00 2456.00    0.00  9824.00     0.00     8.00     0.00    0.00    0.00    0.00   0.00   0.00

avg-cpu:  %user   %nice %system %iowait  %steal   %idle
           0.00    0.00    0.53    8.97    0.00   90.50

Device:         rrqm/s   wrqm/s     r/s     w/s    rkB/s    wkB/s avgrq-sz avgqu-sz   await r_await w_await  svctm  %util
nvme0n1           0.00     0.00    0.00    0.00     0.00     0.00     0.00     0.00    0.00    0.00    0.00   0.00   0.00
sda               0.00     0.00    0.00    0.00     0.00     0.00     0.00     0.00    0.00    0.00    0.00   0.00   0.00
sdc               0.00     0.00  955.00    0.00  3820.00     0.00     8.00     2.24    2.34    2.34    0.00   0.72  68.60
sdb               1.00     0.00  949.00    0.00  3800.00     0.00     8.01     3.04    3.21    3.21    0.00   0.86  81.50
sdd               0.00     0.00  924.00    0.00  3696.00     0.00     8.00     1.70    1.84    1.84    0.00   0.60  55.00
md0               0.00     0.00 2827.00    0.00 11308.00     0.00     8.00     0.00    0.00    0.00    0.00   0.00   0.00

avg-cpu:  %user   %nice %system %iowait  %steal   %idle
           0.03    0.00    0.38    9.13    0.00   90.46

Device:         rrqm/s   wrqm/s     r/s     w/s    rkB/s    wkB/s avgrq-sz avgqu-sz   await r_await w_await  svctm  %util
nvme0n1           0.00     0.00    0.00    0.00     0.00     0.00     0.00     0.00    0.00    0.00    0.00   0.00   0.00
sda               0.00     0.00    0.00    0.00     0.00     0.00     0.00     0.00    0.00    0.00    0.00   0.00   0.00
sdc               0.00     0.00  973.00    0.00  3892.00     0.00     8.00     2.91    2.97    2.97    0.00   0.75  72.50
sdb               0.00     0.00  919.00    0.00  3676.00     0.00     8.00     2.13    2.30    2.30    0.00   0.63  57.80
sdd               0.00     0.00  831.00    0.00  3324.00     0.00     8.00     1.85    2.20    2.20    0.00   0.69  57.60
md0               0.00     0.00 2735.00    0.00 10940.00     0.00     8.00     0.00    0.00    0.00    0.00   0.00   0.00

avg-cpu:  %user   %nice %system %iowait  %steal   %idle
           0.03    0.00    0.38    8.22    0.00   91.37

Device:         rrqm/s   wrqm/s     r/s     w/s    rkB/s    wkB/s avgrq-sz avgqu-sz   await r_await w_await  svctm  %util
nvme0n1           0.00     0.00    0.00    0.00     0.00     0.00     0.00     0.00    0.00    0.00    0.00   0.00   0.00
sda               0.00     0.00    0.00    0.00     0.00     0.00     0.00     0.00    0.00    0.00    0.00   0.00   0.00
sdc               0.00     0.00  789.00    0.00  3156.00     0.00     8.00     2.17    2.68    2.68    0.00   0.79  62.10
sdb               0.00     0.00  865.00    0.00  3460.00     0.00     8.00     2.54    2.88    2.88    0.00   0.87  75.40
sdd               0.00     0.00  829.00    0.00  3316.00     0.00     8.00     2.23    2.72    2.72    0.00   0.77  64.20
md0               0.00     0.00 2477.00    0.00  9908.00     0.00     8.00     0.00    0.00    0.00    0.00   0.00   0.00

avg-cpu:  %user   %nice %system %iowait  %steal   %idle
           0.00    0.00    0.16    9.28    0.00   90.57

Device:         rrqm/s   wrqm/s     r/s     w/s    rkB/s    wkB/s avgrq-sz avgqu-sz   await r_await w_await  svctm  %util
nvme0n1           0.00     0.00    0.00    0.00     0.00     0.00     0.00     0.00    0.00    0.00    0.00   0.00   0.00
sda               0.00     1.00    0.00    2.00     0.00    12.00    12.00     0.00    0.00    0.00    0.00   0.00   0.00
sdc               0.00     0.00  737.00    0.00  2948.00     0.00     8.00     2.31    3.23    3.23    0.00   0.88  65.00
sdb               0.00     0.00  709.00    0.00  2836.00     0.00     8.00     2.27    3.28    3.28    0.00   0.89  63.20
sdd               0.00     0.00  791.00    0.00  3164.00     0.00     8.00     2.23    2.82    2.82    0.00   0.72  56.90
md0               0.00     0.00 2247.00    0.00  8988.00     0.00     8.00     0.00    0.00    0.00    0.00   0.00   0.00

avg-cpu:  %user   %nice %system %iowait  %steal   %idle
           0.03    0.00    0.34    9.77    0.00   89.86

Device:         rrqm/s   wrqm/s     r/s     w/s    rkB/s    wkB/s avgrq-sz avgqu-sz   await r_await w_await  svctm  %util
nvme0n1           0.00     0.00    0.00    0.00     0.00     0.00     0.00     0.00    0.00    0.00    0.00   0.00   0.00
sda               0.00     0.00   70.00    0.00   492.00     0.00    14.06     0.03    0.36    0.36    0.00   0.03   0.20
sdc               0.00     0.00  863.00    0.00  3452.00     0.00     8.00     2.13    2.48    2.48    0.00   0.77  66.40
sdb               0.00     0.00  990.00    0.00  3960.00     0.00     8.00     3.54    3.57    3.57    0.00   0.76  75.30
sdd               0.00     0.00  817.00    0.00  3268.00     0.00     8.00     1.79    2.19    2.19    0.00   0.70  57.30
md0               0.00     0.00 2654.00    0.00 10616.00     0.00     8.00     0.00    0.00    0.00    0.00   0.00   0.00

avg-cpu:  %user   %nice %system %iowait  %steal   %idle
           0.03    0.00    0.31    9.20    0.00   90.45

Device:         rrqm/s   wrqm/s     r/s     w/s    rkB/s    wkB/s avgrq-sz avgqu-sz   await r_await w_await  svctm  %util
nvme0n1           0.00     0.00    0.00    0.00     0.00     0.00     0.00     0.00    0.00    0.00    0.00   0.00   0.00
sda               0.00     0.00    0.00    0.00     0.00     0.00     0.00     0.00    0.00    0.00    0.00   0.00   0.00
sdc               0.00     0.00  802.00    0.00  3208.00     0.00     8.00     2.39    2.98    2.98    0.00   0.91  72.80
sdb               0.00     0.00  980.00    0.00  3920.00     0.00     8.00     2.96    3.01    3.01    0.00   0.77  75.40
sdd               0.00     0.00  894.00    0.00  3576.00     0.00     8.00     2.36    2.64    2.64    0.00   0.70  62.50
md0               0.00     0.00 2677.00    0.00 10708.00     0.00     8.00     0.00    0.00    0.00    0.00   0.00   0.00

avg-cpu:  %user   %nice %system %iowait  %steal   %idle
           0.03    0.00    0.28    9.20    0.00   90.49

Device:         rrqm/s   wrqm/s     r/s     w/s    rkB/s    wkB/s avgrq-sz avgqu-sz   await r_await w_await  svctm  %util
nvme0n1           0.00     0.00    0.00    0.00     0.00     0.00     0.00     0.00    0.00    0.00    0.00   0.00   0.00
sda               0.00     3.00    1.00    2.00     4.00    36.00    26.67     0.00    0.00    0.00    0.00   0.00   0.00
sdc               0.00     0.00  770.00    0.00  3080.00     0.00     8.00     1.82    2.36    2.36    0.00   0.71  54.50
sdb               0.00     0.00  862.00    0.00  3448.00     0.00     8.00     1.99    2.34    2.34    0.00   0.66  56.90
sdd               0.00     0.00  767.00    0.00  3068.00     0.00     8.00     2.85    3.39    3.39    0.00   0.95  73.20
md0               0.00     0.00 2404.00    0.00  9616.00     0.00     8.00     0.00    0.00    0.00    0.00   0.00   0.00

avg-cpu:  %user   %nice %system %iowait  %steal   %idle
           0.03    0.00    0.25    8.54    0.00   91.17

Device:         rrqm/s   wrqm/s     r/s     w/s    rkB/s    wkB/s avgrq-sz avgqu-sz   await r_await w_await  svctm  %util
nvme0n1           0.00     0.00    0.00    0.00     0.00     0.00     0.00     0.00    0.00    0.00    0.00   0.00   0.00
sda               0.00     0.00    0.00    0.00     0.00     0.00     0.00     0.00    0.00    0.00    0.00   0.00   0.00
sdc               0.00     0.00  843.00    0.00  3372.00     0.00     8.00     2.77    3.28    3.28    0.00   0.83  69.90
sdb               0.00     0.00  767.00    0.00  3068.00     0.00     8.00     1.83    2.36    2.36    0.00   0.73  55.70
sdd               0.00     0.00  911.00    0.00  3644.00     0.00     8.00     2.55    3.08    3.08    0.00   0.84  76.20
md0               0.00     0.00 2526.00    0.00 10104.00     0.00     8.00     0.00    0.00    0.00    0.00   0.00   0.00

avg-cpu:  %user   %nice %system %iowait  %steal   %idle
           0.00    0.00    0.28    9.02    0.00   90.70

Device:         rrqm/s   wrqm/s     r/s     w/s    rkB/s    wkB/s avgrq-sz avgqu-sz   await r_await w_await  svctm  %util
nvme0n1           0.00     0.00    0.00    0.00     0.00     0.00     0.00     0.00    0.00    0.00    0.00   0.00   0.00
sda               0.00     7.00    0.00    2.00     0.00    36.00    36.00     0.00    0.00    0.00    0.00   0.00   0.00
sdc               1.00     0.00  870.00    0.00  3484.00     0.00     8.01     2.58    2.91    2.91    0.00   0.82  71.40
sdb               0.00     0.00  973.00    0.00  3892.00     0.00     8.00     2.44    2.48    2.48    0.00   0.69  67.40
sdd               0.00     0.00  984.00    0.00  3936.00     0.00     8.00     2.16    2.20    2.20    0.00   0.64  62.70
md0               0.00     0.00 2827.00    0.00 11308.00     0.00     8.00     0.00    0.00    0.00    0.00   0.00   0.00

avg-cpu:  %user   %nice %system %iowait  %steal   %idle
           0.03    0.00    0.28    7.17    0.00   92.52

Device:         rrqm/s   wrqm/s     r/s     w/s    rkB/s    wkB/s avgrq-sz avgqu-sz   await r_await w_await  svctm  %util
nvme0n1           0.00     0.00    0.00    0.00     0.00     0.00     0.00     0.00    0.00    0.00    0.00   0.00   0.00
sda               0.00     0.00    0.00    0.00     0.00     0.00     0.00     0.00    0.00    0.00    0.00   0.00   0.00
sdc               0.00     0.00  893.00    0.00  3576.00     0.00     8.01     2.66    3.03    3.03    0.00   0.76  67.80
sdb               0.00     0.00  863.00    0.00  3452.00     0.00     8.00     2.56    3.01    3.01    0.00   0.85  73.30
sdd               0.00     0.00  889.00    0.00  3556.00     0.00     8.00     2.22    2.50    2.50    0.00   0.70  62.50
md0               0.00     0.00 2651.00    0.00 10604.00     0.00     8.00     0.00    0.00    0.00    0.00   0.00   0.00

avg-cpu:  %user   %nice %system %iowait  %steal   %idle
           0.00    0.00    0.28    8.61    0.00   91.11

Device:         rrqm/s   wrqm/s     r/s     w/s    rkB/s    wkB/s avgrq-sz avgqu-sz   await r_await w_await  svctm  %util
nvme0n1           0.00     0.00    0.00    0.00     0.00     0.00     0.00     0.00    0.00    0.00    0.00   0.00   0.00
sda               0.00     0.00    0.00    0.00     0.00     0.00     0.00     0.00    0.00    0.00    0.00   0.00   0.00
sdc               0.00     0.00  878.00    0.00  3508.00     0.00     7.99     2.54    2.90    2.90    0.00   0.83  73.10
sdb               0.00     0.00  777.00    0.00  3108.00     0.00     8.00     2.48    3.06    3.06    0.00   0.85  66.30
sdd               0.00     0.00  846.00    0.00  3384.00     0.00     8.00     2.31    2.70    2.70    0.00   0.82  69.40
md0               0.00     0.00 2491.00    0.00  9964.00     0.00     8.00     0.00    0.00    0.00    0.00   0.00   0.00

avg-cpu:  %user   %nice %system %iowait  %steal   %idle
           0.00    0.00    0.22    7.55    0.00   92.23

Device:         rrqm/s   wrqm/s     r/s     w/s    rkB/s    wkB/s avgrq-sz avgqu-sz   await r_await w_await  svctm  %util
nvme0n1           0.00     0.00    0.00    0.00     0.00     0.00     0.00     0.00    0.00    0.00    0.00   0.00   0.00
sda               0.00     0.00    0.00    0.00     0.00     0.00     0.00     0.00    0.00    0.00    0.00   0.00   0.00
sdc               0.00     0.00  880.00    0.00  3524.00     0.00     8.01     2.28    2.59    2.59    0.00   0.78  68.80
sdb               0.00     0.00  928.00    0.00  3712.00     0.00     8.00     2.75    3.00    3.00    0.00   0.81  74.90
sdd               0.00     0.00  910.00    0.00  3640.00     0.00     8.00     2.21    2.46    2.46    0.00   0.70  63.90
md0               0.00     0.00 2714.00    0.00 10856.00     0.00     8.00     0.00    0.00    0.00    0.00   0.00   0.00

