Linux 4.17.2 (bench2) 	08/03/2018 	_x86_64_	(32 CPU)

avg-cpu:  %user   %nice %system %iowait  %steal   %idle
           1.90    0.00    1.55    1.58    0.00   94.96

Device:         rrqm/s   wrqm/s     r/s     w/s    rkB/s    wkB/s avgrq-sz avgqu-sz   await r_await w_await  svctm  %util
nvme0n1         936.76     5.09 18884.66  519.95 105632.90 11726.49    12.10     1.34    0.05    0.03    0.67   0.02  39.53
sda               0.12     0.82   14.16    0.58   163.99     8.53    23.41     0.00    0.33    0.32    0.44   0.07   0.10
sdc              34.22     0.17  119.16    0.31  1793.13    97.34    31.65     0.07    0.59   12.45  380.35   0.91  10.89
sdb              32.18     0.19  121.15    0.33  1791.20    97.17    31.09     0.50    4.14    3.02  411.64   0.85  10.34
sdd              34.42     0.17  118.70    0.26  1789.14    96.84    31.71     0.82    6.87    4.89  907.87   0.92  10.89
md0               0.00     0.00  462.67    1.21  6657.43   351.31    30.22     0.00    0.00    0.00    0.00   0.00   0.00

avg-cpu:  %user   %nice %system %iowait  %steal   %idle
           0.00    0.00    0.31    0.34    0.00   99.34

Device:         rrqm/s   wrqm/s     r/s     w/s    rkB/s    wkB/s avgrq-sz avgqu-sz   await r_await w_await  svctm  %util
nvme0n1           0.00     0.00    0.00    0.00     0.00     0.00     0.00     0.00    0.00    0.00    0.00   0.00   0.00
sda               0.00     0.00   19.00    0.00   104.00     0.00    10.95     0.00    0.05    0.05    0.00   0.05   0.10
sdc               0.00     0.00 2235.00    0.00  8940.00     0.00     8.00     0.31    0.14    0.14    0.00   0.14  31.40
sdb               0.00     0.00 2261.00    0.00  9044.00     0.00     8.00     0.32    0.14    0.14    0.00   0.14  32.00
sdd               0.00     0.00 2054.00    0.00  8216.00     0.00     8.00     0.30    0.15    0.15    0.00   0.15  30.50
md0               0.00     0.00 6550.00    0.00 26200.00     0.00     8.00     0.00    0.00    0.00    0.00   0.00   0.00

avg-cpu:  %user   %nice %system %iowait  %steal   %idle
           0.00    0.00    0.25    0.28    0.00   99.47

Device:         rrqm/s   wrqm/s     r/s     w/s    rkB/s    wkB/s avgrq-sz avgqu-sz   await r_await w_await  svctm  %util
nvme0n1           0.00     0.00    0.00    0.00     0.00     0.00     0.00     0.00    0.00    0.00    0.00   0.00   0.00
sda               0.00    12.00    0.00    2.00     0.00    56.00    56.00     0.00    0.00    0.00    0.00   0.00   0.00
sdc               0.00     0.00 2165.00    0.00  8660.00     0.00     8.00     0.31    0.14    0.14    0.00   0.14  31.00
sdb               0.00     0.00 2188.00    0.00  8752.00     0.00     8.00     0.32    0.14    0.14    0.00   0.14  31.50
sdd               0.00     0.00 2239.00    0.00  8956.00     0.00     8.00     0.33    0.15    0.15    0.00   0.15  32.50
md0               0.00     0.00 6592.00    0.00 26368.00     0.00     8.00     0.00    0.00    0.00    0.00   0.00   0.00

avg-cpu:  %user   %nice %system %iowait  %steal   %idle
           0.00    0.00    0.34    0.31    0.00   99.34

Device:         rrqm/s   wrqm/s     r/s     w/s    rkB/s    wkB/s avgrq-sz avgqu-sz   await r_await w_await  svctm  %util
nvme0n1           0.00     0.00    0.00    0.00     0.00     0.00     0.00     0.00    0.00    0.00    0.00   0.00   0.00
sda               0.00     0.00    0.00    0.00     0.00     0.00     0.00     0.00    0.00    0.00    0.00   0.00   0.00
sdc               0.00     0.00 2219.00    0.00  8876.00     0.00     8.00     0.32    0.15    0.15    0.00   0.14  32.00
sdb               0.00     0.00 2188.00    0.00  8752.00     0.00     8.00     0.32    0.15    0.15    0.00   0.14  31.70
sdd               0.00     0.00 2111.00    0.00  8444.00     0.00     8.00     0.31    0.15    0.15    0.00   0.15  31.30
md0               0.00     0.00 6518.00    0.00 26072.00     0.00     8.00     0.00    0.00    0.00    0.00   0.00   0.00

avg-cpu:  %user   %nice %system %iowait  %steal   %idle
           0.03    0.00    0.31    0.28    0.00   99.37

Device:         rrqm/s   wrqm/s     r/s     w/s    rkB/s    wkB/s avgrq-sz avgqu-sz   await r_await w_await  svctm  %util
nvme0n1           0.00     0.00    0.00    0.00     0.00     0.00     0.00     0.00    0.00    0.00    0.00   0.00   0.00
sda               0.00     0.00    0.00    0.00     0.00     0.00     0.00     0.00    0.00    0.00    0.00   0.00   0.00
sdc               0.00     0.00 2311.00    0.00  9244.00     0.00     8.00     0.32    0.14    0.14    0.00   0.14  32.10
sdb               0.00     0.00 2110.00    0.00  8440.00     0.00     8.00     0.30    0.14    0.14    0.00   0.14  30.00
sdd               0.00     0.00 2219.00    0.00  8876.00     0.00     8.00     0.32    0.15    0.15    0.00   0.15  32.40
md0               0.00     0.00 6640.00    0.00 26560.00     0.00     8.00     0.00    0.00    0.00    0.00   0.00   0.00

avg-cpu:  %user   %nice %system %iowait  %steal   %idle
           0.00    0.00    0.31    0.28    0.00   99.40

Device:         rrqm/s   wrqm/s     r/s     w/s    rkB/s    wkB/s avgrq-sz avgqu-sz   await r_await w_await  svctm  %util
nvme0n1           0.00     0.00    0.00    0.00     0.00     0.00     0.00     0.00    0.00    0.00    0.00   0.00   0.00
sda               0.00     0.00    0.00    0.00     0.00     0.00     0.00     0.00    0.00    0.00    0.00   0.00   0.00
sdc               0.00     0.00 2207.00    0.00  8828.00     0.00     8.00     0.32    0.15    0.15    0.00   0.15  32.40
sdb               0.00     0.00 2206.00    0.00  8824.00     0.00     8.00     0.31    0.14    0.14    0.00   0.14  30.60
sdd               0.00     0.00 2180.00    0.00  8720.00     0.00     8.00     0.31    0.14    0.14    0.00   0.14  31.20
md0               0.00     0.00 6593.00    0.00 26372.00     0.00     8.00     0.00    0.00    0.00    0.00   0.00   0.00

avg-cpu:  %user   %nice %system %iowait  %steal   %idle
           0.00    0.00    0.34    0.28    0.00   99.37

Device:         rrqm/s   wrqm/s     r/s     w/s    rkB/s    wkB/s avgrq-sz avgqu-sz   await r_await w_await  svctm  %util
nvme0n1           0.00     0.00    0.00    0.00     0.00     0.00     0.00     0.00    0.00    0.00    0.00   0.00   0.00
sda               0.00     0.00    0.00    0.00     0.00     0.00     0.00     0.00    0.00    0.00    0.00   0.00   0.00
sdc               0.00     0.00 2182.00    0.00  8728.00     0.00     8.00     0.31    0.14    0.14    0.00   0.14  30.60
sdb               0.00     0.00 2259.00    0.00  9036.00     0.00     8.00     0.32    0.14    0.14    0.00   0.14  32.20
sdd               0.00     0.00 2192.00    0.00  8768.00     0.00     8.00     0.30    0.14    0.14    0.00   0.14  29.90
md0               0.00     0.00 6633.00    0.00 26532.00     0.00     8.00     0.00    0.00    0.00    0.00   0.00   0.00

avg-cpu:  %user   %nice %system %iowait  %steal   %idle
           0.00    0.00    0.31    0.31    0.00   99.37

Device:         rrqm/s   wrqm/s     r/s     w/s    rkB/s    wkB/s avgrq-sz avgqu-sz   await r_await w_await  svctm  %util
nvme0n1           0.00     0.00    0.00    0.00     0.00     0.00     0.00     0.00    0.00    0.00    0.00   0.00   0.00
sda               0.00     1.00    0.00    2.00     0.00    12.00    12.00     0.00    0.00    0.00    0.00   0.00   0.00
sdc               0.00     0.00 2196.00    0.00  8784.00     0.00     8.00     0.34    0.16    0.16    0.00   0.16  34.50
sdb               0.00     0.00 2045.00    0.00  8180.00     0.00     8.00     0.28    0.14    0.14    0.00   0.13  27.60
sdd               0.00     0.00 2198.00    0.00  8792.00     0.00     8.00     0.32    0.15    0.15    0.00   0.14  31.70
md0               0.00     0.00 6439.00    0.00 25756.00     0.00     8.00     0.00    0.00    0.00    0.00   0.00   0.00

avg-cpu:  %user   %nice %system %iowait  %steal   %idle
           0.03    0.00    0.31    0.28    0.00   99.37

Device:         rrqm/s   wrqm/s     r/s     w/s    rkB/s    wkB/s avgrq-sz avgqu-sz   await r_await w_await  svctm  %util
nvme0n1           0.00     0.00    0.00    0.00     0.00     0.00     0.00     0.00    0.00    0.00    0.00   0.00   0.00
sda               0.00     1.00    0.00    2.00     0.00    36.00    36.00     0.00    0.00    0.00    0.00   0.00   0.00
sdc               0.00     0.00 2156.00    0.00  8624.00     0.00     8.00     0.31    0.14    0.14    0.00   0.14  30.90
sdb               0.00     0.00 2172.00    0.00  8688.00     0.00     8.00     0.31    0.14    0.14    0.00   0.14  31.10
sdd               0.00     0.00 2260.00    0.00  9040.00     0.00     8.00     0.32    0.14    0.14    0.00   0.14  31.50
md0               0.00     0.00 6588.00    0.00 26352.00     0.00     8.00     0.00    0.00    0.00    0.00   0.00   0.00

avg-cpu:  %user   %nice %system %iowait  %steal   %idle
           0.00    0.00    0.28    0.31    0.00   99.40

Device:         rrqm/s   wrqm/s     r/s     w/s    rkB/s    wkB/s avgrq-sz avgqu-sz   await r_await w_await  svctm  %util
nvme0n1           0.00     0.00    0.00    0.00     0.00     0.00     0.00     0.00    0.00    0.00    0.00   0.00   0.00
sda               0.00     0.00    0.00    0.00     0.00     0.00     0.00     0.00    0.00    0.00    0.00   0.00   0.00
sdc               0.00     0.00 1933.00    0.00  7732.00     0.00     8.00     0.33    0.17    0.17    0.00   0.17  33.30
sdb               0.00     0.00 2073.00    0.00  8292.00     0.00     8.00     0.30    0.14    0.14    0.00   0.14  29.90
sdd               0.00     0.00 2112.00    0.00  8448.00     0.00     8.00     0.30    0.14    0.14    0.00   0.14  30.30
md0               0.00     0.00 6118.00    0.00 24472.00     0.00     8.00     0.00    0.00    0.00    0.00   0.00   0.00

avg-cpu:  %user   %nice %system %iowait  %steal   %idle
           0.03    0.00    0.28    0.28    0.00   99.40

Device:         rrqm/s   wrqm/s     r/s     w/s    rkB/s    wkB/s avgrq-sz avgqu-sz   await r_await w_await  svctm  %util
nvme0n1           0.00     0.00    0.00    0.00     0.00     0.00     0.00     0.00    0.00    0.00    0.00   0.00   0.00
sda               0.00     0.00    0.00    0.00     0.00     0.00     0.00     0.00    0.00    0.00    0.00   0.00   0.00
sdc               0.00     0.00 2288.00    0.00  9152.00     0.00     8.00     0.33    0.15    0.15    0.00   0.15  33.20
sdb               0.00     0.00 2185.00    0.00  8740.00     0.00     8.00     0.30    0.14    0.14    0.00   0.14  30.20
sdd               0.00     0.00 2226.00    0.00  8904.00     0.00     8.00     0.31    0.14    0.14    0.00   0.14  30.80
md0               0.00     0.00 6700.00    0.00 26800.00     0.00     8.00     0.00    0.00    0.00    0.00   0.00   0.00

avg-cpu:  %user   %nice %system %iowait  %steal   %idle
           0.00    0.00    0.25    0.31    0.00   99.44

Device:         rrqm/s   wrqm/s     r/s     w/s    rkB/s    wkB/s avgrq-sz avgqu-sz   await r_await w_await  svctm  %util
nvme0n1           0.00     0.00    0.00    0.00     0.00     0.00     0.00     0.00    0.00    0.00    0.00   0.00   0.00
sda               0.00     0.00    0.00    0.00     0.00     0.00     0.00     0.00    0.00    0.00    0.00   0.00   0.00
sdc               0.00     0.00 2048.00    0.00  8192.00     0.00     8.00     0.39    0.19    0.19    0.00   0.19  38.60
sdb               0.00     0.00 1957.00    0.00  7828.00     0.00     8.00     0.28    0.15    0.15    0.00   0.15  28.50
sdd               0.00     0.00 1964.00    0.00  7856.00     0.00     8.00     0.28    0.15    0.15    0.00   0.15  28.50
md0               0.00     0.00 5968.00    0.00 23872.00     0.00     8.00     0.00    0.00    0.00    0.00   0.00   0.00

avg-cpu:  %user   %nice %system %iowait  %steal   %idle
           0.00    0.00    0.34    0.28    0.00   99.37

Device:         rrqm/s   wrqm/s     r/s     w/s    rkB/s    wkB/s avgrq-sz avgqu-sz   await r_await w_await  svctm  %util
nvme0n1           0.00     0.00    0.00    0.00     0.00     0.00     0.00     0.00    0.00    0.00    0.00   0.00   0.00
sda               0.00     5.00    0.00    2.00     0.00    28.00    28.00     0.00    0.00    0.00    0.00   0.00   0.00
sdc               0.00     0.00 2187.00    0.00  8748.00     0.00     8.00     0.31    0.14    0.14    0.00   0.14  31.20
sdb               0.00     0.00 2226.00    0.00  8904.00     0.00     8.00     0.33    0.15    0.15    0.00   0.15  32.60
sdd               0.00     0.00 2225.00    0.00  8900.00     0.00     8.00     0.31    0.14    0.14    0.00   0.14  30.70
md0               0.00     0.00 6638.00    0.00 26552.00     0.00     8.00     0.00    0.00    0.00    0.00   0.00   0.00

avg-cpu:  %user   %nice %system %iowait  %steal   %idle
           0.03    0.00    0.31    0.34    0.00   99.31

Device:         rrqm/s   wrqm/s     r/s     w/s    rkB/s    wkB/s avgrq-sz avgqu-sz   await r_await w_await  svctm  %util
nvme0n1           0.00     0.00    0.00    0.00     0.00     0.00     0.00     0.00    0.00    0.00    0.00   0.00   0.00
sda               0.00     2.00    0.00    1.00     0.00    28.00    56.00     0.00    0.00    0.00    0.00   0.00   0.00
sdc               0.00     0.00 2148.00    0.00  8592.00     0.00     8.00     0.34    0.16    0.16    0.00   0.16  34.10
sdb               0.00     0.00 2084.00    0.00  8336.00     0.00     8.00     0.31    0.15    0.15    0.00   0.15  30.60
sdd               0.00     0.00 2040.00    0.00  8160.00     0.00     8.00     0.30    0.15    0.15    0.00   0.15  30.20
md0               0.00     0.00 6272.00    0.00 25088.00     0.00     8.00     0.00    0.00    0.00    0.00   0.00   0.00

avg-cpu:  %user   %nice %system %iowait  %steal   %idle
           0.00    0.00    0.25    0.25    0.00   99.50

Device:         rrqm/s   wrqm/s     r/s     w/s    rkB/s    wkB/s avgrq-sz avgqu-sz   await r_await w_await  svctm  %util
nvme0n1           0.00     0.00    0.00    0.00     0.00     0.00     0.00     0.00    0.00    0.00    0.00   0.00   0.00
sda               0.00     0.00    0.00    0.00     0.00     0.00     0.00     0.00    0.00    0.00    0.00   0.00   0.00
sdc               0.00     0.00 2239.00    0.00  8956.00     0.00     8.00     0.32    0.14    0.14    0.00   0.14  32.10
sdb               0.00     0.00 2194.00    0.00  8776.00     0.00     8.00     0.31    0.14    0.14    0.00   0.14  30.80
sdd               0.00     0.00 2172.00    0.00  8688.00     0.00     8.00     0.32    0.15    0.15    0.00   0.15  32.10
md0               0.00     0.00 6606.00    0.00 26424.00     0.00     8.00     0.00    0.00    0.00    0.00   0.00   0.00

avg-cpu:  %user   %nice %system %iowait  %steal   %idle
           0.03    0.00    0.28    0.34    0.00   99.34

Device:         rrqm/s   wrqm/s     r/s     w/s    rkB/s    wkB/s avgrq-sz avgqu-sz   await r_await w_await  svctm  %util
nvme0n1           0.00     0.00    0.00    0.00     0.00     0.00     0.00     0.00    0.00    0.00    0.00   0.00   0.00
sda               0.00     0.00    0.00    0.00     0.00     0.00     0.00     0.00    0.00    0.00    0.00   0.00   0.00
sdc               0.00     0.00 1930.00    0.00  7720.00     0.00     8.00     0.38    0.20    0.20    0.00   0.20  38.00
sdb               0.00     0.00 2046.00    0.00  8184.00     0.00     8.00     0.28    0.14    0.14    0.00   0.14  28.20
sdd               0.00     0.00 1940.00    0.00  7760.00     0.00     8.00     0.27    0.14    0.14    0.00   0.14  27.10
md0               0.00     0.00 5915.00    0.00 23660.00     0.00     8.00     0.00    0.00    0.00    0.00   0.00   0.00

avg-cpu:  %user   %nice %system %iowait  %steal   %idle
           0.00    0.00    0.28    0.28    0.00   99.44

Device:         rrqm/s   wrqm/s     r/s     w/s    rkB/s    wkB/s avgrq-sz avgqu-sz   await r_await w_await  svctm  %util
nvme0n1           0.00     0.00    0.00    0.00     0.00     0.00     0.00     0.00    0.00    0.00    0.00   0.00   0.00
sda               0.00     0.00    0.00    0.00     0.00     0.00     0.00     0.00    0.00    0.00    0.00   0.00   0.00
sdc               0.00     0.00 2152.00    0.00  8608.00     0.00     8.00     0.31    0.14    0.14    0.00   0.14  30.90
sdb               0.00     0.00 2326.00    0.00  9304.00     0.00     8.00     0.33    0.14    0.14    0.00   0.14  33.10
sdd               0.00     0.00 2223.00    0.00  8892.00     0.00     8.00     0.30    0.14    0.14    0.00   0.13  30.00
md0               0.00     0.00 6702.00    0.00 26808.00     0.00     8.00     0.00    0.00    0.00    0.00   0.00   0.00

avg-cpu:  %user   %nice %system %iowait  %steal   %idle
           0.00    0.00    0.38    0.28    0.00   99.34

Device:         rrqm/s   wrqm/s     r/s     w/s    rkB/s    wkB/s avgrq-sz avgqu-sz   await r_await w_await  svctm  %util
nvme0n1           0.00     0.00    0.00    0.00     0.00     0.00     0.00     0.00    0.00    0.00    0.00   0.00   0.00
sda               0.00     4.00    0.00    2.00     0.00    24.00    24.00     0.00    0.50    0.00    0.50   0.50   0.10
sdc               0.00     0.00 2193.00    0.00  8772.00     0.00     8.00     0.31    0.14    0.14    0.00   0.14  31.10
sdb               0.00     0.00 2216.00    0.00  8864.00     0.00     8.00     0.33    0.15    0.15    0.00   0.15  32.70
sdd               0.00     0.00 2063.00    0.00  8252.00     0.00     8.00     0.31    0.15    0.15    0.00   0.15  30.90
md0               0.00     0.00 6471.00    0.00 25884.00     0.00     8.00     0.00    0.00    0.00    0.00   0.00   0.00

avg-cpu:  %user   %nice %system %iowait  %steal   %idle
           0.03    0.00    0.31    0.28    0.00   99.37

Device:         rrqm/s   wrqm/s     r/s     w/s    rkB/s    wkB/s avgrq-sz avgqu-sz   await r_await w_await  svctm  %util
nvme0n1           0.00     0.00    0.00    0.00     0.00     0.00     0.00     0.00    0.00    0.00    0.00   0.00   0.00
sda               0.00     0.00    0.00    0.00     0.00     0.00     0.00     0.00    0.00    0.00    0.00   0.00   0.00
sdc               0.00     0.00 2357.00    0.00  9428.00     0.00     8.00     0.33    0.14    0.14    0.00   0.14  33.40
sdb               0.00     0.00 2131.00    0.00  8524.00     0.00     8.00     0.28    0.13    0.13    0.00   0.13  28.20
sdd               0.00     0.00 2260.00    0.00  9044.00     0.00     8.00     0.32    0.14    0.14    0.00   0.14  32.10
md0               0.00     0.00 6749.00    0.00 26996.00     0.00     8.00     0.00    0.00    0.00    0.00   0.00   0.00

avg-cpu:  %user   %nice %system %iowait  %steal   %idle
           0.00    0.00    0.31    0.28    0.00   99.40

Device:         rrqm/s   wrqm/s     r/s     w/s    rkB/s    wkB/s avgrq-sz avgqu-sz   await r_await w_await  svctm  %util
nvme0n1           0.00     0.00    0.00    0.00     0.00     0.00     0.00     0.00    0.00    0.00    0.00   0.00   0.00
sda               0.00     0.00    0.00    0.00     0.00     0.00     0.00     0.00    0.00    0.00    0.00   0.00   0.00
sdc               0.00     0.00 2260.00    0.00  9040.00     0.00     8.00     0.32    0.14    0.14    0.00   0.14  31.80
sdb               0.00     0.00 2122.00    0.00  8488.00     0.00     8.00     0.31    0.15    0.15    0.00   0.14  30.70
sdd               0.00     0.00 2197.00    0.00  8784.00     0.00     8.00     0.32    0.15    0.15    0.00   0.15  31.90
md0               0.00     0.00 6579.00    0.00 26316.00     0.00     8.00     0.00    0.00    0.00    0.00   0.00   0.00

avg-cpu:  %user   %nice %system %iowait  %steal   %idle
           0.00    0.00    0.31    0.28    0.00   99.40

Device:         rrqm/s   wrqm/s     r/s     w/s    rkB/s    wkB/s avgrq-sz avgqu-sz   await r_await w_await  svctm  %util
nvme0n1           0.00     0.00    0.00    0.00     0.00     0.00     0.00     0.00    0.00    0.00    0.00   0.00   0.00
sda               0.00     0.00    0.00    0.00     0.00     0.00     0.00     0.00    0.00    0.00    0.00   0.00   0.00
sdc               0.00     0.00 2160.00    0.00  8640.00     0.00     8.00     0.30    0.14    0.14    0.00   0.14  30.10
sdb               0.00     0.00 2262.00    0.00  9048.00     0.00     8.00     0.33    0.14    0.14    0.00   0.14  32.50
sdd               0.00     0.00 2151.00    0.00  8604.00     0.00     8.00     0.31    0.15    0.15    0.00   0.15  31.20
md0               0.00     0.00 6573.00    0.00 26292.00     0.00     8.00     0.00    0.00    0.00    0.00   0.00   0.00

