Linux 4.17.2 (bench2) 	08/03/2018 	_x86_64_	(32 CPU)

avg-cpu:  %user   %nice %system %iowait  %steal   %idle
           1.91    0.00    1.56    1.57    0.00   94.97

Device:         rrqm/s   wrqm/s     r/s     w/s    rkB/s    wkB/s avgrq-sz avgqu-sz   await r_await w_await  svctm  %util
nvme0n1         940.67     5.11 18963.62  522.13 106074.56 11775.52    12.10     1.35    0.05    0.03    0.67   0.02  39.70
sda               0.12     0.81   14.15    0.58   163.97     8.52    23.42     0.00    0.33    0.32    0.44   0.07   0.10
sdc              33.87     0.18  116.68    0.31  1750.73    97.75    31.60     0.04    0.34   12.51  380.35   0.92  10.71
sdb              31.82     0.19  118.68    0.33  1748.81    97.57    31.03     0.47    3.99    2.84  411.64   0.85  10.18
sdd              34.06     0.17  116.22    0.26  1746.73    97.24    31.66     0.79    6.78    4.75  907.87   0.92  10.71
md0               0.00     0.00  454.18    1.21  6491.16   352.78    30.06     0.00    0.00    0.00    0.00   0.00   0.00

avg-cpu:  %user   %nice %system %iowait  %steal   %idle
           0.41    0.00    1.28    1.44    0.00   96.87

Device:         rrqm/s   wrqm/s     r/s     w/s    rkB/s    wkB/s avgrq-sz avgqu-sz   await r_await w_await  svctm  %util
nvme0n1           0.00     0.00    0.00    0.00     0.00     0.00     0.00     0.00    0.00    0.00    0.00   0.00   0.00
sda               0.00     0.00    4.00    0.00   104.00     0.00    52.00     0.00    0.25    0.25    0.00   0.25   0.10
sdc              67.00     0.00   85.00    0.00 31588.00     0.00   743.25     0.84    9.78    9.78    0.00   5.18  44.00
sdb              60.00     0.00   86.00    0.00 31904.00     0.00   741.95     0.70    8.15    8.15    0.00   4.41  37.90
sdd              60.00     0.00   89.00    0.00 32620.00     0.00   733.03     0.99   11.06   11.06    0.00   5.06  45.00
md0               0.00     0.00  451.00    0.00 137352.00     0.00   609.10     0.00    0.00    0.00    0.00   0.00   0.00

avg-cpu:  %user   %nice %system %iowait  %steal   %idle
           0.16    0.00    0.66    2.22    0.00   96.96

Device:         rrqm/s   wrqm/s     r/s     w/s    rkB/s    wkB/s avgrq-sz avgqu-sz   await r_await w_await  svctm  %util
nvme0n1           0.00     0.00    0.00    0.00     0.00     0.00     0.00     0.00    0.00    0.00    0.00   0.00   0.00
sda               0.00     0.00    0.00    0.00     0.00     0.00     0.00     0.00    0.00    0.00    0.00   0.00   0.00
sdc             112.00     0.00  149.00    0.00 65896.00     0.00   884.51     1.47    9.64    9.64    0.00   4.46  66.40
sdb             115.00     0.00  167.00    0.00 65592.00     0.00   785.53     1.38    8.26    8.26    0.00   4.25  71.00
sdd             116.00     0.00  158.00    0.00 65232.00     0.00   825.72     1.19    7.52    7.52    0.00   4.11  65.00
md0               0.00     0.00  820.00    0.00 303532.00     0.00   740.32     0.00    0.00    0.00    0.00   0.00   0.00

avg-cpu:  %user   %nice %system %iowait  %steal   %idle
           0.19    0.00    0.72    2.22    0.00   96.87

Device:         rrqm/s   wrqm/s     r/s     w/s    rkB/s    wkB/s avgrq-sz avgqu-sz   await r_await w_await  svctm  %util
nvme0n1           0.00     0.00    0.00    0.00     0.00     0.00     0.00     0.00    0.00    0.00    0.00   0.00   0.00
sda               0.00     0.00    0.00    0.00     0.00     0.00     0.00     0.00    0.00    0.00    0.00   0.00   0.00
sdc             115.00     0.00  153.00    0.00 61252.00     0.00   800.68     1.45    9.61    9.61    0.00   4.84  74.00
sdb             112.00     0.00  153.00    0.00 60676.00     0.00   793.15     1.58   10.20   10.20    0.00   4.78  73.20
sdd             119.00     0.00  138.00    0.00 61284.00     0.00   888.17     1.10    7.97    7.97    0.00   4.25  58.70
md0               0.00     0.00  792.00    0.00 301192.00     0.00   760.59     0.00    0.00    0.00    0.00   0.00   0.00

avg-cpu:  %user   %nice %system %iowait  %steal   %idle
           0.16    0.00    0.69    2.22    0.00   96.93

Device:         rrqm/s   wrqm/s     r/s     w/s    rkB/s    wkB/s avgrq-sz avgqu-sz   await r_await w_await  svctm  %util
nvme0n1           0.00     0.00    0.00    0.00     0.00     0.00     0.00     0.00    0.00    0.00    0.00   0.00   0.00
sda               0.00     0.00    0.00    0.00     0.00     0.00     0.00     0.00    0.00    0.00    0.00   0.00   0.00
sdc             119.00     0.00  136.00    0.00 60128.00     0.00   884.24     1.40   10.24   10.24    0.00   4.90  66.60
sdb             112.00     0.00  142.00    0.00 61588.00     0.00   867.44     1.36    9.77    9.77    0.00   4.70  66.70
sdd             115.00     0.00  139.00    0.00 59940.00     0.00   862.45     1.62   11.60   11.60    0.00   5.16  71.70
md0               0.00     0.00  759.00    0.00 274232.00     0.00   722.61     0.00    0.00    0.00    0.00   0.00   0.00

avg-cpu:  %user   %nice %system %iowait  %steal   %idle
           0.16    0.00    0.75    2.19    0.00   96.90

Device:         rrqm/s   wrqm/s     r/s     w/s    rkB/s    wkB/s avgrq-sz avgqu-sz   await r_await w_await  svctm  %util
nvme0n1           0.00     0.00    0.00    0.00     0.00     0.00     0.00     0.00    0.00    0.00    0.00   0.00   0.00
sda               0.00     9.00    0.00    2.00     0.00    44.00    44.00     0.00    0.50    0.00    0.50   0.50   0.10
sdc             119.00     0.00  173.00    0.00 65952.00     0.00   762.45     1.41    8.24    8.24    0.00   3.88  67.20
sdb             122.00     0.00  167.00    0.00 63512.00     0.00   760.62     0.93    5.42    5.42    0.00   3.12  52.10
sdd             113.00     0.00  174.00    0.00 64480.00     0.00   741.15     1.35    7.76    7.76    0.00   3.61  62.90
md0               0.00     0.00  868.00    0.00 293212.00     0.00   675.60     0.00    0.00    0.00    0.00   0.00   0.00

avg-cpu:  %user   %nice %system %iowait  %steal   %idle
           0.13    0.00    0.69    2.29    0.00   96.90

Device:         rrqm/s   wrqm/s     r/s     w/s    rkB/s    wkB/s avgrq-sz avgqu-sz   await r_await w_await  svctm  %util
nvme0n1           0.00     0.00    0.00    0.00     0.00     0.00     0.00     0.00    0.00    0.00    0.00   0.00   0.00
sda               0.00     0.00   57.00    0.00   440.00     0.00    15.44     0.00    0.07    0.07    0.00   0.07   0.40
sdc             110.00     0.00  131.00    0.00 55072.00     0.00   840.79     1.70   12.98   12.98    0.00   5.71  74.80
sdb             101.00     0.00  147.00    0.00 55868.00     0.00   760.11     1.04    7.25    7.25    0.00   3.56  52.40
sdd             104.00     0.00  144.00    0.00 56032.00     0.00   778.22     0.99    6.88    6.88    0.00   3.47  50.00
md0               0.00     0.00  740.00    0.00 230816.00     0.00   623.83     0.00    0.00    0.00    0.00   0.00   0.00

avg-cpu:  %user   %nice %system %iowait  %steal   %idle
           0.16    0.00    0.69    2.25    0.00   96.90

Device:         rrqm/s   wrqm/s     r/s     w/s    rkB/s    wkB/s avgrq-sz avgqu-sz   await r_await w_await  svctm  %util
nvme0n1           0.00     0.00    0.00    0.00     0.00     0.00     0.00     0.00    0.00    0.00    0.00   0.00   0.00
sda               0.00     1.00    0.00    1.00     0.00     8.00    16.00     0.00    0.00    0.00    0.00   0.00   0.00
sdc             130.00     0.00  166.00    0.00 66580.00     0.00   802.17     1.44    8.58    8.58    0.00   4.40  73.10
sdb             118.00     0.00  174.00    0.00 67068.00     0.00   770.90     1.15    6.62    6.62    0.00   3.47  60.30
sdd             121.00     0.00  165.00    0.00 67748.00     0.00   821.19     1.29    7.93    7.93    0.00   3.62  59.80
md0               0.00     0.00  868.00    0.00 294772.00     0.00   679.20     0.00    0.00    0.00    0.00   0.00   0.00

avg-cpu:  %user   %nice %system %iowait  %steal   %idle
           0.13    0.00    0.66    2.29    0.00   96.93

Device:         rrqm/s   wrqm/s     r/s     w/s    rkB/s    wkB/s avgrq-sz avgqu-sz   await r_await w_await  svctm  %util
nvme0n1           0.00     0.00    0.00    0.00     0.00     0.00     0.00     0.00    0.00    0.00    0.00   0.00   0.00
sda               0.00     0.00    0.00    0.00     0.00     0.00     0.00     0.00    0.00    0.00    0.00   0.00   0.00
sdc              98.00     0.00  166.00    0.00 58176.00     0.00   700.92     1.04    6.28    6.28    0.00   3.70  61.40
sdb             104.00     0.00  154.00    0.00 58488.00     0.00   759.58     1.38    8.97    8.97    0.00   4.44  68.30
sdd             104.00     0.00  163.00    0.00 57668.00     0.00   707.58     1.07    6.54    6.54    0.00   3.53  57.50
md0               0.00     0.00  789.00    0.00 258060.00     0.00   654.14     0.00    0.00    0.00    0.00   0.00   0.00

avg-cpu:  %user   %nice %system %iowait  %steal   %idle
           0.16    0.00    0.66    2.25    0.00   96.93

Device:         rrqm/s   wrqm/s     r/s     w/s    rkB/s    wkB/s avgrq-sz avgqu-sz   await r_await w_await  svctm  %util
nvme0n1           0.00     0.00    0.00    0.00     0.00     0.00     0.00     0.00    0.00    0.00    0.00   0.00   0.00
sda               0.00     0.00    0.00    0.00     0.00     0.00     0.00     0.00    0.00    0.00    0.00   0.00   0.00
sdc             111.00     0.00  147.00    0.00 59344.00     0.00   807.40     1.86   12.60   12.60    0.00   5.90  86.80
sdb             107.00     0.00  163.00    0.00 59972.00     0.00   735.85     1.08    6.63    6.63    0.00   3.44  56.00
sdd             115.00     0.00  138.00    0.00 60212.00     0.00   872.64     1.20    8.72    8.72    0.00   4.67  64.40
md0               0.00     0.00  781.00    0.00 283048.00     0.00   724.83     0.00    0.00    0.00    0.00   0.00   0.00

avg-cpu:  %user   %nice %system %iowait  %steal   %idle
           0.13    0.00    0.72    2.19    0.00   96.96

Device:         rrqm/s   wrqm/s     r/s     w/s    rkB/s    wkB/s avgrq-sz avgqu-sz   await r_await w_await  svctm  %util
nvme0n1           0.00     0.00    0.00    0.00     0.00     0.00     0.00     0.00    0.00    0.00    0.00   0.00   0.00
sda               0.00     6.00    0.00    2.00     0.00    32.00    32.00     0.00    0.50    0.00    0.50   0.50   0.10
sdc             109.00     0.00  164.00    0.00 62372.00     0.00   760.63     1.65   10.21   10.21    0.00   4.69  76.90
sdb             117.00     0.00  151.00    0.00 62260.00     0.00   824.64     1.21    8.01    8.01    0.00   4.09  61.70
sdd             110.00     0.00  164.00    0.00 62100.00     0.00   757.32     1.49    9.07    9.07    0.00   4.26  69.80
md0               0.00     0.00  821.00    0.00 287444.00     0.00   700.23     0.00    0.00    0.00    0.00   0.00   0.00

avg-cpu:  %user   %nice %system %iowait  %steal   %idle
           0.13    0.00    0.88    2.13    0.00   96.87

Device:         rrqm/s   wrqm/s     r/s     w/s    rkB/s    wkB/s avgrq-sz avgqu-sz   await r_await w_await  svctm  %util
nvme0n1           0.00     0.00    0.00    0.00     0.00     0.00     0.00     0.00    0.00    0.00    0.00   0.00   0.00
sda               0.00     0.00    0.00    0.00     0.00     0.00     0.00     0.00    0.00    0.00    0.00   0.00   0.00
sdc             135.00     0.00  160.00    0.00 68716.00     0.00   858.95     1.39    8.56    8.56    0.00   4.53  72.50
sdb             123.00     0.00  182.00    0.00 67616.00     0.00   743.03     1.40    7.41    7.41    0.00   3.89  70.80
sdd             125.00     0.00  169.00    0.00 69068.00     0.00   817.37     1.65    9.66    9.66    0.00   4.36  73.70
md0               0.00     0.00  892.00    0.00 285564.00     0.00   640.28     0.00    0.00    0.00    0.00   0.00   0.00

avg-cpu:  %user   %nice %system %iowait  %steal   %idle
           0.16    0.00    0.75    2.16    0.00   96.93

Device:         rrqm/s   wrqm/s     r/s     w/s    rkB/s    wkB/s avgrq-sz avgqu-sz   await r_await w_await  svctm  %util
nvme0n1           0.00     0.00    0.00    0.00     0.00     0.00     0.00     0.00    0.00    0.00    0.00   0.00   0.00
sda               0.00     0.00    0.00    0.00     0.00     0.00     0.00     0.00    0.00    0.00    0.00   0.00   0.00
sdc             114.00     0.00  155.00    0.00 63780.00     0.00   822.97     1.48    9.68    9.68    0.00   4.67  72.40
sdb             116.00     0.00  157.00    0.00 64364.00     0.00   819.92     1.24    8.25    8.25    0.00   4.04  63.50
sdd             119.00     0.00  141.00    0.00 62804.00     0.00   890.84     1.40    9.96    9.96    0.00   4.71  66.40
md0               0.00     0.00  798.00    0.00 291496.00     0.00   730.57     0.00    0.00    0.00    0.00   0.00   0.00

avg-cpu:  %user   %nice %system %iowait  %steal   %idle
           0.16    0.00    0.78    2.13    0.00   96.93

Device:         rrqm/s   wrqm/s     r/s     w/s    rkB/s    wkB/s avgrq-sz avgqu-sz   await r_await w_await  svctm  %util
nvme0n1           0.00     0.00    0.00    0.00     0.00     0.00     0.00     0.00    0.00    0.00    0.00   0.00   0.00
sda               0.00     2.00    0.00    1.00     0.00    28.00    56.00     0.00    0.00    0.00    0.00   0.00   0.00
sdc             125.00     0.00  166.00    0.00 67548.00     0.00   813.83     1.20    7.23    7.23    0.00   3.67  60.90
sdb             123.00     0.00  168.00    0.00 67016.00     0.00   797.81     1.49    8.88    8.88    0.00   4.45  74.80
sdd             125.00     0.00  152.00    0.00 66192.00     0.00   870.95     1.26    8.07    8.07    0.00   4.01  60.90
md0               0.00     0.00  861.00    0.00 310244.00     0.00   720.66     0.00    0.00    0.00    0.00   0.00   0.00

avg-cpu:  %user   %nice %system %iowait  %steal   %idle
           0.16    0.00    0.78    2.19    0.00   96.87

Device:         rrqm/s   wrqm/s     r/s     w/s    rkB/s    wkB/s avgrq-sz avgqu-sz   await r_await w_await  svctm  %util
nvme0n1           0.00     0.00    0.00    0.00     0.00     0.00     0.00     0.00    0.00    0.00    0.00   0.00   0.00
sda               0.00     0.00    0.00    0.00     0.00     0.00     0.00     0.00    0.00    0.00    0.00   0.00   0.00
sdc             125.00     0.00  159.00    0.00 66576.00     0.00   837.43     1.50    9.42    9.42    0.00   4.22  67.10
sdb             125.00     0.00  163.00    0.00 66804.00     0.00   819.68     1.13    6.92    6.92    0.00   3.48  56.80
sdd             131.00     0.00  150.00    0.00 67064.00     0.00   894.19     1.39    9.39    9.39    0.00   4.72  70.80
md0               0.00     0.00  852.00    0.00 298692.00     0.00   701.15     0.00    0.00    0.00    0.00   0.00   0.00

avg-cpu:  %user   %nice %system %iowait  %steal   %idle
           0.13    0.00    0.78    2.16    0.00   96.93

Device:         rrqm/s   wrqm/s     r/s     w/s    rkB/s    wkB/s avgrq-sz avgqu-sz   await r_await w_await  svctm  %util
nvme0n1           0.00     0.00    0.00    0.00     0.00     0.00     0.00     0.00    0.00    0.00    0.00   0.00   0.00
sda               0.00     4.00    0.00    2.00     0.00    24.00    24.00     0.00    0.00    0.00    0.00   0.00   0.00
sdc             125.00     0.00  176.00    0.00 66848.00     0.00   759.64     1.36    7.64    7.64    0.00   3.84  67.60
sdb             136.00     0.00  140.00    0.00 66032.00     0.00   943.31     1.34    9.16    9.16    0.00   4.82  67.50
sdd             128.00     0.00  177.00    0.00 67788.00     0.00   765.97     1.20    6.74    6.74    0.00   3.28  58.00
md0               0.00     0.00  886.00    0.00 287252.00     0.00   648.42     0.00    0.00    0.00    0.00   0.00   0.00

avg-cpu:  %user   %nice %system %iowait  %steal   %idle
           0.13    0.00    0.72    2.16    0.00   96.99

Device:         rrqm/s   wrqm/s     r/s     w/s    rkB/s    wkB/s avgrq-sz avgqu-sz   await r_await w_await  svctm  %util
nvme0n1           0.00     0.00    0.00    0.00     0.00     0.00     0.00     0.00    0.00    0.00    0.00   0.00   0.00
sda               0.00     0.00    0.00    0.00     0.00     0.00     0.00     0.00    0.00    0.00    0.00   0.00   0.00
sdc             121.00     0.00  160.00    0.00 64668.00     0.00   808.35     1.16    7.26    7.26    0.00   3.98  63.70
sdb             117.00     0.00  173.00    0.00 64840.00     0.00   749.60     1.68    9.83    9.83    0.00   4.84  83.70
sdd             115.00     0.00  177.00    0.00 65188.00     0.00   736.59     1.59    9.10    9.10    0.00   4.03  71.40
md0               0.00     0.00  866.00    0.00 289456.00     0.00   668.49     0.00    0.00    0.00    0.00   0.00   0.00

avg-cpu:  %user   %nice %system %iowait  %steal   %idle
           0.13    0.00    0.72    2.25    0.00   96.90

Device:         rrqm/s   wrqm/s     r/s     w/s    rkB/s    wkB/s avgrq-sz avgqu-sz   await r_await w_await  svctm  %util
nvme0n1           0.00     0.00    0.00    0.00     0.00     0.00     0.00     0.00    0.00    0.00    0.00   0.00   0.00
sda               0.00     0.00    0.00    0.00     0.00     0.00     0.00     0.00    0.00    0.00    0.00   0.00   0.00
sdc             110.00     0.00  158.00    0.00 61652.00     0.00   780.41     1.08    6.95    6.95    0.00   3.71  58.60
sdb             112.00     0.00  153.00    0.00 61416.00     0.00   802.82     1.61   10.69   10.69    0.00   4.97  76.10
sdd             111.00     0.00  143.00    0.00 60656.00     0.00   848.34     1.62   11.41   11.41    0.00   5.20  74.40
md0               0.00     0.00  782.00    0.00 290296.00     0.00   742.45     0.00    0.00    0.00    0.00   0.00   0.00

avg-cpu:  %user   %nice %system %iowait  %steal   %idle
           0.13    0.00    0.63    2.35    0.00   96.90

Device:         rrqm/s   wrqm/s     r/s     w/s    rkB/s    wkB/s avgrq-sz avgqu-sz   await r_await w_await  svctm  %util
nvme0n1           0.00     0.00    0.00    0.00     0.00     0.00     0.00     0.00    0.00    0.00    0.00   0.00   0.00
sda               0.00     0.00    0.00    0.00     0.00     0.00     0.00     0.00    0.00    0.00    0.00   0.00   0.00
sdc             111.00     0.00  153.00    0.00 60552.00     0.00   791.53     1.33    8.71    8.71    0.00   4.38  67.00
sdb             113.00     0.00  151.00    0.00 60660.00     0.00   803.44     1.33    8.83    8.83    0.00   4.52  68.20
sdd             117.00     0.00  150.00    0.00 60920.00     0.00   812.27     1.68   11.19   11.19    0.00   5.65  84.70
md0               0.00     0.00  792.00    0.00 271036.00     0.00   684.43     0.00    0.00    0.00    0.00   0.00   0.00

avg-cpu:  %user   %nice %system %iowait  %steal   %idle
           0.16    0.00    0.81    2.16    0.00   96.87

Device:         rrqm/s   wrqm/s     r/s     w/s    rkB/s    wkB/s avgrq-sz avgqu-sz   await r_await w_await  svctm  %util
nvme0n1           0.00     0.00    0.00    0.00     0.00     0.00     0.00     0.00    0.00    0.00    0.00   0.00   0.00
sda               0.00     0.00    0.00    0.00     0.00     0.00     0.00     0.00    0.00    0.00    0.00   0.00   0.00
sdc             130.00     0.00  141.00    0.00 67824.00     0.00   962.04     1.78   12.47   12.47    0.00   5.92  83.50
sdb             129.00     0.00  159.00    0.00 67488.00     0.00   848.91     1.72   10.66   10.66    0.00   4.89  77.70
sdd             128.00     0.00  165.00    0.00 68404.00     0.00   829.14     1.61    9.74    9.74    0.00   4.59  75.80
md0               0.00     0.00  856.00    0.00 311192.00     0.00   727.08     0.00    0.00    0.00    0.00   0.00   0.00

avg-cpu:  %user   %nice %system %iowait  %steal   %idle
           0.13    0.00    0.75    2.16    0.00   96.96

Device:         rrqm/s   wrqm/s     r/s     w/s    rkB/s    wkB/s avgrq-sz avgqu-sz   await r_await w_await  svctm  %util
nvme0n1           0.00     0.00    0.00    0.00     0.00     0.00     0.00     0.00    0.00    0.00    0.00   0.00   0.00
sda               0.00     1.00    0.00    2.00     0.00    12.00    12.00     0.00    0.00    0.00    0.00   0.00   0.00
sdc             123.00     0.00  175.00    0.00 66880.00     0.00   764.34     1.50    8.16    8.16    0.00   4.43  77.50
sdb             122.00     0.00  174.00    0.00 67804.00     0.00   779.36     1.64    9.56    9.56    0.00   4.18  72.70
sdd             125.00     0.00  172.00    0.00 67120.00     0.00   780.47     0.71    4.15    4.15    0.00   2.63  45.30
md0               0.00     0.00  889.00    0.00 305724.00     0.00   687.79     0.00    0.00    0.00    0.00   0.00   0.00

