Linux 4.17.2 (bench2) 	08/03/2018 	_x86_64_	(32 CPU)

avg-cpu:  %user   %nice %system %iowait  %steal   %idle
           1.90    0.00    1.55    1.59    0.00   94.96

Device:         rrqm/s   wrqm/s     r/s     w/s    rkB/s    wkB/s avgrq-sz avgqu-sz   await r_await w_await  svctm  %util
nvme0n1         934.69     5.08 18842.87  518.80 105399.18 11700.55    12.10     1.34    0.05    0.03    0.67   0.02  39.45
sda               0.12     0.82   14.17    0.58   164.01     8.53    23.40     0.00    0.33    0.32    0.44   0.07   0.10
sdc              34.25     0.17  120.68    0.31  1816.35    97.13    31.63     0.08    0.64   12.33  380.35   0.91  10.97
sdb              32.22     0.19  122.67    0.33  1814.39    96.95    31.08     0.51    4.14    3.04  411.64   0.85  10.43
sdd              34.45     0.17  120.22    0.26  1812.37    96.63    31.69     0.82    6.83    4.88  907.87   0.91  10.97
md0               0.00     0.00  467.33    1.21  6748.32   350.53    30.30     0.00    0.00    0.00    0.00   0.00   0.00

avg-cpu:  %user   %nice %system %iowait  %steal   %idle
           0.03    0.00    0.12   11.99    0.00   87.86

Device:         rrqm/s   wrqm/s     r/s     w/s    rkB/s    wkB/s avgrq-sz avgqu-sz   await r_await w_await  svctm  %util
nvme0n1           0.00     0.00    0.00    0.00     0.00     0.00     0.00     0.00    0.00    0.00    0.00   0.00   0.00
sda               0.00     0.00    1.00    0.00     4.00     0.00     8.00     0.00    0.00    0.00    0.00   0.00   0.00
sdc               0.00     0.00   74.00    0.00   296.00     0.00     8.00     4.95   66.88   66.88    0.00  12.93  95.70
sdb               0.00     0.00   58.00    0.00   232.00     0.00     8.00     3.51   44.02   44.02    0.00  12.71  73.70
sdd               0.00     0.00   71.00    0.00   284.00     0.00     8.00     5.18   70.99   70.99    0.00  13.52  96.00
md0               0.00     0.00  217.00    0.00   868.00     0.00     8.00     0.00    0.00    0.00    0.00   0.00   0.00

avg-cpu:  %user   %nice %system %iowait  %steal   %idle
           0.00    0.00    0.03    4.13    0.00   95.84

Device:         rrqm/s   wrqm/s     r/s     w/s    rkB/s    wkB/s avgrq-sz avgqu-sz   await r_await w_await  svctm  %util
nvme0n1           0.00     0.00    0.00    0.00     0.00     0.00     0.00     0.00    0.00    0.00    0.00   0.00   0.00
sda               0.00     1.00    0.00    4.00     0.00    20.00    10.00     0.00    0.00    0.00    0.00   0.00   0.00
sdc               0.00     0.00   95.00    0.00   380.00     0.00     8.00     4.57   45.78   45.78    0.00   8.63  82.00
sdb               0.00     0.00  101.00    0.00   404.00     0.00     8.00     5.63   65.22   65.22    0.00   9.22  93.10
sdd               0.00     0.00   90.00    0.00   360.00     0.00     8.00     2.64   29.97   29.97    0.00   9.21  82.90
md0               0.00     0.00  281.00    0.00  1124.00     0.00     8.00     0.00    0.00    0.00    0.00   0.00   0.00

avg-cpu:  %user   %nice %system %iowait  %steal   %idle
           0.00    0.00    0.06    6.97    0.00   92.97

Device:         rrqm/s   wrqm/s     r/s     w/s    rkB/s    wkB/s avgrq-sz avgqu-sz   await r_await w_await  svctm  %util
nvme0n1           0.00     0.00    0.00    0.00     0.00     0.00     0.00     0.00    0.00    0.00    0.00   0.00   0.00
sda               0.00     0.00    0.00    0.00     0.00     0.00     0.00     0.00    0.00    0.00    0.00   0.00   0.00
sdc               0.00     0.00   96.00    0.00   384.00     0.00     8.00     3.35   35.29   35.29    0.00   9.31  89.40
sdb               0.00     0.00  103.00    0.00   412.00     0.00     8.00     5.19   49.40   49.40    0.00   8.92  91.90
sdd               0.00     0.00  111.00    0.00   444.00     0.00     8.00     4.22   36.38   36.38    0.00   8.63  95.80
md0               0.00     0.00  317.00    0.00  1268.00     0.00     8.00     0.00    0.00    0.00    0.00   0.00   0.00

avg-cpu:  %user   %nice %system %iowait  %steal   %idle
           0.00    0.00    0.00    5.13    0.00   94.87

Device:         rrqm/s   wrqm/s     r/s     w/s    rkB/s    wkB/s avgrq-sz avgqu-sz   await r_await w_await  svctm  %util
nvme0n1           0.00     0.00    0.00    0.00     0.00     0.00     0.00     0.00    0.00    0.00    0.00   0.00   0.00
sda               0.00     0.00    0.00    0.00     0.00     0.00     0.00     0.00    0.00    0.00    0.00   0.00   0.00
sdc               0.00     0.00   94.00    0.00   376.00     0.00     8.00     3.25   34.76   34.76    0.00   8.93  83.90
sdb               0.00     0.00  112.00    0.00   448.00     0.00     8.00     5.70   48.72   48.72    0.00   8.73  97.80
sdd               0.00     0.00   99.00    0.00   396.00     0.00     8.00     4.01   42.52   42.52    0.00   8.80  87.10
md0               0.00     0.00  305.00    0.00  1220.00     0.00     8.00     0.00    0.00    0.00    0.00   0.00   0.00

avg-cpu:  %user   %nice %system %iowait  %steal   %idle
           0.00    0.00    0.03    5.85    0.00   94.12

Device:         rrqm/s   wrqm/s     r/s     w/s    rkB/s    wkB/s avgrq-sz avgqu-sz   await r_await w_await  svctm  %util
nvme0n1           0.00     0.00    0.00    0.00     0.00     0.00     0.00     0.00    0.00    0.00    0.00   0.00   0.00
sda               0.00     0.00    0.00    0.00     0.00     0.00     0.00     0.00    0.00    0.00    0.00   0.00   0.00
sdc               0.00     0.00  108.00    0.00   432.00     0.00     8.00     5.01   47.93   47.93    0.00   8.82  95.30
sdb               0.00     0.00   98.00    0.00   392.00     0.00     8.00     4.14   45.79   45.79    0.00   8.67  85.00
sdd               0.00     0.00   96.00    0.00   384.00     0.00     8.00     3.23   34.35   34.35    0.00   8.80  84.50
md0               0.00     0.00  287.00    0.00  1148.00     0.00     8.00     0.00    0.00    0.00    0.00   0.00   0.00

avg-cpu:  %user   %nice %system %iowait  %steal   %idle
           0.00    0.00    0.06    8.44    0.00   91.50

Device:         rrqm/s   wrqm/s     r/s     w/s    rkB/s    wkB/s avgrq-sz avgqu-sz   await r_await w_await  svctm  %util
nvme0n1           0.00     0.00    0.00    0.00     0.00     0.00     0.00     0.00    0.00    0.00    0.00   0.00   0.00
sda               0.00     9.00    0.00    2.00     0.00    44.00    44.00     0.00    0.00    0.00    0.00   0.00   0.00
sdc               0.00     0.00  100.00    0.00   400.00     0.00     8.00     4.16   38.05   38.05    0.00   9.07  90.70
sdb               0.00     0.00   99.00    0.00   396.00     0.00     8.00     3.84   38.30   38.30    0.00   9.53  94.30
sdd               0.00     0.00  111.00    0.00   444.00     0.00     8.00     5.35   46.52   46.52    0.00   8.77  97.30
md0               0.00     0.00  325.00    0.00  1300.00     0.00     8.00     0.00    0.00    0.00    0.00   0.00   0.00

avg-cpu:  %user   %nice %system %iowait  %steal   %idle
           0.00    0.00    0.03    6.69    0.00   93.28

Device:         rrqm/s   wrqm/s     r/s     w/s    rkB/s    wkB/s avgrq-sz avgqu-sz   await r_await w_await  svctm  %util
nvme0n1           0.00     0.00    0.00    0.00     0.00     0.00     0.00     0.00    0.00    0.00    0.00   0.00   0.00
sda               0.00     2.00    0.00    1.00     0.00    28.00    56.00     0.00    0.00    0.00    0.00   0.00   0.00
sdc               0.00     0.00  106.00    0.00   424.00     0.00     8.00     4.78   47.53   47.53    0.00   8.61  91.30
sdb               0.00     0.00  102.00    0.00   408.00     0.00     8.00     4.56   45.17   45.17    0.00   8.54  87.10
sdd               0.00     0.00   95.00    0.00   380.00     0.00     8.00     3.28   32.92   32.92    0.00   8.67  82.40
md0               0.00     0.00  298.00    0.00  1192.00     0.00     8.00     0.00    0.00    0.00    0.00   0.00   0.00

avg-cpu:  %user   %nice %system %iowait  %steal   %idle
           0.00    0.00    0.03    4.94    0.00   95.03

Device:         rrqm/s   wrqm/s     r/s     w/s    rkB/s    wkB/s avgrq-sz avgqu-sz   await r_await w_await  svctm  %util
nvme0n1           0.00     0.00    0.00    0.00     0.00     0.00     0.00     0.00    0.00    0.00    0.00   0.00   0.00
sda               0.00     0.00    0.00    0.00     0.00     0.00     0.00     0.00    0.00    0.00    0.00   0.00   0.00
sdc               0.00     0.00   98.00    0.00   392.00     0.00     8.00     3.46   35.37   35.37    0.00   9.14  89.60
sdb               0.00     0.00   95.00    0.00   380.00     0.00     8.00     4.45   44.11   44.11    0.00   9.05  86.00
sdd               0.00     0.00  110.00    0.00   440.00     0.00     8.00     4.01   38.65   38.65    0.00   8.65  95.20
md0               0.00     0.00  308.00    0.00  1232.00     0.00     8.00     0.00    0.00    0.00    0.00   0.00   0.00

avg-cpu:  %user   %nice %system %iowait  %steal   %idle
           0.03    0.00    0.06    6.84    0.00   93.06

Device:         rrqm/s   wrqm/s     r/s     w/s    rkB/s    wkB/s avgrq-sz avgqu-sz   await r_await w_await  svctm  %util
nvme0n1           0.00     0.00    0.00    0.00     0.00     0.00     0.00     0.00    0.00    0.00    0.00   0.00   0.00
sda               0.00     0.00    0.00    0.00     0.00     0.00     0.00     0.00    0.00    0.00    0.00   0.00   0.00
sdc               0.00     0.00  100.00    0.00   400.00     0.00     8.00     4.15   40.21   40.21    0.00   8.83  88.30
sdb               0.00     0.00  105.00    0.00   420.00     0.00     8.00     4.60   44.98   44.98    0.00   8.73  91.70
sdd               0.00     0.00  101.00    0.00   404.00     0.00     8.00     4.28   42.16   42.16    0.00   8.60  86.90
md0               0.00     0.00  306.00    0.00  1224.00     0.00     8.00     0.00    0.00    0.00    0.00   0.00   0.00

avg-cpu:  %user   %nice %system %iowait  %steal   %idle
           0.00    0.00    0.03    4.53    0.00   95.44

Device:         rrqm/s   wrqm/s     r/s     w/s    rkB/s    wkB/s avgrq-sz avgqu-sz   await r_await w_await  svctm  %util
nvme0n1           0.00     0.00    0.00    0.00     0.00     0.00     0.00     0.00    0.00    0.00    0.00   0.00   0.00
sda               0.00     0.00    0.00    0.00     0.00     0.00     0.00     0.00    0.00    0.00    0.00   0.00   0.00
sdc               0.00     0.00   93.00    0.00   372.00     0.00     8.00     3.36   38.15   38.15    0.00   9.13  84.90
sdb               0.00     0.00  115.00    0.00   460.00     0.00     8.00     5.52   49.19   49.19    0.00   8.18  94.10
sdd               0.00     0.00   95.00    0.00   380.00     0.00     8.00     3.48   35.71   35.71    0.00   8.80  83.60
md0               0.00     0.00  294.00    0.00  1176.00     0.00     8.00     0.00    0.00    0.00    0.00   0.00   0.00

avg-cpu:  %user   %nice %system %iowait  %steal   %idle
           0.00    0.00    0.03    5.88    0.00   94.09

Device:         rrqm/s   wrqm/s     r/s     w/s    rkB/s    wkB/s avgrq-sz avgqu-sz   await r_await w_await  svctm  %util
nvme0n1           0.00     0.00    0.00    0.00     0.00     0.00     0.00     0.00    0.00    0.00    0.00   0.00   0.00
sda               0.00     3.00    0.00    2.00     0.00    20.00    20.00     0.00    0.00    0.00    0.00   0.00   0.00
sdc               0.00     0.00  101.00    0.00   404.00     0.00     8.00     4.49   42.54   42.54    0.00   8.88  89.70
sdb               0.00     0.00   82.00    0.00   328.00     0.00     8.00     3.08   36.22   36.22    0.00   9.48  77.70
sdd               0.00     0.00  102.00    0.00   408.00     0.00     8.00     4.86   48.25   48.25    0.00   8.75  89.30
md0               0.00     0.00  294.00    0.00  1176.00     0.00     8.00     0.00    0.00    0.00    0.00   0.00   0.00

avg-cpu:  %user   %nice %system %iowait  %steal   %idle
           0.00    0.00    0.03    5.32    0.00   94.65

Device:         rrqm/s   wrqm/s     r/s     w/s    rkB/s    wkB/s avgrq-sz avgqu-sz   await r_await w_await  svctm  %util
nvme0n1           0.00     0.00    0.00    0.00     0.00     0.00     0.00     0.00    0.00    0.00    0.00   0.00   0.00
sda               0.00     0.00    0.00    0.00     0.00     0.00     0.00     0.00    0.00    0.00    0.00   0.00   0.00
sdc               0.00     0.00  103.00    0.00   412.00     0.00     8.00     4.98   50.05   50.05    0.00   9.05  93.20
sdb               0.00     0.00  110.00    0.00   440.00     0.00     8.00     4.74   39.98   39.98    0.00   8.36  92.00
sdd               0.00     0.00   83.00    0.00   332.00     0.00     8.00     2.70   32.82   32.82    0.00   8.88  73.70
md0               0.00     0.00  296.00    0.00  1184.00     0.00     8.00     0.00    0.00    0.00    0.00   0.00   0.00

avg-cpu:  %user   %nice %system %iowait  %steal   %idle
           0.00    0.00    0.03    6.03    0.00   93.94

Device:         rrqm/s   wrqm/s     r/s     w/s    rkB/s    wkB/s avgrq-sz avgqu-sz   await r_await w_await  svctm  %util
nvme0n1           0.00     0.00    0.00    0.00     0.00     0.00     0.00     0.00    0.00    0.00    0.00   0.00   0.00
sda               0.00     0.00    0.00    0.00     0.00     0.00     0.00     0.00    0.00    0.00    0.00   0.00   0.00
sdc               0.00     0.00   97.00    0.00   388.00     0.00     8.00     3.57   36.12   36.12    0.00   9.10  88.30
sdb               0.00     0.00  106.00    0.00   424.00     0.00     8.00     4.48   46.53   46.53    0.00   9.21  97.60
sdd               0.00     0.00   93.00    0.00   372.00     0.00     8.00     4.44   46.12   46.12    0.00   8.80  81.80
md0               0.00     0.00  290.00    0.00  1160.00     0.00     8.00     0.00    0.00    0.00    0.00   0.00   0.00

avg-cpu:  %user   %nice %system %iowait  %steal   %idle
           0.00    0.00    0.03    3.84    0.00   96.12

Device:         rrqm/s   wrqm/s     r/s     w/s    rkB/s    wkB/s avgrq-sz avgqu-sz   await r_await w_await  svctm  %util
nvme0n1           0.00     0.00    0.00    0.00     0.00     0.00     0.00     0.00    0.00    0.00    0.00   0.00   0.00
sda               0.00     0.00    0.00    0.00     0.00     0.00     0.00     0.00    0.00    0.00    0.00   0.00   0.00
sdc               0.00     0.00   93.00    0.00   372.00     0.00     8.00     3.37   37.44   37.44    0.00   9.11  84.70
sdb               0.00     0.00  100.00    0.00   400.00     0.00     8.00     5.91   59.09   59.09    0.00   8.65  86.50
sdd               0.00     0.00   90.00    0.00   360.00     0.00     8.00     1.98   24.58   24.58    0.00   9.21  82.90
md0               0.00     0.00  275.00    0.00  1100.00     0.00     8.00     0.00    0.00    0.00    0.00   0.00   0.00

avg-cpu:  %user   %nice %system %iowait  %steal   %idle
           0.00    0.00    0.03    7.10    0.00   92.87

Device:         rrqm/s   wrqm/s     r/s     w/s    rkB/s    wkB/s avgrq-sz avgqu-sz   await r_await w_await  svctm  %util
nvme0n1           0.00     0.00    0.00    0.00     0.00     0.00     0.00     0.00    0.00    0.00    0.00   0.00   0.00
sda               0.00     0.00    0.00    0.00     0.00     0.00     0.00     0.00    0.00    0.00    0.00   0.00   0.00
sdc               0.00     0.00  102.00    0.00   408.00     0.00     8.00     4.41   40.20   40.20    0.00   8.49  86.60
sdb               0.00     0.00  100.00    0.00   400.00     0.00     8.00     5.21   50.08   50.08    0.00   9.15  91.50
sdd               0.00     0.00  102.00    0.00   408.00     0.00     8.00     3.37   32.67   32.67    0.00   9.16  93.40
md0               0.00     0.00  318.00    0.00  1272.00     0.00     8.00     0.00    0.00    0.00    0.00   0.00   0.00

avg-cpu:  %user   %nice %system %iowait  %steal   %idle
           0.00    0.00    0.06    5.66    0.00   94.28

Device:         rrqm/s   wrqm/s     r/s     w/s    rkB/s    wkB/s avgrq-sz avgqu-sz   await r_await w_await  svctm  %util
nvme0n1           0.00     0.00    0.00    0.00     0.00     0.00     0.00     0.00    0.00    0.00    0.00   0.00   0.00
sda               0.00     1.00    0.00    2.00     0.00    12.00    12.00     0.00    0.50    0.00    0.50   0.50   0.10
sdc               0.00     0.00   95.00    0.00   380.00     0.00     8.00     3.54   40.36   40.36    0.00   9.06  86.10
sdb               0.00     0.00  110.00    0.00   440.00     0.00     8.00     4.30   38.75   38.75    0.00   8.96  98.60
sdd               0.00     0.00  103.00    0.00   412.00     0.00     8.00     5.16   48.46   48.46    0.00   8.51  87.70
md0               0.00     0.00  304.00    0.00  1216.00     0.00     8.00     0.00    0.00    0.00    0.00   0.00   0.00

avg-cpu:  %user   %nice %system %iowait  %steal   %idle
           0.00    0.00    0.09    5.03    0.00   94.88

Device:         rrqm/s   wrqm/s     r/s     w/s    rkB/s    wkB/s avgrq-sz avgqu-sz   await r_await w_await  svctm  %util
nvme0n1           0.00     0.00    0.00    0.00     0.00     0.00     0.00     0.00    0.00    0.00    0.00   0.00   0.00
sda               0.00     0.00    0.00    0.00     0.00     0.00     0.00     0.00    0.00    0.00    0.00   0.00   0.00
sdc               0.00     0.00   92.00    0.00   368.00     0.00     8.00     3.62   39.43   39.43    0.00   9.11  83.80
sdb               0.00     0.00   87.00    0.00   348.00     0.00     8.00     2.61   32.79   32.79    0.00   9.52  82.80
sdd               0.00     0.00  105.00    0.00   420.00     0.00     8.00     5.68   55.85   55.85    0.00   8.81  92.50
md0               0.00     0.00  275.00    0.00  1100.00     0.00     8.00     0.00    0.00    0.00    0.00   0.00   0.00

avg-cpu:  %user   %nice %system %iowait  %steal   %idle
           0.00    0.00    0.03    7.06    0.00   92.90

Device:         rrqm/s   wrqm/s     r/s     w/s    rkB/s    wkB/s avgrq-sz avgqu-sz   await r_await w_await  svctm  %util
nvme0n1           0.00     0.00    0.00    0.00     0.00     0.00     0.00     0.00    0.00    0.00    0.00   0.00   0.00
sda               0.00     0.00    0.00    0.00     0.00     0.00     0.00     0.00    0.00    0.00    0.00   0.00   0.00
sdc               0.00     0.00   84.00    0.00   336.00     0.00     8.00     2.89   30.88   30.88    0.00   9.17  77.00
sdb               0.00     0.00  102.00    0.00   408.00     0.00     8.00     4.29   42.04   42.04    0.00   8.75  89.30
sdd               0.00     0.00  106.00    0.00   424.00     0.00     8.00     5.16   45.49   45.49    0.00   8.82  93.50
md0               0.00     0.00  305.00    0.00  1220.00     0.00     8.00     0.00    0.00    0.00    0.00   0.00   0.00

avg-cpu:  %user   %nice %system %iowait  %steal   %idle
           0.00    0.00    0.06    6.31    0.00   93.62

Device:         rrqm/s   wrqm/s     r/s     w/s    rkB/s    wkB/s avgrq-sz avgqu-sz   await r_await w_await  svctm  %util
nvme0n1           0.00     0.00    0.00    0.00     0.00     0.00     0.00     0.00    0.00    0.00    0.00   0.00   0.00
sda               0.00     0.00    0.00    0.00     0.00     0.00     0.00     0.00    0.00    0.00    0.00   0.00   0.00
sdc               0.00     0.00  102.00    0.00   408.00     0.00     8.00     3.86   40.61   40.61    0.00   9.42  96.10
sdb               0.00     0.00  109.00    0.00   436.00     0.00     8.00     6.61   55.82   55.82    0.00   8.53  93.00
sdd               0.00     0.00   91.00    0.00   364.00     0.00     8.00     2.26   28.69   28.69    0.00   8.80  80.10
md0               0.00     0.00  299.00    0.00  1196.00     0.00     8.00     0.00    0.00    0.00    0.00   0.00   0.00

avg-cpu:  %user   %nice %system %iowait  %steal   %idle
           0.00    0.00    0.03    5.84    0.00   94.12

Device:         rrqm/s   wrqm/s     r/s     w/s    rkB/s    wkB/s avgrq-sz avgqu-sz   await r_await w_await  svctm  %util
nvme0n1           0.00     0.00    0.00    0.00     0.00     0.00     0.00     0.00    0.00    0.00    0.00   0.00   0.00
sda               0.00     0.00    0.00    0.00     0.00     0.00     0.00     0.00    0.00    0.00    0.00   0.00   0.00
sdc               0.00     0.00  111.00    0.00   444.00     0.00     8.00     6.71   57.04   57.04    0.00   8.21  91.10
sdb               0.00     0.00   83.00    0.00   332.00     0.00     8.00     2.15   32.29   32.29    0.00   9.16  76.00
sdd               0.00     0.00   96.00    0.00   384.00     0.00     8.00     3.38   35.79   35.79    0.00   9.00  86.40
md0               0.00     0.00  285.00    0.00  1140.00     0.00     8.00     0.00    0.00    0.00    0.00   0.00   0.00

