Linux 4.17.2 (bench2) 	08/03/2018 	_x86_64_	(32 CPU)

avg-cpu:  %user   %nice %system %iowait  %steal   %idle
           1.90    0.00    1.55    1.59    0.00   94.96

Device:         rrqm/s   wrqm/s     r/s     w/s    rkB/s    wkB/s avgrq-sz avgqu-sz   await r_await w_await  svctm  %util
nvme0n1         934.44     5.08 18837.94  518.67 105371.60 11697.49    12.10     1.34    0.05    0.03    0.67   0.02  39.43
sda               0.12     0.82   14.17    0.58   164.01     8.53    23.40     0.00    0.33    0.32    0.44   0.07   0.10
sdc              34.25     0.17  120.70    0.31  1816.26    97.10    31.62     0.08    0.66   12.34  380.35   0.91  10.99
sdb              32.22     0.19  122.69    0.33  1814.29    96.93    31.07     0.51    4.15    3.05  411.64   0.85  10.44
sdd              34.44     0.17  120.24    0.26  1812.28    96.60    31.68     0.83    6.84    4.90  907.87   0.91  10.98
md0               0.00     0.00  467.37    1.21  6747.78   350.44    30.30     0.00    0.00    0.00    0.00   0.00   0.00

avg-cpu:  %user   %nice %system %iowait  %steal   %idle
           0.01    0.00    0.34    0.09    0.00   99.56

Device:         rrqm/s   wrqm/s     r/s     w/s    rkB/s    wkB/s avgrq-sz avgqu-sz   await r_await w_await  svctm  %util
nvme0n1           0.00     0.00    0.00    0.00     0.00     0.00     0.00     0.00    0.00    0.00    0.00   0.00   0.00
sda               0.00     1.15    0.20    1.70     5.20    13.40    19.58     0.00    0.05    0.25    0.03   0.05   0.01
sdc               4.45     0.00  348.85    0.00  1413.40     0.00     8.10    13.93   39.84   39.84    0.00   2.43  84.89
sdb               2.70     0.00  347.30    0.00  1400.00     0.00     8.06    13.90   39.94   39.94    0.00   2.44  84.83
sdd               3.60     0.00  344.05    0.00  1390.60     0.00     8.08    14.03   40.66   40.66    0.00   2.50  86.01
md0               0.00     0.00 1054.70    0.00  4218.80     0.00     8.00     0.00    0.00    0.00    0.00   0.00   0.00

