Linux 4.17.2 (bench2) 	08/03/2018 	_x86_64_	(32 CPU)

avg-cpu:  %user   %nice %system %iowait  %steal   %idle
           1.91    0.00    1.56    1.57    0.00   94.97

Device:         rrqm/s   wrqm/s     r/s     w/s    rkB/s    wkB/s avgrq-sz avgqu-sz   await r_await w_await  svctm  %util
nvme0n1         939.39     5.10 18937.77  521.42 105930.02 11759.48    12.10     1.35    0.05    0.03    0.67   0.02  39.64
sda               0.12     0.82   14.16    0.58   163.98     8.52    23.42     0.00    0.33    0.32    0.44   0.07   0.10
sdc              33.85     0.17  117.49    0.31  1768.83    97.62    31.69     0.04    0.36   12.43  380.35   0.91  10.76
sdb              31.80     0.19  119.49    0.33  1766.90    97.44    31.12     0.48    3.98    2.85  411.64   0.85  10.23
sdd              34.04     0.17  117.03    0.26  1764.82    97.11    31.75     0.79    6.75    4.74  907.87   0.92  10.76
md0               0.00     0.00  456.54    1.21  6564.59   352.30    30.22     0.00    0.00    0.00    0.00   0.00   0.00

avg-cpu:  %user   %nice %system %iowait  %steal   %idle
           0.00    0.00    0.03   31.18    0.00   68.79

Device:         rrqm/s   wrqm/s     r/s     w/s    rkB/s    wkB/s avgrq-sz avgqu-sz   await r_await w_await  svctm  %util
nvme0n1           0.00     0.00    0.00    0.00     0.00     0.00     0.00     0.00    0.00    0.00    0.00   0.00   0.00
sda               0.00     0.00    4.00    0.00   104.00     0.00    52.00     0.00    0.00    0.00    0.00   0.00   0.00
sdc               0.00     0.00   73.00    0.00   292.00     0.00     8.00     6.50   83.75   83.75    0.00  13.40  97.80
sdb               0.00     0.00   56.00    0.00   224.00     0.00     8.00     2.78   47.38   47.38    0.00  14.07  78.80
sdd               0.00     0.00   58.00    0.00   232.00     0.00     8.00     3.61   58.66   58.66    0.00  13.69  79.40
md0               0.00     0.00  203.00    0.00   812.00     0.00     8.00     0.00    0.00    0.00    0.00   0.00   0.00

avg-cpu:  %user   %nice %system %iowait  %steal   %idle
           0.00    0.00    0.03   29.64    0.00   70.33

Device:         rrqm/s   wrqm/s     r/s     w/s    rkB/s    wkB/s avgrq-sz avgqu-sz   await r_await w_await  svctm  %util
nvme0n1           0.00     0.00    0.00    0.00     0.00     0.00     0.00     0.00    0.00    0.00    0.00   0.00   0.00
sda               0.00     0.00    0.00    0.00     0.00     0.00     0.00     0.00    0.00    0.00    0.00   0.00   0.00
sdc               0.00     0.00   86.00    0.00   344.00     0.00     8.00     2.22   29.59   29.59    0.00   8.94  76.90
sdb               0.00     0.00   88.00    0.00   352.00     0.00     8.00     3.45   39.65   39.65    0.00   9.81  86.30
sdd               0.00     0.00  109.00    0.00   436.00     0.00     8.00     6.66   60.89   60.89    0.00   8.28  90.20
md0               0.00     0.00  281.00    0.00  1124.00     0.00     8.00     0.00    0.00    0.00    0.00   0.00   0.00

avg-cpu:  %user   %nice %system %iowait  %steal   %idle
           0.00    0.00    0.03   26.79    0.00   73.18

Device:         rrqm/s   wrqm/s     r/s     w/s    rkB/s    wkB/s avgrq-sz avgqu-sz   await r_await w_await  svctm  %util
nvme0n1           0.00     0.00    0.00    0.00     0.00     0.00     0.00     0.00    0.00    0.00    0.00   0.00   0.00
sda               0.00     8.00    0.00    2.00     0.00    40.00    40.00     0.00    0.00    0.00    0.00   0.00   0.00
sdc               0.00     0.00  110.00    0.00   440.00     0.00     8.00     5.82   53.41   53.41    0.00   8.25  90.70
sdb               0.00     0.00   89.00    0.00   356.00     0.00     8.00     3.50   39.27   39.27    0.00   8.96  79.70
sdd               0.00     0.00   95.00    0.00   380.00     0.00     8.00     2.42   27.77   27.77    0.00   8.82  83.80
md0               0.00     0.00  282.00    0.00  1128.00     0.00     8.00     0.00    0.00    0.00    0.00   0.00   0.00

avg-cpu:  %user   %nice %system %iowait  %steal   %idle
           0.00    0.00    0.03   32.36    0.00   67.60

Device:         rrqm/s   wrqm/s     r/s     w/s    rkB/s    wkB/s avgrq-sz avgqu-sz   await r_await w_await  svctm  %util
nvme0n1           0.00     0.00    0.00    0.00     0.00     0.00     0.00     0.00    0.00    0.00    0.00   0.00   0.00
sda               0.00     0.00    0.00    0.00     0.00     0.00     0.00     0.00    0.00    0.00    0.00   0.00   0.00
sdc               0.00     0.00  105.00    0.00   420.00     0.00     8.00     4.14   39.28   39.28    0.00   9.29  97.50
sdb               0.00     0.00  105.00    0.00   420.00     0.00     8.00     4.38   41.66   41.66    0.00   8.93  93.80
sdd               0.00     0.00  105.00    0.00   420.00     0.00     8.00     5.36   41.32   41.32    0.00   9.05  95.00
md0               0.00     0.00  328.00    0.00  1312.00     0.00     8.00     0.00    0.00    0.00    0.00   0.00   0.00

avg-cpu:  %user   %nice %system %iowait  %steal   %idle
           0.00    0.00    0.06   28.56    0.00   71.38

Device:         rrqm/s   wrqm/s     r/s     w/s    rkB/s    wkB/s avgrq-sz avgqu-sz   await r_await w_await  svctm  %util
nvme0n1           0.00     0.00    0.00    0.00     0.00     0.00     0.00     0.00    0.00    0.00    0.00   0.00   0.00
sda               0.00     0.00    0.00    0.00     0.00     0.00     0.00     0.00    0.00    0.00    0.00   0.00   0.00
sdc               0.00     0.00  104.00    0.00   416.00     0.00     8.00     3.67   35.29   35.29    0.00   8.87  92.20
sdb               0.00     0.00   99.00    0.00   396.00     0.00     8.00     3.85   39.84   39.84    0.00   9.11  90.20
sdd               0.00     0.00  116.00    0.00   464.00     0.00     8.00     4.37   46.10   46.10    0.00   8.53  98.90
md0               0.00     0.00  309.00    0.00  1236.00     0.00     8.00     0.00    0.00    0.00    0.00   0.00   0.00

avg-cpu:  %user   %nice %system %iowait  %steal   %idle
           0.00    0.00    0.06   28.81    0.00   71.12

Device:         rrqm/s   wrqm/s     r/s     w/s    rkB/s    wkB/s avgrq-sz avgqu-sz   await r_await w_await  svctm  %util
nvme0n1           0.00     0.00    0.00    0.00     0.00     0.00     0.00     0.00    0.00    0.00    0.00   0.00   0.00
sda               0.00     0.00    0.00    0.00     0.00     0.00     0.00     0.00    0.00    0.00    0.00   0.00   0.00
sdc               0.00     0.00  106.00    0.00   424.00     0.00     8.00     5.68   50.26   50.26    0.00   8.85  93.80
sdb               0.00     0.00   92.00    0.00   368.00     0.00     8.00     2.86   29.85   29.85    0.00   9.16  84.30
sdd               0.00     0.00   93.00    0.00   372.00     0.00     8.00     3.76   40.30   40.30    0.00   8.69  80.80
md0               0.00     0.00  302.00    0.00  1208.00     0.00     8.00     0.00    0.00    0.00    0.00   0.00   0.00

avg-cpu:  %user   %nice %system %iowait  %steal   %idle
           0.03    0.00    0.00   32.40    0.00   67.57

Device:         rrqm/s   wrqm/s     r/s     w/s    rkB/s    wkB/s avgrq-sz avgqu-sz   await r_await w_await  svctm  %util
nvme0n1           0.00     0.00    0.00    0.00     0.00     0.00     0.00     0.00    0.00    0.00    0.00   0.00   0.00
sda               0.00     5.00    0.00    5.00     0.00    80.00    32.00     0.00    0.00    0.00    0.00   0.00   0.00
sdc               0.00     0.00  105.00    0.00   420.00     0.00     8.00     5.09   49.81   49.81    0.00   8.70  91.40
sdb               0.00     0.00  104.00    0.00   416.00     0.00     8.00     4.49   43.54   43.54    0.00   8.61  89.50
sdd               0.00     0.00  111.00    0.00   444.00     0.00     8.00     4.21   36.52   36.52    0.00   8.70  96.60
md0               0.00     0.00  319.00    0.00  1276.00     0.00     8.00     0.00    0.00    0.00    0.00   0.00   0.00

avg-cpu:  %user   %nice %system %iowait  %steal   %idle
           0.00    0.00    0.03   28.35    0.00   71.62

Device:         rrqm/s   wrqm/s     r/s     w/s    rkB/s    wkB/s avgrq-sz avgqu-sz   await r_await w_await  svctm  %util
nvme0n1           0.00     0.00    0.00    0.00     0.00     0.00     0.00     0.00    0.00    0.00    0.00   0.00   0.00
sda               0.00     8.00    0.00    2.00     0.00    40.00    40.00     0.00    0.00    0.00    0.00   0.00   0.00
sdc               0.00     0.00  104.00    0.00   416.00     0.00     8.00     5.62   56.24   56.24    0.00   8.90  92.60
sdb               0.00     0.00   88.00    0.00   352.00     0.00     8.00     2.38   27.93   27.93    0.00   9.30  81.80
sdd               0.00     0.00  101.00    0.00   404.00     0.00     8.00     4.14   43.10   43.10    0.00   8.92  90.10
md0               0.00     0.00  279.00    0.00  1116.00     0.00     8.00     0.00    0.00    0.00    0.00   0.00   0.00

avg-cpu:  %user   %nice %system %iowait  %steal   %idle
           0.00    0.00    0.03   31.61    0.00   68.36

Device:         rrqm/s   wrqm/s     r/s     w/s    rkB/s    wkB/s avgrq-sz avgqu-sz   await r_await w_await  svctm  %util
nvme0n1           0.00     0.00    0.00    0.00     0.00     0.00     0.00     0.00    0.00    0.00    0.00   0.00   0.00
sda               0.00     0.00    0.00    0.00     0.00     0.00     0.00     0.00    0.00    0.00    0.00   0.00   0.00
sdc               0.00     0.00  106.00    0.00   424.00     0.00     8.00     3.60   33.25   33.25    0.00   9.00  95.40
sdb               0.00     0.00  110.00    0.00   440.00     0.00     8.00     4.25   37.99   37.99    0.00   8.47  93.20
sdd               0.00     0.00  110.00    0.00   440.00     0.00     8.00     5.43   45.54   45.54    0.00   8.25  90.80
md0               0.00     0.00  340.00    0.00  1360.00     0.00     8.00     0.00    0.00    0.00    0.00   0.00   0.00

avg-cpu:  %user   %nice %system %iowait  %steal   %idle
           0.00    0.00    0.03   29.08    0.00   70.89

Device:         rrqm/s   wrqm/s     r/s     w/s    rkB/s    wkB/s avgrq-sz avgqu-sz   await r_await w_await  svctm  %util
nvme0n1           0.00     0.00    0.00    0.00     0.00     0.00     0.00     0.00    0.00    0.00    0.00   0.00   0.00
sda               0.00     0.00    0.00    0.00     0.00     0.00     0.00     0.00    0.00    0.00    0.00   0.00   0.00
sdc               0.00     0.00   86.00    0.00   344.00     0.00     8.00     2.90   33.45   33.45    0.00   9.03  77.70
sdb               0.00     0.00   96.00    0.00   384.00     0.00     8.00     6.22   60.93   60.93    0.00   8.50  81.60
sdd               0.00     0.00   99.00    0.00   396.00     0.00     8.00     3.40   38.16   38.16    0.00   9.12  90.30
md0               0.00     0.00  278.00    0.00  1112.00     0.00     8.00     0.00    0.00    0.00    0.00   0.00   0.00

avg-cpu:  %user   %nice %system %iowait  %steal   %idle
           0.00    0.00    0.09   26.90    0.00   73.01

Device:         rrqm/s   wrqm/s     r/s     w/s    rkB/s    wkB/s avgrq-sz avgqu-sz   await r_await w_await  svctm  %util
nvme0n1           0.00     0.00    0.00    0.00     0.00     0.00     0.00     0.00    0.00    0.00    0.00   0.00   0.00
sda               0.00     0.00    0.00    0.00     0.00     0.00     0.00     0.00    0.00    0.00    0.00   0.00   0.00
sdc               0.00     0.00   89.00    0.00   356.00     0.00     8.00     2.01   23.72   23.72    0.00   9.37  83.40
sdb               0.00     0.00  115.00    0.00   460.00     0.00     8.00     7.47   68.69   68.69    0.00   8.56  98.40
sdd               0.00     0.00   83.00    0.00   332.00     0.00     8.00     2.16   26.43   26.43    0.00   8.71  72.30
md0               0.00     0.00  277.00    0.00  1108.00     0.00     8.00     0.00    0.00    0.00    0.00   0.00   0.00

avg-cpu:  %user   %nice %system %iowait  %steal   %idle
           0.00    0.00    0.03   30.51    0.00   69.46

Device:         rrqm/s   wrqm/s     r/s     w/s    rkB/s    wkB/s avgrq-sz avgqu-sz   await r_await w_await  svctm  %util
nvme0n1           0.00     0.00    0.00    0.00     0.00     0.00     0.00     0.00    0.00    0.00    0.00   0.00   0.00
sda               0.00     0.00    0.00    0.00     0.00     0.00     0.00     0.00    0.00    0.00    0.00   0.00   0.00
sdc               0.00     0.00  108.00    0.00   432.00     0.00     8.00     6.07   51.72   51.72    0.00   8.94  96.60
sdb               0.00     0.00   98.00    0.00   392.00     0.00     8.00     3.44   35.09   35.09    0.00   9.09  89.10
sdd               0.00     0.00  104.00    0.00   416.00     0.00     8.00     3.40   29.79   29.79    0.00   8.82  91.70
md0               0.00     0.00  324.00    0.00  1296.00     0.00     8.00     0.00    0.00    0.00    0.00   0.00   0.00

avg-cpu:  %user   %nice %system %iowait  %steal   %idle
           0.03    0.00    0.06   28.96    0.00   70.95

Device:         rrqm/s   wrqm/s     r/s     w/s    rkB/s    wkB/s avgrq-sz avgqu-sz   await r_await w_await  svctm  %util
nvme0n1           0.00     0.00    0.00    0.00     0.00     0.00     0.00     0.00    0.00    0.00    0.00   0.00   0.00
sda               0.00     1.00    0.00    2.00     0.00    12.00    12.00     0.00    0.50    0.00    0.50   0.50   0.10
sdc               0.00     0.00  108.00    0.00   432.00     0.00     8.00     4.71   48.07   48.07    0.00   8.75  94.50
sdb               0.00     0.00   97.00    0.00   388.00     0.00     8.00     4.23   37.53   37.53    0.00   8.37  81.20
sdd               0.00     0.00  102.00    0.00   408.00     0.00     8.00     3.65   38.72   38.72    0.00   8.94  91.20
md0               0.00     0.00  300.00    0.00  1200.00     0.00     8.00     0.00    0.00    0.00    0.00   0.00   0.00

avg-cpu:  %user   %nice %system %iowait  %steal   %idle
           0.00    0.00    0.03   28.96    0.00   71.01

Device:         rrqm/s   wrqm/s     r/s     w/s    rkB/s    wkB/s avgrq-sz avgqu-sz   await r_await w_await  svctm  %util
nvme0n1           0.00     0.00    0.00    0.00     0.00     0.00     0.00     0.00    0.00    0.00    0.00   0.00   0.00
sda               0.00     0.00    0.00    0.00     0.00     0.00     0.00     0.00    0.00    0.00    0.00   0.00   0.00
sdc               0.00     0.00  101.00    0.00   404.00     0.00     8.00     4.59   43.70   43.70    0.00   9.12  92.10
sdb               0.00     0.00  100.00    0.00   400.00     0.00     8.00     3.38   39.38   39.38    0.00   9.22  92.20
sdd               0.00     0.00  107.00    0.00   428.00     0.00     8.00     4.34   36.74   36.74    0.00   8.51  91.10
md0               0.00     0.00  315.00    0.00  1260.00     0.00     8.00     0.00    0.00    0.00    0.00   0.00   0.00

avg-cpu:  %user   %nice %system %iowait  %steal   %idle
           0.00    0.00    0.03   32.57    0.00   67.40

Device:         rrqm/s   wrqm/s     r/s     w/s    rkB/s    wkB/s avgrq-sz avgqu-sz   await r_await w_await  svctm  %util
nvme0n1           0.00     0.00    0.00    0.00     0.00     0.00     0.00     0.00    0.00    0.00    0.00   0.00   0.00
sda               0.00     0.00    0.00    0.00     0.00     0.00     0.00     0.00    0.00    0.00    0.00   0.00   0.00
sdc               0.00     0.00  106.00    0.00   424.00     0.00     8.00     5.65   51.05   51.05    0.00   8.53  90.40
sdb               0.00     0.00   99.00    0.00   396.00     0.00     8.00     3.11   31.77   31.77    0.00   9.36  92.70
sdd               0.00     0.00  104.00    0.00   416.00     0.00     8.00     4.69   48.24   48.24    0.00   8.98  93.40
md0               0.00     0.00  309.00    0.00  1236.00     0.00     8.00     0.00    0.00    0.00    0.00   0.00   0.00

avg-cpu:  %user   %nice %system %iowait  %steal   %idle
           0.00    0.00    0.06   28.13    0.00   71.80

Device:         rrqm/s   wrqm/s     r/s     w/s    rkB/s    wkB/s avgrq-sz avgqu-sz   await r_await w_await  svctm  %util
nvme0n1           0.00     0.00    0.00    0.00     0.00     0.00     0.00     0.00    0.00    0.00    0.00   0.00   0.00
sda               0.00     0.00    0.00    0.00     0.00     0.00     0.00     0.00    0.00    0.00    0.00   0.00   0.00
sdc               0.00     0.00   98.00    0.00   392.00     0.00     8.00     4.67   51.86   51.86    0.00   8.90  87.20
sdb               0.00     0.00   84.00    0.00   336.00     0.00     8.00     2.80   33.11   33.11    0.00   9.14  76.80
sdd               0.00     0.00  107.00    0.00   428.00     0.00     8.00     4.91   45.54   45.54    0.00   8.30  88.80
md0               0.00     0.00  280.00    0.00  1120.00     0.00     8.00     0.00    0.00    0.00    0.00   0.00   0.00

avg-cpu:  %user   %nice %system %iowait  %steal   %idle
           0.00    0.00    0.03   28.32    0.00   71.65

Device:         rrqm/s   wrqm/s     r/s     w/s    rkB/s    wkB/s avgrq-sz avgqu-sz   await r_await w_await  svctm  %util
nvme0n1           0.00     0.00    0.00    0.00     0.00     0.00     0.00     0.00    0.00    0.00    0.00   0.00   0.00
sda               0.00     0.00    0.00    0.00     0.00     0.00     0.00     0.00    0.00    0.00    0.00   0.00   0.00
sdc               0.00     0.00   74.00    0.00   296.00     0.00     8.00     3.08   40.92   40.92    0.00   9.09  67.30
sdb               0.00     0.00   98.00    0.00   392.00     0.00     8.00     4.76   47.97   47.97    0.00   9.18  90.00
sdd               0.00     0.00  102.00    0.00   408.00     0.00     8.00     3.98   39.87   39.87    0.00   9.14  93.20
md0               0.00     0.00  283.00    0.00  1132.00     0.00     8.00     0.00    0.00    0.00    0.00   0.00   0.00

avg-cpu:  %user   %nice %system %iowait  %steal   %idle
           0.00    0.00    0.03   30.21    0.00   69.76

Device:         rrqm/s   wrqm/s     r/s     w/s    rkB/s    wkB/s avgrq-sz avgqu-sz   await r_await w_await  svctm  %util
nvme0n1           0.00     0.00    0.00    0.00     0.00     0.00     0.00     0.00    0.00    0.00    0.00   0.00   0.00
sda               0.00     1.00    0.00    2.00     0.00    12.00    12.00     0.00    0.00    0.00    0.00   0.00   0.00
sdc               0.00     0.00  101.00    0.00   404.00     0.00     8.00     4.13   39.68   39.68    0.00   8.76  88.50
sdb               0.00     0.00  103.00    0.00   412.00     0.00     8.00     4.85   47.85   47.85    0.00   8.59  88.50
sdd               0.00     0.00  100.00    0.00   400.00     0.00     8.00     3.71   30.82   30.82    0.00   8.79  87.90
md0               0.00     0.00  304.00    0.00  1216.00     0.00     8.00     0.00    0.00    0.00    0.00   0.00   0.00

avg-cpu:  %user   %nice %system %iowait  %steal   %idle
           0.00    0.00    0.03   30.85    0.00   69.12

Device:         rrqm/s   wrqm/s     r/s     w/s    rkB/s    wkB/s avgrq-sz avgqu-sz   await r_await w_await  svctm  %util
nvme0n1           0.00     0.00    0.00    0.00     0.00     0.00     0.00     0.00    0.00    0.00    0.00   0.00   0.00
sda               0.00     0.00    0.00    0.00     0.00     0.00     0.00     0.00    0.00    0.00    0.00   0.00   0.00
sdc               0.00     0.00   98.00    0.00   392.00     0.00     8.00     3.82   40.86   40.86    0.00   8.93  87.50
sdb               0.00     0.00  109.00    0.00   436.00     0.00     8.00     5.41   47.50   47.50    0.00   8.54  93.10
sdd               0.00     0.00  106.00    0.00   424.00     0.00     8.00     4.10   42.17   42.17    0.00   8.87  94.00
md0               0.00     0.00  305.00    0.00  1220.00     0.00     8.00     0.00    0.00    0.00    0.00   0.00   0.00

avg-cpu:  %user   %nice %system %iowait  %steal   %idle
           0.00    0.00    0.06   29.13    0.00   70.80

Device:         rrqm/s   wrqm/s     r/s     w/s    rkB/s    wkB/s avgrq-sz avgqu-sz   await r_await w_await  svctm  %util
nvme0n1           0.00     0.00    0.00    0.00     0.00     0.00     0.00     0.00    0.00    0.00    0.00   0.00   0.00
sda               0.00     0.00    0.00    0.00     0.00     0.00     0.00     0.00    0.00    0.00    0.00   0.00   0.00
sdc               0.00     0.00  105.00    0.00   420.00     0.00     8.00     4.95   45.42   45.42    0.00   9.10  95.60
sdb               0.00     0.00  104.00    0.00   416.00     0.00     8.00     4.27   42.94   42.94    0.00   8.74  90.90
sdd               0.00     0.00  105.00    0.00   420.00     0.00     8.00     3.59   35.14   35.14    0.00   8.68  91.10
md0               0.00     0.00  322.00    0.00  1288.00     0.00     8.00     0.00    0.00    0.00    0.00   0.00   0.00

