Linux 4.17.2 (bench2) 	08/03/2018 	_x86_64_	(32 CPU)

avg-cpu:  %user   %nice %system %iowait  %steal   %idle
           1.91    0.00    1.56    1.57    0.00   94.97

Device:         rrqm/s   wrqm/s     r/s     w/s    rkB/s    wkB/s avgrq-sz avgqu-sz   await r_await w_await  svctm  %util
nvme0n1         939.37     5.10 18937.27  521.40 105927.18 11759.16    12.10     1.35    0.05    0.03    0.67   0.02  39.64
sda               0.12     0.82   14.16    0.58   163.98     8.52    23.42     0.00    0.33    0.32    0.44   0.07   0.10
sdc              33.85     0.17  117.49    0.31  1768.79    97.61    31.69     0.04    0.36   12.43  380.35   0.91  10.76
sdb              31.80     0.19  119.49    0.33  1766.86    97.44    31.12     0.48    3.98    2.85  411.64   0.85  10.23
sdd              34.04     0.17  117.03    0.26  1764.79    97.11    31.75     0.79    6.75    4.74  907.87   0.92  10.76
md0               0.00     0.00  456.53    1.21  6564.44   352.29    30.22     0.00    0.00    0.00    0.00   0.00   0.00

avg-cpu:  %user   %nice %system %iowait  %steal   %idle
           0.03    0.00    0.06   48.66    0.00   51.25

Device:         rrqm/s   wrqm/s     r/s     w/s    rkB/s    wkB/s avgrq-sz avgqu-sz   await r_await w_await  svctm  %util
nvme0n1           0.00     0.00    0.00    0.00     0.00     0.00     0.00     0.00    0.00    0.00    0.00   0.00   0.00
sda               0.00     0.00    3.00    0.00   100.00     0.00    66.67     0.00    0.33    0.33    0.00   0.33   0.10
sdc               0.00     0.00   59.00    0.00   236.00     0.00     8.00     4.18   70.47   70.47    0.00  14.46  85.30
sdb               0.00     0.00   67.00    0.00   268.00     0.00     8.00    11.91  151.37  151.37    0.00  14.49  97.10
sdd               0.00     0.00   68.00    0.00   272.00     0.00     8.00     8.25   88.87   88.87    0.00  13.87  94.30
md0               0.00     0.00  223.00    0.00   892.00     0.00     8.00     0.00    0.00    0.00    0.00   0.00   0.00

avg-cpu:  %user   %nice %system %iowait  %steal   %idle
           0.00    0.00    0.03   36.73    0.00   63.24

Device:         rrqm/s   wrqm/s     r/s     w/s    rkB/s    wkB/s avgrq-sz avgqu-sz   await r_await w_await  svctm  %util
nvme0n1           0.00     0.00    0.00    0.00     0.00     0.00     0.00     0.00    0.00    0.00    0.00   0.00   0.00
sda               0.00     0.00    0.00    0.00     0.00     0.00     0.00     0.00    0.00    0.00    0.00   0.00   0.00
sdc               0.00     0.00   65.00    0.00   260.00     0.00     8.00     4.16   49.08   49.08    0.00  11.31  73.50
sdb               0.00     0.00   78.00    0.00   312.00     0.00     8.00     7.86  116.87  116.87    0.00  11.41  89.00
sdd               0.00     0.00   84.00    0.00   336.00     0.00     8.00     9.68  136.05  136.05    0.00  11.24  94.40
md0               0.00     0.00  230.00    0.00   920.00     0.00     8.00     0.00    0.00    0.00    0.00   0.00   0.00

avg-cpu:  %user   %nice %system %iowait  %steal   %idle
           0.00    0.00    0.09   38.19    0.00   61.72

Device:         rrqm/s   wrqm/s     r/s     w/s    rkB/s    wkB/s avgrq-sz avgqu-sz   await r_await w_await  svctm  %util
nvme0n1           0.00     0.00    0.00    0.00     0.00     0.00     0.00     0.00    0.00    0.00    0.00   0.00   0.00
sda               0.00     0.00    0.00    0.00     0.00     0.00     0.00     0.00    0.00    0.00    0.00   0.00   0.00
sdc               0.00     0.00  117.00    0.00   468.00     0.00     8.00     9.63   87.16   87.16    0.00   8.24  96.40
sdb               0.00     0.00  105.00    0.00   420.00     0.00     8.00     6.58   66.68   66.68    0.00   8.55  89.80
sdd               0.00     0.00  112.00    0.00   448.00     0.00     8.00     6.24   59.72   59.72    0.00   8.11  90.80
md0               0.00     0.00  311.00    0.00  1244.00     0.00     8.00     0.00    0.00    0.00    0.00   0.00   0.00

avg-cpu:  %user   %nice %system %iowait  %steal   %idle
           0.00    0.00    0.03   41.24    0.00   58.72

Device:         rrqm/s   wrqm/s     r/s     w/s    rkB/s    wkB/s avgrq-sz avgqu-sz   await r_await w_await  svctm  %util
nvme0n1           0.00     0.00    0.00    0.00     0.00     0.00     0.00     0.00    0.00    0.00    0.00   0.00   0.00
sda               0.00    12.00    0.00    4.00     0.00    80.00    40.00     0.00    0.25    0.00    0.25   0.25   0.10
sdc               0.00     0.00  111.00    0.00   444.00     0.00     8.00     7.21   63.41   63.41    0.00   8.42  93.50
sdb               0.00     0.00  124.00    0.00   496.00     0.00     8.00    10.95   77.42   77.42    0.00   8.06 100.00
sdd               0.00     0.00  102.00    0.00   408.00     0.00     8.00     4.93   45.79   45.79    0.00   8.42  85.90
md0               0.00     0.00  355.00    0.00  1420.00     0.00     8.00     0.00    0.00    0.00    0.00   0.00   0.00

avg-cpu:  %user   %nice %system %iowait  %steal   %idle
           0.00    0.00    0.03   34.49    0.00   65.48

Device:         rrqm/s   wrqm/s     r/s     w/s    rkB/s    wkB/s avgrq-sz avgqu-sz   await r_await w_await  svctm  %util
nvme0n1           0.00     0.00    0.00    0.00     0.00     0.00     0.00     0.00    0.00    0.00    0.00   0.00   0.00
sda               0.00     0.00    0.00    0.00     0.00     0.00     0.00     0.00    0.00    0.00    0.00   0.00   0.00
sdc               0.00     0.00   93.00    0.00   372.00     0.00     8.00     6.25   68.22   68.22    0.00   8.33  77.50
sdb               0.00     0.00  124.00    0.00   496.00     0.00     8.00    10.26   93.37   93.37    0.00   7.95  98.60
sdd               0.00     0.00   89.00    0.00   356.00     0.00     8.00     4.22   50.46   50.46    0.00   8.21  73.10
md0               0.00     0.00  288.00    0.00  1152.00     0.00     8.00     0.00    0.00    0.00    0.00   0.00   0.00

avg-cpu:  %user   %nice %system %iowait  %steal   %idle
           0.00    0.00    0.09   39.07    0.00   60.83

Device:         rrqm/s   wrqm/s     r/s     w/s    rkB/s    wkB/s avgrq-sz avgqu-sz   await r_await w_await  svctm  %util
nvme0n1           0.00     0.00    0.00    0.00     0.00     0.00     0.00     0.00    0.00    0.00    0.00   0.00   0.00
sda               0.00     0.00    0.00    0.00     0.00     0.00     0.00     0.00    0.00    0.00    0.00   0.00   0.00
sdc               0.00     0.00  117.00    0.00   468.00     0.00     8.00     8.34   67.68   67.68    0.00   8.45  98.90
sdb               0.00     0.00  114.00    0.00   456.00     0.00     8.00     7.47   63.78   63.78    0.00   8.23  93.80
sdd               0.00     0.00  111.00    0.00   444.00     0.00     8.00     7.58   64.22   64.22    0.00   8.12  90.10
md0               0.00     0.00  356.00    0.00  1424.00     0.00     8.00     0.00    0.00    0.00    0.00   0.00   0.00

avg-cpu:  %user   %nice %system %iowait  %steal   %idle
           0.00    0.00    0.03   34.30    0.00   65.67

Device:         rrqm/s   wrqm/s     r/s     w/s    rkB/s    wkB/s avgrq-sz avgqu-sz   await r_await w_await  svctm  %util
nvme0n1           0.00     0.00    0.00    0.00     0.00     0.00     0.00     0.00    0.00    0.00    0.00   0.00   0.00
sda               0.00     0.00    0.00    0.00     0.00     0.00     0.00     0.00    0.00    0.00    0.00   0.00   0.00
sdc               0.00     0.00   90.00    0.00   360.00     0.00     8.00     4.32   56.42   56.42    0.00   8.82  79.40
sdb               0.00     0.00  101.00    0.00   404.00     0.00     8.00     8.65   85.42   85.42    0.00   8.17  82.50
sdd               0.00     0.00  124.00    0.00   496.00     0.00     8.00     6.92   58.36   58.36    0.00   7.77  96.30
md0               0.00     0.00  324.00    0.00  1296.00     0.00     8.00     0.00    0.00    0.00    0.00   0.00   0.00

avg-cpu:  %user   %nice %system %iowait  %steal   %idle
           0.00    0.00    0.03   39.12    0.00   60.85

Device:         rrqm/s   wrqm/s     r/s     w/s    rkB/s    wkB/s avgrq-sz avgqu-sz   await r_await w_await  svctm  %util
nvme0n1           0.00     0.00    0.00    0.00     0.00     0.00     0.00     0.00    0.00    0.00    0.00   0.00   0.00
sda               0.00     0.00    0.00    0.00     0.00     0.00     0.00     0.00    0.00    0.00    0.00   0.00   0.00
sdc               0.00     0.00  126.00    0.00   504.00     0.00     8.00    10.29   76.33   76.33    0.00   7.82  98.50
sdb               0.00     0.00   97.00    0.00   388.00     0.00     8.00     5.75   55.72   55.72    0.00   8.16  79.20
sdd               0.00     0.00   98.00    0.00   392.00     0.00     8.00     5.77   56.33   56.33    0.00   8.33  81.60
md0               0.00     0.00  315.00    0.00  1260.00     0.00     8.00     0.00    0.00    0.00    0.00   0.00   0.00

avg-cpu:  %user   %nice %system %iowait  %steal   %idle
           0.00    0.00    0.12   36.08    0.00   63.79

Device:         rrqm/s   wrqm/s     r/s     w/s    rkB/s    wkB/s avgrq-sz avgqu-sz   await r_await w_await  svctm  %util
nvme0n1           0.00     0.00    0.00    0.00     0.00     0.00     0.00     0.00    0.00    0.00    0.00   0.00   0.00
sda               0.00     0.00    0.00    0.00     0.00     0.00     0.00     0.00    0.00    0.00    0.00   0.00   0.00
sdc               0.00     0.00  107.00    0.00   428.00     0.00     8.00     6.16   60.77   60.77    0.00   8.34  89.20
sdb               0.00     0.00  106.00    0.00   424.00     0.00     8.00     6.09   61.88   61.88    0.00   8.59  91.10
sdd               0.00     0.00  124.00    0.00   496.00     0.00     8.00     9.12   71.26   71.26    0.00   7.88  97.70
md0               0.00     0.00  343.00    0.00  1372.00     0.00     8.00     0.00    0.00    0.00    0.00   0.00   0.00

avg-cpu:  %user   %nice %system %iowait  %steal   %idle
           0.00    0.00    0.09   40.64    0.00   59.27

Device:         rrqm/s   wrqm/s     r/s     w/s    rkB/s    wkB/s avgrq-sz avgqu-sz   await r_await w_await  svctm  %util
nvme0n1           0.00     0.00    0.00    0.00     0.00     0.00     0.00     0.00    0.00    0.00    0.00   0.00   0.00
sda               0.00     1.00    0.00    2.00     0.00    12.00    12.00     0.00    0.00    0.00    0.00   0.00   0.00
sdc               0.00     0.00  119.00    0.00   476.00     0.00     8.00     7.43   66.66   66.66    0.00   8.24  98.10
sdb               0.00     0.00  117.00    0.00   468.00     0.00     8.00     9.69   77.91   77.91    0.00   8.34  97.60
sdd               0.00     0.00  109.00    0.00   436.00     0.00     8.00     5.71   58.50   58.50    0.00   8.32  90.70
md0               0.00     0.00  321.00    0.00  1284.00     0.00     8.00     0.00    0.00    0.00    0.00   0.00   0.00

avg-cpu:  %user   %nice %system %iowait  %steal   %idle
           0.03    0.00    0.06   39.44    0.00   60.47

Device:         rrqm/s   wrqm/s     r/s     w/s    rkB/s    wkB/s avgrq-sz avgqu-sz   await r_await w_await  svctm  %util
nvme0n1           0.00     0.00    0.00    0.00     0.00     0.00     0.00     0.00    0.00    0.00    0.00   0.00   0.00
sda               0.00     0.00    0.00    0.00     0.00     0.00     0.00     0.00    0.00    0.00    0.00   0.00   0.00
sdc               0.00     0.00   99.00    0.00   396.00     0.00     8.00     6.47   56.71   56.71    0.00   8.57  84.80
sdb               0.00     0.00  115.00    0.00   460.00     0.00     8.00     9.03   81.48   81.48    0.00   8.51  97.90
sdd               0.00     0.00  110.00    0.00   440.00     0.00     8.00     6.74   54.68   54.68    0.00   8.25  90.70
md0               0.00     0.00  345.00    0.00  1380.00     0.00     8.00     0.00    0.00    0.00    0.00   0.00   0.00

avg-cpu:  %user   %nice %system %iowait  %steal   %idle
           0.00    0.00    0.03   34.88    0.00   65.09

Device:         rrqm/s   wrqm/s     r/s     w/s    rkB/s    wkB/s avgrq-sz avgqu-sz   await r_await w_await  svctm  %util
nvme0n1           0.00     0.00    0.00    0.00     0.00     0.00     0.00     0.00    0.00    0.00    0.00   0.00   0.00
sda               0.00     0.00    0.00    0.00     0.00     0.00     0.00     0.00    0.00    0.00    0.00   0.00   0.00
sdc               0.00     0.00  103.00    0.00   412.00     0.00     8.00     4.58   51.75   51.75    0.00   8.57  88.30
sdb               0.00     0.00  105.00    0.00   420.00     0.00     8.00     6.29   63.33   63.33    0.00   8.70  91.40
sdd               0.00     0.00  123.00    0.00   492.00     0.00     8.00    10.81   93.24   93.24    0.00   7.89  97.00
md0               0.00     0.00  334.00    0.00  1336.00     0.00     8.00     0.00    0.00    0.00    0.00   0.00   0.00

avg-cpu:  %user   %nice %system %iowait  %steal   %idle
           0.00    0.00    0.03   40.68    0.00   59.29

Device:         rrqm/s   wrqm/s     r/s     w/s    rkB/s    wkB/s avgrq-sz avgqu-sz   await r_await w_await  svctm  %util
nvme0n1           0.00     0.00    0.00    0.00     0.00     0.00     0.00     0.00    0.00    0.00    0.00   0.00   0.00
sda               0.00     0.00    0.00    0.00     0.00     0.00     0.00     0.00    0.00    0.00    0.00   0.00   0.00
sdc               0.00     0.00  120.00    0.00   480.00     0.00     8.00     8.51   70.70   70.70    0.00   8.30  99.60
sdb               0.00     0.00  109.00    0.00   436.00     0.00     8.00     7.87   62.55   62.55    0.00   7.54  82.20
sdd               0.00     0.00  107.00    0.00   428.00     0.00     8.00     6.55   54.80   54.80    0.00   7.97  85.30
md0               0.00     0.00  326.00    0.00  1304.00     0.00     8.00     0.00    0.00    0.00    0.00   0.00   0.00

avg-cpu:  %user   %nice %system %iowait  %steal   %idle
           0.00    0.00    0.19   36.98    0.00   62.84

Device:         rrqm/s   wrqm/s     r/s     w/s    rkB/s    wkB/s avgrq-sz avgqu-sz   await r_await w_await  svctm  %util
nvme0n1           0.00     0.00    0.00    0.00     0.00     0.00     0.00     0.00    0.00    0.00    0.00   0.00   0.00
sda               0.00     0.00    0.00    0.00     0.00     0.00     0.00     0.00    0.00    0.00    0.00   0.00   0.00
sdc               0.00     0.00  105.00    0.00   420.00     0.00     8.00     6.94   62.81   62.81    0.00   8.08  84.80
sdb               0.00     0.00  112.00    0.00   448.00     0.00     8.00     6.73   66.96   66.96    0.00   8.41  94.20
sdd               0.00     0.00  121.00    0.00   484.00     0.00     8.00     8.07   66.74   66.74    0.00   8.07  97.60
md0               0.00     0.00  348.00    0.00  1392.00     0.00     8.00     0.00    0.00    0.00    0.00   0.00   0.00

avg-cpu:  %user   %nice %system %iowait  %steal   %idle
           0.00    0.00    0.03   33.98    0.00   65.99

Device:         rrqm/s   wrqm/s     r/s     w/s    rkB/s    wkB/s avgrq-sz avgqu-sz   await r_await w_await  svctm  %util
nvme0n1           0.00     0.00    0.00    0.00     0.00     0.00     0.00     0.00    0.00    0.00    0.00   0.00   0.00
sda               0.00     1.00    0.00    2.00     0.00    12.00    12.00     0.00    0.00    0.00    0.00   0.00   0.00
sdc               0.00     0.00  114.00    0.00   456.00     0.00     8.00     7.77   72.39   72.39    0.00   8.13  92.70
sdb               0.00     0.00  106.00    0.00   424.00     0.00     8.00     6.06   59.92   59.92    0.00   8.51  90.20
sdd               0.00     0.00  120.00    0.00   480.00     0.00     8.00     8.48   73.67   73.67    0.00   7.45  89.40
md0               0.00     0.00  314.00    0.00  1256.00     0.00     8.00     0.00    0.00    0.00    0.00   0.00   0.00

avg-cpu:  %user   %nice %system %iowait  %steal   %idle
           0.03    0.00    0.09   38.88    0.00   61.00

Device:         rrqm/s   wrqm/s     r/s     w/s    rkB/s    wkB/s avgrq-sz avgqu-sz   await r_await w_await  svctm  %util
nvme0n1           0.00     0.00    0.00    0.00     0.00     0.00     0.00     0.00    0.00    0.00    0.00   0.00   0.00
sda               0.00     0.00    0.00    0.00     0.00     0.00     0.00     0.00    0.00    0.00    0.00   0.00   0.00
sdc               0.00     0.00  122.00    0.00   488.00     0.00     8.00    12.73   94.30   94.30    0.00   7.80  95.20
sdb               0.00     0.00   95.00    0.00   380.00     0.00     8.00     4.79   49.76   49.76    0.00   8.49  80.70
sdd               0.00     0.00  103.00    0.00   412.00     0.00     8.00     5.02   47.40   47.40    0.00   8.60  88.60
md0               0.00     0.00  344.00    0.00  1376.00     0.00     8.00     0.00    0.00    0.00    0.00   0.00   0.00

avg-cpu:  %user   %nice %system %iowait  %steal   %idle
           0.00    0.00    0.03   31.68    0.00   68.29

Device:         rrqm/s   wrqm/s     r/s     w/s    rkB/s    wkB/s avgrq-sz avgqu-sz   await r_await w_await  svctm  %util
nvme0n1           0.00     0.00    0.00    0.00     0.00     0.00     0.00     0.00    0.00    0.00    0.00   0.00   0.00
sda               0.00     0.00    0.00    0.00     0.00     0.00     0.00     0.00    0.00    0.00    0.00   0.00   0.00
sdc               0.00     0.00  114.00    0.00   456.00     0.00     8.00     9.10   90.46   90.46    0.00   8.75  99.80
sdb               0.00     0.00   82.00    0.00   328.00     0.00     8.00     4.61   46.52   46.52    0.00   8.61  70.60
sdd               0.00     0.00  108.00    0.00   432.00     0.00     8.00     7.22   66.90   66.90    0.00   7.94  85.80
md0               0.00     0.00  292.00    0.00  1168.00     0.00     8.00     0.00    0.00    0.00    0.00   0.00   0.00

avg-cpu:  %user   %nice %system %iowait  %steal   %idle
           0.00    0.00    0.03   33.52    0.00   66.45

Device:         rrqm/s   wrqm/s     r/s     w/s    rkB/s    wkB/s avgrq-sz avgqu-sz   await r_await w_await  svctm  %util
nvme0n1           0.00     0.00    0.00    0.00     0.00     0.00     0.00     0.00    0.00    0.00    0.00   0.00   0.00
sda               0.00     0.00    0.00    0.00     0.00     0.00     0.00     0.00    0.00    0.00    0.00   0.00   0.00
sdc               0.00     0.00  106.00    0.00   424.00     0.00     8.00     9.24   80.36   80.36    0.00   7.97  84.50
sdb               0.00     0.00  105.00    0.00   420.00     0.00     8.00     7.37   74.06   74.06    0.00   8.36  87.80
sdd               0.00     0.00   94.00    0.00   376.00     0.00     8.00     3.98   45.41   45.41    0.00   8.28  77.80
md0               0.00     0.00  319.00    0.00  1276.00     0.00     8.00     0.00    0.00    0.00    0.00   0.00   0.00

avg-cpu:  %user   %nice %system %iowait  %steal   %idle
           0.00    0.00    0.03   36.49    0.00   63.48

Device:         rrqm/s   wrqm/s     r/s     w/s    rkB/s    wkB/s avgrq-sz avgqu-sz   await r_await w_await  svctm  %util
nvme0n1           0.00     0.00    0.00    0.00     0.00     0.00     0.00     0.00    0.00    0.00    0.00   0.00   0.00
sda               0.00     2.00    0.00   14.00     0.00    64.00     9.14     0.00    0.00    0.00    0.00   0.00   0.00
sdc               0.00     0.00  110.00    0.00   440.00     0.00     8.00     6.88   68.12   68.12    0.00   8.46  93.10
sdb               0.00     0.00  118.00    0.00   472.00     0.00     8.00     9.88   87.72   87.72    0.00   8.28  97.70
sdd               0.00     0.00  109.00    0.00   436.00     0.00     8.00     6.10   52.32   52.32    0.00   8.19  89.30
md0               0.00     0.00  318.00    0.00  1272.00     0.00     8.00     0.00    0.00    0.00    0.00   0.00   0.00

avg-cpu:  %user   %nice %system %iowait  %steal   %idle
           0.00    0.00    0.03   41.16    0.00   58.81

Device:         rrqm/s   wrqm/s     r/s     w/s    rkB/s    wkB/s avgrq-sz avgqu-sz   await r_await w_await  svctm  %util
nvme0n1           0.00     0.00    0.00    0.00     0.00     0.00     0.00     0.00    0.00    0.00    0.00   0.00   0.00
sda               0.00     1.00    0.00    2.00     0.00    12.00    12.00     0.00    0.00    0.00    0.00   0.00   0.00
sdc               0.00     0.00   99.00    0.00   396.00     0.00     8.00     5.28   50.63   50.63    0.00   8.42  83.40
sdb               0.00     0.00  114.00    0.00   456.00     0.00     8.00     8.91   66.98   66.98    0.00   8.10  92.30
sdd               0.00     0.00  124.00    0.00   496.00     0.00     8.00     8.61   72.73   72.73    0.00   7.88  97.70
md0               0.00     0.00  353.00    0.00  1412.00     0.00     8.00     0.00    0.00    0.00    0.00   0.00   0.00

