Linux 4.17.2 (bench2) 	08/03/2018 	_x86_64_	(32 CPU)

avg-cpu:  %user   %nice %system %iowait  %steal   %idle
           1.90    0.00    1.55    1.59    0.00   94.96

Device:         rrqm/s   wrqm/s     r/s     w/s    rkB/s    wkB/s avgrq-sz avgqu-sz   await r_await w_await  svctm  %util
nvme0n1         934.28     5.07 18834.76  518.58 105353.79 11695.51    12.10     1.34    0.05    0.03    0.67   0.02  39.43
sda               0.12     0.82   14.17    0.58   164.01     8.53    23.40     0.00    0.33    0.32    0.44   0.07   0.10
sdc              34.25     0.17  120.82    0.31  1819.03    97.08    31.64     0.08    0.66   12.34  380.35   0.91  10.99
sdb              32.22     0.19  122.81    0.33  1817.07    96.91    31.09     0.51    4.15    3.05  411.64   0.85  10.45
sdd              34.45     0.17  120.37    0.26  1815.05    96.58    31.70     0.83    6.84    4.90  907.87   0.91  10.99
md0               0.00     0.00  467.76    1.21  6758.43   350.38    30.32     0.00    0.00    0.00    0.00   0.00   0.00

avg-cpu:  %user   %nice %system %iowait  %steal   %idle
           0.01    0.00    0.20   12.51    0.00   87.28

Device:         rrqm/s   wrqm/s     r/s     w/s    rkB/s    wkB/s avgrq-sz avgqu-sz   await r_await w_await  svctm  %util
nvme0n1           0.00     0.00    0.00    0.00     0.00     0.00     0.00     0.00    0.00    0.00    0.00   0.00   0.00
sda               0.00     0.80    0.20    0.50     5.20     7.40    36.00     0.00    0.07    0.25    0.00   0.07   0.01
sdc               0.70     0.00  600.65    0.00  5412.00     0.00    18.02     1.61    2.69    2.69    0.00   1.07  64.41
sdb               0.60     0.00  615.80    0.00  5410.80     0.00    17.57     1.79    2.91    2.91    0.00   1.07  65.65
sdd               0.65     0.00  614.95    0.00  5521.00     0.00    17.96     1.69    2.75    2.75    0.00   1.03  63.22
md0               0.00     0.00 1833.75    0.00 17864.20     0.00    19.48     0.00    0.00    0.00    0.00   0.00   0.00

