Linux 4.17.2 (bench2) 	08/03/2018 	_x86_64_	(32 CPU)

avg-cpu:  %user   %nice %system %iowait  %steal   %idle
           1.91    0.00    1.56    1.55    0.00   94.98

Device:         rrqm/s   wrqm/s     r/s     w/s    rkB/s    wkB/s avgrq-sz avgqu-sz   await r_await w_await  svctm  %util
nvme0n1         944.05     5.13 19031.60  524.00 106454.84 11817.74    12.10     1.35    0.05    0.03    0.67   0.02  39.84
sda               0.12     0.81   14.15    0.58   163.96     8.52    23.43     0.00    0.33    0.32    0.44   0.07   0.10
sdc              33.43     0.18  114.26    0.31  1720.59    98.10    31.75     0.01    0.07   12.54  380.35   0.92  10.55
sdb              31.38     0.19  116.27    0.33  1718.69    97.92    31.16     0.45    3.82    2.65  411.64   0.86  10.03
sdd              33.63     0.17  113.80    0.26  1716.60    97.59    31.81     0.76    6.68    4.60  907.87   0.93  10.56
md0               0.00     0.00  445.63    1.22  6377.77   354.04    30.13     0.00    0.00    0.00    0.00   0.00   0.00

avg-cpu:  %user   %nice %system %iowait  %steal   %idle
           0.01    0.00    0.06    0.05    0.00   99.88

Device:         rrqm/s   wrqm/s     r/s     w/s    rkB/s    wkB/s avgrq-sz avgqu-sz   await r_await w_await  svctm  %util
nvme0n1           0.00     0.00    0.00    0.00     0.00     0.00     0.00     0.00    0.00    0.00    0.00   0.00   0.00
sda               0.00     1.30   24.35    0.70   126.00     8.80    10.76     0.01    0.36    0.36    0.21   0.04   0.09
sdc               0.75     0.00  267.75    0.00  1074.00     0.00     8.02    16.34   60.91   60.91    0.00   3.23  86.50
sdb               0.50     0.00  269.45    0.00  1079.80     0.00     8.01    16.78   62.22   62.22    0.00   3.27  88.23
sdd               0.65     0.00  273.85    0.00  1098.00     0.00     8.02    17.29   62.85   62.85    0.00   3.27  89.58
md0               0.00     0.00  814.30    0.00  3257.20     0.00     8.00     0.00    0.00    0.00    0.00   0.00   0.00

