Linux 4.17.2 (bench2) 	08/03/2018 	_x86_64_	(32 CPU)

avg-cpu:  %user   %nice %system %iowait  %steal   %idle
           1.91    0.00    1.56    1.55    0.00   94.98

Device:         rrqm/s   wrqm/s     r/s     w/s    rkB/s    wkB/s avgrq-sz avgqu-sz   await r_await w_await  svctm  %util
nvme0n1         944.23     5.13 19035.20  524.10 106474.98 11819.98    12.10     1.35    0.05    0.03    0.67   0.02  39.85
sda               0.12     0.81   14.15    0.58   163.96     8.52    23.43     0.00    0.33    0.32    0.44   0.07   0.10
sdc              33.44     0.18  114.24    0.31  1720.76    98.12    31.75     0.01    0.05   12.53  380.35   0.92  10.54
sdb              31.38     0.19  116.26    0.33  1718.85    97.94    31.17     0.44    3.81    2.64  411.64   0.86  10.02
sdd              33.64     0.17  113.78    0.26  1716.77    97.61    31.82     0.76    6.67    4.59  907.87   0.92  10.55
md0               0.00     0.00  445.60    1.22  6378.50   354.11    30.14     0.00    0.00    0.00    0.00   0.00   0.00

avg-cpu:  %user   %nice %system %iowait  %steal   %idle
           0.22    0.00    3.39    0.80    0.00   95.59

Device:         rrqm/s   wrqm/s     r/s     w/s    rkB/s    wkB/s avgrq-sz avgqu-sz   await r_await w_await  svctm  %util
nvme0n1           0.00     0.00    0.00    0.00     0.00     0.00     0.00     0.00    0.00    0.00    0.00   0.00   0.00
sda               0.00     0.00    4.00    0.00   104.00     0.00    52.00     0.00    0.50    0.50    0.00   0.50   0.20
sdc               0.00     0.00 2168.00    0.00  8672.00     0.00     8.00     3.21    1.48    1.48    0.00   0.16  33.80
sdb               0.00     0.00 2233.00    0.00  8932.00     0.00     8.00     3.26    1.47    1.47    0.00   0.15  33.70
sdd               0.00     0.00 2265.00    0.00  9060.00     0.00     8.00     3.16    1.40    1.40    0.00   0.14  32.40
md0               0.00     0.00 6668.00    0.00 26672.00     0.00     8.00     0.00    0.00    0.00    0.00   0.00   0.00

avg-cpu:  %user   %nice %system %iowait  %steal   %idle
           0.28    0.00    5.48    0.82    0.00   93.42

Device:         rrqm/s   wrqm/s     r/s     w/s    rkB/s    wkB/s avgrq-sz avgqu-sz   await r_await w_await  svctm  %util
nvme0n1           0.00     0.00    0.00    0.00     0.00     0.00     0.00     0.00    0.00    0.00    0.00   0.00   0.00
sda               0.00     0.00    0.00    0.00     0.00     0.00     0.00     0.00    0.00    0.00    0.00   0.00   0.00
sdc               0.00     0.00 2697.00    0.00 10788.00     0.00     8.00     5.20    1.95    1.95    0.00   0.14  37.00
sdb               0.00     0.00 2561.00    0.00 10244.00     0.00     8.00     4.40    1.73    1.73    0.00   0.14  34.70
sdd               0.00     0.00 2694.00    0.00 10776.00     0.00     8.00     4.59    1.72    1.72    0.00   0.13  35.90
md0               0.00     0.00 7976.00    0.00 31904.00     0.00     8.00     0.00    0.00    0.00    0.00   0.00   0.00

avg-cpu:  %user   %nice %system %iowait  %steal   %idle
           0.16    0.00    4.76    0.79    0.00   94.29

Device:         rrqm/s   wrqm/s     r/s     w/s    rkB/s    wkB/s avgrq-sz avgqu-sz   await r_await w_await  svctm  %util
nvme0n1           0.00     0.00    0.00    0.00     0.00     0.00     0.00     0.00    0.00    0.00    0.00   0.00   0.00
sda               0.00     0.00    0.00    0.00     0.00     0.00     0.00     0.00    0.00    0.00    0.00   0.00   0.00
sdc               0.00     0.00 2628.00    0.00 10512.00     0.00     8.00     5.01    1.93    1.93    0.00   0.14  36.40
sdb               0.00     0.00 2519.00    0.00 10076.00     0.00     8.00     4.84    1.93    1.93    0.00   0.14  34.60
sdd               0.00     0.00 2764.00    0.00 11056.00     0.00     8.00     5.11    1.85    1.85    0.00   0.13  36.10
md0               0.00     0.00 7901.00    0.00 31604.00     0.00     8.00     0.00    0.00    0.00    0.00   0.00   0.00

avg-cpu:  %user   %nice %system %iowait  %steal   %idle
           0.28    0.00    6.04    0.75    0.00   92.93

Device:         rrqm/s   wrqm/s     r/s     w/s    rkB/s    wkB/s avgrq-sz avgqu-sz   await r_await w_await  svctm  %util
nvme0n1           0.00     0.00    0.00    0.00     0.00     0.00     0.00     0.00    0.00    0.00    0.00   0.00   0.00
sda               0.00     0.00    0.00    0.00     0.00     0.00     0.00     0.00    0.00    0.00    0.00   0.00   0.00
sdc               0.00     0.00 2562.00    0.00 10248.00     0.00     8.00     4.26    1.70    1.70    0.00   0.12  31.70
sdb               0.00     0.00 2780.00    0.00 11120.00     0.00     8.00     5.65    2.05    2.05    0.00   0.14  39.20
sdd               0.00     0.00 2551.00    0.00 10204.00     0.00     8.00     4.93    1.95    1.95    0.00   0.14  36.40
md0               0.00     0.00 7903.00    0.00 31612.00     0.00     8.00     0.00    0.00    0.00    0.00   0.00   0.00

avg-cpu:  %user   %nice %system %iowait  %steal   %idle
           0.28    0.00    5.22    0.85    0.00   93.64

Device:         rrqm/s   wrqm/s     r/s     w/s    rkB/s    wkB/s avgrq-sz avgqu-sz   await r_await w_await  svctm  %util
nvme0n1           0.00     0.00    0.00    0.00     0.00     0.00     0.00     0.00    0.00    0.00    0.00   0.00   0.00
sda               0.00     0.00    0.00    0.00     0.00     0.00     0.00     0.00    0.00    0.00    0.00   0.00   0.00
sdc               0.00     0.00 2903.00    0.00 11612.00     0.00     8.00     5.07    1.75    1.75    0.00   0.13  36.90
sdb               0.00     0.00 2723.00    0.00 10892.00     0.00     8.00     5.16    1.92    1.92    0.00   0.13  36.30
sdd               0.00     0.00 2712.00    0.00 10848.00     0.00     8.00     4.65    1.74    1.74    0.00   0.13  34.70
md0               0.00     0.00 8330.00    0.00 33320.00     0.00     8.00     0.00    0.00    0.00    0.00   0.00   0.00

avg-cpu:  %user   %nice %system %iowait  %steal   %idle
           0.13    0.00    4.42    0.70    0.00   94.75

Device:         rrqm/s   wrqm/s     r/s     w/s    rkB/s    wkB/s avgrq-sz avgqu-sz   await r_await w_await  svctm  %util
nvme0n1           0.00     0.00    0.00    0.00     0.00     0.00     0.00     0.00    0.00    0.00    0.00   0.00   0.00
sda               2.00    13.00  107.00    5.00   648.00    72.00    12.86     0.02    0.21    0.22    0.00   0.04   0.50
sdc               0.00     0.00 2606.00    0.00 10424.00     0.00     8.00     4.65    1.81    1.81    0.00   0.13  34.90
sdb               0.00     0.00 2525.00    0.00 10100.00     0.00     8.00     4.72    1.89    1.89    0.00   0.14  35.40
sdd               0.00     0.00 2585.00    0.00 10340.00     0.00     8.00     5.11    1.99    1.99    0.00   0.15  37.60
md0               0.00     0.00 7726.00    0.00 30904.00     0.00     8.00     0.00    0.00    0.00    0.00   0.00   0.00

avg-cpu:  %user   %nice %system %iowait  %steal   %idle
           0.13    0.00    5.00    0.76    0.00   94.12

Device:         rrqm/s   wrqm/s     r/s     w/s    rkB/s    wkB/s avgrq-sz avgqu-sz   await r_await w_await  svctm  %util
nvme0n1           0.00     0.00    0.00    0.00     0.00     0.00     0.00     0.00    0.00    0.00    0.00   0.00   0.00
sda               0.00     0.00    0.00    0.00     0.00     0.00     0.00     0.00    0.00    0.00    0.00   0.00   0.00
sdc               0.00     0.00 2513.00    0.00 10052.00     0.00     8.00     5.04    2.03    2.03    0.00   0.14  34.20
sdb               0.00     0.00 2681.00    0.00 10724.00     0.00     8.00     4.99    1.89    1.89    0.00   0.13  35.30
sdd               0.00     0.00 2530.00    0.00 10120.00     0.00     8.00     5.58    2.20    2.20    0.00   0.15  38.10
md0               0.00     0.00 7713.00    0.00 30852.00     0.00     8.00     0.00    0.00    0.00    0.00   0.00   0.00

avg-cpu:  %user   %nice %system %iowait  %steal   %idle
           0.19    0.00    5.17    0.82    0.00   93.82

Device:         rrqm/s   wrqm/s     r/s     w/s    rkB/s    wkB/s avgrq-sz avgqu-sz   await r_await w_await  svctm  %util
nvme0n1           0.00     0.00    0.00    0.00     0.00     0.00     0.00     0.00    0.00    0.00    0.00   0.00   0.00
sda               0.00     0.00    0.00    0.00     0.00     0.00     0.00     0.00    0.00    0.00    0.00   0.00   0.00
sdc               0.00     0.00 2606.00    0.00 10424.00     0.00     8.00     5.28    2.03    2.03    0.00   0.14  36.70
sdb               0.00     0.00 2540.00    0.00 10160.00     0.00     8.00     4.68    1.86    1.86    0.00   0.14  35.30
sdd               0.00     0.00 2687.00    0.00 10748.00     0.00     8.00     5.17    1.95    1.95    0.00   0.13  35.90
md0               0.00     0.00 7838.00    0.00 31352.00     0.00     8.00     0.00    0.00    0.00    0.00   0.00   0.00

avg-cpu:  %user   %nice %system %iowait  %steal   %idle
           0.19    0.00    5.29    0.70    0.00   93.82

Device:         rrqm/s   wrqm/s     r/s     w/s    rkB/s    wkB/s avgrq-sz avgqu-sz   await r_await w_await  svctm  %util
nvme0n1           0.00     0.00    0.00    0.00     0.00     0.00     0.00     0.00    0.00    0.00    0.00   0.00   0.00
sda               0.00     0.00    0.00    0.00     0.00     0.00     0.00     0.00    0.00    0.00    0.00   0.00   0.00
sdc               0.00     0.00 2760.00    0.00 11040.00     0.00     8.00     5.00    1.83    1.83    0.00   0.13  36.60
sdb               0.00     0.00 2783.00    0.00 11132.00     0.00     8.00     4.71    1.70    1.70    0.00   0.12  33.00
sdd               0.00     0.00 2777.00    0.00 11108.00     0.00     8.00     5.46    1.99    1.99    0.00   0.13  37.20
md0               0.00     0.00 8310.00    0.00 33240.00     0.00     8.00     0.00    0.00    0.00    0.00   0.00   0.00

avg-cpu:  %user   %nice %system %iowait  %steal   %idle
           0.06    0.00    5.12    0.70    0.00   94.12

Device:         rrqm/s   wrqm/s     r/s     w/s    rkB/s    wkB/s avgrq-sz avgqu-sz   await r_await w_await  svctm  %util
nvme0n1           0.00     0.00    0.00    0.00     0.00     0.00     0.00     0.00    0.00    0.00    0.00   0.00   0.00
sda               0.00     0.00    0.00    0.00     0.00     0.00     0.00     0.00    0.00    0.00    0.00   0.00   0.00
sdc               0.00     0.00 2740.00    0.00 10960.00     0.00     8.00     5.46    2.02    2.02    0.00   0.14  38.90
sdb               0.00     0.00 2461.00    0.00  9844.00     0.00     8.00     4.28    1.77    1.77    0.00   0.14  33.70
sdd               0.00     0.00 2645.00    0.00 10580.00     0.00     8.00     5.09    1.95    1.95    0.00   0.14  37.20
md0               0.00     0.00 7853.00    0.00 31412.00     0.00     8.00     0.00    0.00    0.00    0.00   0.00   0.00

avg-cpu:  %user   %nice %system %iowait  %steal   %idle
           0.19    0.00    5.47    0.79    0.00   93.55

Device:         rrqm/s   wrqm/s     r/s     w/s    rkB/s    wkB/s avgrq-sz avgqu-sz   await r_await w_await  svctm  %util
nvme0n1           0.00     0.00    0.00    0.00     0.00     0.00     0.00     0.00    0.00    0.00    0.00   0.00   0.00
sda               0.00    11.00    0.00    3.00     0.00    72.00    48.00     0.00    0.00    0.00    0.00   0.00   0.00
sdc               0.00     0.00 2533.00    0.00 10132.00     0.00     8.00     4.52    1.82    1.82    0.00   0.14  34.80
sdb               0.00     0.00 2639.00    0.00 10556.00     0.00     8.00     4.89    1.86    1.86    0.00   0.14  38.20
sdd               0.00     0.00 2657.00    0.00 10628.00     0.00     8.00     5.10    1.95    1.95    0.00   0.13  35.20
md0               0.00     0.00 7829.00    0.00 31316.00     0.00     8.00     0.00    0.00    0.00    0.00   0.00   0.00

avg-cpu:  %user   %nice %system %iowait  %steal   %idle
           0.19    0.00    5.51    0.66    0.00   93.64

Device:         rrqm/s   wrqm/s     r/s     w/s    rkB/s    wkB/s avgrq-sz avgqu-sz   await r_await w_await  svctm  %util
nvme0n1           0.00     0.00    0.00    0.00     0.00     0.00     0.00     0.00    0.00    0.00    0.00   0.00   0.00
sda               0.00     0.00    0.00    0.00     0.00     0.00     0.00     0.00    0.00    0.00    0.00   0.00   0.00
sdc               0.00     0.00 2668.00    0.00 10672.00     0.00     8.00     5.56    2.10    2.10    0.00   0.14  36.20
sdb               0.00     0.00 2618.00    0.00 10472.00     0.00     8.00     4.26    1.64    1.64    0.00   0.12  31.70
sdd               0.00     0.00 2784.00    0.00 11136.00     0.00     8.00     5.45    1.98    1.98    0.00   0.14  39.10
md0               0.00     0.00 8069.00    0.00 32276.00     0.00     8.00     0.00    0.00    0.00    0.00   0.00   0.00

avg-cpu:  %user   %nice %system %iowait  %steal   %idle
           0.22    0.00    5.87    0.72    0.00   93.19

Device:         rrqm/s   wrqm/s     r/s     w/s    rkB/s    wkB/s avgrq-sz avgqu-sz   await r_await w_await  svctm  %util
nvme0n1           0.00     0.00    0.00    0.00     0.00     0.00     0.00     0.00    0.00    0.00    0.00   0.00   0.00
sda               0.00     0.00    0.00    0.00     0.00     0.00     0.00     0.00    0.00    0.00    0.00   0.00   0.00
sdc               0.00     0.00 2666.00    0.00 10664.00     0.00     8.00     4.51    1.72    1.72    0.00   0.12  32.00
sdb               0.00     0.00 2709.00    0.00 10836.00     0.00     8.00     5.28    1.99    1.99    0.00   0.14  36.90
sdd               0.00     0.00 2666.00    0.00 10664.00     0.00     8.00     5.05    1.92    1.92    0.00   0.13  35.60
md0               0.00     0.00 8025.00    0.00 32100.00     0.00     8.00     0.00    0.00    0.00    0.00   0.00   0.00

avg-cpu:  %user   %nice %system %iowait  %steal   %idle
           0.25    0.00    4.72    0.76    0.00   94.26

Device:         rrqm/s   wrqm/s     r/s     w/s    rkB/s    wkB/s avgrq-sz avgqu-sz   await r_await w_await  svctm  %util
nvme0n1           0.00     0.00    0.00    0.00     0.00     0.00     0.00     0.00    0.00    0.00    0.00   0.00   0.00
sda               0.00     0.00    0.00    0.00     0.00     0.00     0.00     0.00    0.00    0.00    0.00   0.00   0.00
sdc               0.00     0.00 2583.00    0.00 10332.00     0.00     8.00     5.13    2.02    2.02    0.00   0.16  41.60
sdb               0.00     0.00 2569.00    0.00 10276.00     0.00     8.00     4.09    1.62    1.62    0.00   0.11  29.50
sdd               0.00     0.00 2754.00    0.00 11016.00     0.00     8.00     4.46    1.64    1.64    0.00   0.12  33.60
md0               0.00     0.00 7910.00    0.00 31640.00     0.00     8.00     0.00    0.00    0.00    0.00   0.00   0.00

avg-cpu:  %user   %nice %system %iowait  %steal   %idle
           0.16    0.00    4.81    0.70    0.00   94.33

Device:         rrqm/s   wrqm/s     r/s     w/s    rkB/s    wkB/s avgrq-sz avgqu-sz   await r_await w_await  svctm  %util
nvme0n1           0.00     0.00    0.00    0.00     0.00     0.00     0.00     0.00    0.00    0.00    0.00   0.00   0.00
sda               0.00     0.00    0.00    0.00     0.00     0.00     0.00     0.00    0.00    0.00    0.00   0.00   0.00
sdc               0.00     0.00 2488.00    0.00  9952.00     0.00     8.00     4.72    1.91    1.91    0.00   0.13  33.40
sdb               0.00     0.00 2523.00    0.00 10092.00     0.00     8.00     4.85    1.96    1.96    0.00   0.14  35.40
sdd               0.00     0.00 2649.00    0.00 10596.00     0.00     8.00     5.32    2.03    2.03    0.00   0.15  39.30
md0               0.00     0.00 7661.00    0.00 30644.00     0.00     8.00     0.00    0.00    0.00    0.00   0.00   0.00

avg-cpu:  %user   %nice %system %iowait  %steal   %idle
           0.22    0.00    5.65    0.73    0.00   93.40

Device:         rrqm/s   wrqm/s     r/s     w/s    rkB/s    wkB/s avgrq-sz avgqu-sz   await r_await w_await  svctm  %util
nvme0n1           0.00     0.00    0.00    0.00     0.00     0.00     0.00     0.00    0.00    0.00    0.00   0.00   0.00
sda               0.00     6.93    0.00   20.79     0.00   110.89    10.67     0.00    0.05    0.00    0.05   0.05   0.10
sdc               0.00     0.00 2622.77    0.00 10491.09     0.00     8.00     4.31    1.69    1.69    0.00   0.12  31.98
sdb               0.00     0.00 2700.99    0.00 10803.96     0.00     8.00     4.85    1.83    1.83    0.00   0.13  33.86
sdd               0.00     0.00 3012.87    0.00 12051.49     0.00     8.00     5.93    1.99    1.99    0.00   0.13  40.50
md0               0.00     0.00 8361.39    0.00 33445.54     0.00     8.00     0.00    0.00    0.00    0.00   0.00   0.00

avg-cpu:  %user   %nice %system %iowait  %steal   %idle
           0.19    0.00    4.85    0.79    0.00   94.16

Device:         rrqm/s   wrqm/s     r/s     w/s    rkB/s    wkB/s avgrq-sz avgqu-sz   await r_await w_await  svctm  %util
nvme0n1           0.00     0.00    0.00    0.00     0.00     0.00     0.00     0.00    0.00    0.00    0.00   0.00   0.00
sda               0.00     0.00    0.00    0.00     0.00     0.00     0.00     0.00    0.00    0.00    0.00   0.00   0.00
sdc               0.00     0.00 2838.00    0.00 11352.00     0.00     8.00     5.14    1.83    1.83    0.00   0.13  37.00
sdb               0.00     0.00 2591.00    0.00 10364.00     0.00     8.00     4.30    1.67    1.67    0.00   0.13  34.00
sdd               0.00     0.00 2625.00    0.00 10500.00     0.00     8.00     5.02    1.94    1.94    0.00   0.14  36.30
md0               0.00     0.00 8027.00    0.00 32108.00     0.00     8.00     0.00    0.00    0.00    0.00   0.00   0.00

avg-cpu:  %user   %nice %system %iowait  %steal   %idle
           0.19    0.00    5.39    0.66    0.00   93.77

Device:         rrqm/s   wrqm/s     r/s     w/s    rkB/s    wkB/s avgrq-sz avgqu-sz   await r_await w_await  svctm  %util
nvme0n1           0.00     0.00    0.00    0.00     0.00     0.00     0.00     0.00    0.00    0.00    0.00   0.00   0.00
sda               0.00     0.00    0.00    0.00     0.00     0.00     0.00     0.00    0.00    0.00    0.00   0.00   0.00
sdc               0.00     0.00 2383.00    0.00  9532.00     0.00     8.00     5.11    2.17    2.17    0.00   0.18  42.70
sdb               0.00     0.00 2460.00    0.00  9840.00     0.00     8.00     4.56    1.88    1.88    0.00   0.13  32.60
sdd               0.00     0.00 2201.00    0.00  8804.00     0.00     8.00     4.49    2.06    2.06    0.00   0.14  29.80
md0               0.00     0.00 7043.00    0.00 28172.00     0.00     8.00     0.00    0.00    0.00    0.00   0.00   0.00

avg-cpu:  %user   %nice %system %iowait  %steal   %idle
           0.28    0.00    5.68    0.82    0.00   93.21

Device:         rrqm/s   wrqm/s     r/s     w/s    rkB/s    wkB/s avgrq-sz avgqu-sz   await r_await w_await  svctm  %util
nvme0n1           0.00     0.00    0.00    0.00     0.00     0.00     0.00     0.00    0.00    0.00    0.00   0.00   0.00
sda               0.00     0.00    0.00    0.00     0.00     0.00     0.00     0.00    0.00    0.00    0.00   0.00   0.00
sdc               0.00     0.00 2825.00    0.00 11300.00     0.00     8.00     4.76    1.72    1.72    0.00   0.13  36.30
sdb               0.00     0.00 2794.00    0.00 11176.00     0.00     8.00     5.23    1.87    1.87    0.00   0.13  35.20
sdd               0.00     0.00 2895.00    0.00 11580.00     0.00     8.00     4.73    1.67    1.67    0.00   0.12  35.40
md0               0.00     0.00 8517.00    0.00 34068.00     0.00     8.00     0.00    0.00    0.00    0.00   0.00   0.00

avg-cpu:  %user   %nice %system %iowait  %steal   %idle
           0.13    0.00    3.63    0.54    0.00   95.70

Device:         rrqm/s   wrqm/s     r/s     w/s    rkB/s    wkB/s avgrq-sz avgqu-sz   await r_await w_await  svctm  %util
nvme0n1           0.00     0.00    0.00    0.00     0.00     0.00     0.00     0.00    0.00    0.00    0.00   0.00   0.00
sda               0.00     0.00    0.00    0.00     0.00     0.00     0.00     0.00    0.00    0.00    0.00   0.00   0.00
sdc               0.00     0.00 2259.00    0.00  9036.00     0.00     8.00     6.68    2.98    2.98    0.00   0.20  44.90
sdb               0.00     0.00 2217.00    0.00  8868.00     0.00     8.00     4.19    1.93    1.93    0.00   0.13  29.60
sdd               0.00     0.00 2319.00    0.00  9276.00     0.00     8.00     4.58    2.00    2.00    0.00   0.13  31.10
md0               0.00     0.00 6806.00    0.00 27224.00     0.00     8.00     0.00    0.00    0.00    0.00   0.00   0.00

