Linux 4.17.2 (bench2) 	08/03/2018 	_x86_64_	(32 CPU)

avg-cpu:  %user   %nice %system %iowait  %steal   %idle
           1.91    0.00    1.56    1.55    0.00   94.98

Device:         rrqm/s   wrqm/s     r/s     w/s    rkB/s    wkB/s avgrq-sz avgqu-sz   await r_await w_await  svctm  %util
nvme0n1         944.46     5.13 19040.00  524.23 106501.82 11822.95    12.10     1.36    0.05    0.03    0.67   0.02  39.86
sda               0.12     0.81   14.15    0.58   163.96     8.52    23.43     0.00    0.33    0.32    0.44   0.07   0.10
sdc              33.44     0.18  113.95    0.31  1712.53    98.14    31.69     0.01    0.05   12.56  380.35   0.92  10.53
sdb              31.38     0.19  115.96    0.33  1710.63    97.97    31.10     0.44    3.81    2.64  411.64   0.86  10.01
sdd              33.63     0.17  113.49    0.26  1708.54    97.64    31.76     0.76    6.68    4.59  907.87   0.93  10.54
md0               0.00     0.00  444.70    1.22  6344.31   354.20    30.04     0.00    0.00    0.00    0.00   0.00   0.00

avg-cpu:  %user   %nice %system %iowait  %steal   %idle
           0.06    0.00    0.86    0.34    0.00   98.75

Device:         rrqm/s   wrqm/s     r/s     w/s    rkB/s    wkB/s avgrq-sz avgqu-sz   await r_await w_await  svctm  %util
nvme0n1           0.00     0.00    0.00    0.00     0.00     0.00     0.00     0.00    0.00    0.00    0.00   0.00   0.00
sda               0.00     1.20    0.25    0.55     5.40     7.80    33.00     0.00    0.19    0.20    0.18   0.19   0.01
sdc               0.05     0.00 1248.45    0.00  4994.00     0.00     8.00     3.95    3.17    3.17    0.00   0.43  53.27
sdb               0.05     0.00 1242.45    0.00  4970.20     0.00     8.00     3.06    2.46    2.46    0.00   0.33  40.75
sdd               0.00     0.00 1242.20    0.00  4968.80     0.00     8.00     3.41    2.75    2.75    0.00   0.37  45.53
md0               0.00     0.00 3733.90    0.00 14935.60     0.00     8.00     0.00    0.00    0.00    0.00   0.00   0.00

