Linux 4.17.2 (bench2) 	08/03/2018 	_x86_64_	(32 CPU)

avg-cpu:  %user   %nice %system %iowait  %steal   %idle
           1.91    0.00    1.56    1.56    0.00   94.97

Device:         rrqm/s   wrqm/s     r/s     w/s    rkB/s    wkB/s avgrq-sz avgqu-sz   await r_await w_await  svctm  %util
nvme0n1         942.50     5.12 19000.47  523.14 106280.72 11798.41    12.10     1.35    0.05    0.03    0.67   0.02  39.78
sda               0.12     0.81   14.15    0.58   163.94     8.52    23.42     0.00    0.33    0.32    0.44   0.07   0.10
sdc              33.74     0.18  115.11    0.31  1742.87    97.94    31.90     0.03    0.28   12.64  380.35   0.92  10.64
sdb              31.69     0.19  117.12    0.33  1740.95    97.76    31.31     0.47    3.99    2.83  411.64   0.86  10.11
sdd              33.93     0.17  114.65    0.26  1738.87    97.43    31.96     0.79    6.83    4.77  907.87   0.93  10.64
md0               0.00     0.00  449.10    1.22  6466.07   353.46    30.29     0.00    0.00    0.00    0.00   0.00   0.00

avg-cpu:  %user   %nice %system %iowait  %steal   %idle
           0.07    0.00    0.50    2.53    0.00   96.90

Device:         rrqm/s   wrqm/s     r/s     w/s    rkB/s    wkB/s avgrq-sz avgqu-sz   await r_await w_await  svctm  %util
nvme0n1           0.00     0.00    0.00    0.00     0.00     0.00     0.00     0.00    0.00    0.00    0.00   0.00   0.00
sda               0.75     1.05    1.85    0.45    12.40     6.80    16.70     0.00    0.15    0.14    0.22   0.07   0.01
sdc               0.00     0.00 2037.50    0.00  8151.20     0.00     8.00     0.30    0.15    0.15    0.00   0.15  30.14
sdb               0.00     0.00 2029.20    0.00  8116.80     0.00     8.00     0.28    0.14    0.14    0.00   0.14  28.28
sdd               0.00     0.00 2002.45    0.00  8009.80     0.00     8.00     0.28    0.14    0.14    0.00   0.14  27.95
md0               0.00     0.00 6069.15    0.00 24276.60     0.00     8.00     0.00    0.00    0.00    0.00   0.00   0.00

