Linux 4.17.2 (bench2) 	08/03/2018 	_x86_64_	(32 CPU)

avg-cpu:  %user   %nice %system %iowait  %steal   %idle
           1.91    0.00    1.56    1.55    0.00   94.98

Device:         rrqm/s   wrqm/s     r/s     w/s    rkB/s    wkB/s avgrq-sz avgqu-sz   await r_await w_await  svctm  %util
nvme0n1         944.23     5.13 19035.21  524.10 106475.06 11819.98    12.10     1.35    0.05    0.03    0.67   0.02  39.85
sda               0.12     0.81   14.15    0.58   163.96     8.52    23.43     0.00    0.33    0.32    0.44   0.07   0.10
sdc              33.44     0.18  114.24    0.31  1720.75    98.12    31.76     0.01    0.05   12.53  380.35   0.92  10.54
sdb              31.38     0.19  116.26    0.33  1718.85    97.94    31.17     0.44    3.81    2.64  411.64   0.86  10.02
sdd              33.64     0.17  113.78    0.26  1716.76    97.61    31.82     0.76    6.67    4.59  907.87   0.92  10.55
md0               0.00     0.00  445.59    1.22  6378.48   354.11    30.14     0.00    0.00    0.00    0.00   0.00   0.00

avg-cpu:  %user   %nice %system %iowait  %steal   %idle
           0.16    0.00    3.49    0.91    0.00   95.44

Device:         rrqm/s   wrqm/s     r/s     w/s    rkB/s    wkB/s avgrq-sz avgqu-sz   await r_await w_await  svctm  %util
nvme0n1           0.00     0.00    0.00    0.00     0.00     0.00     0.00     0.00    0.00    0.00    0.00   0.00   0.00
sda               0.00     0.00    1.00    0.00     8.00     0.00    16.00     0.00    0.00    0.00    0.00   0.00   0.00
sdc               0.00     0.00 2721.00    0.00 10896.00     0.00     8.01     5.18    1.91    1.91    0.00   0.14  37.50
sdb               0.00     0.00 2400.00    0.00  9600.00     0.00     8.00     4.75    1.96    1.96    0.00   0.15  36.00
sdd               0.00     0.00 2521.00    0.00 10084.00     0.00     8.00     4.65    1.86    1.86    0.00   0.14  36.50
md0               0.00     0.00 7667.00    0.00 30668.00     0.00     8.00     0.00    0.00    0.00    0.00   0.00   0.00

avg-cpu:  %user   %nice %system %iowait  %steal   %idle
           0.31    0.00    6.68    0.78    0.00   92.23

Device:         rrqm/s   wrqm/s     r/s     w/s    rkB/s    wkB/s avgrq-sz avgqu-sz   await r_await w_await  svctm  %util
nvme0n1           0.00     0.00    0.00    0.00     0.00     0.00     0.00     0.00    0.00    0.00    0.00   0.00   0.00
sda               0.00    10.00    0.00    2.00     0.00    48.00    48.00     0.00    0.00    0.00    0.00   0.00   0.00
sdc               0.00     0.00 2666.00    0.00 10664.00     0.00     8.00     5.14    1.97    1.97    0.00   0.14  36.70
sdb               0.00     0.00 2720.00    0.00 10880.00     0.00     8.00     5.09    1.91    1.91    0.00   0.14  37.50
sdd               0.00     0.00 2709.00    0.00 10836.00     0.00     8.00     4.81    1.78    1.78    0.00   0.13  34.40
md0               0.00     0.00 8093.00    0.00 32372.00     0.00     8.00     0.00    0.00    0.00    0.00   0.00   0.00

