type: aio
filename: /mnt/raid/prefetch/prefetch-2048
I/O mode: BUFFERED
workload: SEQUENTIAL
duration: 20
queue size: 8
test mode: TEST
file size: 2147483648
file pages: 524288
start probability: 0.010
continue probability: 0.900
processed 4528 requests 4508.88 r/s elapsed 1.00
processed 9112 requests 4552.29 r/s elapsed 2.00
processed 13600 requests 4522.27 r/s elapsed 3.01
processed 17376 requests 4339.55 r/s elapsed 4.00
processed 22120 requests 4423.48 r/s elapsed 5.00
processed 26888 requests 4474.67 r/s elapsed 6.01
processed 31032 requests 4431.17 r/s elapsed 7.00
processed 35064 requests 4380.99 r/s elapsed 8.00
processed 38912 requests 4321.75 r/s elapsed 9.00
processed 42952 requests 4291.72 r/s elapsed 10.01
processed 46792 requests 4253.75 r/s elapsed 11.00
processed 52152 requests 4342.85 r/s elapsed 12.01
processed 57984 requests 4448.55 r/s elapsed 13.03
processed 63552 requests 4538.93 r/s elapsed 14.00
processed 68056 requests 4536.77 r/s elapsed 15.00
processed 73672 requests 4599.02 r/s elapsed 16.02
processed 77944 requests 4584.17 r/s elapsed 17.00
processed 82040 requests 4557.27 r/s elapsed 18.00
processed 86488 requests 4552.00 r/s elapsed 19.00
processed 91056 requests 4550.39 r/s elapsed 20.01
TOTAL: 91056 requests 4550.39 r/s elapsed 20.01
