type: aio
filename: /mnt/raid/prefetch/prefetch-2048
I/O mode: BUFFERED
workload: SEQUENTIAL
duration: 20
queue size: 128
test mode: TEST
file size: 2147483648
file pages: 524288
start probability: 0.010
continue probability: 0.100
processed 640 requests 512.09 r/s elapsed 1.25
processed 1024 requests 491.58 r/s elapsed 2.08
processed 1536 requests 495.87 r/s elapsed 3.10
processed 2048 requests 499.80 r/s elapsed 4.10
processed 2560 requests 497.23 r/s elapsed 5.15
processed 3072 requests 496.86 r/s elapsed 6.18
processed 3584 requests 500.43 r/s elapsed 7.16
processed 4096 requests 501.11 r/s elapsed 8.17
processed 4608 requests 500.99 r/s elapsed 9.20
processed 5120 requests 503.81 r/s elapsed 10.16
processed 5632 requests 502.64 r/s elapsed 11.20
processed 6144 requests 501.52 r/s elapsed 12.25
processed 6528 requests 501.65 r/s elapsed 13.01
processed 7040 requests 501.55 r/s elapsed 14.04
processed 7552 requests 502.86 r/s elapsed 15.02
processed 8064 requests 503.85 r/s elapsed 16.00
processed 8704 requests 506.37 r/s elapsed 17.19
processed 9216 requests 507.88 r/s elapsed 18.15
processed 9728 requests 508.79 r/s elapsed 19.12
processed 10240 requests 508.94 r/s elapsed 20.12
TOTAL: 10240 requests 508.94 r/s elapsed 20.12
