type: aio
filename: /mnt/raid/prefetch/prefetch-2048
I/O mode: BUFFERED
workload: SEQUENTIAL
duration: 20
queue size: 8
test mode: TEST
file size: 2147483648
file pages: 524288
start probability: 0.100
continue probability: 0.100
processed 6792 requests 6789.08 r/s elapsed 1.00
processed 14064 requests 7023.31 r/s elapsed 2.00
processed 21000 requests 6998.51 r/s elapsed 3.00
processed 28208 requests 7050.49 r/s elapsed 4.00
processed 35168 requests 7033.04 r/s elapsed 5.00
processed 42248 requests 7040.63 r/s elapsed 6.00
processed 49416 requests 7059.18 r/s elapsed 7.00
processed 56280 requests 7034.26 r/s elapsed 8.00
processed 63232 requests 7023.00 r/s elapsed 9.00
processed 71224 requests 7119.93 r/s elapsed 10.00
processed 79152 requests 7195.36 r/s elapsed 11.00
processed 86008 requests 7167.27 r/s elapsed 12.00
processed 93152 requests 7165.34 r/s elapsed 13.00
processed 100248 requests 7160.32 r/s elapsed 14.00
processed 107480 requests 7165.23 r/s elapsed 15.00
processed 114280 requests 7141.84 r/s elapsed 16.00
processed 121080 requests 7122.22 r/s elapsed 17.00
processed 128384 requests 7131.43 r/s elapsed 18.00
processed 139672 requests 7351.06 r/s elapsed 19.00
processed 148384 requests 7418.90 r/s elapsed 20.00
TOTAL: 148384 requests 7418.90 r/s elapsed 20.00
