type: aio
filename: /mnt/raid/prefetch/prefetch-2048
I/O mode: DIRECT
workload: SEQUENTIAL
duration: 20
queue size: 1024
test mode: TEST
file size: 2147483648
file pages: 524288
start probability: 0.010
continue probability: 0.100
processed 2048 requests 1076.63 r/s elapsed 1.90
processed 3072 requests 1064.48 r/s elapsed 2.89
processed 4096 requests 1054.95 r/s elapsed 3.88
processed 5120 requests 1063.01 r/s elapsed 4.82
processed 6144 requests 1042.52 r/s elapsed 5.89
processed 7168 requests 1047.56 r/s elapsed 6.84
processed 8192 requests 1049.07 r/s elapsed 7.81
processed 9216 requests 1050.78 r/s elapsed 8.77
processed 10240 requests 1054.40 r/s elapsed 9.71
processed 11264 requests 1054.89 r/s elapsed 10.68
processed 12288 requests 1055.00 r/s elapsed 11.65
processed 13312 requests 1056.96 r/s elapsed 12.59
processed 14336 requests 1058.08 r/s elapsed 13.55
processed 15360 requests 1059.78 r/s elapsed 14.49
processed 16384 requests 1059.56 r/s elapsed 15.46
processed 17408 requests 1057.03 r/s elapsed 16.47
processed 18432 requests 1058.71 r/s elapsed 17.41
processed 19456 requests 1059.50 r/s elapsed 18.36
processed 20480 requests 1062.16 r/s elapsed 19.28
processed 21504 requests 1062.71 r/s elapsed 20.24
TOTAL: 21504 requests 1062.71 r/s elapsed 20.24
