type: fadvise
filename: /mnt/raid/prefetch/prefetch-2048
I/O mode: BUFFERED
workload: SEQUENTIAL
duration: 20
queue size: 128
test mode: TEST
file size: 2147483648
file pages: 524288
start probability: 0.010
continue probability: 0.900
processed 5760 requests 5675.26 r/s elapsed 1.01
processed 11136 requests 5488.98 r/s elapsed 2.03
processed 15872 requests 5286.51 r/s elapsed 3.00
processed 21760 requests 5405.88 r/s elapsed 4.03
processed 27392 requests 5452.01 r/s elapsed 5.02
processed 33152 requests 5516.13 r/s elapsed 6.01
processed 38656 requests 5513.63 r/s elapsed 7.01
processed 43776 requests 5453.97 r/s elapsed 8.03
processed 49024 requests 5431.78 r/s elapsed 9.03
processed 54528 requests 5442.49 r/s elapsed 10.02
processed 59776 requests 5424.58 r/s elapsed 11.02
processed 65024 requests 5404.06 r/s elapsed 12.03
processed 70272 requests 5398.23 r/s elapsed 13.02
processed 75776 requests 5407.18 r/s elapsed 14.01
processed 80768 requests 5379.22 r/s elapsed 15.01
processed 86144 requests 5382.64 r/s elapsed 16.00
processed 91264 requests 5362.97 r/s elapsed 17.02
processed 96768 requests 5373.43 r/s elapsed 18.01
processed 102528 requests 5388.62 r/s elapsed 19.03
processed 108288 requests 5406.66 r/s elapsed 20.03
TOTAL: 108288 requests 5406.66 r/s elapsed 20.03
