type: POSIX aio
filename: /mnt/raid/prefetch/prefetch-2048
I/O mode: BUFFERED
workload: SEQUENTIAL
duration: 20
threads: 1
queue size: 128
test mode: TEST
file size: 2147483648
file pages: 524288
start probability: 0.010
continue probability: 0.900
processed 5632 requests 5411.54 r/s elapsed 1.04
processed 9856 requests 4903.87 r/s elapsed 2.01
processed 14080 requests 4680.66 r/s elapsed 3.01
processed 18176 requests 4540.95 r/s elapsed 4.00
processed 23040 requests 4603.42 r/s elapsed 5.00
processed 27776 requests 4608.29 r/s elapsed 6.03
processed 31744 requests 4531.20 r/s elapsed 7.01
processed 35840 requests 4478.36 r/s elapsed 8.00
processed 39808 requests 4414.15 r/s elapsed 9.02
processed 44416 requests 4438.27 r/s elapsed 10.01
processed 48256 requests 4380.80 r/s elapsed 11.02
processed 55680 requests 4628.89 r/s elapsed 12.03
processed 61184 requests 4700.20 r/s elapsed 13.02
processed 66176 requests 4721.40 r/s elapsed 14.02
processed 71936 requests 4789.77 r/s elapsed 15.02
processed 76544 requests 4780.46 r/s elapsed 16.01
processed 81280 requests 4775.90 r/s elapsed 17.02
processed 86272 requests 4783.79 r/s elapsed 18.03
processed 90496 requests 4756.58 r/s elapsed 19.03
processed 95104 requests 4752.22 r/s elapsed 20.01
TOTAL: 95104 requests 4752.22 r/s elapsed 20.01
