type: POSIX aio
filename: /mnt/raid/prefetch/prefetch-2048
I/O mode: DIRECT
workload: SEQUENTIAL
duration: 20
threads: 8
queue size: 8
test mode: TEST
file size: 2147483648
file pages: 524288
start probability: 0.100
continue probability: 0.900
processed 6000 requests 5997.61 r/s elapsed 1.00
processed 12240 requests 6106.43 r/s elapsed 2.00
processed 18240 requests 6067.72 r/s elapsed 3.01
processed 24360 requests 6089.43 r/s elapsed 4.00
processed 30448 requests 6087.78 r/s elapsed 5.00
processed 36712 requests 6117.58 r/s elapsed 6.00
processed 42888 requests 6126.69 r/s elapsed 7.00
processed 49120 requests 6139.90 r/s elapsed 8.00
processed 55080 requests 6119.75 r/s elapsed 9.00
processed 60920 requests 6085.66 r/s elapsed 10.01
processed 66824 requests 6073.14 r/s elapsed 11.00
processed 73032 requests 6084.11 r/s elapsed 12.00
processed 79200 requests 6089.14 r/s elapsed 13.01
processed 85272 requests 6090.61 r/s elapsed 14.00
processed 91544 requests 6102.59 r/s elapsed 15.00
processed 97648 requests 6102.77 r/s elapsed 16.00
processed 103840 requests 6108.08 r/s elapsed 17.00
processed 109504 requests 6083.43 r/s elapsed 18.00
processed 115616 requests 6084.68 r/s elapsed 19.00
processed 121760 requests 6087.96 r/s elapsed 20.00
TOTAL: 121760 requests 6087.96 r/s elapsed 20.00
