type: POSIX aio
filename: /mnt/raid/prefetch/prefetch-2048
I/O mode: BUFFERED
workload: SEQUENTIAL
duration: 20
threads: 8
queue size: 32
test mode: TEST
file size: 2147483648
file pages: 524288
start probability: 0.010
continue probability: 0.500
processed 864 requests 854.80 r/s elapsed 1.01
processed 1760 requests 874.50 r/s elapsed 2.01
processed 2688 requests 885.73 r/s elapsed 3.03
processed 3616 requests 902.81 r/s elapsed 4.01
processed 4512 requests 895.94 r/s elapsed 5.04
processed 5376 requests 893.51 r/s elapsed 6.02
processed 6240 requests 889.39 r/s elapsed 7.02
processed 7168 requests 894.68 r/s elapsed 8.01
processed 8096 requests 895.60 r/s elapsed 9.04
processed 8992 requests 897.74 r/s elapsed 10.02
processed 9888 requests 897.37 r/s elapsed 11.02
processed 10784 requests 897.24 r/s elapsed 12.02
processed 11680 requests 895.30 r/s elapsed 13.05
processed 12544 requests 895.09 r/s elapsed 14.01
processed 13408 requests 891.90 r/s elapsed 15.03
processed 14272 requests 890.09 r/s elapsed 16.03
processed 15168 requests 889.10 r/s elapsed 17.06
processed 16032 requests 889.73 r/s elapsed 18.02
processed 16928 requests 888.95 r/s elapsed 19.04
processed 17760 requests 887.46 r/s elapsed 20.01
TOTAL: 17760 requests 887.46 r/s elapsed 20.01
