type: POSIX aio
filename: /mnt/raid/prefetch/prefetch-2048
I/O mode: DIRECT
workload: SEQUENTIAL
duration: 20
threads: 32
queue size: 32
test mode: TEST
file size: 2147483648
file pages: 524288
start probability: 0.100
continue probability: 0.100
processed 4544 requests 4520.33 r/s elapsed 1.01
processed 9280 requests 4636.01 r/s elapsed 2.00
processed 13792 requests 4590.98 r/s elapsed 3.00
processed 18272 requests 4563.33 r/s elapsed 4.00
processed 23072 requests 4613.43 r/s elapsed 5.00
processed 27840 requests 4629.09 r/s elapsed 6.01
processed 32544 requests 4647.41 r/s elapsed 7.00
processed 37376 requests 4670.25 r/s elapsed 8.00
processed 41984 requests 4662.58 r/s elapsed 9.00
processed 46656 requests 4664.11 r/s elapsed 10.00
processed 51328 requests 4664.11 r/s elapsed 11.00
processed 56160 requests 4677.37 r/s elapsed 12.01
processed 61056 requests 4694.71 r/s elapsed 13.01
processed 65792 requests 4698.75 r/s elapsed 14.00
processed 70112 requests 4670.96 r/s elapsed 15.01
processed 74912 requests 4681.43 r/s elapsed 16.00
processed 79200 requests 4657.93 r/s elapsed 17.00
processed 83520 requests 4638.19 r/s elapsed 18.01
processed 87968 requests 4627.64 r/s elapsed 19.01
processed 92544 requests 4625.81 r/s elapsed 20.01
TOTAL: 92544 requests 4625.81 r/s elapsed 20.01
