type: POSIX aio
filename: /mnt/raid/prefetch/prefetch-2048
I/O mode: BUFFERED
workload: SEQUENTIAL
duration: 20
threads: 16
queue size: 128
test mode: WARMUP
file size: 2147483648
file pages: 524288
start probability: 0.100
continue probability: 0.100
processed 6912 requests 6829.51 r/s elapsed 1.01
elapsed 1.01 : warmup interval speed 6829.51 previous 0.00
processed 13952 requests 6947.29 r/s elapsed 2.01
elapsed 2.01 : warmup interval speed 7066.95 previous 6829.51
within 5% of the preceding interval, warmup terminating
TOTAL: 13952 requests 6947.29 r/s elapsed 2.01
