type: POSIX aio
filename: /mnt/raid/prefetch/prefetch-2048
I/O mode: BUFFERED
workload: SEQUENTIAL
duration: 20
threads: 8
queue size: 32
test mode: TEST
file size: 2147483648
file pages: 524288
start probability: 0.010
continue probability: 0.900
processed 4928 requests 4902.51 r/s elapsed 1.01
processed 10016 requests 4964.89 r/s elapsed 2.02
processed 14464 requests 4795.20 r/s elapsed 3.02
processed 18624 requests 4654.99 r/s elapsed 4.00
processed 23232 requests 4636.36 r/s elapsed 5.01
processed 27136 requests 4521.50 r/s elapsed 6.00
processed 31552 requests 4505.63 r/s elapsed 7.00
processed 35936 requests 4491.69 r/s elapsed 8.00
processed 40224 requests 4465.99 r/s elapsed 9.01
processed 44864 requests 4484.41 r/s elapsed 10.00
processed 48800 requests 4435.61 r/s elapsed 11.00
processed 54592 requests 4545.26 r/s elapsed 12.01
processed 60640 requests 4662.12 r/s elapsed 13.01
processed 65600 requests 4684.15 r/s elapsed 14.00
processed 69792 requests 4650.81 r/s elapsed 15.01
processed 74432 requests 4650.71 r/s elapsed 16.00
processed 80000 requests 4703.52 r/s elapsed 17.01
processed 84864 requests 4713.99 r/s elapsed 18.00
processed 89760 requests 4720.72 r/s elapsed 19.01
processed 94208 requests 4709.49 r/s elapsed 20.00
TOTAL: 94208 requests 4709.49 r/s elapsed 20.00
