type: POSIX aio
filename: /mnt/raid/prefetch/prefetch-2048
I/O mode: BUFFERED
workload: RANDOM
duration: 20
threads: 32
queue size: 1024
test mode: WARMUP
file size: 2147483648
file pages: 524288
processed 1024 requests 155.74 r/s elapsed 6.57
elapsed 6.57 : warmup interval speed 155.74 previous 0.00
processed 2048 requests 156.76 r/s elapsed 13.06
elapsed 13.06 : warmup interval speed 157.78 previous 155.74
within 5% of the preceding interval, warmup terminating
TOTAL: 2048 requests 156.76 r/s elapsed 13.06
