type: POSIX aio
filename: /mnt/raid/prefetch/prefetch-2048
I/O mode: DIRECT
workload: RANDOM
duration: 20
threads: 1
queue size: 1
test mode: TEST
file size: 2147483648
file pages: 524288
processed 164 requests 163.47 r/s elapsed 1.00
processed 323 requests 161.40 r/s elapsed 2.00
processed 477 requests 158.54 r/s elapsed 3.01
processed 631 requests 157.51 r/s elapsed 4.01
processed 776 requests 155.08 r/s elapsed 5.00
processed 938 requests 156.30 r/s elapsed 6.00
processed 1089 requests 155.46 r/s elapsed 7.00
processed 1246 requests 155.70 r/s elapsed 8.00
processed 1401 requests 155.53 r/s elapsed 9.01
processed 1552 requests 155.18 r/s elapsed 10.00
processed 1706 requests 155.08 r/s elapsed 11.00
processed 1848 requests 153.99 r/s elapsed 12.00
processed 2008 requests 154.40 r/s elapsed 13.00
processed 2165 requests 154.57 r/s elapsed 14.01
processed 2311 requests 154.06 r/s elapsed 15.00
processed 2471 requests 154.34 r/s elapsed 16.01
processed 2628 requests 154.54 r/s elapsed 17.01
processed 2776 requests 154.21 r/s elapsed 18.00
processed 2935 requests 154.47 r/s elapsed 19.00
processed 3091 requests 154.51 r/s elapsed 20.01
TOTAL: 3091 requests 154.51 r/s elapsed 20.01
