type: POSIX aio
filename: /mnt/raid/prefetch/prefetch-2048
I/O mode: BUFFERED
workload: SEQUENTIAL
duration: 20
threads: 8
queue size: 8
test mode: TEST
file size: 2147483648
file pages: 524288
start probability: 0.100
continue probability: 0.900
processed 65864 requests 65584.48 r/s elapsed 1.00
processed 93696 requests 46825.15 r/s elapsed 2.00
processed 123712 requests 41179.13 r/s elapsed 3.00
processed 155432 requests 38789.74 r/s elapsed 4.01
processed 187064 requests 37373.34 r/s elapsed 5.01
processed 219424 requests 36563.76 r/s elapsed 6.00
processed 252008 requests 36000.21 r/s elapsed 7.00
processed 282048 requests 35223.96 r/s elapsed 8.01
processed 378456 requests 42050.52 r/s elapsed 9.00
processed 486728 requests 48672.71 r/s elapsed 10.00
processed 595624 requests 54147.64 r/s elapsed 11.00
processed 737088 requests 61423.90 r/s elapsed 12.00
processed 881464 requests 67804.82 r/s elapsed 13.00
processed 1031312 requests 73665.02 r/s elapsed 14.00
processed 1182000 requests 78799.87 r/s elapsed 15.00
processed 1332232 requests 83264.36 r/s elapsed 16.00
processed 1483936 requests 87290.14 r/s elapsed 17.00
processed 1635888 requests 90882.57 r/s elapsed 18.00
processed 1787336 requests 94070.25 r/s elapsed 19.00
processed 1939464 requests 96973.08 r/s elapsed 20.00
TOTAL: 1939464 requests 96973.08 r/s elapsed 20.00
