type: POSIX aio
filename: /mnt/raid/prefetch/prefetch-2048
I/O mode: BUFFERED
workload: SEQUENTIAL
duration: 20
threads: 1
queue size: 8
test mode: TEST
file size: 2147483648
file pages: 524288
start probability: 0.100
continue probability: 0.100
processed 6576 requests 6570.92 r/s elapsed 1.00
processed 13864 requests 6930.48 r/s elapsed 2.00
processed 20768 requests 6920.27 r/s elapsed 3.00
processed 27776 requests 6939.76 r/s elapsed 4.00
processed 34712 requests 6941.23 r/s elapsed 5.00
processed 41872 requests 6977.24 r/s elapsed 6.00
processed 48984 requests 6996.04 r/s elapsed 7.00
processed 55816 requests 6976.70 r/s elapsed 8.00
processed 62776 requests 6974.45 r/s elapsed 9.00
processed 70704 requests 7069.57 r/s elapsed 10.00
processed 78208 requests 7107.74 r/s elapsed 11.00
processed 85176 requests 7097.90 r/s elapsed 12.00
processed 92320 requests 7101.46 r/s elapsed 13.00
processed 99384 requests 7098.70 r/s elapsed 14.00
processed 106504 requests 7098.83 r/s elapsed 15.00
processed 113696 requests 7105.71 r/s elapsed 16.00
processed 120656 requests 7096.95 r/s elapsed 17.00
processed 127608 requests 7088.75 r/s elapsed 18.00
processed 138480 requests 7284.89 r/s elapsed 19.01
processed 145824 requests 7290.66 r/s elapsed 20.00
TOTAL: 145824 requests 7290.66 r/s elapsed 20.00
