type: pthread fadvise
filename: /mnt/raid/prefetch/prefetch-2048
I/O mode: BUFFERED
workload: SEQUENTIAL
duration: 20
threads: 16
queue size: 1024
test mode: WARMUP
file size: 2147483648
file pages: 524288
start probability: 0.100
continue probability: 0.500
processed 6144 requests 5299.00 r/s elapsed 1.16
elapsed 1.16 : warmup interval speed 5299.00 previous 0.00
processed 11264 requests 5202.42 r/s elapsed 2.17
elapsed 2.17 : warmup interval speed 5091.07 previous 5299.00
within 5% of the preceding interval, warmup terminating
TOTAL: 11264 requests 5202.42 r/s elapsed 2.17
