type: pthread fadvise
filename: /mnt/raid/prefetch/prefetch-2048
I/O mode: BUFFERED
workload: RANDOM
duration: 20
threads: 16
queue size: 32
test mode: WARMUP
file size: 2147483648
file pages: 524288
processed 1024 requests 377.13 r/s elapsed 2.72
elapsed 2.72 : warmup interval speed 377.13 previous 0.00
processed 1184 requests 388.04 r/s elapsed 3.05
elapsed 3.05 : warmup interval speed 476.19 previous 377.13
processed 1600 requests 398.53 r/s elapsed 4.01
elapsed 4.01 : warmup interval speed 431.74 previous 476.19
within 5% of the preceding interval, warmup terminating
TOTAL: 1600 requests 398.53 r/s elapsed 4.01
