type: pthread aio
filename: /mnt/raid/prefetch/prefetch-2048
I/O mode: BUFFERED
workload: SEQUENTIAL
duration: 20
threads: 8
queue size: 32
test mode: TEST
file size: 2147483648
file pages: 524288
start probability: 0.100
continue probability: 0.900
processed 128000 requests 53832.81 r/s elapsed 2.38
processed 161504 requests 42167.66 r/s elapsed 3.83
processed 168672 requests 41175.55 r/s elapsed 4.10
processed 205888 requests 36571.98 r/s elapsed 5.63
processed 219456 requests 35652.84 r/s elapsed 6.16
processed 249600 requests 33988.81 r/s elapsed 7.34
processed 271936 requests 33091.72 r/s elapsed 8.22
processed 308672 requests 34296.74 r/s elapsed 9.00
processed 551424 requests 55142.25 r/s elapsed 10.00
processed 1033184 requests 93925.66 r/s elapsed 11.00
processed 1557824 requests 129818.37 r/s elapsed 12.00
processed 2150752 requests 165441.94 r/s elapsed 13.00
processed 2744352 requests 196024.93 r/s elapsed 14.00
processed 3343232 requests 222881.75 r/s elapsed 15.00
processed 3952000 requests 246999.89 r/s elapsed 16.00
processed 4500288 requests 264722.47 r/s elapsed 17.00
processed 5036448 requests 279801.90 r/s elapsed 18.00
processed 5577088 requests 293530.14 r/s elapsed 19.00
processed 6118976 requests 305947.87 r/s elapsed 20.00
TOTAL: 6118976 requests 305947.87 r/s elapsed 20.00
