type: pthread aio
filename: /mnt/raid/prefetch/prefetch-2048
I/O mode: DIRECT
workload: SEQUENTIAL
duration: 20
threads: 1
queue size: 32
test mode: TEST
file size: 2147483648
file pages: 524288
start probability: 0.100
continue probability: 0.500
processed 6336 requests 6307.44 r/s elapsed 1.00
processed 12704 requests 6350.54 r/s elapsed 2.00
processed 19168 requests 6382.54 r/s elapsed 3.00
processed 25600 requests 6395.16 r/s elapsed 4.00
processed 32032 requests 6399.86 r/s elapsed 5.01
processed 38400 requests 6395.89 r/s elapsed 6.00
processed 44800 requests 6390.28 r/s elapsed 7.01
processed 51136 requests 6386.57 r/s elapsed 8.01
processed 57504 requests 6388.03 r/s elapsed 9.00
processed 63936 requests 6391.62 r/s elapsed 10.00
processed 70368 requests 6395.94 r/s elapsed 11.00
processed 76832 requests 6400.30 r/s elapsed 12.00
processed 83232 requests 6401.33 r/s elapsed 13.00
processed 89696 requests 6404.93 r/s elapsed 14.00
processed 96096 requests 6403.44 r/s elapsed 15.01
processed 102496 requests 6404.62 r/s elapsed 16.00
processed 108896 requests 6393.07 r/s elapsed 17.03
processed 115136 requests 6395.82 r/s elapsed 18.00
processed 121600 requests 6399.32 r/s elapsed 19.00
processed 128064 requests 6402.50 r/s elapsed 20.00
TOTAL: 128064 requests 6402.50 r/s elapsed 20.00
