type: pthread fadvise
filename: /mnt/raid/prefetch/prefetch-2048
I/O mode: BUFFERED
workload: SEQUENTIAL
duration: 20
threads: 8
queue size: 128
test mode: TEST
file size: 2147483648
file pages: 524288
start probability: 0.010
continue probability: 0.500
processed 1536 requests 1425.21 r/s elapsed 1.08
processed 2944 requests 1404.98 r/s elapsed 2.10
processed 4224 requests 1400.23 r/s elapsed 3.02
processed 5632 requests 1383.06 r/s elapsed 4.07
processed 7040 requests 1368.93 r/s elapsed 5.14
processed 8320 requests 1369.10 r/s elapsed 6.08
processed 9728 requests 1388.15 r/s elapsed 7.01
processed 11264 requests 1390.91 r/s elapsed 8.10
processed 12672 requests 1398.89 r/s elapsed 9.06
processed 14080 requests 1396.05 r/s elapsed 10.09
processed 15616 requests 1410.98 r/s elapsed 11.07
processed 17024 requests 1416.00 r/s elapsed 12.02
processed 18560 requests 1424.04 r/s elapsed 13.03
processed 20096 requests 1427.84 r/s elapsed 14.07
processed 21632 requests 1436.11 r/s elapsed 15.06
processed 23168 requests 1439.71 r/s elapsed 16.09
processed 24576 requests 1444.93 r/s elapsed 17.01
processed 26112 requests 1447.40 r/s elapsed 18.04
processed 27648 requests 1450.23 r/s elapsed 19.06
processed 29056 requests 1452.73 r/s elapsed 20.00
TOTAL: 29056 requests 1452.73 r/s elapsed 20.00
