type: pthread fadvise
filename: /mnt/raid/prefetch/prefetch-2048
I/O mode: BUFFERED
workload: SEQUENTIAL
duration: 20
threads: 1
queue size: 8
test mode: TEST
file size: 2147483648
file pages: 524288
start probability: 0.100
continue probability: 0.500
processed 11360 requests 11340.78 r/s elapsed 1.00
processed 23352 requests 11675.32 r/s elapsed 2.00
processed 35032 requests 11466.94 r/s elapsed 3.06
processed 46256 requests 11560.81 r/s elapsed 4.00
processed 57808 requests 11510.20 r/s elapsed 5.02
processed 69144 requests 11521.86 r/s elapsed 6.00
processed 80784 requests 11538.11 r/s elapsed 7.00
processed 92304 requests 11524.92 r/s elapsed 8.01
processed 103728 requests 11479.56 r/s elapsed 9.04
processed 114800 requests 11451.65 r/s elapsed 10.02
processed 126272 requests 11477.99 r/s elapsed 11.00
processed 137736 requests 11446.49 r/s elapsed 12.03
processed 149024 requests 11463.31 r/s elapsed 13.00
processed 160864 requests 11488.27 r/s elapsed 14.00
processed 172736 requests 11514.13 r/s elapsed 15.00
processed 184272 requests 11516.72 r/s elapsed 16.00
processed 195784 requests 11483.66 r/s elapsed 17.05
processed 206712 requests 11477.33 r/s elapsed 18.01
processed 218072 requests 11441.40 r/s elapsed 19.06
processed 229008 requests 11447.99 r/s elapsed 20.00
TOTAL: 229008 requests 11447.99 r/s elapsed 20.00
