type: pthread aio
filename: /mnt/raid/prefetch/prefetch-2048
I/O mode: BUFFERED
workload: SEQUENTIAL
duration: 20
threads: 16
queue size: 1024
test mode: WARMUP
file size: 2147483648
file pages: 524288
start probability: 0.010
continue probability: 0.900
processed 3072 requests 2298.19 r/s elapsed 1.34
elapsed 1.34 : warmup interval speed 2298.19 previous 0.00
processed 5120 requests 2250.02 r/s elapsed 2.28
elapsed 2.28 : warmup interval speed 2181.44 previous 2298.19
within 5% of the preceding interval, warmup terminating
TOTAL: 5120 requests 2250.02 r/s elapsed 2.28
