type: pthread aio
filename: /mnt/raid/prefetch/prefetch-2048
I/O mode: DIRECT
workload: SEQUENTIAL
duration: 20
threads: 32
queue size: 128
test mode: TEST
file size: 2147483648
file pages: 524288
start probability: 0.010
continue probability: 0.500
processed 1024 requests 719.37 r/s elapsed 1.42
processed 1536 requests 757.50 r/s elapsed 2.03
processed 2560 requests 845.08 r/s elapsed 3.03
processed 3456 requests 860.89 r/s elapsed 4.01
processed 4480 requests 893.21 r/s elapsed 5.02
processed 5632 requests 925.64 r/s elapsed 6.08
processed 6656 requests 949.28 r/s elapsed 7.01
processed 7808 requests 973.02 r/s elapsed 8.02
processed 8960 requests 990.42 r/s elapsed 9.05
processed 10240 requests 1013.51 r/s elapsed 10.10
processed 11264 requests 1020.43 r/s elapsed 11.04
processed 12416 requests 1029.80 r/s elapsed 12.06
processed 13440 requests 1032.32 r/s elapsed 13.02
processed 14720 requests 1045.12 r/s elapsed 14.08
processed 15872 requests 1049.42 r/s elapsed 15.12
processed 16896 requests 1054.06 r/s elapsed 16.03
processed 18048 requests 1060.63 r/s elapsed 17.02
processed 19200 requests 1063.82 r/s elapsed 18.05
processed 20224 requests 1063.84 r/s elapsed 19.01
processed 21376 requests 1065.73 r/s elapsed 20.06
TOTAL: 21376 requests 1065.73 r/s elapsed 20.06
