type: pthread aio
filename: /mnt/raid/prefetch/prefetch-2048
I/O mode: DIRECT
workload: SEQUENTIAL
duration: 20
threads: 32
queue size: 1024
test mode: TEST
file size: 2147483648
file pages: 524288
start probability: 0.010
continue probability: 0.500
processed 1024 requests 782.80 r/s elapsed 1.31
processed 2048 requests 788.78 r/s elapsed 2.60
processed 3072 requests 821.81 r/s elapsed 3.74
processed 4096 requests 844.07 r/s elapsed 4.85
processed 5120 requests 850.22 r/s elapsed 6.02
processed 6144 requests 856.43 r/s elapsed 7.17
processed 7168 requests 878.33 r/s elapsed 8.16
processed 8192 requests 887.39 r/s elapsed 9.23
processed 9216 requests 887.16 r/s elapsed 10.39
processed 10240 requests 883.12 r/s elapsed 11.60
processed 11264 requests 886.00 r/s elapsed 12.71
processed 12288 requests 891.06 r/s elapsed 13.79
processed 13312 requests 890.41 r/s elapsed 14.95
processed 14336 requests 889.45 r/s elapsed 16.12
processed 15360 requests 892.57 r/s elapsed 17.21
processed 16384 requests 897.65 r/s elapsed 18.25
processed 17408 requests 899.11 r/s elapsed 19.36
processed 18432 requests 898.96 r/s elapsed 20.50
TOTAL: 18432 requests 898.96 r/s elapsed 20.50
