type: pthread aio
filename: /mnt/raid/prefetch/prefetch-2048
I/O mode: BUFFERED
workload: SEQUENTIAL
duration: 20
threads: 1
queue size: 32
test mode: WARMUP
file size: 2147483648
file pages: 524288
start probability: 0.010
continue probability: 0.900
processed 4000 requests 3877.05 r/s elapsed 1.03
elapsed 1.03 : warmup interval speed 3877.05 previous 0.00
processed 7840 requests 3894.67 r/s elapsed 2.01
elapsed 2.01 : warmup interval speed 3913.20 previous 3877.05
within 5% of the preceding interval, warmup terminating
TOTAL: 7840 requests 3894.67 r/s elapsed 2.01
