type: pthread aio
filename: /mnt/raid/prefetch/prefetch-2048
I/O mode: DIRECT
workload: SEQUENTIAL
duration: 20
threads: 1
queue size: 1
test mode: TEST
file size: 2147483648
file pages: 524288
start probability: 0.010
continue probability: 0.100
processed 1000 requests 478.25 r/s elapsed 2.09
processed 1499 requests 499.38 r/s elapsed 3.00
processed 1997 requests 493.90 r/s elapsed 4.04
processed 2515 requests 501.91 r/s elapsed 5.01
processed 3011 requests 495.60 r/s elapsed 6.08
processed 3483 requests 497.56 r/s elapsed 7.00
processed 3993 requests 498.89 r/s elapsed 8.00
processed 4489 requests 498.43 r/s elapsed 9.01
processed 4988 requests 498.11 r/s elapsed 10.01
processed 5479 requests 492.24 r/s elapsed 11.13
processed 5906 requests 491.85 r/s elapsed 12.01
processed 6448 requests 495.49 r/s elapsed 13.01
processed 6985 requests 498.76 r/s elapsed 14.00
processed 7484 requests 498.89 r/s elapsed 15.00
processed 8008 requests 499.93 r/s elapsed 16.02
processed 8498 requests 498.52 r/s elapsed 17.05
processed 8973 requests 497.03 r/s elapsed 18.05
processed 9472 requests 498.51 r/s elapsed 19.00
processed 9993 requests 499.60 r/s elapsed 20.00
TOTAL: 9993 requests 499.60 r/s elapsed 20.00
