type: pthread fadvise
filename: /mnt/raid/prefetch/prefetch-2048
I/O mode: BUFFERED
workload: RANDOM
duration: 20
threads: 8
queue size: 32
test mode: TEST
file size: 2147483648
file pages: 524288
processed 1024 requests 396.33 r/s elapsed 2.58
processed 1216 requests 399.53 r/s elapsed 3.04
processed 1664 requests 407.91 r/s elapsed 4.08
processed 2080 requests 408.28 r/s elapsed 5.09
processed 2496 requests 410.57 r/s elapsed 6.08
processed 2880 requests 409.11 r/s elapsed 7.04
processed 3296 requests 409.44 r/s elapsed 8.05
processed 3744 requests 413.18 r/s elapsed 9.06
processed 4160 requests 410.44 r/s elapsed 10.14
processed 4544 requests 410.97 r/s elapsed 11.06
processed 4992 requests 413.41 r/s elapsed 12.08
processed 5408 requests 415.16 r/s elapsed 13.03
processed 5824 requests 414.38 r/s elapsed 14.05
processed 6240 requests 415.81 r/s elapsed 15.01
processed 6656 requests 415.35 r/s elapsed 16.03
processed 7104 requests 416.77 r/s elapsed 17.05
processed 7520 requests 416.54 r/s elapsed 18.05
processed 7936 requests 415.69 r/s elapsed 19.09
processed 8320 requests 415.32 r/s elapsed 20.03
TOTAL: 8320 requests 415.32 r/s elapsed 20.03
