type: pthread aio
filename: /mnt/raid/prefetch/prefetch-2048
I/O mode: DIRECT
workload: SEQUENTIAL
duration: 20
threads: 16
queue size: 32
test mode: TEST
file size: 2147483648
file pages: 524288
start probability: 0.010
continue probability: 0.500
processed 1024 requests 905.23 r/s elapsed 1.13
processed 1856 requests 921.33 r/s elapsed 2.01
processed 2944 requests 972.22 r/s elapsed 3.03
processed 3904 requests 966.35 r/s elapsed 4.04
processed 4928 requests 982.17 r/s elapsed 5.02
processed 5984 requests 991.55 r/s elapsed 6.04
processed 7008 requests 997.65 r/s elapsed 7.02
processed 8064 requests 1002.31 r/s elapsed 8.05
processed 9120 requests 1010.66 r/s elapsed 9.02
processed 10112 requests 1010.55 r/s elapsed 10.01
processed 11168 requests 1014.08 r/s elapsed 11.01
processed 12288 requests 1023.66 r/s elapsed 12.00
processed 13344 requests 1024.05 r/s elapsed 13.03
processed 14400 requests 1026.33 r/s elapsed 14.03
processed 15424 requests 1025.09 r/s elapsed 15.05
processed 16416 requests 1021.02 r/s elapsed 16.08
processed 17440 requests 1025.54 r/s elapsed 17.01
processed 18464 requests 1024.74 r/s elapsed 18.02
processed 19520 requests 1026.34 r/s elapsed 19.02
processed 20544 requests 1026.27 r/s elapsed 20.02
TOTAL: 20544 requests 1026.27 r/s elapsed 20.02
