type: pthread fadvise
filename: /mnt/raid/prefetch/prefetch-2048
I/O mode: BUFFERED
workload: SEQUENTIAL
duration: 20
threads: 32
queue size: 32
test mode: WARMUP
file size: 2147483648
file pages: 524288
start probability: 0.100
continue probability: 0.500
processed 6176 requests 6170.02 r/s elapsed 1.00
elapsed 1.00 : warmup interval speed 6170.02 previous 0.00
processed 12320 requests 6010.69 r/s elapsed 2.05
elapsed 2.05 : warmup interval speed 5858.62 previous 6170.02
within 5% of the preceding interval, warmup terminating
TOTAL: 12320 requests 6010.69 r/s elapsed 2.05
