type: pthread aio
filename: /mnt/raid/prefetch/prefetch-2048
I/O mode: BUFFERED
workload: RANDOM
duration: 20
threads: 8
queue size: 8
test mode: WARMUP
file size: 2147483648
file pages: 524288
processed 1000 requests 286.33 r/s elapsed 3.49
elapsed 3.49 : warmup interval speed 286.33 previous 0.00
processed 1152 requests 285.98 r/s elapsed 4.03
elapsed 4.03 : warmup interval speed 283.68 previous 286.33
within 5% of the preceding interval, warmup terminating
TOTAL: 1152 requests 285.98 r/s elapsed 4.03
