type: pthread aio
filename: /mnt/raid/prefetch/prefetch-2048
I/O mode: BUFFERED
workload: SEQUENTIAL
duration: 20
threads: 1
queue size: 32
test mode: WARMUP
file size: 2147483648
file pages: 524288
start probability: 0.100
continue probability: 0.900
processed 29088 requests 29038.17 r/s elapsed 1.00
elapsed 1.00 : warmup interval speed 29038.17 previous 0.00
processed 58080 requests 28850.83 r/s elapsed 2.01
elapsed 2.01 : warmup interval speed 28665.27 previous 29038.17
within 5% of the preceding interval, warmup terminating
TOTAL: 58080 requests 28850.83 r/s elapsed 2.01
