type: pthread aio
filename: /mnt/raid/prefetch/prefetch-2048
I/O mode: BUFFERED
workload: SEQUENTIAL
duration: 20
threads: 8
queue size: 1024
test mode: WARMUP
file size: 2147483648
file pages: 524288
start probability: 0.100
continue probability: 0.500
processed 4096 requests 3291.54 r/s elapsed 1.24
elapsed 1.24 : warmup interval speed 3291.54 previous 0.00
processed 7168 requests 3167.77 r/s elapsed 2.26
elapsed 2.26 : warmup interval speed 3016.54 previous 3291.54
within 5% of the preceding interval, warmup terminating
TOTAL: 7168 requests 3167.77 r/s elapsed 2.26
