type: pthread fadvise
filename: /mnt/raid/prefetch/prefetch-2048
I/O mode: BUFFERED
workload: SEQUENTIAL
duration: 20
threads: 8
queue size: 32
test mode: TEST
file size: 2147483648
file pages: 524288
start probability: 0.100
continue probability: 0.900
processed 14848 requests 14836.15 r/s elapsed 1.00
processed 29696 requests 12288.83 r/s elapsed 2.42
processed 36896 requests 11587.33 r/s elapsed 3.18
processed 46368 requests 11067.06 r/s elapsed 4.19
processed 55360 requests 10615.81 r/s elapsed 5.21
processed 63712 requests 10407.68 r/s elapsed 6.12
processed 72864 requests 10358.71 r/s elapsed 7.03
processed 82880 requests 10260.59 r/s elapsed 8.08
processed 92608 requests 10279.39 r/s elapsed 9.01
processed 102816 requests 10206.14 r/s elapsed 10.07
processed 112288 requests 10168.51 r/s elapsed 11.04
processed 122048 requests 10108.25 r/s elapsed 12.07
processed 131424 requests 10055.38 r/s elapsed 13.07
processed 140800 requests 10030.10 r/s elapsed 14.04
processed 150592 requests 10038.19 r/s elapsed 15.00
processed 160640 requests 10010.61 r/s elapsed 16.05
processed 170208 requests 9958.68 r/s elapsed 17.09
processed 179264 requests 9907.57 r/s elapsed 18.09
processed 188608 requests 9925.60 r/s elapsed 19.00
processed 198528 requests 9881.21 r/s elapsed 20.09
TOTAL: 198528 requests 9881.21 r/s elapsed 20.09
