type: pthread fadvise
filename: /mnt/raid/prefetch/prefetch-2048
I/O mode: BUFFERED
workload: SEQUENTIAL
duration: 20
threads: 1
queue size: 32
test mode: TEST
file size: 2147483648
file pages: 524288
start probability: 0.100
continue probability: 0.100
processed 6944 requests 6936.19 r/s elapsed 1.00
processed 13888 requests 6940.42 r/s elapsed 2.00
processed 20832 requests 6925.04 r/s elapsed 3.01
processed 27872 requests 6962.00 r/s elapsed 4.00
processed 34912 requests 6974.88 r/s elapsed 5.01
processed 42080 requests 7011.43 r/s elapsed 6.00
processed 49184 requests 7023.32 r/s elapsed 7.00
processed 56192 requests 7005.44 r/s elapsed 8.02
processed 63072 requests 7003.90 r/s elapsed 9.01
processed 70048 requests 6984.03 r/s elapsed 10.03
processed 76832 requests 6977.84 r/s elapsed 11.01
processed 83744 requests 6967.14 r/s elapsed 12.02
processed 90944 requests 6992.19 r/s elapsed 13.01
processed 98048 requests 7000.49 r/s elapsed 14.01
processed 105248 requests 7015.57 r/s elapsed 15.00
processed 112352 requests 7021.70 r/s elapsed 16.00
processed 119488 requests 7027.12 r/s elapsed 17.00
processed 126560 requests 7028.67 r/s elapsed 18.01
processed 133568 requests 7026.80 r/s elapsed 19.01
processed 140544 requests 7027.12 r/s elapsed 20.00
TOTAL: 140544 requests 7027.12 r/s elapsed 20.00
