type: pthread aio
filename: /mnt/raid/prefetch/prefetch-2048
I/O mode: DIRECT
workload: SEQUENTIAL
duration: 20
threads: 8
queue size: 8
test mode: TEST
file size: 2147483648
file pages: 524288
start probability: 0.010
continue probability: 0.100
processed 1000 requests 601.30 r/s elapsed 1.66
processed 1208 requests 602.36 r/s elapsed 2.01
processed 1808 requests 597.83 r/s elapsed 3.02
processed 2392 requests 595.11 r/s elapsed 4.02
processed 2976 requests 594.04 r/s elapsed 5.01
processed 3568 requests 590.68 r/s elapsed 6.04
processed 4176 requests 594.97 r/s elapsed 7.02
processed 4760 requests 591.06 r/s elapsed 8.05
processed 5320 requests 587.83 r/s elapsed 9.05
processed 5888 requests 588.78 r/s elapsed 10.00
processed 6480 requests 588.82 r/s elapsed 11.00
processed 7088 requests 589.60 r/s elapsed 12.02
processed 7688 requests 591.11 r/s elapsed 13.01
processed 8280 requests 589.36 r/s elapsed 14.05
processed 8856 requests 590.30 r/s elapsed 15.00
processed 9464 requests 590.94 r/s elapsed 16.02
processed 10088 requests 592.92 r/s elapsed 17.01
processed 10728 requests 595.59 r/s elapsed 18.01
processed 11328 requests 596.07 r/s elapsed 19.00
processed 11928 requests 595.68 r/s elapsed 20.02
TOTAL: 11928 requests 595.68 r/s elapsed 20.02
