Linux 4.17.2 (bench2) 	08/03/2018 	_x86_64_	(32 CPU)

avg-cpu:  %user   %nice %system %iowait  %steal   %idle
           1.93    0.00    1.58    1.49    0.00   95.00

Device:         rrqm/s   wrqm/s     r/s     w/s    rkB/s    wkB/s avgrq-sz avgqu-sz   await r_await w_await  svctm  %util
nvme0n1         961.01     5.22 19373.60  533.41 108367.83 12030.10    12.10     1.38    0.05    0.03    0.67   0.02  40.56
sda               0.11     0.81   14.10    0.57   163.81     8.50    23.49     0.00    0.33    0.32    0.46   0.07   0.10
sdc              32.17     0.14  103.00    0.30  1549.69    83.49    31.62     1.45   14.07   13.02  373.51   0.95   9.79
sdb              30.08     0.15  105.05    0.32  1547.85    83.31    30.96     0.33    3.12    1.92  394.60   0.88   9.30
sdd              32.37     0.13  102.54    0.25  1545.73    82.97    31.69     0.61    5.97    4.07  782.19   0.95   9.79
md0               0.00     0.00  408.09    1.08  5714.39   292.53    29.36     0.00    0.00    0.00    0.00   0.00   0.00

avg-cpu:  %user   %nice %system %iowait  %steal   %idle
           0.00    0.00    0.01    1.84    0.00   98.14

Device:         rrqm/s   wrqm/s     r/s     w/s    rkB/s    wkB/s avgrq-sz avgqu-sz   await r_await w_await  svctm  %util
nvme0n1           0.00     0.00    0.00    0.00     0.00     0.00     0.00     0.00    0.00    0.00    0.00   0.00   0.00
sda               0.00     1.15    1.40    0.65     7.80     9.20    16.59     0.00    0.05    0.07    0.00   0.02   0.01
sdc               0.00     0.00  207.50    0.00   830.60     0.00     8.01    99.08  474.28  474.28    0.00   4.73  98.19
sdb               0.05     0.00  205.40    0.00   821.80     0.00     8.00    94.03  454.84  454.84    0.00   4.67  95.84
sdd               0.05     0.00  204.45    0.00   818.00     0.00     8.00    92.75  450.78  450.78    0.00   4.60  93.99
md0               0.00     0.00  639.15    0.00  2557.20     0.00     8.00     0.00    0.00    0.00    0.00   0.00   0.00

