Linux 4.17.2 (bench2) 	08/03/2018 	_x86_64_	(32 CPU)

avg-cpu:  %user   %nice %system %iowait  %steal   %idle
           1.92    0.00    1.57    1.53    0.00   94.98

Device:         rrqm/s   wrqm/s     r/s     w/s    rkB/s    wkB/s avgrq-sz avgqu-sz   await r_await w_await  svctm  %util
nvme0n1         951.58     5.17 19183.53  528.18 107304.65 11912.08    12.10     1.37    0.05    0.03    0.67   0.02  40.16
sda               0.11     0.81   14.14    0.57   163.96     8.51    23.44     0.00    0.33    0.32    0.45   0.07   0.10
sdc              32.98     0.14  109.30    0.30  1647.93    82.67    31.58     1.51   13.78   12.80  373.51   0.93  10.21
sdb              30.91     0.15  111.33    0.32  1646.05    82.49    30.96     0.39    3.52    2.40  394.60   0.87   9.70
sdd              33.18     0.13  108.84    0.25  1643.95    82.16    31.65     0.68    6.21    4.44  782.19   0.94  10.21
md0               0.00     0.00  429.42    1.06  6095.87   289.66    29.67     0.00    0.00    0.00    0.00   0.00   0.00

avg-cpu:  %user   %nice %system %iowait  %steal   %idle
           0.00    0.00    0.03    0.00    0.00   99.97

Device:         rrqm/s   wrqm/s     r/s     w/s    rkB/s    wkB/s avgrq-sz avgqu-sz   await r_await w_await  svctm  %util
nvme0n1           0.00     0.00    0.00    0.00     0.00     0.00     0.00     0.00    0.00    0.00    0.00   0.00   0.00
sda               0.00     0.00   21.00    0.00   128.00     0.00    12.19     0.02    0.86    0.86    0.00   0.05   0.10
sdc             117.00     0.00  377.00    0.00  1936.00     0.00    10.27    15.95   40.79   40.79    0.00   2.29  86.40
sdb             125.00     0.00  360.00    0.00  1932.00     0.00    10.73    15.18   40.88   40.88    0.00   2.33  83.90
sdd             116.00     0.00  355.00    0.00  1848.00     0.00    10.41    16.52   45.34   45.34    0.00   2.52  89.60
md0               0.00     0.00 1536.00    0.00  6144.00     0.00     8.00     0.00    0.00    0.00    0.00   0.00   0.00

avg-cpu:  %user   %nice %system %iowait  %steal   %idle
           0.00    0.00    0.03    0.00    0.00   99.97

Device:         rrqm/s   wrqm/s     r/s     w/s    rkB/s    wkB/s avgrq-sz avgqu-sz   await r_await w_await  svctm  %util
nvme0n1           0.00     0.00    0.00    0.00     0.00     0.00     0.00     0.00    0.00    0.00    0.00   0.00   0.00
sda               0.00     9.00    1.00    4.00     4.00    76.00    32.00     0.00    0.20    0.00    0.25   0.20   0.10
sdc             143.00     0.00  379.00    0.00  2128.00     0.00    11.23    15.85   43.35   43.35    0.00   2.28  86.50
sdb             123.00     0.00  357.00    0.00  1928.00     0.00    10.80    16.67   46.77   46.77    0.00   2.47  88.30
sdd              86.00     0.00  273.00    0.00  1472.00     0.00    10.78     8.32   32.05   32.05    0.00   2.34  63.80
md0               0.00     0.00 1280.00    0.00  5120.00     0.00     8.00     0.00    0.00    0.00    0.00   0.00   0.00

avg-cpu:  %user   %nice %system %iowait  %steal   %idle
           0.00    0.00    0.00    0.00    0.00  100.00

Device:         rrqm/s   wrqm/s     r/s     w/s    rkB/s    wkB/s avgrq-sz avgqu-sz   await r_await w_await  svctm  %util
nvme0n1           0.00     0.00    0.00    0.00     0.00     0.00     0.00     0.00    0.00    0.00    0.00   0.00   0.00
sda               0.00     0.00    0.00    0.00     0.00     0.00     0.00     0.00    0.00    0.00    0.00   0.00   0.00
sdc             132.00     0.00  374.00    0.00  2008.00     0.00    10.74    14.94   39.61   39.61    0.00   2.28  85.10
sdb             127.00     0.00  363.00    0.00  1884.00     0.00    10.38    15.28   41.83   41.83    0.00   2.30  83.40
sdd             130.00     0.00  343.00    0.00  1848.00     0.00    10.78    13.64   38.51   38.51    0.00   2.45  83.90
md0               0.00     0.00 1536.00    0.00  6144.00     0.00     8.00     0.00    0.00    0.00    0.00   0.00   0.00

avg-cpu:  %user   %nice %system %iowait  %steal   %idle
           0.03    0.00    0.03    0.00    0.00   99.94

Device:         rrqm/s   wrqm/s     r/s     w/s    rkB/s    wkB/s avgrq-sz avgqu-sz   await r_await w_await  svctm  %util
nvme0n1           0.00     0.00    0.00    0.00     0.00     0.00     0.00     0.00    0.00    0.00    0.00   0.00   0.00
sda               0.00     0.00    0.00    0.00     0.00     0.00     0.00     0.00    0.00    0.00    0.00   0.00   0.00
sdc             131.00     0.00  354.00    0.00  1936.00     0.00    10.94    12.83   35.67   35.67    0.00   2.26  80.10
sdb             151.00     0.00  387.00    0.00  2136.00     0.00    11.04    15.36   39.94   39.94    0.00   2.36  91.40
sdd             100.00     0.00  398.00    0.00  2008.00     0.00    10.09    14.48   36.75   36.75    0.00   2.08  82.80
md0               0.00     0.00 1536.00    0.00  6144.00     0.00     8.00     0.00    0.00    0.00    0.00   0.00   0.00

avg-cpu:  %user   %nice %system %iowait  %steal   %idle
           0.00    0.00    0.00    0.00    0.00  100.00

Device:         rrqm/s   wrqm/s     r/s     w/s    rkB/s    wkB/s avgrq-sz avgqu-sz   await r_await w_await  svctm  %util
nvme0n1           0.00     0.00    0.00    0.00     0.00     0.00     0.00     0.00    0.00    0.00    0.00   0.00   0.00
sda               0.00     0.00    0.00    0.00     0.00     0.00     0.00     0.00    0.00    0.00    0.00   0.00   0.00
sdc             159.00     0.00  391.00    0.00  2200.00     0.00    11.25    15.49   39.51   39.51    0.00   2.20  86.00
sdb             148.00     0.00  363.00    0.00  2088.00     0.00    11.50    13.63   37.35   37.35    0.00   2.31  83.90
sdd             144.00     0.00  342.00    0.00  1928.00     0.00    11.27    12.93   37.32   37.32    0.00   2.49  85.10
md0               0.00     0.00 1536.00    0.00  6144.00     0.00     8.00     0.00    0.00    0.00    0.00   0.00   0.00

avg-cpu:  %user   %nice %system %iowait  %steal   %idle
           0.00    0.00    0.03    0.00    0.00   99.97

Device:         rrqm/s   wrqm/s     r/s     w/s    rkB/s    wkB/s avgrq-sz avgqu-sz   await r_await w_await  svctm  %util
nvme0n1           0.00     0.00    0.00    0.00     0.00     0.00     0.00     0.00    0.00    0.00    0.00   0.00   0.00
sda               0.00     0.00    0.00    0.00     0.00     0.00     0.00     0.00    0.00    0.00    0.00   0.00   0.00
sdc             112.00     0.00  373.00    0.00  1960.00     0.00    10.51    13.69   37.67   37.67    0.00   2.21  82.30
sdb             114.00     0.00  356.00    0.00  1928.00     0.00    10.83    14.25   41.26   41.26    0.00   2.54  90.30
sdd             144.00     0.00  374.00    0.00  2104.00     0.00    11.25    16.83   44.46   44.46    0.00   2.42  90.60
md0               0.00     0.00 1408.00    0.00  5632.00     0.00     8.00     0.00    0.00    0.00    0.00   0.00   0.00

avg-cpu:  %user   %nice %system %iowait  %steal   %idle
           0.00    0.00    0.03    0.00    0.00   99.97

Device:         rrqm/s   wrqm/s     r/s     w/s    rkB/s    wkB/s avgrq-sz avgqu-sz   await r_await w_await  svctm  %util
nvme0n1           0.00     0.00    0.00    0.00     0.00     0.00     0.00     0.00    0.00    0.00    0.00   0.00   0.00
sda               0.00     5.00    0.00    2.00     0.00    28.00    28.00     0.00    0.50    0.00    0.50   0.50   0.10
sdc             135.00     0.00  371.00    0.00  2024.00     0.00    10.91    12.20   32.90   32.90    0.00   2.18  81.00
sdb             123.00     0.00  343.00    0.00  1852.00     0.00    10.80    13.32   38.13   38.13    0.00   2.46  84.30
sdd             149.00     0.00  406.00    0.00  2224.00     0.00    10.96    15.99   38.70   38.70    0.00   2.13  86.30
md0               0.00     0.00 1536.00    0.00  6144.00     0.00     8.00     0.00    0.00    0.00    0.00   0.00   0.00

avg-cpu:  %user   %nice %system %iowait  %steal   %idle
           0.00    0.00    0.00    0.00    0.00  100.00

Device:         rrqm/s   wrqm/s     r/s     w/s    rkB/s    wkB/s avgrq-sz avgqu-sz   await r_await w_await  svctm  %util
nvme0n1           0.00     0.00    0.00    0.00     0.00     0.00     0.00     0.00    0.00    0.00    0.00   0.00   0.00
sda               0.00     0.00    0.00    0.00     0.00     0.00     0.00     0.00    0.00    0.00    0.00   0.00   0.00
sdc             114.00     0.00  348.00    0.00  1836.00     0.00    10.55    14.52   40.55   40.55    0.00   2.26  78.70
sdb             107.00     0.00  334.00    0.00  1772.00     0.00    10.61    13.64   40.95   40.95    0.00   2.49  83.00
sdd             119.00     0.00  371.00    0.00  1948.00     0.00    10.50    16.01   44.28   44.28    0.00   2.44  90.60
md0               0.00     0.00 1408.00    0.00  5632.00     0.00     8.00     0.00    0.00    0.00    0.00   0.00   0.00

avg-cpu:  %user   %nice %system %iowait  %steal   %idle
           0.03    0.00    0.03    0.00    0.00   99.94

Device:         rrqm/s   wrqm/s     r/s     w/s    rkB/s    wkB/s avgrq-sz avgqu-sz   await r_await w_await  svctm  %util
nvme0n1           0.00     0.00    0.00    0.00     0.00     0.00     0.00     0.00    0.00    0.00    0.00   0.00   0.00
sda               0.00     0.00    0.00    0.00     0.00     0.00     0.00     0.00    0.00    0.00    0.00   0.00   0.00
sdc             138.00     0.00  383.00    0.00  2096.00     0.00    10.95    14.11   37.69   37.69    0.00   2.32  89.00
sdb             128.00     0.00  384.00    0.00  2052.00     0.00    10.69    15.42   40.86   40.86    0.00   2.36  90.70
sdd             140.00     0.00  385.00    0.00  2104.00     0.00    10.93    15.99   40.37   40.37    0.00   2.35  90.50
md0               0.00     0.00 1536.00    0.00  6144.00     0.00     8.00     0.00    0.00    0.00    0.00   0.00   0.00

avg-cpu:  %user   %nice %system %iowait  %steal   %idle
           0.00    0.00    0.03    0.00    0.00   99.97

Device:         rrqm/s   wrqm/s     r/s     w/s    rkB/s    wkB/s avgrq-sz avgqu-sz   await r_await w_await  svctm  %util
nvme0n1           0.00     0.00    0.00    0.00     0.00     0.00     0.00     0.00    0.00    0.00    0.00   0.00   0.00
sda               0.00     0.00    0.00    0.00     0.00     0.00     0.00     0.00    0.00    0.00    0.00   0.00   0.00
sdc              92.00     0.00  294.00    0.00  1536.00     0.00    10.45    10.71   36.12   36.12    0.00   2.51  73.70
sdb             144.00     0.00  369.00    0.00  2052.00     0.00    11.12    15.74   42.41   42.41    0.00   2.34  86.50
sdd             137.00     0.00  382.00    0.00  2092.00     0.00    10.95    16.46   45.60   45.60    0.00   2.32  88.60
md0               0.00     0.00 1408.00    0.00  5632.00     0.00     8.00     0.00    0.00    0.00    0.00   0.00   0.00

avg-cpu:  %user   %nice %system %iowait  %steal   %idle
           0.00    0.00    0.00    0.00    0.00  100.00

Device:         rrqm/s   wrqm/s     r/s     w/s    rkB/s    wkB/s avgrq-sz avgqu-sz   await r_await w_await  svctm  %util
nvme0n1           0.00     0.00    0.00    0.00     0.00     0.00     0.00     0.00    0.00    0.00    0.00   0.00   0.00
sda               0.00     0.00    0.00    0.00     0.00     0.00     0.00     0.00    0.00    0.00    0.00   0.00   0.00
sdc             169.00     0.00  352.00    0.00  2072.00     0.00    11.77    13.52   38.04   38.04    0.00   2.29  80.70
sdb             149.00     0.00  352.00    0.00  1972.00     0.00    11.20    14.11   37.73   37.73    0.00   2.32  81.80
sdd             120.00     0.00  365.00    0.00  1936.00     0.00    10.61    15.06   40.13   40.13    0.00   2.48  90.40
md0               0.00     0.00 1536.00    0.00  6144.00     0.00     8.00     0.00    0.00    0.00    0.00   0.00   0.00

avg-cpu:  %user   %nice %system %iowait  %steal   %idle
           0.00    0.00    0.06    0.00    0.00   99.94

Device:         rrqm/s   wrqm/s     r/s     w/s    rkB/s    wkB/s avgrq-sz avgqu-sz   await r_await w_await  svctm  %util
nvme0n1           0.00     0.00    0.00    0.00     0.00     0.00     0.00     0.00    0.00    0.00    0.00   0.00   0.00
sda               0.00     2.00    0.00    6.00     0.00    48.00    16.00     0.00    0.00    0.00    0.00   0.00   0.00
sdc             110.00     0.00  387.00    0.00  1992.00     0.00    10.29    16.41   40.34   40.34    0.00   2.28  88.40
sdb             102.00     0.00  374.00    0.00  1936.00     0.00    10.35    15.42   42.93   42.93    0.00   2.43  90.70
sdd              98.00     0.00  311.00    0.00  1632.00     0.00    10.50    12.95   39.78   39.78    0.00   2.57  79.80
md0               0.00     0.00 1408.00    0.00  5632.00     0.00     8.00     0.00    0.00    0.00    0.00   0.00   0.00

avg-cpu:  %user   %nice %system %iowait  %steal   %idle
           0.00    0.00    0.03    0.00    0.00   99.97

Device:         rrqm/s   wrqm/s     r/s     w/s    rkB/s    wkB/s avgrq-sz avgqu-sz   await r_await w_await  svctm  %util
nvme0n1           0.00     0.00    0.00    0.00     0.00     0.00     0.00     0.00    0.00    0.00    0.00   0.00   0.00
sda               0.00     0.00    0.00    0.00     0.00     0.00     0.00     0.00    0.00    0.00    0.00   0.00   0.00
sdc             142.00     0.00  370.00    0.00  2044.00     0.00    11.05    13.57   38.45   38.45    0.00   2.15  79.50
sdb             112.00     0.00  342.00    0.00  1792.00     0.00    10.48    16.61   48.03   48.03    0.00   2.65  90.70
sdd              87.00     0.00  339.00    0.00  1688.00     0.00     9.96    12.89   39.53   39.53    0.00   2.42  82.00
md0               0.00     0.00 1408.00    0.00  5632.00     0.00     8.00     0.00    0.00    0.00    0.00   0.00   0.00

avg-cpu:  %user   %nice %system %iowait  %steal   %idle
           0.00    0.00    0.00    0.00    0.00  100.00

Device:         rrqm/s   wrqm/s     r/s     w/s    rkB/s    wkB/s avgrq-sz avgqu-sz   await r_await w_await  svctm  %util
nvme0n1           0.00     0.00    0.00    0.00     0.00     0.00     0.00     0.00    0.00    0.00    0.00   0.00   0.00
sda               0.00     0.00    0.00    0.00     0.00     0.00     0.00     0.00    0.00    0.00    0.00   0.00   0.00
sdc             111.00     0.00  365.00    0.00  1900.00     0.00    10.41    15.86   43.58   43.58    0.00   2.52  91.80
sdb             134.00     0.00  357.00    0.00  1988.00     0.00    11.14    13.25   38.45   38.45    0.00   2.33  83.10
sdd             151.00     0.00  356.00    0.00  2052.00     0.00    11.53    13.18   38.35   38.35    0.00   2.45  87.20
md0               0.00     0.00 1408.00    0.00  5632.00     0.00     8.00     0.00    0.00    0.00    0.00   0.00   0.00

avg-cpu:  %user   %nice %system %iowait  %steal   %idle
           0.00    0.00    0.03    0.00    0.00   99.97

Device:         rrqm/s   wrqm/s     r/s     w/s    rkB/s    wkB/s avgrq-sz avgqu-sz   await r_await w_await  svctm  %util
nvme0n1           0.00     0.00    0.00    0.00     0.00     0.00     0.00     0.00    0.00    0.00    0.00   0.00   0.00
sda               0.00     0.00    0.00    0.00     0.00     0.00     0.00     0.00    0.00    0.00    0.00   0.00   0.00
sdc             109.00     0.00  342.00    0.00  1828.00     0.00    10.69    14.88   44.35   44.35    0.00   2.38  81.50
sdb             113.00     0.00  310.00    0.00  1676.00     0.00    10.81    11.91   37.27   37.27    0.00   2.48  77.00
sdd             135.00     0.00  357.00    0.00  1908.00     0.00    10.69    15.11   40.61   40.61    0.00   2.24  80.00
md0               0.00     0.00 1408.00    0.00  5632.00     0.00     8.00     0.00    0.00    0.00    0.00   0.00   0.00

avg-cpu:  %user   %nice %system %iowait  %steal   %idle
           0.00    0.00    0.03    0.00    0.00   99.97

Device:         rrqm/s   wrqm/s     r/s     w/s    rkB/s    wkB/s avgrq-sz avgqu-sz   await r_await w_await  svctm  %util
nvme0n1           0.00     0.00    0.00    0.00     0.00     0.00     0.00     0.00    0.00    0.00    0.00   0.00   0.00
sda               0.00     0.00    0.00    0.00     0.00     0.00     0.00     0.00    0.00    0.00    0.00   0.00   0.00
sdc             139.00     0.00  368.00    0.00  2024.00     0.00    11.00    14.68   39.58   39.58    0.00   2.33  85.70
sdb             122.00     0.00  319.00    0.00  1780.00     0.00    11.16    11.90   38.41   38.41    0.00   2.68  85.40
sdd             135.00     0.00  371.00    0.00  2084.00     0.00    11.23    15.43   43.04   43.04    0.00   2.51  93.00
md0               0.00     0.00 1408.00    0.00  5632.00     0.00     8.00     0.00    0.00    0.00    0.00   0.00   0.00

avg-cpu:  %user   %nice %system %iowait  %steal   %idle
           0.00    0.00    0.00    0.00    0.00  100.00

Device:         rrqm/s   wrqm/s     r/s     w/s    rkB/s    wkB/s avgrq-sz avgqu-sz   await r_await w_await  svctm  %util
nvme0n1           0.00     0.00    0.00    0.00     0.00     0.00     0.00     0.00    0.00    0.00    0.00   0.00   0.00
sda               0.00     3.00    0.00    2.00     0.00    20.00    20.00     0.00    0.00    0.00    0.00   0.00   0.00
sdc             130.00     0.00  331.00    0.00  1848.00     0.00    11.17    14.12   43.41   43.41    0.00   2.59  85.80
sdb             131.00     0.00  384.00    0.00  2060.00     0.00    10.73    17.88   45.11   45.11    0.00   2.39  91.80
sdd             119.00     0.00  312.00    0.00  1724.00     0.00    11.05    11.76   37.95   37.95    0.00   2.59  80.80
md0               0.00     0.00 1408.00    0.00  5632.00     0.00     8.00     0.00    0.00    0.00    0.00   0.00   0.00

avg-cpu:  %user   %nice %system %iowait  %steal   %idle
           0.00    0.00    0.03    0.00    0.00   99.97

Device:         rrqm/s   wrqm/s     r/s     w/s    rkB/s    wkB/s avgrq-sz avgqu-sz   await r_await w_await  svctm  %util
nvme0n1           0.00     0.00    0.00    0.00     0.00     0.00     0.00     0.00    0.00    0.00    0.00   0.00   0.00
sda               0.00     0.00    0.00    0.00     0.00     0.00     0.00     0.00    0.00    0.00    0.00   0.00   0.00
sdc              80.00     0.00  342.00    0.00  1676.00     0.00     9.80    14.70   41.18   41.18    0.00   2.54  86.90
sdb             109.00     0.00  386.00    0.00  1960.00     0.00    10.16    15.73   40.90   40.90    0.00   2.18  84.30
sdd             156.00     0.00  391.00    0.00  2144.00     0.00    10.97    17.78   44.00   44.00    0.00   2.34  91.40
md0               0.00     0.00 1536.00    0.00  6144.00     0.00     8.00     0.00    0.00    0.00    0.00   0.00   0.00

avg-cpu:  %user   %nice %system %iowait  %steal   %idle
           0.03    0.00    0.03    0.00    0.00   99.94

Device:         rrqm/s   wrqm/s     r/s     w/s    rkB/s    wkB/s avgrq-sz avgqu-sz   await r_await w_await  svctm  %util
nvme0n1           0.00     0.00    0.00    0.00     0.00     0.00     0.00     0.00    0.00    0.00    0.00   0.00   0.00
sda               0.00     0.00    0.00    0.00     0.00     0.00     0.00     0.00    0.00    0.00    0.00   0.00   0.00
sdc             118.00     0.00  416.00    0.00  2128.00     0.00    10.23    19.32   46.93   46.93    0.00   2.34  97.30
sdb             136.00     0.00  353.00    0.00  1932.00     0.00    10.95    13.98   38.98   38.98    0.00   2.29  81.00
sdd              79.00     0.00  292.00    0.00  1524.00     0.00    10.44     9.24   32.32   32.32    0.00   2.25  65.80
md0               0.00     0.00 1408.00    0.00  5632.00     0.00     8.00     0.00    0.00    0.00    0.00   0.00   0.00

avg-cpu:  %user   %nice %system %iowait  %steal   %idle
           0.00    0.00    0.03    0.00    0.00   99.97

Device:         rrqm/s   wrqm/s     r/s     w/s    rkB/s    wkB/s avgrq-sz avgqu-sz   await r_await w_await  svctm  %util
nvme0n1           0.00     0.00    0.00    0.00     0.00     0.00     0.00     0.00    0.00    0.00    0.00   0.00   0.00
sda               0.00     0.00    0.00    0.00     0.00     0.00     0.00     0.00    0.00    0.00    0.00   0.00   0.00
sdc             116.00     0.00  375.00    0.00  1984.00     0.00    10.58    14.28   39.19   39.19    0.00   2.26  84.80
sdb             113.00     0.00  386.00    0.00  2040.00     0.00    10.57    14.36   38.86   38.86    0.00   2.24  86.30
sdd             110.00     0.00  398.00    0.00  2036.00     0.00    10.23    16.83   43.22   43.22    0.00   2.22  88.30
md0               0.00     0.00 1408.00    0.00  5632.00     0.00     8.00     0.00    0.00    0.00    0.00   0.00   0.00

