Linux 4.17.2 (bench2) 	08/03/2018 	_x86_64_	(32 CPU)

avg-cpu:  %user   %nice %system %iowait  %steal   %idle
           1.92    0.00    1.57    1.52    0.00   94.99

Device:         rrqm/s   wrqm/s     r/s     w/s    rkB/s    wkB/s avgrq-sz avgqu-sz   await r_await w_await  svctm  %util
nvme0n1         954.60     5.18 19244.28  529.85 107644.47 11949.80    12.10     1.37    0.05    0.03    0.67   0.02  40.29
sda               0.11     0.81   14.13    0.57   163.93     8.51    23.46     0.00    0.33    0.32    0.45   0.07   0.10
sdc              32.61     0.14  107.24    0.30  1611.79    82.93    31.52     1.49   13.82   12.82  373.51   0.94  10.07
sdb              30.53     0.15  109.27    0.32  1609.90    82.75    30.89     0.37    3.35    2.20  394.60   0.87   9.57
sdd              32.81     0.13  106.78    0.25  1607.84    82.42    31.59     0.65    6.08    4.27  782.19   0.94  10.07
md0               0.00     0.00  422.12    1.07  5954.93   290.58    29.52     0.00    0.00    0.00    0.00   0.00   0.00

avg-cpu:  %user   %nice %system %iowait  %steal   %idle
           0.00    0.00    0.13    2.94    0.00   96.93

Device:         rrqm/s   wrqm/s     r/s     w/s    rkB/s    wkB/s avgrq-sz avgqu-sz   await r_await w_await  svctm  %util
nvme0n1           0.00     0.00    0.00    0.00     0.00     0.00     0.00     0.00    0.00    0.00    0.00   0.00   0.00
sda               0.00     0.00    1.00    0.00     8.00     0.00    16.00     0.00    0.00    0.00    0.00   0.00   0.00
sdc              51.00     0.00  226.00    0.00 27820.00     0.00   246.19     0.35    1.58    1.58    0.00   1.46  33.00
sdb              52.00     0.00  243.00    0.00 29820.00     0.00   245.43     0.57    2.34    2.34    0.00   2.08  50.60
sdd              65.00     0.00  245.00    0.00 30364.00     0.00   247.87     0.52    2.10    2.10    0.00   1.89  46.40
md0               0.00     0.00  882.00    0.00 114264.00     0.00   259.10     0.00    0.00    0.00    0.00   0.00   0.00

avg-cpu:  %user   %nice %system %iowait  %steal   %idle
           0.00    0.00    0.13    2.94    0.00   96.94

Device:         rrqm/s   wrqm/s     r/s     w/s    rkB/s    wkB/s avgrq-sz avgqu-sz   await r_await w_await  svctm  %util
nvme0n1           0.00     0.00    0.00    0.00     0.00     0.00     0.00     0.00    0.00    0.00    0.00   0.00   0.00
sda               0.00     0.00    0.00    0.00     0.00     0.00     0.00     0.00    0.00    0.00    0.00   0.00   0.00
sdc              52.00     0.00  239.00    0.00 27972.00     0.00   234.08     0.48    2.00    2.00    0.00   1.84  44.00
sdb              48.00     0.00  237.00    0.00 26916.00     0.00   227.14     0.46    1.89    1.89    0.00   1.74  41.30
sdd              52.00     0.00  218.00    0.00 30544.00     0.00   280.22     0.46    2.14    2.14    0.00   1.95  42.50
md0               0.00     0.00  846.00    0.00 113980.00     0.00   269.46     0.00    0.00    0.00    0.00   0.00   0.00

