Linux 4.17.2 (bench2) 	08/03/2018 	_x86_64_	(32 CPU)

avg-cpu:  %user   %nice %system %iowait  %steal   %idle
           1.92    0.00    1.58    1.50    0.00   95.00

Device:         rrqm/s   wrqm/s     r/s     w/s    rkB/s    wkB/s avgrq-sz avgqu-sz   await r_await w_await  svctm  %util
nvme0n1         959.59     5.21 19344.89  532.62 108207.26 12012.28    12.10     1.38    0.05    0.03    0.67   0.02  40.50
sda               0.11     0.81   14.11    0.57   163.85     8.50    23.48     0.00    0.33    0.32    0.46   0.07   0.10
sdc              32.18     0.14  103.87    0.30  1561.81    83.37    31.59     1.46   13.99   12.95  373.51   0.95   9.84
sdb              30.10     0.15  105.92    0.32  1559.97    83.19    30.93     0.33    3.14    1.95  394.60   0.88   9.36
sdd              32.39     0.13  103.41    0.25  1557.84    82.85    31.65     0.62    5.97    4.09  782.19   0.95   9.85
md0               0.00     0.00  410.76    1.07  5761.67   292.10    29.40     0.00    0.00    0.00    0.00   0.00   0.00

avg-cpu:  %user   %nice %system %iowait  %steal   %idle
           0.00    0.00    0.09    3.03    0.00   96.87

Device:         rrqm/s   wrqm/s     r/s     w/s    rkB/s    wkB/s avgrq-sz avgqu-sz   await r_await w_await  svctm  %util
nvme0n1           0.00     0.00    0.00    0.00     0.00     0.00     0.00     0.00    0.00    0.00    0.00   0.00   0.00
sda               0.00     0.00    3.00    0.00   100.00     0.00    66.67     0.00    0.33    0.33    0.00   0.33   0.10
sdc               1.00     0.00  195.00    0.00  3036.00     0.00    31.14     0.36    1.83    1.83    0.00   1.72  33.50
sdb               5.00     0.00  210.00    0.00  4952.00     0.00    47.16     0.29    1.37    1.37    0.00   1.26  26.50
sdd               5.00     0.00  203.00    0.00  3892.00     0.00    38.34     0.45    2.19    2.19    0.00   2.05  41.70
md0               0.00     0.00  620.00    0.00 13880.00     0.00    44.77     0.00    0.00    0.00    0.00   0.00   0.00

avg-cpu:  %user   %nice %system %iowait  %steal   %idle
           0.00    0.00    0.09    3.00    0.00   96.91

Device:         rrqm/s   wrqm/s     r/s     w/s    rkB/s    wkB/s avgrq-sz avgqu-sz   await r_await w_await  svctm  %util
nvme0n1           0.00     0.00    0.00    0.00     0.00     0.00     0.00     0.00    0.00    0.00    0.00   0.00   0.00
sda               0.00    12.00    0.00    2.00     0.00    56.00    56.00     0.00    0.50    0.00    0.50   0.50   0.10
sdc               2.00     0.00  230.00    0.00  4056.00     0.00    35.27     0.26    1.13    1.13    0.00   1.08  24.80
sdb               4.00     0.00  189.00    0.00  2836.00     0.00    30.01     0.37    1.95    1.95    0.00   1.92  36.30
sdd               2.00     0.00  206.00    0.00  3092.00     0.00    30.02     0.41    1.97    1.97    0.00   1.87  38.60
md0               0.00     0.00  633.00    0.00 10348.00     0.00    32.70     0.00    0.00    0.00    0.00   0.00   0.00

avg-cpu:  %user   %nice %system %iowait  %steal   %idle
           0.03    0.00    0.06    3.00    0.00   96.90

Device:         rrqm/s   wrqm/s     r/s     w/s    rkB/s    wkB/s avgrq-sz avgqu-sz   await r_await w_await  svctm  %util
nvme0n1           0.00     0.00    0.00    0.00     0.00     0.00     0.00     0.00    0.00    0.00    0.00   0.00   0.00
sda               0.00     0.00    0.00    0.00     0.00     0.00     0.00     0.00    0.00    0.00    0.00   0.00   0.00
sdc               0.00     0.00  181.00    0.00  2556.00     0.00    28.24     0.23    1.25    1.25    0.00   1.11  20.10
sdb               2.00     0.00  203.00    0.00  2892.00     0.00    28.49     0.34    1.70    1.70    0.00   1.68  34.10
sdd               1.00     0.00  214.00    0.00  2488.00     0.00    23.25     0.49    2.29    2.29    0.00   2.21  47.40
md0               0.00     0.00  601.00    0.00  8984.00     0.00    29.90     0.00    0.00    0.00    0.00   0.00   0.00

avg-cpu:  %user   %nice %system %iowait  %steal   %idle
           0.00    0.00    0.06    3.03    0.00   96.91

Device:         rrqm/s   wrqm/s     r/s     w/s    rkB/s    wkB/s avgrq-sz avgqu-sz   await r_await w_await  svctm  %util
nvme0n1           0.00     0.00    0.00    0.00     0.00     0.00     0.00     0.00    0.00    0.00    0.00   0.00   0.00
sda               0.00     0.00    0.00    0.00     0.00     0.00     0.00     0.00    0.00    0.00    0.00   0.00   0.00
sdc               0.00     0.00  179.00    0.00  1924.00     0.00    21.50     0.35    1.94    1.94    0.00   1.91  34.10
sdb               4.00     0.00  224.00    0.00  4296.00     0.00    38.36     0.23    1.02    1.02    0.00   1.00  22.30
sdd               4.00     0.00  200.00    0.00  2832.00     0.00    28.32     0.43    2.17    2.17    0.00   2.15  42.90
md0               0.00     0.00  612.00    0.00  9900.00     0.00    32.35     0.00    0.00    0.00    0.00   0.00   0.00

avg-cpu:  %user   %nice %system %iowait  %steal   %idle
           0.00    0.00    0.09    3.03    0.00   96.88

Device:         rrqm/s   wrqm/s     r/s     w/s    rkB/s    wkB/s avgrq-sz avgqu-sz   await r_await w_await  svctm  %util
nvme0n1           0.00     0.00    0.00    0.00     0.00     0.00     0.00     0.00    0.00    0.00    0.00   0.00   0.00
sda               0.00     0.00    0.00    0.00     0.00     0.00     0.00     0.00    0.00    0.00    0.00   0.00   0.00
sdc               7.00     0.00  169.00    0.00  3732.00     0.00    44.17     0.29    1.72    1.72    0.00   1.69  28.60
sdb               2.00     0.00  220.00    0.00  3844.00     0.00    34.95     0.27    1.25    1.25    0.00   1.21  26.70
sdd               5.00     0.00  225.00    0.00  4132.00     0.00    36.73     0.45    2.02    2.02    0.00   1.99  44.70
md0               0.00     0.00  627.00    0.00 13152.00     0.00    41.95     0.00    0.00    0.00    0.00   0.00   0.00

avg-cpu:  %user   %nice %system %iowait  %steal   %idle
           0.00    0.00    0.09    3.00    0.00   96.90

Device:         rrqm/s   wrqm/s     r/s     w/s    rkB/s    wkB/s avgrq-sz avgqu-sz   await r_await w_await  svctm  %util
nvme0n1           0.00     0.00    0.00    0.00     0.00     0.00     0.00     0.00    0.00    0.00    0.00   0.00   0.00
sda               0.00     0.00    0.00    0.00     0.00     0.00     0.00     0.00    0.00    0.00    0.00   0.00   0.00
sdc               2.00     0.00  180.00    0.00  3528.00     0.00    39.20     0.32    1.81    1.81    0.00   1.78  32.10
sdb               2.00     0.00  205.00    0.00  2856.00     0.00    27.86     0.20    0.95    0.95    0.00   0.94  19.30
sdd               1.00     0.00  212.00    0.00  2592.00     0.00    24.45     0.49    2.32    2.32    0.00   2.28  48.40
md0               0.00     0.00  602.00    0.00  9388.00     0.00    31.19     0.00    0.00    0.00    0.00   0.00   0.00

avg-cpu:  %user   %nice %system %iowait  %steal   %idle
           0.00    0.00    0.06    3.03    0.00   96.91

Device:         rrqm/s   wrqm/s     r/s     w/s    rkB/s    wkB/s avgrq-sz avgqu-sz   await r_await w_await  svctm  %util
nvme0n1           0.00     0.00    0.00    0.00     0.00     0.00     0.00     0.00    0.00    0.00    0.00   0.00   0.00
sda               0.00     2.00    0.00    2.00     0.00    16.00    16.00     0.00    0.00    0.00    0.00   0.00   0.00
sdc               2.00     0.00  175.00    0.00  2372.00     0.00    27.11     0.52    2.99    2.99    0.00   2.96  51.80
sdb               3.00     0.00  186.00    0.00  3152.00     0.00    33.89     0.28    1.51    1.51    0.00   1.47  27.30
sdd               3.00     0.00  173.00    0.00  3064.00     0.00    35.42     0.21    1.19    1.19    0.00   1.20  20.70
md0               0.00     0.00  542.00    0.00  9432.00     0.00    34.80     0.00    0.00    0.00    0.00   0.00   0.00

avg-cpu:  %user   %nice %system %iowait  %steal   %idle
           0.00    0.00    0.12    3.03    0.00   96.84

Device:         rrqm/s   wrqm/s     r/s     w/s    rkB/s    wkB/s avgrq-sz avgqu-sz   await r_await w_await  svctm  %util
nvme0n1           0.00     0.00    0.00    0.00     0.00     0.00     0.00     0.00    0.00    0.00    0.00   0.00   0.00
sda               0.00     0.00    0.00    0.00     0.00     0.00     0.00     0.00    0.00    0.00    0.00   0.00   0.00
sdc               4.00     0.00  185.00    0.00  3052.00     0.00    32.99     0.47    2.55    2.55    0.00   2.52  46.70
sdb               3.00     0.00  193.00    0.00  3472.00     0.00    35.98     0.15    0.77    0.77    0.00   0.75  14.40
sdd               3.00     0.00  151.00    0.00  2840.00     0.00    37.62     0.39    2.56    2.56    0.00   2.51  37.90
md0               0.00     0.00  539.00    0.00 10976.00     0.00    40.73     0.00    0.00    0.00    0.00   0.00   0.00

avg-cpu:  %user   %nice %system %iowait  %steal   %idle
           0.00    0.00    0.06    3.00    0.00   96.94

Device:         rrqm/s   wrqm/s     r/s     w/s    rkB/s    wkB/s avgrq-sz avgqu-sz   await r_await w_await  svctm  %util
nvme0n1           0.00     0.00    0.00    0.00     0.00     0.00     0.00     0.00    0.00    0.00    0.00   0.00   0.00
sda               0.00     5.00    1.00    4.00     4.00    52.00    22.40     0.00    0.00    0.00    0.00   0.00   0.00
sdc               3.00     0.00  219.00    0.00  3764.00     0.00    34.37     0.35    1.61    1.61    0.00   1.60  35.10
sdb               4.00     0.00  210.00    0.00  4524.00     0.00    43.09     0.34    1.62    1.62    0.00   1.57  32.90
sdd               7.00     0.00  194.00    0.00  4684.00     0.00    48.29     0.35    1.80    1.80    0.00   1.75  33.90
md0               0.00     0.00  637.00    0.00 15308.00     0.00    48.06     0.00    0.00    0.00    0.00   0.00   0.00

avg-cpu:  %user   %nice %system %iowait  %steal   %idle
           0.03    0.00    0.06    3.03    0.00   96.87

Device:         rrqm/s   wrqm/s     r/s     w/s    rkB/s    wkB/s avgrq-sz avgqu-sz   await r_await w_await  svctm  %util
nvme0n1           0.00     0.00    0.00    0.00     0.00     0.00     0.00     0.00    0.00    0.00    0.00   0.00   0.00
sda               0.00     0.00    0.00    0.00     0.00     0.00     0.00     0.00    0.00    0.00    0.00   0.00   0.00
sdc               2.00     0.00  174.00    0.00  2476.00     0.00    28.46     0.40    2.32    2.32    0.00   2.27  39.50
sdb               1.00     0.00  206.00    0.00  2856.00     0.00    27.73     0.25    1.21    1.21    0.00   1.19  24.50
sdd               2.00     0.00  187.00    0.00  3000.00     0.00    32.09     0.37    1.99    1.99    0.00   1.97  36.90
md0               0.00     0.00  572.00    0.00  9488.00     0.00    33.17     0.00    0.00    0.00    0.00   0.00   0.00

avg-cpu:  %user   %nice %system %iowait  %steal   %idle
           0.00    0.00    0.09    3.03    0.00   96.87

Device:         rrqm/s   wrqm/s     r/s     w/s    rkB/s    wkB/s avgrq-sz avgqu-sz   await r_await w_await  svctm  %util
nvme0n1           0.00     0.00    0.00    0.00     0.00     0.00     0.00     0.00    0.00    0.00    0.00   0.00   0.00
sda               0.00     0.00   55.00    0.00   432.00     0.00    15.71     0.00    0.02    0.02    0.00   0.04   0.20
sdc               2.00     0.00  196.00    0.00  3216.00     0.00    32.82     0.51    2.61    2.61    0.00   2.56  50.20
sdb               1.00     0.00  169.00    0.00  2684.00     0.00    31.76     0.22    1.29    1.29    0.00   1.29  21.80
sdd               4.00     0.00  203.00    0.00  3964.00     0.00    39.05     0.31    1.55    1.55    0.00   1.51  30.60
md0               0.00     0.00  575.00    0.00 11520.00     0.00    40.07     0.00    0.00    0.00    0.00   0.00   0.00

avg-cpu:  %user   %nice %system %iowait  %steal   %idle
           0.00    0.00    0.06    3.03    0.00   96.90

Device:         rrqm/s   wrqm/s     r/s     w/s    rkB/s    wkB/s avgrq-sz avgqu-sz   await r_await w_await  svctm  %util
nvme0n1           0.00     0.00    0.00    0.00     0.00     0.00     0.00     0.00    0.00    0.00    0.00   0.00   0.00
sda               0.00     7.00    1.00    2.00     4.00    36.00    26.67     0.00    0.33    1.00    0.00   0.33   0.10
sdc               3.00     0.00  184.00    0.00  3140.00     0.00    34.13     0.32    1.75    1.75    0.00   1.74  32.00
sdb               0.00     0.00  197.00    0.00  2492.00     0.00    25.30     0.29    1.48    1.48    0.00   1.41  27.80
sdd               2.00     0.00  173.00    0.00  2512.00     0.00    29.04     0.42    2.37    2.37    0.00   2.31  39.90
md0               0.00     0.00  559.00    0.00  8536.00     0.00    30.54     0.00    0.00    0.00    0.00   0.00   0.00

avg-cpu:  %user   %nice %system %iowait  %steal   %idle
           0.00    0.00    0.09    3.00    0.00   96.90

Device:         rrqm/s   wrqm/s     r/s     w/s    rkB/s    wkB/s avgrq-sz avgqu-sz   await r_await w_await  svctm  %util
nvme0n1           0.00     0.00    0.00    0.00     0.00     0.00     0.00     0.00    0.00    0.00    0.00   0.00   0.00
sda               0.00     0.00    0.00    0.00     0.00     0.00     0.00     0.00    0.00    0.00    0.00   0.00   0.00
sdc               6.00     0.00  220.00    0.00  4788.00     0.00    43.53     0.24    1.10    1.10    0.00   1.07  23.50
sdb               7.00     0.00  235.00    0.00  5408.00     0.00    46.03     0.34    1.43    1.43    0.00   1.40  32.90
sdd               2.00     0.00  206.00    0.00  3372.00     0.00    32.74     0.47    2.31    2.31    0.00   2.19  45.10
md0               0.00     0.00  676.00    0.00 15136.00     0.00    44.78     0.00    0.00    0.00    0.00   0.00   0.00

avg-cpu:  %user   %nice %system %iowait  %steal   %idle
           0.00    0.00    0.03    3.03    0.00   96.94

Device:         rrqm/s   wrqm/s     r/s     w/s    rkB/s    wkB/s avgrq-sz avgqu-sz   await r_await w_await  svctm  %util
nvme0n1           0.00     0.00    0.00    0.00     0.00     0.00     0.00     0.00    0.00    0.00    0.00   0.00   0.00
sda               0.00     0.00    0.00    0.00     0.00     0.00     0.00     0.00    0.00    0.00    0.00   0.00   0.00
sdc               0.00     0.00  200.00    0.00  2608.00     0.00    26.08     0.29    1.45    1.45    0.00   1.41  28.20
sdb               1.00     0.00  194.00    0.00  2480.00     0.00    25.57     0.36    1.87    1.87    0.00   1.85  35.90
sdd               3.00     0.00  196.00    0.00  3236.00     0.00    33.02     0.37    1.86    1.86    0.00   1.84  36.10
md0               0.00     0.00  594.00    0.00  8504.00     0.00    28.63     0.00    0.00    0.00    0.00   0.00   0.00

avg-cpu:  %user   %nice %system %iowait  %steal   %idle
           0.00    0.00    0.09    3.00    0.00   96.90

Device:         rrqm/s   wrqm/s     r/s     w/s    rkB/s    wkB/s avgrq-sz avgqu-sz   await r_await w_await  svctm  %util
nvme0n1           0.00     0.00    0.00    0.00     0.00     0.00     0.00     0.00    0.00    0.00    0.00   0.00   0.00
sda               0.00     0.00    0.00    0.00     0.00     0.00     0.00     0.00    0.00    0.00    0.00   0.00   0.00
sdc               3.00     0.00  192.00    0.00  3548.00     0.00    36.96     0.36    1.87    1.87    0.00   1.81  34.80
sdb               5.00     0.00  194.00    0.00  3532.00     0.00    36.41     0.27    1.39    1.39    0.00   1.37  26.50
sdd               3.00     0.00  230.00    0.00  3300.00     0.00    28.70     0.40    1.73    1.73    0.00   1.71  39.30
md0               0.00     0.00  627.00    0.00 11476.00     0.00    36.61     0.00    0.00    0.00    0.00   0.00   0.00

avg-cpu:  %user   %nice %system %iowait  %steal   %idle
           0.00    0.00    0.06    3.00    0.00   96.94

Device:         rrqm/s   wrqm/s     r/s     w/s    rkB/s    wkB/s avgrq-sz avgqu-sz   await r_await w_await  svctm  %util
nvme0n1           0.00     0.00    0.00    0.00     0.00     0.00     0.00     0.00    0.00    0.00    0.00   0.00   0.00
sda               0.00     0.00    0.00    0.00     0.00     0.00     0.00     0.00    0.00    0.00    0.00   0.00   0.00
sdc               4.00     0.00  206.00    0.00  3700.00     0.00    35.92     0.36    1.73    1.73    0.00   1.73  35.70
sdb               2.00     0.00  221.00    0.00  2820.00     0.00    25.52     0.36    1.66    1.66    0.00   1.62  35.80
sdd               3.00     0.00  207.00    0.00  3104.00     0.00    29.99     0.30    1.45    1.45    0.00   1.41  29.10
md0               0.00     0.00  643.00    0.00 10144.00     0.00    31.55     0.00    0.00    0.00    0.00   0.00   0.00

avg-cpu:  %user   %nice %system %iowait  %steal   %idle
           0.00    0.00    0.03    3.03    0.00   96.93

Device:         rrqm/s   wrqm/s     r/s     w/s    rkB/s    wkB/s avgrq-sz avgqu-sz   await r_await w_await  svctm  %util
nvme0n1           0.00     0.00    0.00    0.00     0.00     0.00     0.00     0.00    0.00    0.00    0.00   0.00   0.00
sda               0.00     3.00    0.00    2.00     0.00    20.00    20.00     0.00    0.00    0.00    0.00   0.00   0.00
sdc               2.00     0.00  204.00    0.00  2816.00     0.00    27.61     0.29    1.47    1.47    0.00   1.42  28.90
sdb               0.00     0.00  186.00    0.00  2156.00     0.00    23.18     0.37    2.00    2.00    0.00   1.98  36.90
sdd               1.00     0.00  179.00    0.00  2140.00     0.00    23.91     0.34    1.93    1.93    0.00   1.91  34.10
md0               0.00     0.00  572.00    0.00  7440.00     0.00    26.01     0.00    0.00    0.00    0.00   0.00   0.00

avg-cpu:  %user   %nice %system %iowait  %steal   %idle
           0.00    0.00    0.12    3.00    0.00   96.88

Device:         rrqm/s   wrqm/s     r/s     w/s    rkB/s    wkB/s avgrq-sz avgqu-sz   await r_await w_await  svctm  %util
nvme0n1           0.00     0.00    0.00    0.00     0.00     0.00     0.00     0.00    0.00    0.00    0.00   0.00   0.00
sda               0.00     0.00    0.00    0.00     0.00     0.00     0.00     0.00    0.00    0.00    0.00   0.00   0.00
sdc               2.00     0.00  209.00    0.00  3152.00     0.00    30.16     0.32    1.52    1.52    0.00   1.49  31.20
sdb               1.00     0.00  181.00    0.00  2844.00     0.00    31.43     0.26    1.43    1.43    0.00   1.43  25.80
sdd               2.00     0.00  189.00    0.00  2820.00     0.00    29.84     0.44    2.33    2.33    0.00   2.31  43.60
md0               0.00     0.00  584.00    0.00 10152.00     0.00    34.77     0.00    0.00    0.00    0.00   0.00   0.00

avg-cpu:  %user   %nice %system %iowait  %steal   %idle
           0.00    0.00    0.06    3.03    0.00   96.90

Device:         rrqm/s   wrqm/s     r/s     w/s    rkB/s    wkB/s avgrq-sz avgqu-sz   await r_await w_await  svctm  %util
nvme0n1           0.00     0.00    0.00    0.00     0.00     0.00     0.00     0.00    0.00    0.00    0.00   0.00   0.00
sda               0.00     0.00    0.00    0.00     0.00     0.00     0.00     0.00    0.00    0.00    0.00   0.00   0.00
sdc               2.00     0.00  197.00    0.00  2944.00     0.00    29.89     0.28    1.41    1.41    0.00   1.40  27.50
sdb               2.00     0.00  189.00    0.00  2520.00     0.00    26.67     0.38    2.03    2.03    0.00   2.02  38.20
sdd               2.00     0.00  239.00    0.00  3864.00     0.00    32.33     0.35    1.49    1.49    0.00   1.44  34.50
md0               0.00     0.00  631.00    0.00 10464.00     0.00    33.17     0.00    0.00    0.00    0.00   0.00   0.00

avg-cpu:  %user   %nice %system %iowait  %steal   %idle
           0.00    0.00    0.06    3.00    0.00   96.94

Device:         rrqm/s   wrqm/s     r/s     w/s    rkB/s    wkB/s avgrq-sz avgqu-sz   await r_await w_await  svctm  %util
nvme0n1           0.00     0.00    0.00    0.00     0.00     0.00     0.00     0.00    0.00    0.00    0.00   0.00   0.00
sda               0.00     0.00    0.00    0.00     0.00     0.00     0.00     0.00    0.00    0.00    0.00   0.00   0.00
sdc               5.00     0.00  239.00    0.00  3872.00     0.00    32.40     0.26    1.08    1.08    0.00   1.04  24.90
sdb               4.00     0.00  217.00    0.00  3620.00     0.00    33.36     0.44    2.04    2.04    0.00   1.99  43.20
sdd               3.00     0.00  202.00    0.00  3568.00     0.00    35.33     0.35    1.74    1.74    0.00   1.65  33.40
md0               0.00     0.00  671.00    0.00 13388.00     0.00    39.90     0.00    0.00    0.00    0.00   0.00   0.00

