Linux 4.17.2 (bench2) 	08/03/2018 	_x86_64_	(32 CPU)

avg-cpu:  %user   %nice %system %iowait  %steal   %idle
           1.93    0.00    1.58    1.50    0.00   95.00

Device:         rrqm/s   wrqm/s     r/s     w/s    rkB/s    wkB/s avgrq-sz avgqu-sz   await r_await w_await  svctm  %util
nvme0n1         960.31     5.22 19359.44  533.02 108288.61 12021.31    12.10     1.38    0.05    0.03    0.67   0.02  40.53
sda               0.11     0.81   14.11    0.57   163.84     8.50    23.48     0.00    0.33    0.32    0.46   0.07   0.10
sdc              32.20     0.14  103.51    0.30  1553.38    83.43    31.53     1.46   14.04   12.99  373.51   0.95   9.81
sdb              30.11     0.15  105.56    0.32  1551.54    83.25    30.88     0.33    3.15    1.95  394.60   0.88   9.33
sdd              32.40     0.13  103.05    0.25  1549.42    82.91    31.60     0.62    5.98    4.09  782.19   0.95   9.82
md0               0.00     0.00  409.72    1.07  5727.10   292.32    29.31     0.00    0.00    0.00    0.00   0.00   0.00

avg-cpu:  %user   %nice %system %iowait  %steal   %idle
           0.06    0.00    0.31    2.75    0.00   96.87

Device:         rrqm/s   wrqm/s     r/s     w/s    rkB/s    wkB/s avgrq-sz avgqu-sz   await r_await w_await  svctm  %util
nvme0n1           0.00     0.00    0.00    0.00     0.00     0.00     0.00     0.00    0.00    0.00    0.00   0.00   0.00
sda               0.00     0.00    1.00    0.00     8.00     0.00    16.00     0.00    0.00    0.00    0.00   0.00   0.00
sdc             128.00     0.00  178.00    0.00 69580.00     0.00   781.80     1.43    8.05    8.05    0.00   3.65  64.90
sdb             134.00     0.00  162.00    0.00 69332.00     0.00   855.95     1.40    8.62    8.62    0.00   4.12  66.70
sdd             131.00     0.00  158.00    0.00 68340.00     0.00   865.06     1.78   10.97   10.97    0.00   5.06  80.00
md0               0.00     0.00  893.00    0.00 273716.00     0.00   613.03     0.00    0.00    0.00    0.00   0.00   0.00

avg-cpu:  %user   %nice %system %iowait  %steal   %idle
           0.03    0.00    0.25    2.75    0.00   96.97

Device:         rrqm/s   wrqm/s     r/s     w/s    rkB/s    wkB/s avgrq-sz avgqu-sz   await r_await w_await  svctm  %util
nvme0n1           0.00     0.00    0.00    0.00     0.00     0.00     0.00     0.00    0.00    0.00    0.00   0.00   0.00
sda               0.00     0.00    0.00    2.00     0.00    36.00    36.00     0.00    0.00    0.00    0.00   0.00   0.00
sdc             106.00     0.00  194.00    0.00 64176.00     0.00   661.61     1.33    6.85    6.85    0.00   3.31  64.30
sdb             105.00     0.00  186.00    0.00 64732.00     0.00   696.04     1.10    5.90    5.90    0.00   3.34  62.10
sdd             111.00     0.00  171.00    0.00 66156.00     0.00   773.75     1.34    8.15    8.15    0.00   4.09  69.90
md0               0.00     0.00  870.00    0.00 268640.00     0.00   617.56     0.00    0.00    0.00    0.00   0.00   0.00

