Linux 4.17.2 (bench2) 	08/03/2018 	_x86_64_	(32 CPU)

avg-cpu:  %user   %nice %system %iowait  %steal   %idle
           1.92    0.00    1.58    1.51    0.00   94.99

Device:         rrqm/s   wrqm/s     r/s     w/s    rkB/s    wkB/s avgrq-sz avgqu-sz   await r_await w_await  svctm  %util
nvme0n1         955.18     5.19 19256.12  530.18 107710.71 11957.16    12.10     1.37    0.05    0.03    0.67   0.02  40.31
sda               0.11     0.81   14.13    0.57   163.92     8.50    23.46     0.00    0.33    0.32    0.45   0.07   0.10
sdc              32.62     0.14  106.92    0.30  1605.02    82.98    31.49     1.49   13.86   12.85  373.51   0.94  10.04
sdb              30.54     0.15  108.96    0.32  1603.15    82.80    30.86     0.37    3.35    2.20  394.60   0.87   9.54
sdd              32.82     0.13  106.46    0.25  1601.08    82.47    31.55     0.65    6.09    4.27  782.19   0.94  10.04
md0               0.00     0.00  421.20    1.07  5927.63   290.76    29.45     0.00    0.00    0.00    0.00   0.00   0.00

avg-cpu:  %user   %nice %system %iowait  %steal   %idle
           0.03    0.00    0.09    2.97    0.00   96.90

Device:         rrqm/s   wrqm/s     r/s     w/s    rkB/s    wkB/s avgrq-sz avgqu-sz   await r_await w_await  svctm  %util
nvme0n1           0.00     0.00    0.00    0.00     0.00     0.00     0.00     0.00    0.00    0.00    0.00   0.00   0.00
sda               0.00     0.00    4.00    0.00   104.00     0.00    52.00     0.00    0.25    0.25    0.00   0.25   0.10
sdc              28.00     0.00  171.00    0.00 18576.00     0.00   217.26     0.82    4.80    4.80    0.00   2.63  44.90
sdb              21.00     0.00  211.00    0.00 19964.00     0.00   189.23     0.81    3.82    3.82    0.00   2.34  49.40
sdd              16.00     0.00  175.00    0.00 18048.00     0.00   206.26     1.02    5.79    5.79    0.00   3.14  55.00
md0               0.00     0.00  626.00    0.00 73856.00     0.00   235.96     0.00    0.00    0.00    0.00   0.00   0.00

avg-cpu:  %user   %nice %system %iowait  %steal   %idle
           0.00    0.00    0.09    2.97    0.00   96.94

Device:         rrqm/s   wrqm/s     r/s     w/s    rkB/s    wkB/s avgrq-sz avgqu-sz   await r_await w_await  svctm  %util
nvme0n1           0.00     0.00    0.00    0.00     0.00     0.00     0.00     0.00    0.00    0.00    0.00   0.00   0.00
sda               0.00     0.00    0.00    0.00     0.00     0.00     0.00     0.00    0.00    0.00    0.00   0.00   0.00
sdc              26.00     0.00  210.00    0.00 19280.00     0.00   183.62     0.63    2.97    2.97    0.00   2.31  48.60
sdb              24.00     0.00  196.00    0.00 17232.00     0.00   175.84     0.54    2.77    2.77    0.00   1.96  38.50
sdd              24.00     0.00  221.00    0.00 19084.00     0.00   172.71     0.72    3.31    3.31    0.00   2.16  47.80
md0               0.00     0.00  701.00    0.00 69384.00     0.00   197.96     0.00    0.00    0.00    0.00   0.00   0.00

avg-cpu:  %user   %nice %system %iowait  %steal   %idle
           0.00    0.00    0.13    2.94    0.00   96.93

Device:         rrqm/s   wrqm/s     r/s     w/s    rkB/s    wkB/s avgrq-sz avgqu-sz   await r_await w_await  svctm  %util
nvme0n1           0.00     0.00    0.00    0.00     0.00     0.00     0.00     0.00    0.00    0.00    0.00   0.00   0.00
sda               0.00     0.00    0.00    0.00     0.00     0.00     0.00     0.00    0.00    0.00    0.00   0.00   0.00
sdc              42.00     0.00  279.00    0.00 29440.00     0.00   211.04     0.42    1.55    1.55    0.00   1.39  38.70
sdb              38.00     0.00  272.00    0.00 26292.00     0.00   193.32     0.46    1.69    1.69    0.00   1.53  41.60
sdd              40.00     0.00  257.00    0.00 28080.00     0.00   218.52     0.56    2.16    2.16    0.00   1.93  49.60
md0               0.00     0.00  928.00    0.00 103848.00     0.00   223.81     0.00    0.00    0.00    0.00   0.00   0.00

avg-cpu:  %user   %nice %system %iowait  %steal   %idle
           0.00    0.00    0.19    2.88    0.00   96.94

Device:         rrqm/s   wrqm/s     r/s     w/s    rkB/s    wkB/s avgrq-sz avgqu-sz   await r_await w_await  svctm  %util
nvme0n1           0.00     0.00    0.00    0.00     0.00     0.00     0.00     0.00    0.00    0.00    0.00   0.00   0.00
sda               0.00     0.00    0.00    0.00     0.00     0.00     0.00     0.00    0.00    0.00    0.00   0.00   0.00
sdc              35.00     0.00  255.00    0.00 32572.00     0.00   255.47     0.54    2.10    2.10    0.00   1.82  46.30
sdb              52.00     0.00  300.00    0.00 31448.00     0.00   209.65     0.54    1.78    1.78    0.00   1.56  46.90
sdd              44.00     0.00  245.00    0.00 28856.00     0.00   235.56     0.48    1.96    1.96    0.00   1.72  42.10
md0               0.00     0.00  931.00    0.00 124660.00     0.00   267.80     0.00    0.00    0.00    0.00   0.00   0.00

avg-cpu:  %user   %nice %system %iowait  %steal   %idle
           0.03    0.00    0.13    2.97    0.00   96.87

Device:         rrqm/s   wrqm/s     r/s     w/s    rkB/s    wkB/s avgrq-sz avgqu-sz   await r_await w_await  svctm  %util
nvme0n1           0.00     0.00    0.00    0.00     0.00     0.00     0.00     0.00    0.00    0.00    0.00   0.00   0.00
sda               0.00     0.00    0.00    0.00     0.00     0.00     0.00     0.00    0.00    0.00    0.00   0.00   0.00
sdc              42.00     0.00  230.00    0.00 30176.00     0.00   262.40     0.63    2.71    2.71    0.00   2.15  49.40
sdb              51.00     0.00  272.00    0.00 32388.00     0.00   238.15     0.69    2.54    2.54    0.00   2.00  54.40
sdd              52.00     0.00  220.00    0.00 29232.00     0.00   265.75     0.48    2.19    2.19    0.00   1.54  33.90
md0               0.00     0.00  867.00    0.00 128348.00     0.00   296.07     0.00    0.00    0.00    0.00   0.00   0.00

avg-cpu:  %user   %nice %system %iowait  %steal   %idle
           0.00    0.00    0.13    2.91    0.00   96.97

Device:         rrqm/s   wrqm/s     r/s     w/s    rkB/s    wkB/s avgrq-sz avgqu-sz   await r_await w_await  svctm  %util
nvme0n1           0.00     0.00    0.00    0.00     0.00     0.00     0.00     0.00    0.00    0.00    0.00   0.00   0.00
sda               0.00     6.00    0.00    2.00     0.00    32.00    32.00     0.00    0.00    0.00    0.00   0.00   0.00
sdc              47.00     0.00  255.00    0.00 29816.00     0.00   233.85     0.59    2.34    2.34    0.00   1.91  48.80
sdb              48.00     0.00  252.00    0.00 31416.00     0.00   249.33     0.45    1.79    1.79    0.00   1.45  36.50
sdd              44.00     0.00  250.00    0.00 33080.00     0.00   264.64     0.61    2.40    2.40    0.00   2.05  51.20
md0               0.00     0.00  897.00    0.00 126424.00     0.00   281.88     0.00    0.00    0.00    0.00   0.00   0.00

avg-cpu:  %user   %nice %system %iowait  %steal   %idle
           0.00    0.00    0.09    2.97    0.00   96.93

Device:         rrqm/s   wrqm/s     r/s     w/s    rkB/s    wkB/s avgrq-sz avgqu-sz   await r_await w_await  svctm  %util
nvme0n1           0.00     0.00    0.00    0.00     0.00     0.00     0.00     0.00    0.00    0.00    0.00   0.00   0.00
sda               0.00     0.00    0.00    0.00     0.00     0.00     0.00     0.00    0.00    0.00    0.00   0.00   0.00
sdc              30.00     0.00  245.00    0.00 24380.00     0.00   199.02     0.77    3.13    3.13    0.00   2.42  59.30
sdb              37.00     0.00  237.00    0.00 25044.00     0.00   211.34     0.34    1.41    1.41    0.00   1.27  30.20
sdd              33.00     0.00  227.00    0.00 22344.00     0.00   196.86     0.52    2.36    2.36    0.00   1.81  41.10
md0               0.00     0.00  808.00    0.00 94800.00     0.00   234.65     0.00    0.00    0.00    0.00   0.00   0.00

avg-cpu:  %user   %nice %system %iowait  %steal   %idle
           0.00    0.00    0.13    2.94    0.00   96.94

Device:         rrqm/s   wrqm/s     r/s     w/s    rkB/s    wkB/s avgrq-sz avgqu-sz   await r_await w_await  svctm  %util
nvme0n1           0.00     0.00    0.00    0.00     0.00     0.00     0.00     0.00    0.00    0.00    0.00   0.00   0.00
sda               0.00     1.00    0.00    1.00     0.00     8.00    16.00     0.00    0.00    0.00    0.00   0.00   0.00
sdc              37.00     0.00  241.00    0.00 27464.00     0.00   227.92     0.81    3.39    3.39    0.00   2.74  66.00
sdb              39.00     0.00  237.00    0.00 26864.00     0.00   226.70     0.42    1.76    1.76    0.00   1.28  30.30
sdd              44.00     0.00  240.00    0.00 27236.00     0.00   226.97     0.48    1.98    1.98    0.00   1.62  38.90
md0               0.00     0.00  838.00    0.00 108776.00     0.00   259.61     0.00    0.00    0.00    0.00   0.00   0.00

avg-cpu:  %user   %nice %system %iowait  %steal   %idle
           0.00    0.00    0.13    2.91    0.00   96.97

Device:         rrqm/s   wrqm/s     r/s     w/s    rkB/s    wkB/s avgrq-sz avgqu-sz   await r_await w_await  svctm  %util
nvme0n1           0.00     0.00    0.00    0.00     0.00     0.00     0.00     0.00    0.00    0.00    0.00   0.00   0.00
sda               0.00     0.00    0.00    0.00     0.00     0.00     0.00     0.00    0.00    0.00    0.00   0.00   0.00
sdc              44.00     0.00  260.00    0.00 30316.00     0.00   233.20     0.80    3.04    3.04    0.00   2.63  68.40
sdb              35.00     0.00  282.00    0.00 30248.00     0.00   214.52     0.42    1.48    1.48    0.00   1.20  33.90
sdd              41.00     0.00  270.00    0.00 29432.00     0.00   218.01     0.30    1.13    1.13    0.00   0.98  26.40
md0               0.00     0.00  932.00    0.00 117208.00     0.00   251.52     0.00    0.00    0.00    0.00   0.00   0.00

avg-cpu:  %user   %nice %system %iowait  %steal   %idle
           0.03    0.00    0.16    2.94    0.00   96.87

Device:         rrqm/s   wrqm/s     r/s     w/s    rkB/s    wkB/s avgrq-sz avgqu-sz   await r_await w_await  svctm  %util
nvme0n1           0.00     0.00    0.00    0.00     0.00     0.00     0.00     0.00    0.00    0.00    0.00   0.00   0.00
sda               0.00     0.00    0.00    0.00     0.00     0.00     0.00     0.00    0.00    0.00    0.00   0.00   0.00
sdc              46.00     0.00  270.00    0.00 28552.00     0.00   211.50     0.69    2.59    2.59    0.00   2.33  63.00
sdb              46.00     0.00  253.00    0.00 26448.00     0.00   209.08     0.29    1.16    1.16    0.00   1.04  26.40
sdd              33.00     0.00  236.00    0.00 28084.00     0.00   238.00     0.41    1.72    1.72    0.00   1.61  38.00
md0               0.00     0.00  884.00    0.00 107988.00     0.00   244.32     0.00    0.00    0.00    0.00   0.00   0.00

avg-cpu:  %user   %nice %system %iowait  %steal   %idle
           0.00    0.00    0.13    2.91    0.00   96.97

Device:         rrqm/s   wrqm/s     r/s     w/s    rkB/s    wkB/s avgrq-sz avgqu-sz   await r_await w_await  svctm  %util
nvme0n1           0.00     0.00    0.00    0.00     0.00     0.00     0.00     0.00    0.00    0.00    0.00   0.00   0.00
sda               0.00     4.00    0.00    2.00     0.00    24.00    24.00     0.00    0.00    0.00    0.00   0.00   0.00
sdc              47.00     0.00  229.00    0.00 26040.00     0.00   227.42     0.65    2.82    2.82    0.00   2.50  57.30
sdb              30.00     0.00  240.00    0.00 22632.00     0.00   188.60     0.30    1.24    1.24    0.00   1.05  25.10
sdd              33.00     0.00  239.00    0.00 24284.00     0.00   203.21     0.49    2.05    2.05    0.00   1.73  41.40
md0               0.00     0.00  820.00    0.00 101008.00     0.00   246.36     0.00    0.00    0.00    0.00   0.00   0.00

avg-cpu:  %user   %nice %system %iowait  %steal   %idle
           0.00    0.00    0.13    2.91    0.00   96.96

Device:         rrqm/s   wrqm/s     r/s     w/s    rkB/s    wkB/s avgrq-sz avgqu-sz   await r_await w_await  svctm  %util
nvme0n1           0.00     0.00    0.00    0.00     0.00     0.00     0.00     0.00    0.00    0.00    0.00   0.00   0.00
sda               0.00     0.00    0.00    0.00     0.00     0.00     0.00     0.00    0.00    0.00    0.00   0.00   0.00
sdc              44.00     0.00  261.00    0.00 33012.00     0.00   252.97     0.65    2.49    2.49    0.00   1.99  51.90
sdb              49.00     0.00  300.00    0.00 35968.00     0.00   239.79     0.45    1.51    1.51    0.00   1.12  33.70
sdd              49.00     0.00  294.00    0.00 32276.00     0.00   219.56     0.65    2.21    2.21    0.00   1.85  54.50
md0               0.00     0.00  995.00    0.00 137744.00     0.00   276.87     0.00    0.00    0.00    0.00   0.00   0.00

avg-cpu:  %user   %nice %system %iowait  %steal   %idle
           0.03    0.00    0.19    2.94    0.00   96.84

Device:         rrqm/s   wrqm/s     r/s     w/s    rkB/s    wkB/s avgrq-sz avgqu-sz   await r_await w_await  svctm  %util
nvme0n1           0.00     0.00    0.00    0.00     0.00     0.00     0.00     0.00    0.00    0.00    0.00   0.00   0.00
sda               0.00     3.00    0.00   15.00     0.00    88.00    11.73     0.00    0.00    0.00    0.00   0.00   0.00
sdc              58.00     0.00  260.00    0.00 34404.00     0.00   264.65     0.42    1.63    1.63    0.00   1.35  35.00
sdb              48.00     0.00  278.00    0.00 32752.00     0.00   235.63     0.51    1.83    1.83    0.00   1.34  37.20
sdd              52.00     0.00  255.00    0.00 34980.00     0.00   274.35     0.81    3.17    3.17    0.00   2.42  61.70
md0               0.00     0.00  951.00    0.00 136876.00     0.00   287.86     0.00    0.00    0.00    0.00   0.00   0.00

avg-cpu:  %user   %nice %system %iowait  %steal   %idle
           0.00    0.00    0.13    2.91    0.00   96.97

Device:         rrqm/s   wrqm/s     r/s     w/s    rkB/s    wkB/s avgrq-sz avgqu-sz   await r_await w_await  svctm  %util
nvme0n1           0.00     0.00    0.00    0.00     0.00     0.00     0.00     0.00    0.00    0.00    0.00   0.00   0.00
sda               0.00     0.00    0.00    0.00     0.00     0.00     0.00     0.00    0.00    0.00    0.00   0.00   0.00
sdc              48.00     0.00  302.00    0.00 32168.00     0.00   213.03     0.52    1.73    1.73    0.00   1.49  44.90
sdb              48.00     0.00  302.00    0.00 31876.00     0.00   211.10     0.54    1.78    1.78    0.00   1.53  46.10
sdd              37.00     0.00  301.00    0.00 33856.00     0.00   224.96     0.51    1.68    1.68    0.00   1.38  41.50
md0               0.00     0.00 1039.00    0.00 126700.00     0.00   243.89     0.00    0.00    0.00    0.00   0.00   0.00

avg-cpu:  %user   %nice %system %iowait  %steal   %idle
           0.00    0.00    0.16    2.91    0.00   96.93

Device:         rrqm/s   wrqm/s     r/s     w/s    rkB/s    wkB/s avgrq-sz avgqu-sz   await r_await w_await  svctm  %util
nvme0n1           0.00     0.00    0.00    0.00     0.00     0.00     0.00     0.00    0.00    0.00    0.00   0.00   0.00
sda               0.00     0.00    0.00    0.00     0.00     0.00     0.00     0.00    0.00    0.00    0.00   0.00   0.00
sdc              38.00     0.00  278.00    0.00 28028.00     0.00   201.64     0.43    1.55    1.55    0.00   1.39  38.60
sdb              43.00     0.00  297.00    0.00 26240.00     0.00   176.70     0.31    1.03    1.03    0.00   0.95  28.10
sdd              31.00     0.00  253.00    0.00 25312.00     0.00   200.09     0.69    2.75    2.75    0.00   2.30  58.30
md0               0.00     0.00  939.00    0.00 107284.00     0.00   228.51     0.00    0.00    0.00    0.00   0.00   0.00

avg-cpu:  %user   %nice %system %iowait  %steal   %idle
           0.03    0.00    0.19    0.16    0.00   99.62

Device:         rrqm/s   wrqm/s     r/s     w/s    rkB/s    wkB/s avgrq-sz avgqu-sz   await r_await w_await  svctm  %util
nvme0n1           0.00     0.00    0.00    0.00     0.00     0.00     0.00     0.00    0.00    0.00    0.00   0.00   0.00
sda               0.00     3.00    0.00    2.00     0.00    20.00    20.00     0.00    0.50    0.00    0.50   0.50   0.10
sdc              41.00     0.00  286.00    0.00 32304.00     0.00   225.90     0.54    1.88    1.88    0.00   1.51  43.30
sdb              44.00     0.00  301.00    0.00 35512.00     0.00   235.96     0.48    1.60    1.60    0.00   1.30  39.20
sdd              55.00     0.00  284.00    0.00 31664.00     0.00   222.99     0.61    2.14    2.14    0.00   1.85  52.40
md0               0.00     0.00 1011.00    0.00 135864.00     0.00   268.77     0.00    0.00    0.00    0.00   0.00   0.00

avg-cpu:  %user   %nice %system %iowait  %steal   %idle
           0.00    0.00    0.13    0.28    0.00   99.59

Device:         rrqm/s   wrqm/s     r/s     w/s    rkB/s    wkB/s avgrq-sz avgqu-sz   await r_await w_await  svctm  %util
nvme0n1           0.00     0.00    0.00    0.00     0.00     0.00     0.00     0.00    0.00    0.00    0.00   0.00   0.00
sda               0.00     0.00    0.00    0.00     0.00     0.00     0.00     0.00    0.00    0.00    0.00   0.00   0.00
sdc              49.00     0.00  282.00    0.00 31920.00     0.00   226.38     0.34    1.20    1.20    0.00   1.01  28.60
sdb              47.00     0.00  307.00    0.00 32024.00     0.00   208.63     0.45    1.48    1.48    0.00   1.29  39.70
sdd              41.00     0.00  287.00    0.00 30732.00     0.00   214.16     0.77    2.68    2.68    0.00   2.18  62.70
md0               0.00     0.00 1013.00    0.00 121908.00     0.00   240.69     0.00    0.00    0.00    0.00   0.00   0.00

avg-cpu:  %user   %nice %system %iowait  %steal   %idle
           0.03    0.00    0.09    0.25    0.00   99.62

Device:         rrqm/s   wrqm/s     r/s     w/s    rkB/s    wkB/s avgrq-sz avgqu-sz   await r_await w_await  svctm  %util
nvme0n1           0.00     0.00    0.00    0.00     0.00     0.00     0.00     0.00    0.00    0.00    0.00   0.00   0.00
sda               0.00     0.00    0.00    0.00     0.00     0.00     0.00     0.00    0.00    0.00    0.00   0.00   0.00
sdc              41.00     0.00  280.00    0.00 30264.00     0.00   216.17     0.40    1.42    1.42    0.00   1.20  33.70
sdb              42.00     0.00  274.00    0.00 28912.00     0.00   211.04     0.41    1.48    1.48    0.00   1.25  34.20
sdd              42.00     0.00  265.00    0.00 29276.00     0.00   220.95     0.70    2.65    2.65    0.00   2.28  60.50
md0               0.00     0.00  945.00    0.00 118228.00     0.00   250.22     0.00    0.00    0.00    0.00   0.00   0.00

avg-cpu:  %user   %nice %system %iowait  %steal   %idle
           0.00    0.00    0.13    0.25    0.00   99.62

Device:         rrqm/s   wrqm/s     r/s     w/s    rkB/s    wkB/s avgrq-sz avgqu-sz   await r_await w_await  svctm  %util
nvme0n1           0.00     0.00    0.00    0.00     0.00     0.00     0.00     0.00    0.00    0.00    0.00   0.00   0.00
sda               0.00     0.00    0.00    0.00     0.00     0.00     0.00     0.00    0.00    0.00    0.00   0.00   0.00
sdc              28.00     0.00  309.00    0.00 24804.00     0.00   160.54     0.44    1.45    1.45    0.00   1.34  41.30
sdb              40.00     0.00  294.00    0.00 26940.00     0.00   183.27     0.31    1.04    1.04    0.00   0.99  29.00
sdd              48.00     0.00  290.00    0.00 25988.00     0.00   179.23     0.53    1.79    1.79    0.00   1.71  49.70
md0               0.00     0.00 1008.00    0.00 100576.00     0.00   199.56     0.00    0.00    0.00    0.00   0.00   0.00

avg-cpu:  %user   %nice %system %iowait  %steal   %idle
           0.03    0.00    0.16    0.19    0.00   99.62

Device:         rrqm/s   wrqm/s     r/s     w/s    rkB/s    wkB/s avgrq-sz avgqu-sz   await r_await w_await  svctm  %util
nvme0n1           0.00     0.00    0.00    0.00     0.00     0.00     0.00     0.00    0.00    0.00    0.00   0.00   0.00
sda               0.00     1.00    0.00    2.00     0.00    12.00    12.00     0.00    0.00    0.00    0.00   0.00   0.00
sdc              48.00     0.00  297.00    0.00 31292.00     0.00   210.72     0.47    1.59    1.59    0.00   1.36  40.30
sdb              43.00     0.00  284.00    0.00 31972.00     0.00   225.15     0.45    1.56    1.56    0.00   1.35  38.40
sdd              41.00     0.00  325.00    0.00 32112.00     0.00   197.61     0.69    2.15    2.15    0.00   1.67  54.40
md0               0.00     0.00 1038.00    0.00 121504.00     0.00   234.11     0.00    0.00    0.00    0.00   0.00   0.00

