Linux 4.17.2 (bench2) 	08/03/2018 	_x86_64_	(32 CPU)

avg-cpu:  %user   %nice %system %iowait  %steal   %idle
           1.92    0.00    1.58    1.50    0.00   94.99

Device:         rrqm/s   wrqm/s     r/s     w/s    rkB/s    wkB/s avgrq-sz avgqu-sz   await r_await w_await  svctm  %util
nvme0n1         957.95     5.20 19311.98  531.72 108023.14 11991.84    12.10     1.37    0.05    0.03    0.67   0.02  40.43
sda               0.12     0.81   14.12    0.57   163.87     8.50    23.47     0.00    0.33    0.32    0.45   0.07   0.10
sdc              32.23     0.14  104.90    0.30  1584.76    83.22    31.71     1.47   13.98   12.95  373.51   0.94   9.93
sdb              30.15     0.15  106.95    0.32  1582.91    83.04    31.06     0.35    3.25    2.07  394.60   0.88   9.43
sdd              32.44     0.13  104.44    0.25  1580.80    82.71    31.78     0.63    6.05    4.19  782.19   0.95   9.93
md0               0.00     0.00  413.99    1.07  5853.97   291.60    29.61     0.00    0.00    0.00    0.00   0.00   0.00

avg-cpu:  %user   %nice %system %iowait  %steal   %idle
           0.00    0.00    0.09    0.75    0.00   99.16

Device:         rrqm/s   wrqm/s     r/s     w/s    rkB/s    wkB/s avgrq-sz avgqu-sz   await r_await w_await  svctm  %util
nvme0n1           0.00     0.00    0.00    0.00     0.00     0.00     0.00     0.00    0.00    0.00    0.00   0.00   0.00
sda               0.00     0.00    1.00    0.00     8.00     0.00    16.00     0.00    0.00    0.00    0.00   0.00   0.00
sdc               3.00     0.00  186.00    0.00  3340.00     0.00    35.91     0.32    1.69    1.69    0.00   1.69  31.40
sdb               5.00     0.00  209.00    0.00  3404.00     0.00    32.57     0.32    1.51    1.51    0.00   1.46  30.60
sdd               2.00     0.00  222.00    0.00  3376.00     0.00    30.41     0.39    1.73    1.73    0.00   1.70  37.80
md0               0.00     0.00  628.00    0.00 11204.00     0.00    35.68     0.00    0.00    0.00    0.00   0.00   0.00

avg-cpu:  %user   %nice %system %iowait  %steal   %idle
           0.00    0.00    0.06    0.81    0.00   99.12

Device:         rrqm/s   wrqm/s     r/s     w/s    rkB/s    wkB/s avgrq-sz avgqu-sz   await r_await w_await  svctm  %util
nvme0n1           0.00     0.00    0.00    0.00     0.00     0.00     0.00     0.00    0.00    0.00    0.00   0.00   0.00
sda               0.00    16.00    0.00    2.00     0.00    72.00    72.00     0.00    0.50    0.00    0.50   0.50   0.10
sdc               7.00     0.00  199.00    0.00  4784.00     0.00    48.08     0.45    2.26    2.26    0.00   2.18  43.40
sdb               5.00     0.00  220.00    0.00  5424.00     0.00    49.31     0.34    1.54    1.54    0.00   1.49  32.80
sdd               7.00     0.00  234.00    0.00  5344.00     0.00    45.68     0.25    1.06    1.06    0.00   1.05  24.60
md0               0.00     0.00  672.00    0.00 18856.00     0.00    56.12     0.00    0.00    0.00    0.00   0.00   0.00

avg-cpu:  %user   %nice %system %iowait  %steal   %idle
           0.00    0.00    0.06    0.81    0.00   99.12

Device:         rrqm/s   wrqm/s     r/s     w/s    rkB/s    wkB/s avgrq-sz avgqu-sz   await r_await w_await  svctm  %util
nvme0n1           0.00     0.00    0.00    0.00     0.00     0.00     0.00     0.00    0.00    0.00    0.00   0.00   0.00
sda               0.00     0.00    0.00    0.00     0.00     0.00     0.00     0.00    0.00    0.00    0.00   0.00   0.00
sdc               2.00     0.00  183.00    0.00  2504.00     0.00    27.37     0.35    1.92    1.92    0.00   1.91  34.90
sdb               2.00     0.00  195.00    0.00  3644.00     0.00    37.37     0.39    2.02    2.02    0.00   1.98  38.70
sdd               3.00     0.00  158.00    0.00  2528.00     0.00    32.00     0.27    1.68    1.68    0.00   1.71  27.00
md0               0.00     0.00  543.00    0.00  9696.00     0.00    35.71     0.00    0.00    0.00    0.00   0.00   0.00

