Linux 4.17.2 (bench2) 	08/03/2018 	_x86_64_	(32 CPU)

avg-cpu:  %user   %nice %system %iowait  %steal   %idle
           1.91    0.00    1.57    1.54    0.00   94.98

Device:         rrqm/s   wrqm/s     r/s     w/s    rkB/s    wkB/s avgrq-sz avgqu-sz   await r_await w_await  svctm  %util
nvme0n1         948.28     5.15 19116.95  526.35 106932.27 11870.74    12.10     1.36    0.05    0.03    0.67   0.02  40.02
sda               0.12     0.81   14.15    0.58   163.98     8.51    23.43     0.00    0.33    0.32    0.45   0.07   0.10
sdc              33.09     0.14  111.53    0.30  1683.56    82.38    31.58     1.53   13.65   12.69  373.51   0.93  10.36
sdb              31.02     0.15  113.56    0.32  1681.67    82.21    30.98     0.41    3.62    2.53  394.60   0.86   9.84
sdd              33.28     0.13  111.07    0.25  1679.57    81.88    31.65     0.70    6.26    4.53  782.19   0.93  10.36
md0               0.00     0.00  436.42    1.06  6235.84   288.65    29.83     0.00    0.00    0.00    0.00   0.00   0.00

avg-cpu:  %user   %nice %system %iowait  %steal   %idle
           0.00    0.00    0.09    3.00    0.00   96.90

Device:         rrqm/s   wrqm/s     r/s     w/s    rkB/s    wkB/s avgrq-sz avgqu-sz   await r_await w_await  svctm  %util
nvme0n1           0.00     0.00    0.00    0.00     0.00     0.00     0.00     0.00    0.00    0.00    0.00   0.00   0.00
sda               0.00     0.00    4.00    0.00   104.00     0.00    52.00     0.00    0.25    0.25    0.00   0.25   0.10
sdc               2.00     0.00  161.00    0.00  2260.00     0.00    28.07     0.30    1.84    1.84    0.00   1.81  29.20
sdb               2.00     0.00  171.00    0.00  3152.00     0.00    36.87     0.31    1.79    1.79    0.00   1.73  29.50
sdd               0.00     0.00  148.00    0.00  1888.00     0.00    25.51     0.42    2.81    2.81    0.00   2.80  41.40
md0               0.00     0.00  485.00    0.00  8104.00     0.00    33.42     0.00    0.00    0.00    0.00   0.00   0.00

avg-cpu:  %user   %nice %system %iowait  %steal   %idle
           0.00    0.00    0.06    3.03    0.00   96.90

Device:         rrqm/s   wrqm/s     r/s     w/s    rkB/s    wkB/s avgrq-sz avgqu-sz   await r_await w_await  svctm  %util
nvme0n1           0.00     0.00    0.00    0.00     0.00     0.00     0.00     0.00    0.00    0.00    0.00   0.00   0.00
sda               0.00     0.00    0.00    0.00     0.00     0.00     0.00     0.00    0.00    0.00    0.00   0.00   0.00
sdc               3.00     0.00  189.00    0.00  3656.00     0.00    38.69     0.35    1.85    1.85    0.00   1.82  34.40
sdb               1.00     0.00  184.00    0.00  2324.00     0.00    25.26     0.38    2.02    2.02    0.00   1.97  36.20
sdd               4.00     0.00  195.00    0.00  3912.00     0.00    40.12     0.35    1.79    1.79    0.00   1.70  33.20
md0               0.00     0.00  576.00    0.00 10992.00     0.00    38.17     0.00    0.00    0.00    0.00   0.00   0.00

avg-cpu:  %user   %nice %system %iowait  %steal   %idle
           0.00    0.00    0.06    3.00    0.00   96.94

Device:         rrqm/s   wrqm/s     r/s     w/s    rkB/s    wkB/s avgrq-sz avgqu-sz   await r_await w_await  svctm  %util
nvme0n1           0.00     0.00    0.00    0.00     0.00     0.00     0.00     0.00    0.00    0.00    0.00   0.00   0.00
sda               0.00     0.00    0.00    0.00     0.00     0.00     0.00     0.00    0.00    0.00    0.00   0.00   0.00
sdc               2.00     0.00  229.00    0.00  4204.00     0.00    36.72     0.33    1.45    1.45    0.00   1.38  31.50
sdb               2.00     0.00  190.00    0.00  3560.00     0.00    37.47     0.26    1.38    1.38    0.00   1.30  24.70
sdd               2.00     0.00  193.00    0.00  3068.00     0.00    31.79     0.45    2.34    2.34    0.00   2.33  44.90
md0               0.00     0.00  618.00    0.00 12216.00     0.00    39.53     0.00    0.00    0.00    0.00   0.00   0.00

avg-cpu:  %user   %nice %system %iowait  %steal   %idle
           0.00    0.00    0.06    3.03    0.00   96.91

Device:         rrqm/s   wrqm/s     r/s     w/s    rkB/s    wkB/s avgrq-sz avgqu-sz   await r_await w_await  svctm  %util
nvme0n1           0.00     0.00    0.00    0.00     0.00     0.00     0.00     0.00    0.00    0.00    0.00   0.00   0.00
sda               0.00     8.00    0.00    2.00     0.00    40.00    40.00     0.00    0.00    0.00    0.00   0.00   0.00
sdc               2.00     0.00  194.00    0.00  2328.00     0.00    24.00     0.38    1.95    1.95    0.00   1.96  38.00
sdb               3.00     0.00  165.00    0.00  2868.00     0.00    34.76     0.39    2.39    2.39    0.00   2.29  37.80
sdd               2.00     0.00  175.00    0.00  2560.00     0.00    29.26     0.24    1.37    1.37    0.00   1.34  23.50
md0               0.00     0.00  541.00    0.00  8228.00     0.00    30.42     0.00    0.00    0.00    0.00   0.00   0.00

avg-cpu:  %user   %nice %system %iowait  %steal   %idle
           0.00    0.00    0.09    3.03    0.00   96.87

Device:         rrqm/s   wrqm/s     r/s     w/s    rkB/s    wkB/s avgrq-sz avgqu-sz   await r_await w_await  svctm  %util
nvme0n1           0.00     0.00    0.00    0.00     0.00     0.00     0.00     0.00    0.00    0.00    0.00   0.00   0.00
sda               0.00     0.00    0.00    0.00     0.00     0.00     0.00     0.00    0.00    0.00    0.00   0.00   0.00
sdc               1.00     0.00  181.00    0.00  2368.00     0.00    26.17     0.42    2.33    2.33    0.00   2.30  41.60
sdb               3.00     0.00  192.00    0.00  2852.00     0.00    29.71     0.37    1.93    1.93    0.00   1.90  36.40
sdd               1.00     0.00  170.00    0.00  2200.00     0.00    25.88     0.22    1.30    1.30    0.00   1.29  21.90
md0               0.00     0.00  548.00    0.00  8012.00     0.00    29.24     0.00    0.00    0.00    0.00   0.00   0.00

avg-cpu:  %user   %nice %system %iowait  %steal   %idle
           0.00    0.00    0.06    3.03    0.00   96.91

Device:         rrqm/s   wrqm/s     r/s     w/s    rkB/s    wkB/s avgrq-sz avgqu-sz   await r_await w_await  svctm  %util
nvme0n1           0.00     0.00    0.00    0.00     0.00     0.00     0.00     0.00    0.00    0.00    0.00   0.00   0.00
sda               0.00     1.00    0.00    1.00     0.00     8.00    16.00     0.00    0.00    0.00    0.00   0.00   0.00
sdc               4.00     0.00  180.00    0.00  3952.00     0.00    43.91     0.51    2.83    2.83    0.00   2.73  49.20
sdb               3.00     0.00  224.00    0.00  3380.00     0.00    30.18     0.19    0.86    0.86    0.00   0.83  18.60
sdd               1.00     0.00  194.00    0.00  2156.00     0.00    22.23     0.34    1.76    1.76    0.00   1.72  33.40
md0               0.00     0.00  606.00    0.00 11112.00     0.00    36.67     0.00    0.00    0.00    0.00   0.00   0.00

avg-cpu:  %user   %nice %system %iowait  %steal   %idle
           0.00    0.00    0.06    3.00    0.00   96.93

Device:         rrqm/s   wrqm/s     r/s     w/s    rkB/s    wkB/s avgrq-sz avgqu-sz   await r_await w_await  svctm  %util
nvme0n1           0.00     0.00    0.00    0.00     0.00     0.00     0.00     0.00    0.00    0.00    0.00   0.00   0.00
sda               0.00     0.00    0.00    0.00     0.00     0.00     0.00     0.00    0.00    0.00    0.00   0.00   0.00
sdc               3.00     0.00  191.00    0.00  2964.00     0.00    31.04     0.36    1.87    1.87    0.00   1.85  35.30
sdb               3.00     0.00  211.00    0.00  3384.00     0.00    32.08     0.28    1.33    1.33    0.00   1.27  26.80
sdd               7.00     0.00  216.00    0.00  4960.00     0.00    45.93     0.41    1.88    1.88    0.00   1.81  39.00
md0               0.00     0.00  631.00    0.00 13012.00     0.00    41.24     0.00    0.00    0.00    0.00   0.00   0.00

avg-cpu:  %user   %nice %system %iowait  %steal   %idle
           0.00    0.00    0.06    3.03    0.00   96.91

Device:         rrqm/s   wrqm/s     r/s     w/s    rkB/s    wkB/s avgrq-sz avgqu-sz   await r_await w_await  svctm  %util
nvme0n1           0.00     0.00    0.00    0.00     0.00     0.00     0.00     0.00    0.00    0.00    0.00   0.00   0.00
sda               0.00     0.00    0.00    0.00     0.00     0.00     0.00     0.00    0.00    0.00    0.00   0.00   0.00
sdc               4.00     0.00  196.00    0.00  4664.00     0.00    47.59     0.52    2.56    2.56    0.00   2.59  50.70
sdb               6.00     0.00  175.00    0.00  4248.00     0.00    48.55     0.24    1.38    1.38    0.00   1.38  24.10
sdd               2.00     0.00  150.00    0.00  2036.00     0.00    27.15     0.26    1.73    1.73    0.00   1.72  25.80
md0               0.00     0.00  533.00    0.00 13268.00     0.00    49.79     0.00    0.00    0.00    0.00   0.00   0.00

avg-cpu:  %user   %nice %system %iowait  %steal   %idle
           0.00    0.00    0.06    3.03    0.00   96.90

Device:         rrqm/s   wrqm/s     r/s     w/s    rkB/s    wkB/s avgrq-sz avgqu-sz   await r_await w_await  svctm  %util
nvme0n1           0.00     0.00    0.00    0.00     0.00     0.00     0.00     0.00    0.00    0.00    0.00   0.00   0.00
sda               0.00     3.00    0.00    2.00     0.00    20.00    20.00     0.00    0.50    0.00    0.50   0.50   0.10
sdc               1.00     0.00  240.00    0.00  3344.00     0.00    27.87     0.36    1.57    1.57    0.00   1.48  35.40
sdb               1.00     0.00  177.00    0.00  2236.00     0.00    25.27     0.26    1.47    1.47    0.00   1.44  25.50
sdd               2.00     0.00  160.00    0.00  2168.00     0.00    27.10     0.39    2.46    2.46    0.00   2.44  39.10
md0               0.00     0.00  581.00    0.00  8040.00     0.00    27.68     0.00    0.00    0.00    0.00   0.00   0.00

avg-cpu:  %user   %nice %system %iowait  %steal   %idle
           0.00    0.00    0.09    3.03    0.00   96.88

Device:         rrqm/s   wrqm/s     r/s     w/s    rkB/s    wkB/s avgrq-sz avgqu-sz   await r_await w_await  svctm  %util
nvme0n1           0.00     0.00    0.00    0.00     0.00     0.00     0.00     0.00    0.00    0.00    0.00   0.00   0.00
sda               0.00     0.00    0.00    0.00     0.00     0.00     0.00     0.00    0.00    0.00    0.00   0.00   0.00
sdc               4.00     0.00  201.00    0.00  3584.00     0.00    35.66     0.44    2.20    2.20    0.00   2.17  43.70
sdb               1.00     0.00  171.00    0.00  2656.00     0.00    31.06     0.35    2.05    2.05    0.00   2.04  34.80
sdd               3.00     0.00  199.00    0.00  3056.00     0.00    30.71     0.22    1.13    1.13    0.00   1.08  21.40
md0               0.00     0.00  579.00    0.00 10008.00     0.00    34.57     0.00    0.00    0.00    0.00   0.00   0.00

avg-cpu:  %user   %nice %system %iowait  %steal   %idle
           0.00    0.00    0.06    3.03    0.00   96.90

Device:         rrqm/s   wrqm/s     r/s     w/s    rkB/s    wkB/s avgrq-sz avgqu-sz   await r_await w_await  svctm  %util
nvme0n1           0.00     0.00    0.00    0.00     0.00     0.00     0.00     0.00    0.00    0.00    0.00   0.00   0.00
sda               0.00     1.00    0.00    2.00     0.00    28.00    28.00     0.00    0.00    0.00    0.00   0.00   0.00
sdc               3.00     0.00  181.00    0.00  2712.00     0.00    29.97     0.40    2.23    2.23    0.00   2.21  40.00
sdb               0.00     0.00  179.00    0.00  1900.00     0.00    21.23     0.22    1.21    1.21    0.00   1.18  21.10
sdd               2.00     0.00  197.00    0.00  3196.00     0.00    32.45     0.40    2.01    2.01    0.00   1.98  39.00
md0               0.00     0.00  561.00    0.00  8492.00     0.00    30.27     0.00    0.00    0.00    0.00   0.00   0.00

avg-cpu:  %user   %nice %system %iowait  %steal   %idle
           0.00    0.00    0.06    3.00    0.00   96.94

Device:         rrqm/s   wrqm/s     r/s     w/s    rkB/s    wkB/s avgrq-sz avgqu-sz   await r_await w_await  svctm  %util
nvme0n1           0.00     0.00    0.00    0.00     0.00     0.00     0.00     0.00    0.00    0.00    0.00   0.00   0.00
sda               0.00     0.00    0.00    0.00     0.00     0.00     0.00     0.00    0.00    0.00    0.00   0.00   0.00
sdc               2.00     0.00  207.00    0.00  2800.00     0.00    27.05     0.32    1.55    1.55    0.00   1.52  31.50
sdb               1.00     0.00  191.00    0.00  3016.00     0.00    31.58     0.28    1.45    1.45    0.00   1.40  26.80
sdd               8.00     0.00  195.00    0.00  4220.00     0.00    43.28     0.43    2.21    2.21    0.00   2.15  41.90
md0               0.00     0.00  605.00    0.00 11520.00     0.00    38.08     0.00    0.00    0.00    0.00   0.00   0.00

avg-cpu:  %user   %nice %system %iowait  %steal   %idle
           0.00    0.00    0.09    3.03    0.00   96.87

Device:         rrqm/s   wrqm/s     r/s     w/s    rkB/s    wkB/s avgrq-sz avgqu-sz   await r_await w_await  svctm  %util
nvme0n1           0.00     0.00    0.00    0.00     0.00     0.00     0.00     0.00    0.00    0.00    0.00   0.00   0.00
sda               0.00     0.00    0.00    0.00     0.00     0.00     0.00     0.00    0.00    0.00    0.00   0.00   0.00
sdc               1.00     0.00  156.00    0.00  2244.00     0.00    28.77     0.31    2.00    2.00    0.00   1.99  31.00
sdb               5.00     0.00  190.00    0.00  3316.00     0.00    34.91     0.25    1.33    1.33    0.00   1.32  25.00
sdd               1.00     0.00  227.00    0.00  2840.00     0.00    25.02     0.44    1.92    1.92    0.00   1.91  43.30
md0               0.00     0.00  580.00    0.00  9108.00     0.00    31.41     0.00    0.00    0.00    0.00   0.00   0.00

avg-cpu:  %user   %nice %system %iowait  %steal   %idle
           0.00    0.00    0.06    3.03    0.00   96.91

Device:         rrqm/s   wrqm/s     r/s     w/s    rkB/s    wkB/s avgrq-sz avgqu-sz   await r_await w_await  svctm  %util
nvme0n1           0.00     0.00    0.00    0.00     0.00     0.00     0.00     0.00    0.00    0.00    0.00   0.00   0.00
sda               0.00     3.00    0.00    2.00     0.00    20.00    20.00     0.00    0.00    0.00    0.00   0.00   0.00
sdc               4.00     0.00  169.00    0.00  3100.00     0.00    36.69     0.31    1.83    1.83    0.00   1.82  30.80
sdb               4.00     0.00  217.00    0.00  3816.00     0.00    35.17     0.41    1.85    1.85    0.00   1.85  40.10
sdd               4.00     0.00  194.00    0.00  3740.00     0.00    38.56     0.32    1.64    1.64    0.00   1.59  30.90
md0               0.00     0.00  592.00    0.00 11008.00     0.00    37.19     0.00    0.00    0.00    0.00   0.00   0.00

avg-cpu:  %user   %nice %system %iowait  %steal   %idle
           0.03    0.00    0.06    3.00    0.00   96.91

Device:         rrqm/s   wrqm/s     r/s     w/s    rkB/s    wkB/s avgrq-sz avgqu-sz   await r_await w_await  svctm  %util
nvme0n1           0.00     0.00    0.00    0.00     0.00     0.00     0.00     0.00    0.00    0.00    0.00   0.00   0.00
sda               0.00     0.00    0.00    0.00     0.00     0.00     0.00     0.00    0.00    0.00    0.00   0.00   0.00
sdc               5.00     0.00  243.00    0.00  5068.00     0.00    41.71     0.42    1.75    1.75    0.00   1.72  41.80
sdb               3.00     0.00  193.00    0.00  3280.00     0.00    33.99     0.30    1.58    1.58    0.00   1.56  30.20
sdd               5.00     0.00  169.00    0.00  3236.00     0.00    38.30     0.29    1.69    1.69    0.00   1.70  28.70
md0               0.00     0.00  618.00    0.00 13576.00     0.00    43.94     0.00    0.00    0.00    0.00   0.00   0.00

avg-cpu:  %user   %nice %system %iowait  %steal   %idle
           0.00    0.00    0.06    3.03    0.00   96.90

Device:         rrqm/s   wrqm/s     r/s     w/s    rkB/s    wkB/s avgrq-sz avgqu-sz   await r_await w_await  svctm  %util
nvme0n1           0.00     0.00    0.00    0.00     0.00     0.00     0.00     0.00    0.00    0.00    0.00   0.00   0.00
sda               0.00     0.00    0.00    0.00     0.00     0.00     0.00     0.00    0.00    0.00    0.00   0.00   0.00
sdc               2.00     0.00  216.00    0.00  3632.00     0.00    33.63     0.41    1.88    1.88    0.00   1.86  40.10
sdb               5.00     0.00  202.00    0.00  3180.00     0.00    31.49     0.27    1.31    1.31    0.00   1.32  26.60
sdd               2.00     0.00  196.00    0.00  2916.00     0.00    29.76     0.34    1.79    1.79    0.00   1.73  33.90
md0               0.00     0.00  623.00    0.00 10856.00     0.00    34.85     0.00    0.00    0.00    0.00   0.00   0.00

avg-cpu:  %user   %nice %system %iowait  %steal   %idle
           0.00    0.00    0.09    3.00    0.00   96.90

Device:         rrqm/s   wrqm/s     r/s     w/s    rkB/s    wkB/s avgrq-sz avgqu-sz   await r_await w_await  svctm  %util
nvme0n1           0.00     0.00    0.00    0.00     0.00     0.00     0.00     0.00    0.00    0.00    0.00   0.00   0.00
sda               0.00     0.00    0.00    0.00     0.00     0.00     0.00     0.00    0.00    0.00    0.00   0.00   0.00
sdc               3.00     0.00  228.00    0.00  3572.00     0.00    31.33     0.38    1.66    1.66    0.00   1.64  37.30
sdb               2.00     0.00  206.00    0.00  3148.00     0.00    30.56     0.25    1.25    1.25    0.00   1.21  25.00
sdd               3.00     0.00  199.00    0.00  3272.00     0.00    32.88     0.38    1.91    1.91    0.00   1.88  37.50
md0               0.00     0.00  642.00    0.00 10924.00     0.00    34.03     0.00    0.00    0.00    0.00   0.00   0.00

avg-cpu:  %user   %nice %system %iowait  %steal   %idle
           0.00    0.00    0.06    3.00    0.00   96.94

Device:         rrqm/s   wrqm/s     r/s     w/s    rkB/s    wkB/s avgrq-sz avgqu-sz   await r_await w_await  svctm  %util
nvme0n1           0.00     0.00    0.00    0.00     0.00     0.00     0.00     0.00    0.00    0.00    0.00   0.00   0.00
sda               0.00     0.00    0.00    0.00     0.00     0.00     0.00     0.00    0.00    0.00    0.00   0.00   0.00
sdc               2.00     0.00  217.00    0.00  2760.00     0.00    25.44     0.32    1.48    1.48    0.00   1.47  31.90
sdb               3.00     0.00  198.00    0.00  3092.00     0.00    31.23     0.26    1.29    1.29    0.00   1.28  25.40
sdd               2.00     0.00  223.00    0.00  3320.00     0.00    29.78     0.43    1.91    1.91    0.00   1.90  42.40
md0               0.00     0.00  644.00    0.00  9480.00     0.00    29.44     0.00    0.00    0.00    0.00   0.00   0.00

avg-cpu:  %user   %nice %system %iowait  %steal   %idle
           0.00    0.00    0.09    3.03    0.00   96.87

Device:         rrqm/s   wrqm/s     r/s     w/s    rkB/s    wkB/s avgrq-sz avgqu-sz   await r_await w_await  svctm  %util
nvme0n1           0.00     0.00    0.00    0.00     0.00     0.00     0.00     0.00    0.00    0.00    0.00   0.00   0.00
sda               0.00     1.00   56.00    2.00   436.00    12.00    15.45     0.00    0.05    0.05    0.00   0.03   0.20
sdc               2.00     0.00  205.00    0.00  3460.00     0.00    33.76     0.41    1.99    1.99    0.00   1.97  40.30
sdb               4.00     0.00  175.00    0.00  3136.00     0.00    35.84     0.25    1.45    1.45    0.00   1.44  25.20
sdd               3.00     0.00  213.00    0.00  3536.00     0.00    33.20     0.35    1.69    1.69    0.00   1.61  34.20
md0               0.00     0.00  602.00    0.00 10940.00     0.00    36.35     0.00    0.00    0.00    0.00   0.00   0.00

avg-cpu:  %user   %nice %system %iowait  %steal   %idle
           0.00    0.00    0.03    3.03    0.00   96.94

Device:         rrqm/s   wrqm/s     r/s     w/s    rkB/s    wkB/s avgrq-sz avgqu-sz   await r_await w_await  svctm  %util
nvme0n1           0.00     0.00    0.00    0.00     0.00     0.00     0.00     0.00    0.00    0.00    0.00   0.00   0.00
sda               0.00     0.00    0.00    0.00     0.00     0.00     0.00     0.00    0.00    0.00    0.00   0.00   0.00
sdc               4.00     0.00  201.00    0.00  3572.00     0.00    35.54     0.20    1.00    1.00    0.00   0.98  19.60
sdb               5.00     0.00  193.00    0.00  4052.00     0.00    41.99     0.33    1.68    1.68    0.00   1.68  32.40
sdd               5.00     0.00  213.00    0.00  4132.00     0.00    38.80     0.53    2.46    2.46    0.00   2.33  49.60
md0               0.00     0.00  622.00    0.00 12920.00     0.00    41.54     0.00    0.00    0.00    0.00   0.00   0.00

