Linux 4.17.2 (bench2) 	08/03/2018 	_x86_64_	(32 CPU)

avg-cpu:  %user   %nice %system %iowait  %steal   %idle
           1.92    0.00    1.57    1.53    0.00   94.98

Device:         rrqm/s   wrqm/s     r/s     w/s    rkB/s    wkB/s avgrq-sz avgqu-sz   await r_await w_await  svctm  %util
nvme0n1         950.22     5.16 19156.04  527.42 107150.90 11895.01    12.10     1.36    0.05    0.03    0.67   0.02  40.10
sda               0.11     0.81   14.14    0.57   163.99     8.51    23.44     0.00    0.33    0.32    0.45   0.07   0.10
sdc              33.04     0.14  110.36    0.30  1656.82    82.55    31.44     1.51   13.68   12.71  373.51   0.93  10.26
sdb              30.98     0.15  112.39    0.32  1654.93    82.37    30.83     0.40    3.53    2.42  394.60   0.87   9.75
sdd              33.24     0.13  109.90    0.25  1652.83    82.04    31.50     0.68    6.19    4.44  782.19   0.93  10.26
md0               0.00     0.00  432.78    1.06  6127.72   289.24    29.58     0.00    0.00    0.00    0.00   0.00   0.00

avg-cpu:  %user   %nice %system %iowait  %steal   %idle
           0.03    0.00    0.22    0.47    0.00   99.28

Device:         rrqm/s   wrqm/s     r/s     w/s    rkB/s    wkB/s avgrq-sz avgqu-sz   await r_await w_await  svctm  %util
nvme0n1           0.00     0.00    0.00    0.00     0.00     0.00     0.00     0.00    0.00    0.00    0.00   0.00   0.00
sda               0.00     0.00   25.00    0.00   188.00     0.00    15.04     0.02    0.84    0.84    0.00   0.08   0.20
sdc               0.00     0.00 2329.00    0.00  9316.00     0.00     8.00     0.77    0.33    0.33    0.00   0.10  23.40
sdb               0.00     0.00 2269.00    0.00  9076.00     0.00     8.00     0.94    0.42    0.42    0.00   0.14  31.20
sdd               0.00     0.00 2299.00    0.00  9196.00     0.00     8.00     1.33    0.58    0.58    0.00   0.20  46.70
md0               0.00     0.00 6898.00    0.00 27592.00     0.00     8.00     0.00    0.00    0.00    0.00   0.00   0.00

avg-cpu:  %user   %nice %system %iowait  %steal   %idle
           0.03    0.00    0.25    0.47    0.00   99.25

Device:         rrqm/s   wrqm/s     r/s     w/s    rkB/s    wkB/s avgrq-sz avgqu-sz   await r_await w_await  svctm  %util
nvme0n1           0.00     0.00    0.00    0.00     0.00     0.00     0.00     0.00    0.00    0.00    0.00   0.00   0.00
sda               0.00    11.00    0.00    2.00     0.00    52.00    52.00     0.00    0.00    0.00    0.00   0.00   0.00
sdc               0.00     0.00 2347.00    0.00  9388.00     0.00     8.00     0.77    0.33    0.33    0.00   0.10  22.70
sdb               0.00     0.00 2433.00    0.00  9732.00     0.00     8.00     1.46    0.60    0.60    0.00   0.21  50.70
sdd               0.00     0.00 2423.00    0.00  9692.00     0.00     8.00     0.95    0.39    0.39    0.00   0.12  29.30
md0               0.00     0.00 7207.00    0.00 28828.00     0.00     8.00     0.00    0.00    0.00    0.00   0.00   0.00

avg-cpu:  %user   %nice %system %iowait  %steal   %idle
           0.03    0.00    0.28    0.38    0.00   99.31

Device:         rrqm/s   wrqm/s     r/s     w/s    rkB/s    wkB/s avgrq-sz avgqu-sz   await r_await w_await  svctm  %util
nvme0n1           0.00     0.00    0.00    0.00     0.00     0.00     0.00     0.00    0.00    0.00    0.00   0.00   0.00
sda               0.00     0.00    0.00    0.00     0.00     0.00     0.00     0.00    0.00    0.00    0.00   0.00   0.00
sdc               0.00     0.00 2778.00    0.00 11112.00     0.00     8.00     0.99    0.36    0.36    0.00   0.10  27.70
sdb               0.00     0.00 2798.00    0.00 11192.00     0.00     8.00     1.09    0.39    0.39    0.00   0.11  31.20
sdd               0.00     0.00 2816.00    0.00 11264.00     0.00     8.00     1.61    0.57    0.57    0.00   0.17  47.60
md0               0.00     0.00 8390.00    0.00 33560.00     0.00     8.00     0.00    0.00    0.00    0.00   0.00   0.00

avg-cpu:  %user   %nice %system %iowait  %steal   %idle
           0.00    0.00    0.28    0.41    0.00   99.31

Device:         rrqm/s   wrqm/s     r/s     w/s    rkB/s    wkB/s avgrq-sz avgqu-sz   await r_await w_await  svctm  %util
nvme0n1           0.00     0.00    0.00    0.00     0.00     0.00     0.00     0.00    0.00    0.00    0.00   0.00   0.00
sda               0.00     0.00    0.00    0.00     0.00     0.00     0.00     0.00    0.00    0.00    0.00   0.00   0.00
sdc               0.00     0.00 2645.00    0.00 10580.00     0.00     8.00     1.23    0.47    0.47    0.00   0.14  36.20
sdb               0.00     0.00 2619.00    0.00 10476.00     0.00     8.00     0.93    0.36    0.36    0.00   0.10  25.20
sdd               0.00     0.00 2548.00    0.00 10192.00     0.00     8.00     1.47    0.58    0.58    0.00   0.17  43.60
md0               0.00     0.00 7815.00    0.00 31260.00     0.00     8.00     0.00    0.00    0.00    0.00   0.00   0.00

avg-cpu:  %user   %nice %system %iowait  %steal   %idle
           0.03    0.00    0.28    0.41    0.00   99.28

Device:         rrqm/s   wrqm/s     r/s     w/s    rkB/s    wkB/s avgrq-sz avgqu-sz   await r_await w_await  svctm  %util
nvme0n1           0.00     0.00    0.00    0.00     0.00     0.00     0.00     0.00    0.00    0.00    0.00   0.00   0.00
sda               0.00     1.00    1.00   23.00     4.00   120.00    10.33     0.00    0.00    0.00    0.00   0.00   0.00
sdc               0.00     0.00 2822.00    0.00 11288.00     0.00     8.00     1.19    0.42    0.42    0.00   0.12  33.70
sdb               0.00     0.00 2761.00    0.00 11044.00     0.00     8.00     1.03    0.37    0.37    0.00   0.10  27.90
sdd               0.00     0.00 2854.00    0.00 11416.00     0.00     8.00     1.49    0.51    0.51    0.00   0.16  44.70
md0               0.00     0.00 8436.00    0.00 33744.00     0.00     8.00     0.00    0.00    0.00    0.00   0.00   0.00

avg-cpu:  %user   %nice %system %iowait  %steal   %idle
           0.03    0.00    0.19    0.41    0.00   99.37

Device:         rrqm/s   wrqm/s     r/s     w/s    rkB/s    wkB/s avgrq-sz avgqu-sz   await r_await w_await  svctm  %util
nvme0n1           0.00     0.00    0.00    0.00     0.00     0.00     0.00     0.00    0.00    0.00    0.00   0.00   0.00
sda               0.00     0.00    0.00    0.00     0.00     0.00     0.00     0.00    0.00    0.00    0.00   0.00   0.00
sdc               0.00     0.00 2154.00    0.00  8616.00     0.00     8.00     1.73    0.81    0.81    0.00   0.27  58.60
sdb               0.00     0.00 2341.00    0.00  9364.00     0.00     8.00     0.82    0.35    0.35    0.00   0.09  22.10
sdd               0.00     0.00 2295.00    0.00  9180.00     0.00     8.00     0.81    0.36    0.36    0.00   0.10  22.10
md0               0.00     0.00 6788.00    0.00 27152.00     0.00     8.00     0.00    0.00    0.00    0.00   0.00   0.00

avg-cpu:  %user   %nice %system %iowait  %steal   %idle
           0.03    0.00    0.28    0.34    0.00   99.34

Device:         rrqm/s   wrqm/s     r/s     w/s    rkB/s    wkB/s avgrq-sz avgqu-sz   await r_await w_await  svctm  %util
nvme0n1           0.00     0.00    0.00    0.00     0.00     0.00     0.00     0.00    0.00    0.00    0.00   0.00   0.00
sda               0.00     5.00    0.00    2.00     0.00    28.00    28.00     0.00    0.50    0.00    0.50   0.50   0.10
sdc               0.00     0.00 2875.00    0.00 11500.00     0.00     8.00     1.19    0.41    0.41    0.00   0.11  32.40
sdb               0.00     0.00 3001.00    0.00 12004.00     0.00     8.00     1.17    0.39    0.39    0.00   0.10  31.20
sdd               0.00     0.00 2826.00    0.00 11304.00     0.00     8.00     1.34    0.47    0.47    0.00   0.15  41.20
md0               0.00     0.00 8704.00    0.00 34816.00     0.00     8.00     0.00    0.00    0.00    0.00   0.00   0.00

avg-cpu:  %user   %nice %system %iowait  %steal   %idle
           0.00    0.00    0.31    0.41    0.00   99.28

Device:         rrqm/s   wrqm/s     r/s     w/s    rkB/s    wkB/s avgrq-sz avgqu-sz   await r_await w_await  svctm  %util
nvme0n1           0.00     0.00    0.00    0.00     0.00     0.00     0.00     0.00    0.00    0.00    0.00   0.00   0.00
sda               0.00     0.00    0.00    0.00     0.00     0.00     0.00     0.00    0.00    0.00    0.00   0.00   0.00
sdc               0.00     0.00 2645.00    0.00 10580.00     0.00     8.00     1.65    0.62    0.62    0.00   0.17  43.90
sdb               0.00     0.00 2627.00    0.00 10508.00     0.00     8.00     1.11    0.42    0.42    0.00   0.12  30.90
sdd               0.00     0.00 2730.00    0.00 10920.00     0.00     8.00     0.98    0.36    0.36    0.00   0.10  27.80
md0               0.00     0.00 7998.00    0.00 31992.00     0.00     8.00     0.00    0.00    0.00    0.00   0.00   0.00

avg-cpu:  %user   %nice %system %iowait  %steal   %idle
           0.03    0.00    0.22    0.38    0.00   99.37

Device:         rrqm/s   wrqm/s     r/s     w/s    rkB/s    wkB/s avgrq-sz avgqu-sz   await r_await w_await  svctm  %util
nvme0n1           0.00     0.00    0.00    0.00     0.00     0.00     0.00     0.00    0.00    0.00    0.00   0.00   0.00
sda               0.00     0.00    0.00    0.00     0.00     0.00     0.00     0.00    0.00    0.00    0.00   0.00   0.00
sdc               0.00     0.00 2607.00    0.00 10428.00     0.00     8.00     1.50    0.57    0.57    0.00   0.19  49.40
sdb               0.00     0.00 2645.00    0.00 10580.00     0.00     8.00     0.93    0.35    0.35    0.00   0.10  26.50
sdd               0.00     0.00 2507.00    0.00 10028.00     0.00     8.00     1.04    0.42    0.42    0.00   0.12  30.50
md0               0.00     0.00 7761.00    0.00 31044.00     0.00     8.00     0.00    0.00    0.00    0.00   0.00   0.00

avg-cpu:  %user   %nice %system %iowait  %steal   %idle
           0.03    0.00    0.28    0.41    0.00   99.28

Device:         rrqm/s   wrqm/s     r/s     w/s    rkB/s    wkB/s avgrq-sz avgqu-sz   await r_await w_await  svctm  %util
nvme0n1           0.00     0.00    0.00    0.00     0.00     0.00     0.00     0.00    0.00    0.00    0.00   0.00   0.00
sda               0.00     3.00    0.00    4.00     0.00    44.00    22.00     0.00    0.00    0.00    0.00   0.00   0.00
sdc               0.00     0.00 2918.00    0.00 11672.00     0.00     8.00     1.37    0.47    0.47    0.00   0.14  41.10
sdb               0.00     0.00 2765.00    0.00 11060.00     0.00     8.00     0.99    0.36    0.36    0.00   0.10  27.50
sdd               0.00     0.00 2839.00    0.00 11356.00     0.00     8.00     1.25    0.44    0.44    0.00   0.13  38.00
md0               0.00     0.00 8524.00    0.00 34096.00     0.00     8.00     0.00    0.00    0.00    0.00   0.00   0.00

avg-cpu:  %user   %nice %system %iowait  %steal   %idle
           0.03    0.00    0.25    0.44    0.00   99.28

Device:         rrqm/s   wrqm/s     r/s     w/s    rkB/s    wkB/s avgrq-sz avgqu-sz   await r_await w_await  svctm  %util
nvme0n1           0.00     0.00    0.00    0.00     0.00     0.00     0.00     0.00    0.00    0.00    0.00   0.00   0.00
sda               0.00     0.00    0.00    0.00     0.00     0.00     0.00     0.00    0.00    0.00    0.00   0.00   0.00
sdc               0.00     0.00 2574.00    0.00 10296.00     0.00     8.00     0.91    0.35    0.35    0.00   0.10  24.60
sdb               0.00     0.00 2802.00    0.00 11208.00     0.00     8.00     0.96    0.34    0.34    0.00   0.10  26.70
sdd               0.00     0.00 2714.00    0.00 10856.00     0.00     8.00     1.75    0.64    0.64    0.00   0.20  54.10
md0               0.00     0.00 8090.00    0.00 32360.00     0.00     8.00     0.00    0.00    0.00    0.00   0.00   0.00

avg-cpu:  %user   %nice %system %iowait  %steal   %idle
           0.03    0.00    0.25    0.41    0.00   99.31

Device:         rrqm/s   wrqm/s     r/s     w/s    rkB/s    wkB/s avgrq-sz avgqu-sz   await r_await w_await  svctm  %util
nvme0n1           0.00     0.00    0.00    0.00     0.00     0.00     0.00     0.00    0.00    0.00    0.00   0.00   0.00
sda               0.00     3.00    0.00    2.00     0.00    20.00    20.00     0.00    0.50    0.00    0.50   0.50   0.10
sdc               0.00     0.00 2774.00    0.00 11096.00     0.00     8.00     1.04    0.38    0.38    0.00   0.10  29.00
sdb               0.00     0.00 2830.00    0.00 11320.00     0.00     8.00     1.01    0.36    0.36    0.00   0.10  27.70
sdd               0.00     0.00 2796.00    0.00 11184.00     0.00     8.00     1.55    0.56    0.56    0.00   0.17  48.50
md0               0.00     0.00 8400.00    0.00 33600.00     0.00     8.00     0.00    0.00    0.00    0.00   0.00   0.00

avg-cpu:  %user   %nice %system %iowait  %steal   %idle
           0.03    0.00    0.28    0.34    0.00   99.34

Device:         rrqm/s   wrqm/s     r/s     w/s    rkB/s    wkB/s avgrq-sz avgqu-sz   await r_await w_await  svctm  %util
nvme0n1           0.00     0.00    0.00    0.00     0.00     0.00     0.00     0.00    0.00    0.00    0.00   0.00   0.00
sda               0.00     0.00    0.00    0.00     0.00     0.00     0.00     0.00    0.00    0.00    0.00   0.00   0.00
sdc               0.00     0.00 2885.00    0.00 11540.00     0.00     8.00     1.00    0.35    0.35    0.00   0.09  27.10
sdb               0.00     0.00 2901.00    0.00 11604.00     0.00     8.00     1.38    0.47    0.47    0.00   0.13  38.50
sdd               0.00     0.00 2841.00    0.00 11364.00     0.00     8.00     1.31    0.46    0.46    0.00   0.14  39.00
md0               0.00     0.00 8628.00    0.00 34512.00     0.00     8.00     0.00    0.00    0.00    0.00   0.00   0.00

avg-cpu:  %user   %nice %system %iowait  %steal   %idle
           0.00    0.00    0.28    0.50    0.00   99.22

Device:         rrqm/s   wrqm/s     r/s     w/s    rkB/s    wkB/s avgrq-sz avgqu-sz   await r_await w_await  svctm  %util
nvme0n1           0.00     0.00    0.00    0.00     0.00     0.00     0.00     0.00    0.00    0.00    0.00   0.00   0.00
sda               0.00     0.00    0.00    0.00     0.00     0.00     0.00     0.00    0.00    0.00    0.00   0.00   0.00
sdc               0.00     0.00 2765.00    0.00 11060.00     0.00     8.00     0.93    0.34    0.34    0.00   0.09  26.00
sdb               0.00     0.00 2791.00    0.00 11164.00     0.00     8.00     1.27    0.46    0.46    0.00   0.14  38.10
sdd               0.00     0.00 2885.00    0.00 11540.00     0.00     8.00     1.43    0.50    0.50    0.00   0.14  40.10
md0               0.00     0.00 8437.00    0.00 33748.00     0.00     8.00     0.00    0.00    0.00    0.00   0.00   0.00

avg-cpu:  %user   %nice %system %iowait  %steal   %idle
           0.03    0.00    0.28    0.44    0.00   99.25

Device:         rrqm/s   wrqm/s     r/s     w/s    rkB/s    wkB/s avgrq-sz avgqu-sz   await r_await w_await  svctm  %util
nvme0n1           0.00     0.00    0.00    0.00     0.00     0.00     0.00     0.00    0.00    0.00    0.00   0.00   0.00
sda               0.00     0.00    0.00    0.00     0.00     0.00     0.00     0.00    0.00    0.00    0.00   0.00   0.00
sdc               0.00     0.00 2786.00    0.00 11144.00     0.00     8.00     1.05    0.38    0.38    0.00   0.10  29.20
sdb               0.00     0.00 2716.00    0.00 10864.00     0.00     8.00     0.92    0.34    0.34    0.00   0.09  25.50
sdd               0.00     0.00 2791.00    0.00 11164.00     0.00     8.00     1.64    0.59    0.59    0.00   0.18  49.90
md0               0.00     0.00 8294.00    0.00 33176.00     0.00     8.00     0.00    0.00    0.00    0.00   0.00   0.00

avg-cpu:  %user   %nice %system %iowait  %steal   %idle
           0.00    0.00    0.31    0.44    0.00   99.25

Device:         rrqm/s   wrqm/s     r/s     w/s    rkB/s    wkB/s avgrq-sz avgqu-sz   await r_await w_await  svctm  %util
nvme0n1           0.00     0.00    0.00    0.00     0.00     0.00     0.00     0.00    0.00    0.00    0.00   0.00   0.00
sda               0.00     0.00    0.00    0.00     0.00     0.00     0.00     0.00    0.00    0.00    0.00   0.00   0.00
sdc               0.00     0.00 2698.00    0.00 10792.00     0.00     8.00     0.89    0.33    0.33    0.00   0.09  25.60
sdb               0.00     0.00 2699.00    0.00 10796.00     0.00     8.00     0.92    0.34    0.34    0.00   0.10  26.90
sdd               0.00     0.00 2777.00    0.00 11108.00     0.00     8.00     1.73    0.62    0.62    0.00   0.19  52.50
md0               0.00     0.00 8177.00    0.00 32708.00     0.00     8.00     0.00    0.00    0.00    0.00   0.00   0.00

avg-cpu:  %user   %nice %system %iowait  %steal   %idle
           0.03    0.00    0.28    0.41    0.00   99.28

Device:         rrqm/s   wrqm/s     r/s     w/s    rkB/s    wkB/s avgrq-sz avgqu-sz   await r_await w_await  svctm  %util
nvme0n1           0.00     0.00    0.00    0.00     0.00     0.00     0.00     0.00    0.00    0.00    0.00   0.00   0.00
sda               0.00     1.00    0.00    2.00     0.00    12.00    12.00     0.00    0.00    0.00    0.00   0.00   0.00
sdc               0.00     0.00 2768.00    0.00 11072.00     0.00     8.00     1.08    0.39    0.39    0.00   0.11  29.30
sdb               0.00     0.00 2755.00    0.00 11020.00     0.00     8.00     0.96    0.35    0.35    0.00   0.10  26.90
sdd               0.00     0.00 2812.00    0.00 11248.00     0.00     8.00     1.56    0.55    0.55    0.00   0.18  50.10
md0               0.00     0.00 8330.00    0.00 33320.00     0.00     8.00     0.00    0.00    0.00    0.00   0.00   0.00

avg-cpu:  %user   %nice %system %iowait  %steal   %idle
           0.03    0.00    0.25    0.41    0.00   99.31

Device:         rrqm/s   wrqm/s     r/s     w/s    rkB/s    wkB/s avgrq-sz avgqu-sz   await r_await w_await  svctm  %util
nvme0n1           0.00     0.00    0.00    0.00     0.00     0.00     0.00     0.00    0.00    0.00    0.00   0.00   0.00
sda               0.00     0.00    0.00    0.00     0.00     0.00     0.00     0.00    0.00    0.00    0.00   0.00   0.00
sdc               0.00     0.00 2863.00    0.00 11452.00     0.00     8.00     1.02    0.36    0.36    0.00   0.10  28.30
sdb               0.00     0.00 2833.00    0.00 11332.00     0.00     8.00     1.01    0.36    0.36    0.00   0.10  28.00
sdd               0.00     0.00 2874.00    0.00 11496.00     0.00     8.00     1.57    0.55    0.55    0.00   0.17  49.50
md0               0.00     0.00 8574.00    0.00 34296.00     0.00     8.00     0.00    0.00    0.00    0.00   0.00   0.00

avg-cpu:  %user   %nice %system %iowait  %steal   %idle
           0.03    0.00    0.19    0.53    0.00   99.25

Device:         rrqm/s   wrqm/s     r/s     w/s    rkB/s    wkB/s avgrq-sz avgqu-sz   await r_await w_await  svctm  %util
nvme0n1           0.00     0.00    0.00    0.00     0.00     0.00     0.00     0.00    0.00    0.00    0.00   0.00   0.00
sda               0.00     0.00    0.00    0.00     0.00     0.00     0.00     0.00    0.00    0.00    0.00   0.00   0.00
sdc               0.00     0.00 1572.00    0.00  6288.00     0.00     8.00     2.79    1.59    1.59    0.00   0.43  67.90
sdb               0.00     0.00 1503.00    0.00  6012.00     0.00     8.00     0.69    0.46    0.46    0.00   0.13  20.20
sdd               0.00     0.00 1540.00    0.00  6160.00     0.00     8.00     0.58    0.37    0.37    0.00   0.10  15.40
md0               0.00     0.00 4614.00    0.00 18456.00     0.00     8.00     0.00    0.00    0.00    0.00   0.00   0.00

avg-cpu:  %user   %nice %system %iowait  %steal   %idle
           0.00    0.00    0.28    0.19    0.00   99.53

Device:         rrqm/s   wrqm/s     r/s     w/s    rkB/s    wkB/s avgrq-sz avgqu-sz   await r_await w_await  svctm  %util
nvme0n1           0.00     0.00    0.00    0.00     0.00     0.00     0.00     0.00    0.00    0.00    0.00   0.00   0.00
sda               0.00     0.00    0.00    0.00     0.00     0.00     0.00     0.00    0.00    0.00    0.00   0.00   0.00
sdc               0.00     0.00 2555.00    0.00 10220.00     0.00     8.00     1.34    0.64    0.64    0.00   0.16  39.80
sdb               0.00     0.00 2433.00    0.00  9732.00     0.00     8.00     0.87    0.36    0.36    0.00   0.10  24.50
sdd               0.00     0.00 2547.00    0.00 10188.00     0.00     8.00     1.41    0.55    0.55    0.00   0.16  39.70
md0               0.00     0.00 7535.00    0.00 30140.00     0.00     8.00     0.00    0.00    0.00    0.00   0.00   0.00

