Linux 4.17.2 (bench2) 	08/03/2018 	_x86_64_	(32 CPU)

avg-cpu:  %user   %nice %system %iowait  %steal   %idle
           1.92    0.00    1.58    1.50    0.00   95.00

Device:         rrqm/s   wrqm/s     r/s     w/s    rkB/s    wkB/s avgrq-sz avgqu-sz   await r_await w_await  svctm  %util
nvme0n1         958.90     5.21 19331.07  532.24 108129.94 12003.69    12.10     1.38    0.05    0.03    0.67   0.02  40.47
sda               0.11     0.81   14.11    0.57   163.86     8.50    23.48     0.00    0.33    0.32    0.45   0.07   0.10
sdc              32.18     0.14  104.39    0.30  1573.38    83.31    31.65     1.46   13.94   12.90  373.51   0.94   9.88
sdb              30.09     0.15  106.44    0.32  1571.52    83.13    31.00     0.34    3.15    1.96  394.60   0.88   9.39
sdd              32.38     0.13  103.93    0.25  1569.40    82.79    31.72     0.62    5.96    4.09  782.19   0.95   9.88
md0               0.00     0.00  412.29    1.07  5808.53   291.89    29.52     0.00    0.00    0.00    0.00   0.00   0.00

avg-cpu:  %user   %nice %system %iowait  %steal   %idle
           0.00    0.00    0.02    3.08    0.00   96.90

Device:         rrqm/s   wrqm/s     r/s     w/s    rkB/s    wkB/s avgrq-sz avgqu-sz   await r_await w_await  svctm  %util
nvme0n1           0.00     0.00    0.00    0.00     0.00     0.00     0.00     0.00    0.00    0.00    0.00   0.00   0.00
sda               0.00     1.30    0.20    0.55     5.20     9.40    38.93     0.00    0.20    0.50    0.09   0.20   0.01
sdc               1.50     0.00  272.60    0.00  1096.40     0.00     8.04    16.69   61.12   61.12    0.00   3.26  88.93
sdb               0.90     0.00  271.00    0.00  1087.60     0.00     8.03    16.48   60.70   60.70    0.00   3.22  87.34
sdd               1.25     0.00  275.20    0.00  1105.80     0.00     8.04    16.99   61.69   61.69    0.00   3.20  88.03
md0               0.00     0.00  823.10    0.00  3292.40     0.00     8.00     0.00    0.00    0.00    0.00   0.00   0.00

