Linux 4.17.2 (bench2) 	08/03/2018 	_x86_64_	(32 CPU)

avg-cpu:  %user   %nice %system %iowait  %steal   %idle
           1.92    0.00    1.57    1.52    0.00   94.99

Device:         rrqm/s   wrqm/s     r/s     w/s    rkB/s    wkB/s avgrq-sz avgqu-sz   await r_await w_await  svctm  %util
nvme0n1         953.21     5.18 19216.26  529.08 107487.75 11932.40    12.10     1.37    0.05    0.03    0.67   0.02  40.23
sda               0.11     0.81   14.13    0.57   163.93     8.51    23.45     0.00    0.33    0.32    0.45   0.07   0.10
sdc              32.66     0.14  108.22    0.30  1634.52    82.81    31.65     1.50   13.77   12.78  373.51   0.93  10.14
sdb              30.59     0.15  110.26    0.32  1632.63    82.63    31.02     0.38    3.41    2.27  394.60   0.87   9.63
sdd              32.86     0.13  107.76    0.25  1630.55    82.30    31.72     0.66    6.12    4.33  782.19   0.94  10.14
md0               0.00     0.00  425.24    1.07  6046.14   290.15    29.73     0.00    0.00    0.00    0.00   0.00   0.00

avg-cpu:  %user   %nice %system %iowait  %steal   %idle
           0.00    0.00    0.03    3.03    0.00   96.93

Device:         rrqm/s   wrqm/s     r/s     w/s    rkB/s    wkB/s avgrq-sz avgqu-sz   await r_await w_await  svctm  %util
nvme0n1           0.00     0.00    0.00    0.00     0.00     0.00     0.00     0.00    0.00    0.00    0.00   0.00   0.00
sda               0.00     0.00    4.00    0.00   104.00     0.00    52.00     0.00    0.50    0.50    0.00   0.50   0.20
sdc               8.00     0.00  339.00    0.00  1380.00     0.00     8.14    86.98  222.78  222.78    0.00   2.91  98.70
sdb               7.00     0.00  332.00    0.00  1348.00     0.00     8.12    95.67  252.92  252.92    0.00   2.89  96.10
sdd              12.00     0.00  360.00    0.00  1472.00     0.00     8.18   102.52  254.10  254.10    0.00   2.76  99.20
md0               0.00     0.00 1424.00    0.00  5696.00     0.00     8.00     0.00    0.00    0.00    0.00   0.00   0.00

avg-cpu:  %user   %nice %system %iowait  %steal   %idle
           0.00    0.00    0.03    3.06    0.00   96.90

Device:         rrqm/s   wrqm/s     r/s     w/s    rkB/s    wkB/s avgrq-sz avgqu-sz   await r_await w_await  svctm  %util
nvme0n1           0.00     0.00    0.00    0.00     0.00     0.00     0.00     0.00    0.00    0.00    0.00   0.00   0.00
sda               0.00     0.00    0.00    0.00     0.00     0.00     0.00     0.00    0.00    0.00    0.00   0.00   0.00
sdc               9.00     0.00  323.00    0.00  1324.00     0.00     8.20    98.19  276.39  276.39    0.00   3.05  98.50
sdb               6.00     0.00  339.00    0.00  1376.00     0.00     8.12   105.14  284.63  284.63    0.00   2.95  99.90
sdd               8.00     0.00  320.00    0.00  1320.00     0.00     8.25    92.12  255.48  255.48    0.00   2.93  93.80
md0               0.00     0.00 1028.00    0.00  4112.00     0.00     8.00     0.00    0.00    0.00    0.00   0.00   0.00

avg-cpu:  %user   %nice %system %iowait  %steal   %idle
           0.03    0.00    0.00    3.06    0.00   96.91

Device:         rrqm/s   wrqm/s     r/s     w/s    rkB/s    wkB/s avgrq-sz avgqu-sz   await r_await w_await  svctm  %util
nvme0n1           0.00     0.00    0.00    0.00     0.00     0.00     0.00     0.00    0.00    0.00    0.00   0.00   0.00
sda               0.00     1.00    0.00    5.00     0.00    28.00    11.20     0.00    0.00    0.00    0.00   0.00   0.00
sdc               7.00     0.00  332.00    0.00  1352.00     0.00     8.14    98.77  289.84  289.84    0.00   2.91  96.50
sdb               8.00     0.00  335.00    0.00  1372.00     0.00     8.19    88.82  275.42  275.42    0.00   2.74  91.90
sdd               8.00     0.00  332.00    0.00  1364.00     0.00     8.22    93.67  293.90  293.90    0.00   3.01  99.90
md0               0.00     0.00 1016.00    0.00  4064.00     0.00     8.00     0.00    0.00    0.00    0.00   0.00   0.00

avg-cpu:  %user   %nice %system %iowait  %steal   %idle
           0.00    0.00    0.03    3.06    0.00   96.90

Device:         rrqm/s   wrqm/s     r/s     w/s    rkB/s    wkB/s avgrq-sz avgqu-sz   await r_await w_await  svctm  %util
nvme0n1           0.00     0.00    0.00    0.00     0.00     0.00     0.00     0.00    0.00    0.00    0.00   0.00   0.00
sda               0.00     0.00    0.00    0.00     0.00     0.00     0.00     0.00    0.00    0.00    0.00   0.00   0.00
sdc               4.00     0.00  326.00    0.00  1328.00     0.00     8.15    88.01  272.63  272.63    0.00   2.71  88.50
sdb               4.00     0.00  330.00    0.00  1340.00     0.00     8.12    90.81  280.53  280.53    0.00   3.02  99.70
sdd               5.00     0.00  318.00    0.00  1280.00     0.00     8.05    78.44  251.75  251.75    0.00   2.77  88.20
md0               0.00     0.00  991.00    0.00  3964.00     0.00     8.00     0.00    0.00    0.00    0.00   0.00   0.00

avg-cpu:  %user   %nice %system %iowait  %steal   %idle
           0.00    0.00    0.00    3.07    0.00   96.93

Device:         rrqm/s   wrqm/s     r/s     w/s    rkB/s    wkB/s avgrq-sz avgqu-sz   await r_await w_await  svctm  %util
nvme0n1           0.00     0.00    0.00    0.00     0.00     0.00     0.00     0.00    0.00    0.00    0.00   0.00   0.00
sda               0.00    12.00    0.00    2.00     0.00    56.00    56.00     0.00    0.00    0.00    0.00   0.00   0.00
sdc               4.00     0.00  341.00    0.00  1380.00     0.00     8.09   105.68  301.44  301.44    0.00   2.93  99.90
sdb              10.00     0.00  298.00    0.00  1220.00     0.00     8.19    74.73  231.74  231.74    0.00   2.81  83.80
sdd               6.00     0.00  301.00    0.00  1228.00     0.00     8.16    83.49  246.17  246.17    0.00   2.93  88.20
md0               0.00     0.00  970.00    0.00  3880.00     0.00     8.00     0.00    0.00    0.00    0.00   0.00   0.00

avg-cpu:  %user   %nice %system %iowait  %steal   %idle
           0.00    0.00    0.03    3.06    0.00   96.91

Device:         rrqm/s   wrqm/s     r/s     w/s    rkB/s    wkB/s avgrq-sz avgqu-sz   await r_await w_await  svctm  %util
nvme0n1           0.00     0.00    0.00    0.00     0.00     0.00     0.00     0.00    0.00    0.00    0.00   0.00   0.00
sda               0.00     0.00    0.00    0.00     0.00     0.00     0.00     0.00    0.00    0.00    0.00   0.00   0.00
sdc               8.00     0.00  327.00    0.00  1336.00     0.00     8.17    98.64  300.30  300.30    0.00   2.98  97.40
sdb               6.00     0.00  350.00    0.00  1436.00     0.00     8.21   102.25  280.24  280.24    0.00   2.75  96.40
sdd               3.00     0.00  324.00    0.00  1320.00     0.00     8.15    99.39  302.91  302.91    0.00   3.08  99.80
md0               0.00     0.00 1015.00    0.00  4060.00     0.00     8.00     0.00    0.00    0.00    0.00   0.00   0.00

avg-cpu:  %user   %nice %system %iowait  %steal   %idle
           0.00    0.00    0.00    3.07    0.00   96.93

Device:         rrqm/s   wrqm/s     r/s     w/s    rkB/s    wkB/s avgrq-sz avgqu-sz   await r_await w_await  svctm  %util
nvme0n1           0.00     0.00    0.00    0.00     0.00     0.00     0.00     0.00    0.00    0.00    0.00   0.00   0.00
sda               0.00     0.00    0.00    0.00     0.00     0.00     0.00     0.00    0.00    0.00    0.00   0.00   0.00
sdc               8.00     0.00  342.00    0.00  1396.00     0.00     8.16    77.57  262.80  262.80    0.00   2.83  96.80
sdb               3.00     0.00  333.00    0.00  1348.00     0.00     8.10   104.78  300.92  300.92    0.00   3.00  99.90
sdd               5.00     0.00  337.00    0.00  1364.00     0.00     8.09    87.53  286.22  286.22    0.00   2.94  99.00
md0               0.00     0.00  930.00    0.00  3720.00     0.00     8.00     0.00    0.00    0.00    0.00   0.00   0.00

avg-cpu:  %user   %nice %system %iowait  %steal   %idle
           0.00    0.00    0.03    3.06    0.00   96.91

Device:         rrqm/s   wrqm/s     r/s     w/s    rkB/s    wkB/s avgrq-sz avgqu-sz   await r_await w_await  svctm  %util
nvme0n1           0.00     0.00    0.00    0.00     0.00     0.00     0.00     0.00    0.00    0.00    0.00   0.00   0.00
sda               0.00     1.00    0.00    2.00     0.00    28.00    28.00     0.00    0.00    0.00    0.00   0.00   0.00
sdc               5.00     0.00  280.00    0.00  1152.00     0.00     8.23    85.53  254.31  254.31    0.00   2.88  80.50
sdb               4.00     0.00  354.00    0.00  1432.00     0.00     8.09    97.80  298.05  298.05    0.00   2.82  99.80
sdd               4.00     0.00  294.00    0.00  1192.00     0.00     8.11    82.94  249.23  249.23    0.00   3.01  88.50
md0               0.00     0.00  930.00    0.00  3720.00     0.00     8.00     0.00    0.00    0.00    0.00   0.00   0.00

avg-cpu:  %user   %nice %system %iowait  %steal   %idle
           0.03    0.00    0.00    3.06    0.00   96.90

Device:         rrqm/s   wrqm/s     r/s     w/s    rkB/s    wkB/s avgrq-sz avgqu-sz   await r_await w_await  svctm  %util
nvme0n1           0.00     0.00    0.00    0.00     0.00     0.00     0.00     0.00    0.00    0.00    0.00   0.00   0.00
sda               0.00     0.00    0.00    0.00     0.00     0.00     0.00     0.00    0.00    0.00    0.00   0.00   0.00
sdc               6.00     0.00  338.00    0.00  1376.00     0.00     8.14   102.12  315.30  315.30    0.00   2.92  98.60
sdb               4.00     0.00  320.00    0.00  1296.00     0.00     8.10    88.36  292.26  292.26    0.00   3.00  96.00
sdd               3.00     0.00  323.00    0.00  1308.00     0.00     8.10    95.03  314.00  314.00    0.00   3.09  99.80
md0               0.00     0.00  930.00    0.00  3720.00     0.00     8.00     0.00    0.00    0.00    0.00   0.00   0.00

avg-cpu:  %user   %nice %system %iowait  %steal   %idle
           0.00    0.00    0.03    3.06    0.00   96.90

Device:         rrqm/s   wrqm/s     r/s     w/s    rkB/s    wkB/s avgrq-sz avgqu-sz   await r_await w_await  svctm  %util
nvme0n1           0.00     0.00    0.00    0.00     0.00     0.00     0.00     0.00    0.00    0.00    0.00   0.00   0.00
sda               0.00     0.00    0.00    0.00     0.00     0.00     0.00     0.00    0.00    0.00    0.00   0.00   0.00
sdc               5.00     0.00  333.00    0.00  1352.00     0.00     8.12    72.35  261.02  261.02    0.00   2.99  99.60
sdb               9.00     0.00  321.00    0.00  1304.00     0.00     8.12    98.47  298.69  298.69    0.00   3.04  97.50
sdd               7.00     0.00  331.00    0.00  1340.00     0.00     8.10   100.15  297.17  297.17    0.00   3.02  99.80
md0               0.00     0.00  931.00    0.00  3724.00     0.00     8.00     0.00    0.00    0.00    0.00   0.00   0.00

avg-cpu:  %user   %nice %system %iowait  %steal   %idle
           0.00    0.00    0.03    3.09    0.00   96.88

Device:         rrqm/s   wrqm/s     r/s     w/s    rkB/s    wkB/s avgrq-sz avgqu-sz   await r_await w_await  svctm  %util
nvme0n1           0.00     0.00    0.00    0.00     0.00     0.00     0.00     0.00    0.00    0.00    0.00   0.00   0.00
sda               0.00     4.00    0.00    2.00     0.00    24.00    24.00     0.00    0.50    0.00    0.50   0.50   0.10
sdc               3.00     0.00  261.00    0.00  1056.00     0.00     8.09    92.86  297.38  297.38    0.00   3.35  87.40
sdb               8.00     0.00  334.00    0.00  1388.00     0.00     8.31    74.22  275.65  275.65    0.00   2.82  94.20
sdd               5.00     0.00  345.00    0.00  1416.00     0.00     8.21    97.31  306.05  306.05    0.00   2.89  99.80
md0               0.00     0.00  921.00    0.00  3684.00     0.00     8.00     0.00    0.00    0.00    0.00   0.00   0.00

avg-cpu:  %user   %nice %system %iowait  %steal   %idle
           0.00    0.00    0.00    3.07    0.00   96.93

Device:         rrqm/s   wrqm/s     r/s     w/s    rkB/s    wkB/s avgrq-sz avgqu-sz   await r_await w_await  svctm  %util
nvme0n1           0.00     0.00    0.00    0.00     0.00     0.00     0.00     0.00    0.00    0.00    0.00   0.00   0.00
sda               0.00     0.00    0.00    0.00     0.00     0.00     0.00     0.00    0.00    0.00    0.00   0.00   0.00
sdc               4.00     0.00  355.00    0.00  1436.00     0.00     8.09    80.25  269.68  269.68    0.00   2.81  99.90
sdb               2.00     0.00  296.00    0.00  1192.00     0.00     8.05    89.26  266.07  266.07    0.00   2.80  82.90
sdd               3.00     0.00  310.00    0.00  1252.00     0.00     8.08    89.34  285.23  285.23    0.00   3.06  94.80
md0               0.00     0.00  928.00    0.00  3712.00     0.00     8.00     0.00    0.00    0.00    0.00   0.00   0.00

avg-cpu:  %user   %nice %system %iowait  %steal   %idle
           0.00    0.00    0.00    3.06    0.00   96.94

Device:         rrqm/s   wrqm/s     r/s     w/s    rkB/s    wkB/s avgrq-sz avgqu-sz   await r_await w_await  svctm  %util
nvme0n1           0.00     0.00    0.00    0.00     0.00     0.00     0.00     0.00    0.00    0.00    0.00   0.00   0.00
sda               0.00     0.00    0.00    0.00     0.00     0.00     0.00     0.00    0.00    0.00    0.00   0.00   0.00
sdc               9.00     0.00  311.00    0.00  1284.00     0.00     8.26    79.19  272.48  272.48    0.00   2.94  91.50
sdb               4.00     0.00  321.00    0.00  1300.00     0.00     8.10    97.29  297.56  297.56    0.00   2.93  94.00
sdd               3.00     0.00  313.00    0.00  1264.00     0.00     8.08    70.40  273.83  273.83    0.00   3.12  97.60
md0               0.00     0.00  922.00    0.00  3688.00     0.00     8.00     0.00    0.00    0.00    0.00   0.00   0.00

avg-cpu:  %user   %nice %system %iowait  %steal   %idle
           0.03    0.00    0.03    3.06    0.00   96.87

Device:         rrqm/s   wrqm/s     r/s     w/s    rkB/s    wkB/s avgrq-sz avgqu-sz   await r_await w_await  svctm  %util
nvme0n1           0.00     0.00    0.00    0.00     0.00     0.00     0.00     0.00    0.00    0.00    0.00   0.00   0.00
sda               0.00     0.00    0.00    0.00     0.00     0.00     0.00     0.00    0.00    0.00    0.00   0.00   0.00
sdc               8.00     0.00  287.00    0.00  1180.00     0.00     8.22    73.94  266.55  266.55    0.00   2.99  85.90
sdb              12.00     0.00  319.00    0.00  1324.00     0.00     8.30    83.73  305.39  305.39    0.00   3.08  98.30
sdd               7.00     0.00  317.00    0.00  1292.00     0.00     8.15    92.06  285.16  285.16    0.00   2.81  89.10
md0               0.00     0.00  923.00    0.00  3692.00     0.00     8.00     0.00    0.00    0.00    0.00   0.00   0.00

avg-cpu:  %user   %nice %system %iowait  %steal   %idle
           0.00    0.00    0.00    3.06    0.00   96.94

Device:         rrqm/s   wrqm/s     r/s     w/s    rkB/s    wkB/s avgrq-sz avgqu-sz   await r_await w_await  svctm  %util
nvme0n1           0.00     0.00    0.00    0.00     0.00     0.00     0.00     0.00    0.00    0.00    0.00   0.00   0.00
sda               0.00     0.00    0.00    0.00     0.00     0.00     0.00     0.00    0.00    0.00    0.00   0.00   0.00
sdc               7.00     0.00  330.00    0.00  1336.00     0.00     8.10   100.74  290.62  290.62    0.00   2.96  97.70
sdb               8.00     0.00  315.00    0.00  1284.00     0.00     8.15    95.31  285.96  285.96    0.00   3.11  98.00
sdd               8.00     0.00  306.00    0.00  1248.00     0.00     8.16    96.12  305.80  305.80    0.00   3.23  98.90
md0               0.00     0.00 1357.00    0.00  5428.00     0.00     8.00     0.00    0.00    0.00    0.00   0.00   0.00

avg-cpu:  %user   %nice %system %iowait  %steal   %idle
           0.00    0.00    0.03    3.06    0.00   96.90

Device:         rrqm/s   wrqm/s     r/s     w/s    rkB/s    wkB/s avgrq-sz avgqu-sz   await r_await w_await  svctm  %util
nvme0n1           0.00     0.00    0.00    0.00     0.00     0.00     0.00     0.00    0.00    0.00    0.00   0.00   0.00
sda               0.00     1.00    0.00    2.00     0.00    12.00    12.00     0.00    0.00    0.00    0.00   0.00   0.00
sdc               4.00     0.00  321.00    0.00  1304.00     0.00     8.12    95.17  279.31  279.31    0.00   3.03  97.40
sdb               5.00     0.00  353.00    0.00  1428.00     0.00     8.09   102.07  262.75  262.75    0.00   2.75  96.90
sdd               4.00     0.00  328.00    0.00  1340.00     0.00     8.17    92.90  259.34  259.34    0.00   3.05  99.90
md0               0.00     0.00  969.00    0.00  3876.00     0.00     8.00     0.00    0.00    0.00    0.00   0.00   0.00

avg-cpu:  %user   %nice %system %iowait  %steal   %idle
           0.00    0.00    0.03    3.06    0.00   96.90

Device:         rrqm/s   wrqm/s     r/s     w/s    rkB/s    wkB/s avgrq-sz avgqu-sz   await r_await w_await  svctm  %util
nvme0n1           0.00     0.00    0.00    0.00     0.00     0.00     0.00     0.00    0.00    0.00    0.00   0.00   0.00
sda               0.00     0.00    0.00    0.00     0.00     0.00     0.00     0.00    0.00    0.00    0.00   0.00   0.00
sdc              10.00     0.00  300.00    0.00  1232.00     0.00     8.21    80.17  240.09  240.09    0.00   3.09  92.70
sdb               7.00     0.00  342.00    0.00  1404.00     0.00     8.21   100.30  297.01  297.01    0.00   2.92  99.90
sdd               4.00     0.00  317.00    0.00  1284.00     0.00     8.10    88.02  281.06  281.06    0.00   3.12  99.00
md0               0.00     0.00  973.00    0.00  3892.00     0.00     8.00     0.00    0.00    0.00    0.00   0.00   0.00

avg-cpu:  %user   %nice %system %iowait  %steal   %idle
           0.00    0.00    0.00    3.06    0.00   96.94

Device:         rrqm/s   wrqm/s     r/s     w/s    rkB/s    wkB/s avgrq-sz avgqu-sz   await r_await w_await  svctm  %util
nvme0n1           0.00     0.00    0.00    0.00     0.00     0.00     0.00     0.00    0.00    0.00    0.00   0.00   0.00
sda               0.00     0.00    0.00    0.00     0.00     0.00     0.00     0.00    0.00    0.00    0.00   0.00   0.00
sdc               2.00     0.00  332.00    0.00  1344.00     0.00     8.10   101.04  301.96  301.96    0.00   3.01  99.90
sdb               5.00     0.00  309.00    0.00  1248.00     0.00     8.08    78.29  232.48  232.48    0.00   2.88  88.90
sdd               7.00     0.00  306.00    0.00  1236.00     0.00     8.08    74.92  213.86  213.86    0.00   2.84  86.90
md0               0.00     0.00 1011.00    0.00  4044.00     0.00     8.00     0.00    0.00    0.00    0.00   0.00   0.00

avg-cpu:  %user   %nice %system %iowait  %steal   %idle
           0.00    0.00    0.03    3.06    0.00   96.90

Device:         rrqm/s   wrqm/s     r/s     w/s    rkB/s    wkB/s avgrq-sz avgqu-sz   await r_await w_await  svctm  %util
nvme0n1           0.00     0.00    0.00    0.00     0.00     0.00     0.00     0.00    0.00    0.00    0.00   0.00   0.00
sda               0.00     0.00    0.00    0.00     0.00     0.00     0.00     0.00    0.00    0.00    0.00   0.00   0.00
sdc               8.00     0.00  327.00    0.00  1340.00     0.00     8.20    95.18  276.63  276.63    0.00   2.87  93.80
sdb               5.00     0.00  324.00    0.00  1324.00     0.00     8.17    88.53  263.61  263.61    0.00   2.90  94.00
sdd               8.00     0.00  334.00    0.00  1376.00     0.00     8.24   107.21  311.65  311.65    0.00   2.99  99.90
md0               0.00     0.00 1019.00    0.00  4076.00     0.00     8.00     0.00    0.00    0.00    0.00   0.00   0.00

avg-cpu:  %user   %nice %system %iowait  %steal   %idle
           0.03    0.00    0.03    3.06    0.00   96.87

Device:         rrqm/s   wrqm/s     r/s     w/s    rkB/s    wkB/s avgrq-sz avgqu-sz   await r_await w_await  svctm  %util
nvme0n1           0.00     0.00    0.00    0.00     0.00     0.00     0.00     0.00    0.00    0.00    0.00   0.00   0.00
sda               0.00     0.00    0.00    0.00     0.00     0.00     0.00     0.00    0.00    0.00    0.00   0.00   0.00
sdc               2.97     0.00  329.70    0.00  1334.65     0.00     8.10    89.00  283.29  283.29    0.00   2.85  93.96
sdb               7.92     0.00  304.95    0.00  1243.56     0.00     8.16    93.08  292.85  292.85    0.00   3.01  91.68
sdd               5.94     0.00  310.89    0.00  1263.37     0.00     8.13    91.21  315.34  315.34    0.00   3.18  98.81
md0               0.00     0.00  933.66    0.00  3734.65     0.00     8.00     0.00    0.00    0.00    0.00   0.00   0.00

