Linux 4.17.2 (bench2) 	08/03/2018 	_x86_64_	(32 CPU)

avg-cpu:  %user   %nice %system %iowait  %steal   %idle
           1.92    0.00    1.57    1.52    0.00   94.99

Device:         rrqm/s   wrqm/s     r/s     w/s    rkB/s    wkB/s avgrq-sz avgqu-sz   await r_await w_await  svctm  %util
nvme0n1         952.97     5.18 19211.53  528.95 107461.29 11929.47    12.10     1.37    0.05    0.03    0.67   0.02  40.22
sda               0.12     0.81   14.13    0.57   163.93     8.51    23.45     0.00    0.33    0.32    0.45   0.07   0.10
sdc              32.66     0.14  108.25    0.30  1634.77    82.79    31.65     1.50   13.84   12.84  373.51   0.94  10.15
sdb              30.59     0.15  110.28    0.32  1632.89    82.61    31.02     0.38    3.47    2.34  394.60   0.87   9.65
sdd              32.86     0.13  107.79    0.25  1630.81    82.28    31.71     0.67    6.18    4.39  782.19   0.94  10.15
md0               0.00     0.00  425.31    1.07  6046.95   290.08    29.72     0.00    0.00    0.00    0.00   0.00   0.00

avg-cpu:  %user   %nice %system %iowait  %steal   %idle
           0.00    0.00    0.03    0.09    0.00   99.87

Device:         rrqm/s   wrqm/s     r/s     w/s    rkB/s    wkB/s avgrq-sz avgqu-sz   await r_await w_await  svctm  %util
nvme0n1           0.00     0.00    0.00    0.00     0.00     0.00     0.00     0.00    0.00    0.00    0.00   0.00   0.00
sda               0.00     0.00   33.00    0.00   136.00     0.00     8.24     0.00    0.09    0.09    0.00   0.03   0.10
sdc            1333.00     0.00  342.00    0.00  5956.00     0.00    34.83    15.10   39.56   39.56    0.00   2.20  75.20
sdb            1505.00     0.00  384.00    0.00  6940.00     0.00    36.15    20.74   50.72   50.72    0.00   2.38  91.30
sdd            1546.00     0.00  368.00    0.00  6456.00     0.00    35.09    22.62   56.36   56.36    0.00   2.59  95.20
md0               0.00     0.00 5570.00    0.00 22280.00     0.00     8.00     0.00    0.00    0.00    0.00   0.00   0.00

avg-cpu:  %user   %nice %system %iowait  %steal   %idle
           0.03    0.00    0.03    0.00    0.00   99.97

Device:         rrqm/s   wrqm/s     r/s     w/s    rkB/s    wkB/s avgrq-sz avgqu-sz   await r_await w_await  svctm  %util
nvme0n1           0.00     0.00    0.00    0.00     0.00     0.00     0.00     0.00    0.00    0.00    0.00   0.00   0.00
sda               0.00     0.00    0.00    0.00     0.00     0.00     0.00     0.00    0.00    0.00    0.00   0.00   0.00
sdc            1177.00     0.00  355.00    0.00  6756.00     0.00    38.06    18.61   54.65   54.65    0.00   2.15  76.20
sdb            1259.00     0.00  327.00    0.00  6540.00     0.00    40.00    19.64   59.63   59.63    0.00   3.05  99.80
sdd            1285.00     0.00  343.00    0.00  7332.00     0.00    42.75    15.80   46.08   46.08    0.00   2.55  87.40
md0               0.00     0.00 4679.00    0.00 18716.00     0.00     8.00     0.00    0.00    0.00    0.00   0.00   0.00

avg-cpu:  %user   %nice %system %iowait  %steal   %idle
           0.00    0.00    0.03    0.00    0.00  100.00

Device:         rrqm/s   wrqm/s     r/s     w/s    rkB/s    wkB/s avgrq-sz avgqu-sz   await r_await w_await  svctm  %util
nvme0n1           0.00     0.00    0.00    0.00     0.00     0.00     0.00     0.00    0.00    0.00    0.00   0.00   0.00
sda               0.00     8.00    0.00    2.00     0.00    40.00    40.00     0.00    0.50    0.00    0.50   0.50   0.10
sdc            1196.00     0.00  320.00    0.00  5972.00     0.00    37.33    15.56   47.15   47.15    0.00   2.28  73.00
sdb            1196.00     0.00  327.00    0.00  6348.00     0.00    38.83    19.71   62.19   62.19    0.00   2.99  97.70
sdd            1286.00     0.00  330.00    0.00  6460.00     0.00    39.15    20.09   61.36   61.36    0.00   2.94  96.90
md0               0.00     0.00 4653.00    0.00 18612.00     0.00     8.00     0.00    0.00    0.00    0.00   0.00   0.00

