Linux 4.17.2 (bench2) 	08/03/2018 	_x86_64_	(32 CPU)

avg-cpu:  %user   %nice %system %iowait  %steal   %idle
           1.92    0.00    1.57    1.53    0.00   94.98

Device:         rrqm/s   wrqm/s     r/s     w/s    rkB/s    wkB/s avgrq-sz avgqu-sz   await r_await w_await  svctm  %util
nvme0n1         950.91     5.16 19169.97  527.81 107228.83 11903.66    12.10     1.36    0.05    0.03    0.67   0.02  40.13
sda               0.11     0.81   14.14    0.57   163.98     8.51    23.44     0.00    0.33    0.32    0.45   0.07   0.10
sdc              33.02     0.14  109.88    0.30  1649.67    82.61    31.44     1.51   13.74   12.77  373.51   0.93  10.24
sdb              30.96     0.15  111.91    0.32  1647.80    82.43    30.83     0.40    3.54    2.43  394.60   0.87   9.73
sdd              33.22     0.13  109.43    0.25  1645.69    82.10    31.51     0.68    6.22    4.46  782.19   0.93  10.24
md0               0.00     0.00  431.29    1.06  6100.28   289.46    29.56     0.00    0.00    0.00    0.00   0.00   0.00

avg-cpu:  %user   %nice %system %iowait  %steal   %idle
           3.03    0.00    0.28    2.85    0.00   93.84

Device:         rrqm/s   wrqm/s     r/s     w/s    rkB/s    wkB/s avgrq-sz avgqu-sz   await r_await w_await  svctm  %util
nvme0n1           0.00     0.00    0.00    0.00     0.00     0.00     0.00     0.00    0.00    0.00    0.00   0.00   0.00
sda               0.00     0.00   23.00    0.00   128.00     0.00    11.13     0.02    0.78    0.78    0.00   0.04   0.10
sdc               0.00     0.00 2053.00    0.00  8236.00     0.00     8.02     0.32    0.16    0.16    0.00   0.15  31.80
sdb               0.00     0.00 2036.00    0.00  8144.00     0.00     8.00     0.30    0.15    0.15    0.00   0.15  29.70
sdd               0.00     0.00 2057.00    0.00  8228.00     0.00     8.00     0.31    0.15    0.15    0.00   0.15  31.30
md0               0.00     0.00 6146.00    0.00 24608.00     0.00     8.01     0.00    0.00    0.00    0.00   0.00   0.00

avg-cpu:  %user   %nice %system %iowait  %steal   %idle
           3.10    0.00    0.34    2.81    0.00   93.75

Device:         rrqm/s   wrqm/s     r/s     w/s    rkB/s    wkB/s avgrq-sz avgqu-sz   await r_await w_await  svctm  %util
nvme0n1           0.00     0.00    0.00    0.00     0.00     0.00     0.00     0.00    0.00    0.00    0.00   0.00   0.00
sda               0.00     0.00    0.00    0.00     0.00     0.00     0.00     0.00    0.00    0.00    0.00   0.00   0.00
sdc               0.00     0.00 2213.00    0.00  8852.00     0.00     8.00     0.30    0.14    0.14    0.00   0.14  30.30
sdb               0.00     0.00 2144.00    0.00  8576.00     0.00     8.00     0.31    0.14    0.14    0.00   0.14  30.80
sdd               0.00     0.00 2242.00    0.00  8968.00     0.00     8.00     0.32    0.14    0.14    0.00   0.14  31.60
md0               0.00     0.00 6600.00    0.00 26400.00     0.00     8.00     0.00    0.00    0.00    0.00   0.00   0.00

avg-cpu:  %user   %nice %system %iowait  %steal   %idle
           3.06    0.00    0.28    2.85    0.00   93.81

Device:         rrqm/s   wrqm/s     r/s     w/s    rkB/s    wkB/s avgrq-sz avgqu-sz   await r_await w_await  svctm  %util
nvme0n1           0.00     0.00    0.00    0.00     0.00     0.00     0.00     0.00    0.00    0.00    0.00   0.00   0.00
sda               0.00     0.00    0.00    0.00     0.00     0.00     0.00     0.00    0.00    0.00    0.00   0.00   0.00
sdc               0.00     0.00 2208.00    0.00  8832.00     0.00     8.00     0.32    0.15    0.15    0.00   0.15  32.10
sdb               0.00     0.00 2178.00    0.00  8712.00     0.00     8.00     0.32    0.15    0.15    0.00   0.15  31.90
sdd               0.00     0.00 2048.00    0.00  8192.00     0.00     8.00     0.30    0.15    0.15    0.00   0.15  30.20
md0               0.00     0.00 6435.00    0.00 25740.00     0.00     8.00     0.00    0.00    0.00    0.00   0.00   0.00

avg-cpu:  %user   %nice %system %iowait  %steal   %idle
           3.07    0.00    0.31    2.82    0.00   93.81

Device:         rrqm/s   wrqm/s     r/s     w/s    rkB/s    wkB/s avgrq-sz avgqu-sz   await r_await w_await  svctm  %util
nvme0n1           0.00     0.00    0.00    0.00     0.00     0.00     0.00     0.00    0.00    0.00    0.00   0.00   0.00
sda               0.00     0.00    0.00    0.00     0.00     0.00     0.00     0.00    0.00    0.00    0.00   0.00   0.00
sdc               0.00     0.00 2257.00    0.00  9028.00     0.00     8.00     0.32    0.14    0.14    0.00   0.14  31.90
sdb               0.00     0.00 2224.00    0.00  8896.00     0.00     8.00     0.29    0.13    0.13    0.00   0.13  29.40
sdd               0.00     0.00 2231.00    0.00  8924.00     0.00     8.00     0.32    0.15    0.15    0.00   0.15  32.40
md0               0.00     0.00 6711.00    0.00 26844.00     0.00     8.00     0.00    0.00    0.00    0.00   0.00   0.00

avg-cpu:  %user   %nice %system %iowait  %steal   %idle
           3.07    0.00    0.28    2.85    0.00   93.80

Device:         rrqm/s   wrqm/s     r/s     w/s    rkB/s    wkB/s avgrq-sz avgqu-sz   await r_await w_await  svctm  %util
nvme0n1           0.00     0.00    0.00    0.00     0.00     0.00     0.00     0.00    0.00    0.00    0.00   0.00   0.00
sda               0.00    10.00    0.00    2.00     0.00    48.00    48.00     0.00    0.50    0.00    0.50   0.50   0.10
sdc               0.00     0.00 2161.00    0.00  8644.00     0.00     8.00     0.31    0.14    0.14    0.00   0.14  31.10
sdb               0.00     0.00 2237.00    0.00  8948.00     0.00     8.00     0.32    0.15    0.15    0.00   0.14  32.40
sdd               0.00     0.00 2051.00    0.00  8204.00     0.00     8.00     0.30    0.15    0.15    0.00   0.15  30.10
md0               0.00     0.00 6450.00    0.00 25800.00     0.00     8.00     0.00    0.00    0.00    0.00   0.00   0.00

avg-cpu:  %user   %nice %system %iowait  %steal   %idle
           3.09    0.00    0.31    2.84    0.00   93.75

Device:         rrqm/s   wrqm/s     r/s     w/s    rkB/s    wkB/s avgrq-sz avgqu-sz   await r_await w_await  svctm  %util
nvme0n1           0.00     0.00    0.00    0.00     0.00     0.00     0.00     0.00    0.00    0.00    0.00   0.00   0.00
sda               0.00     0.00    0.00    0.00     0.00     0.00     0.00     0.00    0.00    0.00    0.00   0.00   0.00
sdc               0.00     0.00 2054.00    0.00  8216.00     0.00     8.00     0.29    0.14    0.14    0.00   0.14  29.40
sdb               0.00     0.00 2279.00    0.00  9116.00     0.00     8.00     0.33    0.15    0.15    0.00   0.15  33.10
sdd               0.00     0.00 2182.00    0.00  8728.00     0.00     8.00     0.31    0.14    0.14    0.00   0.14  30.70
md0               0.00     0.00 6514.00    0.00 26056.00     0.00     8.00     0.00    0.00    0.00    0.00   0.00   0.00

avg-cpu:  %user   %nice %system %iowait  %steal   %idle
           3.09    0.00    0.28    2.84    0.00   93.78

Device:         rrqm/s   wrqm/s     r/s     w/s    rkB/s    wkB/s avgrq-sz avgqu-sz   await r_await w_await  svctm  %util
nvme0n1           0.00     0.00    0.00    0.00     0.00     0.00     0.00     0.00    0.00    0.00    0.00   0.00   0.00
sda               0.00     0.00    0.00    0.00     0.00     0.00     0.00     0.00    0.00    0.00    0.00   0.00   0.00
sdc               0.00     0.00 1903.00    0.00  7612.00     0.00     8.00     0.30    0.15    0.15    0.00   0.16  30.30
sdb               0.00     0.00 2103.00    0.00  8412.00     0.00     8.00     0.31    0.15    0.15    0.00   0.15  31.40
sdd               0.00     0.00 2229.00    0.00  8916.00     0.00     8.00     0.32    0.14    0.14    0.00   0.14  32.20
md0               0.00     0.00 6235.00    0.00 24940.00     0.00     8.00     0.00    0.00    0.00    0.00   0.00   0.00

avg-cpu:  %user   %nice %system %iowait  %steal   %idle
           3.10    0.00    0.31    2.81    0.00   93.78

Device:         rrqm/s   wrqm/s     r/s     w/s    rkB/s    wkB/s avgrq-sz avgqu-sz   await r_await w_await  svctm  %util
nvme0n1           0.00     0.00    0.00    0.00     0.00     0.00     0.00     0.00    0.00    0.00    0.00   0.00   0.00
sda               0.00     0.00    0.00    0.00     0.00     0.00     0.00     0.00    0.00    0.00    0.00   0.00   0.00
sdc               0.00     0.00 2230.00    0.00  8920.00     0.00     8.00     0.34    0.16    0.16    0.00   0.15  33.50
sdb               0.00     0.00 2022.00    0.00  8088.00     0.00     8.00     0.29    0.14    0.14    0.00   0.14  28.60
sdd               0.00     0.00 2162.00    0.00  8648.00     0.00     8.00     0.32    0.15    0.15    0.00   0.15  31.50
md0               0.00     0.00 6414.00    0.00 25656.00     0.00     8.00     0.00    0.00    0.00    0.00   0.00   0.00

avg-cpu:  %user   %nice %system %iowait  %steal   %idle
           3.06    0.00    0.28    2.88    0.00   93.78

Device:         rrqm/s   wrqm/s     r/s     w/s    rkB/s    wkB/s avgrq-sz avgqu-sz   await r_await w_await  svctm  %util
nvme0n1           0.00     0.00    0.00    0.00     0.00     0.00     0.00     0.00    0.00    0.00    0.00   0.00   0.00
sda               0.00     0.00    0.00    0.00     0.00     0.00     0.00     0.00    0.00    0.00    0.00   0.00   0.00
sdc               0.00     0.00 1976.00    0.00  7904.00     0.00     8.00     0.36    0.18    0.18    0.00   0.18  36.00
sdb               0.00     0.00 2032.00    0.00  8128.00     0.00     8.00     0.30    0.15    0.15    0.00   0.15  29.70
sdd               0.00     0.00 1990.00    0.00  7960.00     0.00     8.00     0.28    0.14    0.14    0.00   0.14  28.00
md0               0.00     0.00 5998.00    0.00 23992.00     0.00     8.00     0.00    0.00    0.00    0.00   0.00   0.00

avg-cpu:  %user   %nice %system %iowait  %steal   %idle
           3.10    0.00    0.28    2.82    0.00   93.81

Device:         rrqm/s   wrqm/s     r/s     w/s    rkB/s    wkB/s avgrq-sz avgqu-sz   await r_await w_await  svctm  %util
nvme0n1           0.00     0.00    0.00    0.00     0.00     0.00     0.00     0.00    0.00    0.00    0.00   0.00   0.00
sda               0.00     1.00    0.00    2.00     0.00    12.00    12.00     0.00    0.50    0.00    0.50   0.50   0.10
sdc               0.00     0.00 2117.00    0.00  8468.00     0.00     8.00     0.33    0.16    0.16    0.00   0.16  33.40
sdb               0.00     0.00 2090.00    0.00  8360.00     0.00     8.00     0.30    0.14    0.14    0.00   0.14  30.20
sdd               0.00     0.00 2200.00    0.00  8800.00     0.00     8.00     0.30    0.14    0.14    0.00   0.14  30.40
md0               0.00     0.00 6407.00    0.00 25628.00     0.00     8.00     0.00    0.00    0.00    0.00   0.00   0.00

avg-cpu:  %user   %nice %system %iowait  %steal   %idle
           3.13    0.00    0.22    2.88    0.00   93.78

Device:         rrqm/s   wrqm/s     r/s     w/s    rkB/s    wkB/s avgrq-sz avgqu-sz   await r_await w_await  svctm  %util
nvme0n1           0.00     0.00    0.00    0.00     0.00     0.00     0.00     0.00    0.00    0.00    0.00   0.00   0.00
sda               0.00     0.00    0.00    0.00     0.00     0.00     0.00     0.00    0.00    0.00    0.00   0.00   0.00
sdc               0.00     0.00 2051.00    0.00  8204.00     0.00     8.00     0.38    0.19    0.19    0.00   0.19  38.30
sdb               0.00     0.00 2024.00    0.00  8096.00     0.00     8.00     0.29    0.15    0.15    0.00   0.15  29.50
sdd               0.00     0.00 1884.00    0.00  7536.00     0.00     8.00     0.27    0.14    0.14    0.00   0.14  27.10
md0               0.00     0.00 5959.00    0.00 23836.00     0.00     8.00     0.00    0.00    0.00    0.00   0.00   0.00

avg-cpu:  %user   %nice %system %iowait  %steal   %idle
           3.03    0.00    0.34    2.82    0.00   93.81

Device:         rrqm/s   wrqm/s     r/s     w/s    rkB/s    wkB/s avgrq-sz avgqu-sz   await r_await w_await  svctm  %util
nvme0n1           0.00     0.00    0.00    0.00     0.00     0.00     0.00     0.00    0.00    0.00    0.00   0.00   0.00
sda               0.00     1.00    0.00    3.00     0.00    32.00    21.33     0.00    0.00    0.00    0.00   0.00   0.00
sdc               0.00     0.00 2046.00    0.00  8184.00     0.00     8.00     0.29    0.14    0.14    0.00   0.14  29.40
sdb               0.00     0.00 2201.00    0.00  8804.00     0.00     8.00     0.32    0.15    0.15    0.00   0.15  32.40
sdd               0.00     0.00 2223.00    0.00  8892.00     0.00     8.00     0.31    0.14    0.14    0.00   0.14  31.40
md0               0.00     0.00 6470.00    0.00 25880.00     0.00     8.00     0.00    0.00    0.00    0.00   0.00   0.00

avg-cpu:  %user   %nice %system %iowait  %steal   %idle
           3.10    0.00    0.28    2.85    0.00   93.78

Device:         rrqm/s   wrqm/s     r/s     w/s    rkB/s    wkB/s avgrq-sz avgqu-sz   await r_await w_await  svctm  %util
nvme0n1           0.00     0.00    0.00    0.00     0.00     0.00     0.00     0.00    0.00    0.00    0.00   0.00   0.00
sda               0.00     0.00    0.00    0.00     0.00     0.00     0.00     0.00    0.00    0.00    0.00   0.00   0.00
sdc               0.00     0.00 2052.00    0.00  8208.00     0.00     8.00     0.36    0.18    0.18    0.00   0.18  36.00
sdb               0.00     0.00 1992.00    0.00  7968.00     0.00     8.00     0.29    0.15    0.15    0.00   0.15  28.90
sdd               0.00     0.00 2039.00    0.00  8156.00     0.00     8.00     0.28    0.14    0.14    0.00   0.14  28.40
md0               0.00     0.00 6083.00    0.00 24332.00     0.00     8.00     0.00    0.00    0.00    0.00   0.00   0.00

avg-cpu:  %user   %nice %system %iowait  %steal   %idle
           3.09    0.00    0.31    2.84    0.00   93.75

Device:         rrqm/s   wrqm/s     r/s     w/s    rkB/s    wkB/s avgrq-sz avgqu-sz   await r_await w_await  svctm  %util
nvme0n1           0.00     0.00    0.00    0.00     0.00     0.00     0.00     0.00    0.00    0.00    0.00   0.00   0.00
sda               0.00     0.00    0.00    0.00     0.00     0.00     0.00     0.00    0.00    0.00    0.00   0.00   0.00
sdc               0.00     0.00 2134.00    0.00  8536.00     0.00     8.00     0.32    0.15    0.15    0.00   0.15  31.60
sdb               0.00     0.00 2190.00    0.00  8760.00     0.00     8.00     0.31    0.14    0.14    0.00   0.14  31.10
sdd               0.00     0.00 2124.00    0.00  8496.00     0.00     8.00     0.31    0.15    0.15    0.00   0.15  30.80
md0               0.00     0.00 6448.00    0.00 25792.00     0.00     8.00     0.00    0.00    0.00    0.00   0.00   0.00

avg-cpu:  %user   %nice %system %iowait  %steal   %idle
           3.06    0.00    0.31    2.84    0.00   93.78

Device:         rrqm/s   wrqm/s     r/s     w/s    rkB/s    wkB/s avgrq-sz avgqu-sz   await r_await w_await  svctm  %util
nvme0n1           0.00     0.00    0.00    0.00     0.00     0.00     0.00     0.00    0.00    0.00    0.00   0.00   0.00
sda               0.00     4.00    0.00    2.00     0.00    24.00    24.00     0.00    0.00    0.00    0.00   0.00   0.00
sdc               0.00     0.00 2008.00    0.00  8032.00     0.00     8.00     0.34    0.17    0.17    0.00   0.17  34.50
sdb               0.00     0.00 2096.00    0.00  8384.00     0.00     8.00     0.30    0.14    0.14    0.00   0.14  29.90
sdd               0.00     0.00 1972.00    0.00  7888.00     0.00     8.00     0.28    0.14    0.14    0.00   0.14  28.20
md0               0.00     0.00 6076.00    0.00 24304.00     0.00     8.00     0.00    0.00    0.00    0.00   0.00   0.00

avg-cpu:  %user   %nice %system %iowait  %steal   %idle
           3.07    0.00    0.31    2.82    0.00   93.81

Device:         rrqm/s   wrqm/s     r/s     w/s    rkB/s    wkB/s avgrq-sz avgqu-sz   await r_await w_await  svctm  %util
nvme0n1           0.00     0.00    0.00    0.00     0.00     0.00     0.00     0.00    0.00    0.00    0.00   0.00   0.00
sda               0.00     0.00    0.00    0.00     0.00     0.00     0.00     0.00    0.00    0.00    0.00   0.00   0.00
sdc               0.00     0.00 2116.00    0.00  8464.00     0.00     8.00     0.30    0.14    0.14    0.00   0.14  29.70
sdb               0.00     0.00 2205.00    0.00  8820.00     0.00     8.00     0.32    0.14    0.14    0.00   0.14  31.90
sdd               0.00     0.00 2168.00    0.00  8672.00     0.00     8.00     0.31    0.14    0.14    0.00   0.14  31.40
md0               0.00     0.00 6490.00    0.00 25960.00     0.00     8.00     0.00    0.00    0.00    0.00   0.00   0.00

avg-cpu:  %user   %nice %system %iowait  %steal   %idle
           3.07    0.00    0.28    2.85    0.00   93.81

Device:         rrqm/s   wrqm/s     r/s     w/s    rkB/s    wkB/s avgrq-sz avgqu-sz   await r_await w_await  svctm  %util
nvme0n1           0.00     0.00    0.00    0.00     0.00     0.00     0.00     0.00    0.00    0.00    0.00   0.00   0.00
sda               0.00     0.00    0.00    0.00     0.00     0.00     0.00     0.00    0.00    0.00    0.00   0.00   0.00
sdc               0.00     0.00 2184.00    0.00  8736.00     0.00     8.00     0.31    0.14    0.14    0.00   0.14  30.80
sdb               0.00     0.00 2186.00    0.00  8744.00     0.00     8.00     0.31    0.14    0.14    0.00   0.14  31.10
sdd               0.00     0.00 2159.00    0.00  8636.00     0.00     8.00     0.31    0.14    0.14    0.00   0.14  30.90
md0               0.00     0.00 6528.00    0.00 26112.00     0.00     8.00     0.00    0.00    0.00    0.00   0.00   0.00

avg-cpu:  %user   %nice %system %iowait  %steal   %idle
           3.09    0.00    0.34    2.81    0.00   93.75

Device:         rrqm/s   wrqm/s     r/s     w/s    rkB/s    wkB/s avgrq-sz avgqu-sz   await r_await w_await  svctm  %util
nvme0n1           0.00     0.00    0.00    0.00     0.00     0.00     0.00     0.00    0.00    0.00    0.00   0.00   0.00
sda               0.00     0.00    0.00    0.00     0.00     0.00     0.00     0.00    0.00    0.00    0.00   0.00   0.00
sdc               0.00     0.00 2235.00    0.00  8940.00     0.00     8.00     0.32    0.14    0.14    0.00   0.14  32.10
sdb               0.00     0.00 2140.00    0.00  8560.00     0.00     8.00     0.29    0.14    0.14    0.00   0.14  29.00
sdd               0.00     0.00 2182.00    0.00  8728.00     0.00     8.00     0.31    0.14    0.14    0.00   0.14  31.30
md0               0.00     0.00 6557.00    0.00 26228.00     0.00     8.00     0.00    0.00    0.00    0.00   0.00   0.00

avg-cpu:  %user   %nice %system %iowait  %steal   %idle
           3.03    0.00    0.38    2.81    0.00   93.78

Device:         rrqm/s   wrqm/s     r/s     w/s    rkB/s    wkB/s avgrq-sz avgqu-sz   await r_await w_await  svctm  %util
nvme0n1           0.00     0.00    0.00    0.00     0.00     0.00     0.00     0.00    0.00    0.00    0.00   0.00   0.00
sda               0.00     0.00    0.00    0.00     0.00     0.00     0.00     0.00    0.00    0.00    0.00   0.00   0.00
sdc               0.00     0.00 2220.00    0.00  8880.00     0.00     8.00     0.30    0.14    0.14    0.00   0.14  30.20
sdb               0.00     0.00 2005.00    0.00  8020.00     0.00     8.00     0.29    0.14    0.14    0.00   0.14  28.60
sdd               0.00     0.00 2289.00    0.00  9156.00     0.00     8.00     0.33    0.14    0.14    0.00   0.14  32.90
md0               0.00     0.00 6514.00    0.00 26056.00     0.00     8.00     0.00    0.00    0.00    0.00   0.00   0.00

avg-cpu:  %user   %nice %system %iowait  %steal   %idle
           3.10    0.00    0.28    2.85    0.00   93.78

Device:         rrqm/s   wrqm/s     r/s     w/s    rkB/s    wkB/s avgrq-sz avgqu-sz   await r_await w_await  svctm  %util
nvme0n1           0.00     0.00    0.00    0.00     0.00     0.00     0.00     0.00    0.00    0.00    0.00   0.00   0.00
sda               0.00     1.00    0.00    2.00     0.00    12.00    12.00     0.00    0.00    0.00    0.00   0.00   0.00
sdc               0.00     0.00 2123.00    0.00  8492.00     0.00     8.00     0.31    0.15    0.15    0.00   0.15  30.80
sdb               0.00     0.00 2187.00    0.00  8748.00     0.00     8.00     0.32    0.15    0.15    0.00   0.15  31.90
sdd               0.00     0.00 2149.00    0.00  8596.00     0.00     8.00     0.30    0.14    0.14    0.00   0.14  30.40
md0               0.00     0.00 6459.00    0.00 25836.00     0.00     8.00     0.00    0.00    0.00    0.00   0.00   0.00

