Linux 4.17.2 (bench2) 	08/03/2018 	_x86_64_	(32 CPU)

avg-cpu:  %user   %nice %system %iowait  %steal   %idle
           1.92    0.00    1.57    1.52    0.00   94.99

Device:         rrqm/s   wrqm/s     r/s     w/s    rkB/s    wkB/s avgrq-sz avgqu-sz   await r_await w_await  svctm  %util
nvme0n1         952.37     5.17 19199.36  528.62 107393.22 11921.91    12.10     1.37    0.05    0.03    0.67   0.02  40.19
sda               0.11     0.81   14.13    0.57   163.94     8.51    23.45     0.00    0.33    0.32    0.45   0.07   0.10
sdc              32.91     0.14  108.66    0.30  1645.99    82.74    31.73     1.51   13.86   12.87  373.51   0.93  10.18
sdb              30.84     0.15  110.70    0.32  1644.11    82.56    31.11     0.39    3.53    2.40  394.60   0.87   9.68
sdd              33.11     0.13  108.21    0.25  1642.01    82.23    31.80     0.68    6.24    4.45  782.19   0.94  10.18
md0               0.00     0.00  427.30    1.07  6091.02   289.90    29.79     0.00    0.00    0.00    0.00   0.00   0.00

avg-cpu:  %user   %nice %system %iowait  %steal   %idle
           3.12    0.00    0.01    0.02    0.00   96.85

Device:         rrqm/s   wrqm/s     r/s     w/s    rkB/s    wkB/s avgrq-sz avgqu-sz   await r_await w_await  svctm  %util
nvme0n1           0.00     0.00    0.00    0.00     0.00     0.00     0.00     0.00    0.00    0.00    0.00   0.00   0.00
sda               0.00     1.25    1.15    1.30     6.60    11.00    14.37     0.00    0.02    0.04    0.00   0.02   0.01
sdc               0.00     0.00   40.10    0.00   160.40     0.00     8.00     0.33    8.15    8.15    0.00   8.15  32.67
sdb               0.00     0.00   41.85    0.00   167.40     0.00     8.00     0.33    7.84    7.84    0.00   7.84  32.82
sdd               0.00     0.00   42.70    0.00   170.80     0.00     8.00     0.34    7.91    7.91    0.00   7.92  33.80
md0               0.00     0.00  124.70    0.00   498.80     0.00     8.00     0.00    0.00    0.00    0.00   0.00   0.00

