Linux 4.17.2 (bench2) 	08/03/2018 	_x86_64_	(32 CPU)

avg-cpu:  %user   %nice %system %iowait  %steal   %idle
           1.92    0.00    1.57    1.52    0.00   94.99

Device:         rrqm/s   wrqm/s     r/s     w/s    rkB/s    wkB/s avgrq-sz avgqu-sz   await r_await w_await  svctm  %util
nvme0n1         952.96     5.18 19211.35  528.95 107460.29 11929.36    12.10     1.37    0.05    0.03    0.67   0.02  40.22
sda               0.12     0.81   14.13    0.57   163.93     8.51    23.45     0.00    0.33    0.32    0.45   0.07   0.10
sdc              32.67     0.14  108.25    0.30  1634.83    82.79    31.65     1.50   13.84   12.84  373.51   0.94  10.15
sdb              30.60     0.15  110.29    0.32  1632.95    82.61    31.02     0.38    3.47    2.34  394.60   0.87   9.65
sdd              32.87     0.13  107.79    0.25  1630.87    82.28    31.71     0.67    6.19    4.39  782.19   0.94  10.15
md0               0.00     0.00  425.35    1.07  6047.14   290.08    29.72     0.00    0.00    0.00    0.00   0.00   0.00

avg-cpu:  %user   %nice %system %iowait  %steal   %idle
           3.06    0.00    0.13    0.25    0.00   96.56

Device:         rrqm/s   wrqm/s     r/s     w/s    rkB/s    wkB/s avgrq-sz avgqu-sz   await r_await w_await  svctm  %util
nvme0n1           0.00     0.00    0.00    0.00     0.00     0.00     0.00     0.00    0.00    0.00    0.00   0.00   0.00
sda               0.00     0.00    4.00    0.00   104.00     0.00    52.00     0.00    0.25    0.25    0.00   0.25   0.10
sdc               6.00     0.00  218.00    0.00 15704.00     0.00   144.07     0.66    3.03    3.03    0.00   2.10  45.70
sdb               4.00     0.00  208.00    0.00 15788.00     0.00   151.81     0.54    2.58    2.58    0.00   1.97  41.00
sdd               6.00     0.00  181.00    0.00 14256.00     0.00   157.52     0.64    3.16    3.16    0.00   2.37  42.90
md0               0.00     0.00  626.00    0.00 56812.00     0.00   181.51     0.00    0.00    0.00    0.00   0.00   0.00

avg-cpu:  %user   %nice %system %iowait  %steal   %idle
           3.10    0.00    0.09    0.50    0.00   96.31

Device:         rrqm/s   wrqm/s     r/s     w/s    rkB/s    wkB/s avgrq-sz avgqu-sz   await r_await w_await  svctm  %util
nvme0n1           0.00     0.00    0.00    0.00     0.00     0.00     0.00     0.00    0.00    0.00    0.00   0.00   0.00
sda               0.00     0.00    0.00    0.00     0.00     0.00     0.00     0.00    0.00    0.00    0.00   0.00   0.00
sdc               4.00     0.00  238.00    0.00 18440.00     0.00   154.96     0.73    3.07    3.07    0.00   2.03  48.20
sdb               5.00     0.00  191.00    0.00 13400.00     0.00   140.31     0.65    3.38    3.38    0.00   2.39  45.70
sdd               8.00     0.00  204.00    0.00 17312.00     0.00   169.73     0.64    3.43    3.43    0.00   2.20  44.90
md0               0.00     0.00  648.00    0.00 61772.00     0.00   190.65     0.00    0.00    0.00    0.00   0.00   0.00

avg-cpu:  %user   %nice %system %iowait  %steal   %idle
           3.09    0.00    0.13    0.06    0.00   96.72

Device:         rrqm/s   wrqm/s     r/s     w/s    rkB/s    wkB/s avgrq-sz avgqu-sz   await r_await w_await  svctm  %util
nvme0n1           0.00     0.00    0.00    0.00     0.00     0.00     0.00     0.00    0.00    0.00    0.00   0.00   0.00
sda               0.00    11.00    0.00    2.00     0.00    52.00    52.00     0.00    0.00    0.00    0.00   0.00   0.00
sdc              16.00     0.00  238.00    0.00 26012.00     0.00   218.59     0.46    1.94    1.94    0.00   1.40  33.30
sdb              12.00     0.00  295.00    0.00 27984.00     0.00   189.72     0.63    2.11    2.11    0.00   1.64  48.50
sdd              17.00     0.00  319.00    0.00 26504.00     0.00   166.17     0.65    2.06    2.06    0.00   1.66  52.90
md0               0.00     0.00  897.00    0.00 107416.00     0.00   239.50     0.00    0.00    0.00    0.00   0.00   0.00

avg-cpu:  %user   %nice %system %iowait  %steal   %idle
           3.09    0.00    0.12    0.03    0.00   96.75

Device:         rrqm/s   wrqm/s     r/s     w/s    rkB/s    wkB/s avgrq-sz avgqu-sz   await r_await w_await  svctm  %util
nvme0n1           0.00     0.00    0.00    0.00     0.00     0.00     0.00     0.00    0.00    0.00    0.00   0.00   0.00
sda               0.00     0.00    0.00    0.00     0.00     0.00     0.00     0.00    0.00    0.00    0.00   0.00   0.00
sdc               9.00     0.00  291.00    0.00 24656.00     0.00   169.46     0.56    1.89    1.89    0.00   1.67  48.70
sdb               9.00     0.00  317.00    0.00 28416.00     0.00   179.28     0.63    2.02    2.02    0.00   1.68  53.10
sdd               9.00     0.00  335.00    0.00 25624.00     0.00   152.98     0.30    0.90    0.90    0.00   0.74  24.90
md0               0.00     0.00  970.00    0.00 97004.00     0.00   200.01     0.00    0.00    0.00    0.00   0.00   0.00

avg-cpu:  %user   %nice %system %iowait  %steal   %idle
           3.09    0.00    0.13    0.06    0.00   96.72

Device:         rrqm/s   wrqm/s     r/s     w/s    rkB/s    wkB/s avgrq-sz avgqu-sz   await r_await w_await  svctm  %util
nvme0n1           0.00     0.00    0.00    0.00     0.00     0.00     0.00     0.00    0.00    0.00    0.00   0.00   0.00
sda               0.00     0.00    0.00    0.00     0.00     0.00     0.00     0.00    0.00    0.00    0.00   0.00   0.00
sdc              29.00     0.00  302.00    0.00 33664.00     0.00   222.94     0.79    2.62    2.62    0.00   1.90  57.40
sdb              29.00     0.00  307.00    0.00 34356.00     0.00   223.82     0.51    1.65    1.65    0.00   1.27  38.90
sdd              30.00     0.00  313.00    0.00 35024.00     0.00   223.80     0.57    1.83    1.83    0.00   1.42  44.60
md0               0.00     0.00 1010.00    0.00 137512.00     0.00   272.30     0.00    0.00    0.00    0.00   0.00   0.00

avg-cpu:  %user   %nice %system %iowait  %steal   %idle
           3.10    0.00    0.09    0.19    0.00   96.62

Device:         rrqm/s   wrqm/s     r/s     w/s    rkB/s    wkB/s avgrq-sz avgqu-sz   await r_await w_await  svctm  %util
nvme0n1           0.00     0.00    0.00    0.00     0.00     0.00     0.00     0.00    0.00    0.00    0.00   0.00   0.00
sda               0.00     1.00    0.00    2.00     0.00    12.00    12.00     0.00    0.00    0.00    0.00   0.00   0.00
sdc              16.00     0.00  312.00    0.00 30960.00     0.00   198.46     0.43    1.38    1.38    0.00   1.07  33.40
sdb              18.00     0.00  300.00    0.00 29772.00     0.00   198.48     0.67    2.24    2.24    0.00   1.76  52.80
sdd              17.00     0.00  308.00    0.00 29664.00     0.00   192.62     0.65    2.07    2.07    0.00   1.66  51.20
md0               0.00     0.00  971.00    0.00 123792.00     0.00   254.98     0.00    0.00    0.00    0.00   0.00   0.00

avg-cpu:  %user   %nice %system %iowait  %steal   %idle
           3.07    0.00    0.09    0.16    0.00   96.68

Device:         rrqm/s   wrqm/s     r/s     w/s    rkB/s    wkB/s avgrq-sz avgqu-sz   await r_await w_await  svctm  %util
nvme0n1           0.00     0.00    0.00    0.00     0.00     0.00     0.00     0.00    0.00    0.00    0.00   0.00   0.00
sda               0.00     0.00    0.00    0.00     0.00     0.00     0.00     0.00    0.00    0.00    0.00   0.00   0.00
sdc              18.00     0.00  278.00    0.00 30088.00     0.00   216.46     0.71    2.56    2.56    0.00   1.85  51.30
sdb              20.00     0.00  290.00    0.00 31392.00     0.00   216.50     0.43    1.49    1.49    0.00   1.21  35.00
sdd              19.00     0.00  294.00    0.00 31600.00     0.00   214.97     0.62    2.13    2.13    0.00   1.72  50.50
md0               0.00     0.00  919.00    0.00 126032.00     0.00   274.28     0.00    0.00    0.00    0.00   0.00   0.00

avg-cpu:  %user   %nice %system %iowait  %steal   %idle
           3.09    0.00    0.16    0.38    0.00   96.37

Device:         rrqm/s   wrqm/s     r/s     w/s    rkB/s    wkB/s avgrq-sz avgqu-sz   await r_await w_await  svctm  %util
nvme0n1           0.00     0.00    0.00    0.00     0.00     0.00     0.00     0.00    0.00    0.00    0.00   0.00   0.00
sda               0.00     3.00   64.00    2.00   468.00    20.00    14.79     0.03    0.52    0.53    0.00   0.05   0.30
sdc              16.00     0.00  282.00    0.00 25992.00     0.00   184.34     0.89    3.15    3.15    0.00   2.59  73.10
sdb              13.00     0.00  285.00    0.00 26716.00     0.00   187.48     0.32    1.14    1.14    0.00   0.90  25.70
sdd              13.00     0.00  292.00    0.00 26128.00     0.00   178.96     0.32    1.08    1.08    0.00   0.89  26.10
md0               0.00     0.00  902.00    0.00 107696.00     0.00   238.79     0.00    0.00    0.00    0.00   0.00   0.00

avg-cpu:  %user   %nice %system %iowait  %steal   %idle
           3.09    0.00    0.09    0.16    0.00   96.66

Device:         rrqm/s   wrqm/s     r/s     w/s    rkB/s    wkB/s avgrq-sz avgqu-sz   await r_await w_await  svctm  %util
nvme0n1           0.00     0.00    0.00    0.00     0.00     0.00     0.00     0.00    0.00    0.00    0.00   0.00   0.00
sda               0.00     0.00    0.00    0.00     0.00     0.00     0.00     0.00    0.00    0.00    0.00   0.00   0.00
sdc              21.00     0.00  257.00    0.00 27336.00     0.00   212.73     0.72    2.58    2.58    0.00   2.25  57.70
sdb              21.00     0.00  246.00    0.00 28068.00     0.00   228.20     0.50    2.02    2.02    0.00   1.59  39.20
sdd              21.00     0.00  287.00    0.00 27952.00     0.00   194.79     0.51    1.76    1.76    0.00   1.44  41.30
md0               0.00     0.00  853.00    0.00 111348.00     0.00   261.07     0.00    0.00    0.00    0.00   0.00   0.00

avg-cpu:  %user   %nice %system %iowait  %steal   %idle
           3.10    0.00    0.09    0.00    0.00   96.87

Device:         rrqm/s   wrqm/s     r/s     w/s    rkB/s    wkB/s avgrq-sz avgqu-sz   await r_await w_await  svctm  %util
nvme0n1           0.00     0.00    0.00    0.00     0.00     0.00     0.00     0.00    0.00    0.00    0.00   0.00   0.00
sda               0.00     0.00    0.00    0.00     0.00     0.00     0.00     0.00    0.00    0.00    0.00   0.00   0.00
sdc              32.00     0.00  221.00    0.00 31000.00     0.00   280.54     1.02    4.89    4.89    0.00   3.01  66.60
sdb              31.00     0.00  240.00    0.00 32356.00     0.00   269.63     0.61    2.55    2.55    0.00   1.62  39.00
sdd              33.00     0.00  250.00    0.00 30484.00     0.00   243.87     0.55    2.18    2.18    0.00   1.59  39.70
md0               0.00     0.00  806.00    0.00 120220.00     0.00   298.31     0.00    0.00    0.00    0.00   0.00   0.00

avg-cpu:  %user   %nice %system %iowait  %steal   %idle
           3.10    0.00    0.13    0.66    0.00   96.12

Device:         rrqm/s   wrqm/s     r/s     w/s    rkB/s    wkB/s avgrq-sz avgqu-sz   await r_await w_await  svctm  %util
nvme0n1           0.00     0.00    0.00    0.00     0.00     0.00     0.00     0.00    0.00    0.00    0.00   0.00   0.00
sda               0.00     4.00    0.00   17.00     0.00   100.00    11.76     0.00    0.00    0.00    0.00   0.00   0.00
sdc              15.00     0.00  308.00    0.00 29868.00     0.00   193.95     0.79    2.54    2.54    0.00   2.21  68.20
sdb              12.00     0.00  313.00    0.00 28976.00     0.00   185.15     0.38    1.20    1.20    0.00   1.03  32.10
sdd              12.00     0.00  312.00    0.00 30780.00     0.00   197.31     0.39    1.26    1.26    0.00   1.04  32.50
md0               0.00     0.00  975.00    0.00 120940.00     0.00   248.08     0.00    0.00    0.00    0.00   0.00   0.00

avg-cpu:  %user   %nice %system %iowait  %steal   %idle
           3.09    0.00    0.16    0.06    0.00   96.69

Device:         rrqm/s   wrqm/s     r/s     w/s    rkB/s    wkB/s avgrq-sz avgqu-sz   await r_await w_await  svctm  %util
nvme0n1           0.00     0.00    0.00    0.00     0.00     0.00     0.00     0.00    0.00    0.00    0.00   0.00   0.00
sda               0.00     0.00    0.00    0.00     0.00     0.00     0.00     0.00    0.00    0.00    0.00   0.00   0.00
sdc              13.00     0.00  293.00    0.00 25480.00     0.00   173.92     0.48    1.66    1.66    0.00   1.39  40.60
sdb              14.00     0.00  277.00    0.00 28672.00     0.00   207.02     0.42    1.52    1.52    0.00   1.24  34.40
sdd              13.00     0.00  317.00    0.00 24676.00     0.00   155.68     0.68    2.15    2.15    0.00   1.85  58.50
md0               0.00     0.00  926.00    0.00 107364.00     0.00   231.89     0.00    0.00    0.00    0.00   0.00   0.00

avg-cpu:  %user   %nice %system %iowait  %steal   %idle
           3.07    0.00    0.13    0.09    0.00   96.72

Device:         rrqm/s   wrqm/s     r/s     w/s    rkB/s    wkB/s avgrq-sz avgqu-sz   await r_await w_await  svctm  %util
nvme0n1           0.00     0.00    0.00    0.00     0.00     0.00     0.00     0.00    0.00    0.00    0.00   0.00   0.00
sda               0.00     5.00    0.00    2.00     0.00    28.00    28.00     0.00    0.00    0.00    0.00   0.00   0.00
sdc              30.00     0.00  305.00    0.00 38636.00     0.00   253.35     0.84    2.76    2.76    0.00   2.12  64.60
sdb              29.00     0.00  312.00    0.00 35876.00     0.00   229.97     0.52    1.66    1.66    0.00   1.27  39.70
sdd              29.00     0.00  306.00    0.00 35016.00     0.00   228.86     0.57    1.86    1.86    0.00   1.29  39.50
md0               0.00     0.00 1011.00    0.00 146944.00     0.00   290.69     0.00    0.00    0.00    0.00   0.00   0.00

avg-cpu:  %user   %nice %system %iowait  %steal   %idle
           3.09    0.00    0.13    0.00    0.00   96.78

Device:         rrqm/s   wrqm/s     r/s     w/s    rkB/s    wkB/s avgrq-sz avgqu-sz   await r_await w_await  svctm  %util
nvme0n1           0.00     0.00    0.00    0.00     0.00     0.00     0.00     0.00    0.00    0.00    0.00   0.00   0.00
sda               0.00     0.00    0.00    0.00     0.00     0.00     0.00     0.00    0.00    0.00    0.00   0.00   0.00
sdc              24.00     0.00  302.00    0.00 32208.00     0.00   213.30     0.59    1.95    1.95    0.00   1.58  47.80
sdb              19.00     0.00  314.00    0.00 32988.00     0.00   210.11     0.60    1.92    1.92    0.00   1.59  49.90
sdd              21.00     0.00  296.00    0.00 32776.00     0.00   221.46     0.60    2.03    2.03    0.00   1.62  48.00
md0               0.00     0.00  975.00    0.00 135344.00     0.00   277.63     0.00    0.00    0.00    0.00   0.00   0.00

avg-cpu:  %user   %nice %system %iowait  %steal   %idle
           3.10    0.00    0.09    0.28    0.00   96.53

Device:         rrqm/s   wrqm/s     r/s     w/s    rkB/s    wkB/s avgrq-sz avgqu-sz   await r_await w_await  svctm  %util
nvme0n1           0.00     0.00    0.00    0.00     0.00     0.00     0.00     0.00    0.00    0.00    0.00   0.00   0.00
sda               0.00     0.00    0.00    0.00     0.00     0.00     0.00     0.00    0.00    0.00    0.00   0.00   0.00
sdc              39.00     0.00  320.00    0.00 40292.00     0.00   251.82     0.79    2.45    2.45    0.00   1.68  53.70
sdb              46.00     0.00  293.00    0.00 41172.00     0.00   281.04     0.57    1.95    1.95    0.00   1.40  41.10
sdd              41.00     0.00  280.00    0.00 39632.00     0.00   283.09     0.97    3.47    3.47    0.00   2.32  65.00
md0               0.00     0.00 1019.00    0.00 171504.00     0.00   336.61     0.00    0.00    0.00    0.00   0.00   0.00

avg-cpu:  %user   %nice %system %iowait  %steal   %idle
           3.07    0.00    0.09    0.19    0.00   96.65

Device:         rrqm/s   wrqm/s     r/s     w/s    rkB/s    wkB/s avgrq-sz avgqu-sz   await r_await w_await  svctm  %util
nvme0n1           0.00     0.00    0.00    0.00     0.00     0.00     0.00     0.00    0.00    0.00    0.00   0.00   0.00
sda               0.00     0.00    0.00    0.00     0.00     0.00     0.00     0.00    0.00    0.00    0.00   0.00   0.00
sdc              32.00     0.00  277.00    0.00 34308.00     0.00   247.71     0.74    2.68    2.68    0.00   2.06  57.00
sdb              35.00     0.00  280.00    0.00 34840.00     0.00   248.86     0.43    1.53    1.53    0.00   1.16  32.60
sdd              31.00     0.00  303.00    0.00 35248.00     0.00   232.66     0.79    2.62    2.62    0.00   1.93  58.60
md0               0.00     0.00  959.00    0.00 142912.00     0.00   298.04     0.00    0.00    0.00    0.00   0.00   0.00

avg-cpu:  %user   %nice %system %iowait  %steal   %idle
           3.09    0.00    0.16    0.97    0.00   95.78

Device:         rrqm/s   wrqm/s     r/s     w/s    rkB/s    wkB/s avgrq-sz avgqu-sz   await r_await w_await  svctm  %util
nvme0n1           0.00     0.00    0.00    0.00     0.00     0.00     0.00     0.00    0.00    0.00    0.00   0.00   0.00
sda               0.00     0.00    0.00    0.00     0.00     0.00     0.00     0.00    0.00    0.00    0.00   0.00   0.00
sdc              19.00     0.00  310.00    0.00 34796.00     0.00   224.49     0.51    1.66    1.66    0.00   1.24  38.50
sdb              19.00     0.00  329.00    0.00 31512.00     0.00   191.56     0.39    1.20    1.20    0.00   0.94  30.80
sdd              22.00     0.00  273.00    0.00 29780.00     0.00   218.17     0.86    3.12    3.12    0.00   2.61  71.20
md0               0.00     0.00  970.00    0.00 133324.00     0.00   274.89     0.00    0.00    0.00    0.00   0.00   0.00

avg-cpu:  %user   %nice %system %iowait  %steal   %idle
           3.03    0.00    0.16    0.06    0.00   96.75

Device:         rrqm/s   wrqm/s     r/s     w/s    rkB/s    wkB/s avgrq-sz avgqu-sz   await r_await w_await  svctm  %util
nvme0n1           0.00     0.00    0.00    0.00     0.00     0.00     0.00     0.00    0.00    0.00    0.00   0.00   0.00
sda               0.00     1.00    0.00    2.00     0.00    12.00    12.00     0.00    0.00    0.00    0.00   0.00   0.00
sdc              25.00     0.00  296.00    0.00 29900.00     0.00   202.03     0.54    1.83    1.83    0.00   1.53  45.40
sdb              23.00     0.00  267.00    0.00 28204.00     0.00   211.27     0.47    1.77    1.77    0.00   1.45  38.80
sdd              25.00     0.00  257.00    0.00 28908.00     0.00   224.96     0.74    2.89    2.89    0.00   2.33  59.90
md0               0.00     0.00  895.00    0.00 124288.00     0.00   277.74     0.00    0.00    0.00    0.00   0.00   0.00

avg-cpu:  %user   %nice %system %iowait  %steal   %idle
           3.10    0.00    0.09    0.28    0.00   96.53

Device:         rrqm/s   wrqm/s     r/s     w/s    rkB/s    wkB/s avgrq-sz avgqu-sz   await r_await w_await  svctm  %util
nvme0n1           0.00     0.00    0.00    0.00     0.00     0.00     0.00     0.00    0.00    0.00    0.00   0.00   0.00
sda               0.00     0.00    0.00    0.00     0.00     0.00     0.00     0.00    0.00    0.00    0.00   0.00   0.00
sdc              14.00     0.00  283.00    0.00 27180.00     0.00   192.08     0.36    1.27    1.27    0.00   0.98  27.80
sdb              13.00     0.00  271.00    0.00 26280.00     0.00   193.95     0.55    2.01    2.01    0.00   1.70  46.00
sdd              12.00     0.00  283.00    0.00 25832.00     0.00   182.56     0.81    2.88    2.88    0.00   2.24  63.40
md0               0.00     0.00  874.00    0.00 108872.00     0.00   249.14     0.00    0.00    0.00    0.00   0.00   0.00

avg-cpu:  %user   %nice %system %iowait  %steal   %idle
           3.06    0.00    0.13    0.66    0.00   96.15

Device:         rrqm/s   wrqm/s     r/s     w/s    rkB/s    wkB/s avgrq-sz avgqu-sz   await r_await w_await  svctm  %util
nvme0n1           0.00     0.00    0.00    0.00     0.00     0.00     0.00     0.00    0.00    0.00    0.00   0.00   0.00
sda               0.00     0.00    0.00    0.00     0.00     0.00     0.00     0.00    0.00    0.00    0.00   0.00   0.00
sdc              23.00     0.00  290.00    0.00 33776.00     0.00   232.94     0.56    1.91    1.91    0.00   1.56  45.30
sdb              22.00     0.00  325.00    0.00 34232.00     0.00   210.66     0.50    1.53    1.53    0.00   1.20  39.10
sdd              24.00     0.00  333.00    0.00 33748.00     0.00   202.69     0.69    2.08    2.08    0.00   1.66  55.20
md0               0.00     0.00 1018.00    0.00 131084.00     0.00   257.53     0.00    0.00    0.00    0.00   0.00   0.00

