Linux 4.17.2 (bench2) 	08/03/2018 	_x86_64_	(32 CPU)

avg-cpu:  %user   %nice %system %iowait  %steal   %idle
           1.92    0.00    1.58    1.50    0.00   95.00

Device:         rrqm/s   wrqm/s     r/s     w/s    rkB/s    wkB/s avgrq-sz avgqu-sz   await r_await w_await  svctm  %util
nvme0n1         958.89     5.21 19330.93  532.24 108129.14 12003.61    12.10     1.38    0.05    0.03    0.67   0.02  40.47
sda               0.11     0.81   14.11    0.57   163.86     8.50    23.48     0.00    0.33    0.32    0.45   0.07   0.10
sdc              32.18     0.14  104.39    0.30  1573.37    83.31    31.65     1.46   13.94   12.90  373.51   0.94   9.88
sdb              30.09     0.15  106.44    0.32  1571.52    83.13    31.00     0.34    3.15    1.96  394.60   0.88   9.39
sdd              32.38     0.13  103.93    0.25  1569.40    82.79    31.72     0.62    5.96    4.09  782.19   0.95   9.88
md0               0.00     0.00  412.29    1.07  5808.51   291.89    29.52     0.00    0.00    0.00    0.00   0.00   0.00

avg-cpu:  %user   %nice %system %iowait  %steal   %idle
           3.13    0.00    0.03    0.47    0.00   96.37

Device:         rrqm/s   wrqm/s     r/s     w/s    rkB/s    wkB/s avgrq-sz avgqu-sz   await r_await w_await  svctm  %util
nvme0n1           0.00     0.00    0.00    0.00     0.00     0.00     0.00     0.00    0.00    0.00    0.00   0.00   0.00
sda               0.00     0.00   19.00    0.00    80.00     0.00     8.42     0.00    0.00    0.00    0.00   0.00   0.00
sdc               0.00     0.00  139.00    0.00   592.00     0.00     8.52     0.36    2.58    2.58    0.00   2.57  35.70
sdb               0.00     0.00  144.00    0.00   576.00     0.00     8.00     0.28    1.97    1.97    0.00   1.97  28.40
sdd               0.00     0.00  150.00    0.00   612.00     0.00     8.16     0.35    2.32    2.32    0.00   2.32  34.80
md0               0.00     0.00  433.00    0.00  1768.00     0.00     8.17     0.00    0.00    0.00    0.00   0.00   0.00

avg-cpu:  %user   %nice %system %iowait  %steal   %idle
           3.10    0.00    0.03    0.56    0.00   96.31

Device:         rrqm/s   wrqm/s     r/s     w/s    rkB/s    wkB/s avgrq-sz avgqu-sz   await r_await w_await  svctm  %util
nvme0n1           0.00     0.00    0.00    0.00     0.00     0.00     0.00     0.00    0.00    0.00    0.00   0.00   0.00
sda               0.00     8.00    0.00    2.00     0.00    40.00    40.00     0.00    0.00    0.00    0.00   0.00   0.00
sdc               0.00     0.00  127.00    0.00   604.00     0.00     9.51     0.39    3.03    3.03    0.00   3.03  38.50
sdb               0.00     0.00  152.00    0.00   668.00     0.00     8.79     0.39    2.55    2.55    0.00   2.55  38.70
sdd               0.00     0.00  162.00    0.00   672.00     0.00     8.30     0.21    1.33    1.33    0.00   1.32  21.40
md0               0.00     0.00  441.00    0.00  1944.00     0.00     8.82     0.00    0.00    0.00    0.00   0.00   0.00

avg-cpu:  %user   %nice %system %iowait  %steal   %idle
           3.12    0.00    0.06    0.56    0.00   96.25

Device:         rrqm/s   wrqm/s     r/s     w/s    rkB/s    wkB/s avgrq-sz avgqu-sz   await r_await w_await  svctm  %util
nvme0n1           0.00     0.00    0.00    0.00     0.00     0.00     0.00     0.00    0.00    0.00    0.00   0.00   0.00
sda               0.00     0.00    0.00    0.00     0.00     0.00     0.00     0.00    0.00    0.00    0.00   0.00   0.00
sdc               0.00     0.00  142.00    0.00   604.00     0.00     8.51     0.28    1.94    1.94    0.00   1.94  27.50
sdb               0.00     0.00  163.00    0.00   700.00     0.00     8.59     0.38    2.33    2.33    0.00   2.33  37.90
sdd               0.00     0.00  165.00    0.00   684.00     0.00     8.29     0.34    2.00    2.00    0.00   2.03  33.50
md0               0.00     0.00  470.00    0.00  1988.00     0.00     8.46     0.00    0.00    0.00    0.00   0.00   0.00

