Linux 4.17.2 (bench2) 	08/03/2018 	_x86_64_	(32 CPU)

avg-cpu:  %user   %nice %system %iowait  %steal   %idle
           1.92    0.00    1.58    1.50    0.00   95.00

Device:         rrqm/s   wrqm/s     r/s     w/s    rkB/s    wkB/s avgrq-sz avgqu-sz   await r_await w_await  svctm  %util
nvme0n1         960.16     5.21 19356.46  532.94 108271.95 12019.46    12.10     1.38    0.05    0.03    0.67   0.02  40.52
sda               0.11     0.81   14.11    0.57   163.84     8.50    23.48     0.00    0.33    0.32    0.46   0.07   0.10
sdc              32.19     0.14  103.56    0.30  1554.91    83.42    31.55     1.46   14.03   12.99  373.51   0.95   9.82
sdb              30.11     0.15  105.60    0.32  1553.07    83.24    30.90     0.33    3.15    1.95  394.60   0.88   9.33
sdd              32.40     0.13  103.10    0.25  1550.95    82.90    31.62     0.62    5.98    4.09  782.19   0.95   9.82
md0               0.00     0.00  409.84    1.07  5733.78   292.27    29.33     0.00    0.00    0.00    0.00   0.00   0.00

avg-cpu:  %user   %nice %system %iowait  %steal   %idle
           3.10    0.00    0.03    0.97    0.00   95.90

Device:         rrqm/s   wrqm/s     r/s     w/s    rkB/s    wkB/s avgrq-sz avgqu-sz   await r_await w_await  svctm  %util
nvme0n1           0.00     0.00    0.00    0.00     0.00     0.00     0.00     0.00    0.00    0.00    0.00   0.00   0.00
sda               0.00     1.00    3.00    2.00   100.00    40.00    56.00     0.00    0.00    0.00    0.00   0.00   0.00
sdc               0.00     0.00  160.00    0.00   688.00     0.00     8.60     0.26    1.61    1.61    0.00   1.61  25.80
sdb               0.00     0.00  132.00    0.00   528.00     0.00     8.00     0.33    2.47    2.47    0.00   2.48  32.80
sdd               0.00     0.00  139.00    0.00   592.00     0.00     8.52     0.40    2.88    2.88    0.00   2.84  39.50
md0               0.00     0.00  432.00    0.00  1812.00     0.00     8.39     0.00    0.00    0.00    0.00   0.00   0.00

avg-cpu:  %user   %nice %system %iowait  %steal   %idle
           3.12    0.00    0.03    0.81    0.00   96.03

Device:         rrqm/s   wrqm/s     r/s     w/s    rkB/s    wkB/s avgrq-sz avgqu-sz   await r_await w_await  svctm  %util
nvme0n1           0.00     0.00    0.00    0.00     0.00     0.00     0.00     0.00    0.00    0.00    0.00   0.00   0.00
sda               0.00    15.00    0.00    2.00     0.00    68.00    68.00     0.00    0.50    0.00    0.50   0.50   0.10
sdc               0.00     0.00  148.00    0.00   740.00     0.00    10.00     0.30    2.05    2.05    0.00   2.05  30.30
sdb               0.00     0.00  139.00    0.00   568.00     0.00     8.17     0.41    2.94    2.94    0.00   2.93  40.70
sdd               0.00     0.00  137.00    0.00   868.00     0.00    12.67     0.27    1.98    1.98    0.00   1.98  27.10
md0               0.00     0.00  424.00    0.00  2452.00     0.00    11.57     0.00    0.00    0.00    0.00   0.00   0.00

avg-cpu:  %user   %nice %system %iowait  %steal   %idle
           3.13    0.00    0.06    0.81    0.00   96.00

Device:         rrqm/s   wrqm/s     r/s     w/s    rkB/s    wkB/s avgrq-sz avgqu-sz   await r_await w_await  svctm  %util
nvme0n1           0.00     0.00    0.00    0.00     0.00     0.00     0.00     0.00    0.00    0.00    0.00   0.00   0.00
sda               0.00     0.00    0.00    0.00     0.00     0.00     0.00     0.00    0.00    0.00    0.00   0.00   0.00
sdc               0.00     0.00  161.00    0.00   716.00     0.00     8.89     0.28    1.75    1.75    0.00   1.76  28.30
sdb               0.00     0.00  153.00    0.00   624.00     0.00     8.16     0.32    2.10    2.10    0.00   2.10  32.20
sdd               0.00     0.00  169.00    0.00   712.00     0.00     8.43     0.38    2.25    2.25    0.00   2.25  38.10
md0               0.00     0.00  483.00    0.00  2052.00     0.00     8.50     0.00    0.00    0.00    0.00   0.00   0.00

avg-cpu:  %user   %nice %system %iowait  %steal   %idle
           3.12    0.00    0.03    1.06    0.00   95.78

Device:         rrqm/s   wrqm/s     r/s     w/s    rkB/s    wkB/s avgrq-sz avgqu-sz   await r_await w_await  svctm  %util
nvme0n1           0.00     0.00    0.00    0.00     0.00     0.00     0.00     0.00    0.00    0.00    0.00   0.00   0.00
sda               0.00     0.00    0.00    0.00     0.00     0.00     0.00     0.00    0.00    0.00    0.00   0.00   0.00
sdc               0.00     0.00  157.00    0.00   676.00     0.00     8.61     0.34    2.17    2.17    0.00   2.20  34.50
sdb               0.00     0.00  147.00    0.00   600.00     0.00     8.16     0.25    1.70    1.70    0.00   1.70  25.00
sdd               0.00     0.00  122.00    0.00   524.00     0.00     8.59     0.39    3.16    3.16    0.00   3.16  38.60
md0               0.00     0.00  426.00    0.00  1800.00     0.00     8.45     0.00    0.00    0.00    0.00   0.00   0.00

avg-cpu:  %user   %nice %system %iowait  %steal   %idle
           3.12    0.00    0.06    0.81    0.00   96.00

Device:         rrqm/s   wrqm/s     r/s     w/s    rkB/s    wkB/s avgrq-sz avgqu-sz   await r_await w_await  svctm  %util
nvme0n1           0.00     0.00    0.00    0.00     0.00     0.00     0.00     0.00    0.00    0.00    0.00   0.00   0.00
sda               0.00     0.00    0.00    0.00     0.00     0.00     0.00     0.00    0.00    0.00    0.00   0.00   0.00
sdc               0.00     0.00  149.00    0.00   632.00     0.00     8.48     0.34    2.30    2.30    0.00   2.26  33.70
sdb               0.00     0.00  172.00    0.00   736.00     0.00     8.56     0.30    1.75    1.75    0.00   1.75  30.10
sdd               0.00     0.00  153.00    0.00   696.00     0.00     9.10     0.34    2.22    2.22    0.00   2.21  33.80
md0               0.00     0.00  474.00    0.00  2064.00     0.00     8.71     0.00    0.00    0.00    0.00   0.00   0.00

avg-cpu:  %user   %nice %system %iowait  %steal   %idle
           3.13    0.00    0.03    0.88    0.00   95.97

Device:         rrqm/s   wrqm/s     r/s     w/s    rkB/s    wkB/s avgrq-sz avgqu-sz   await r_await w_await  svctm  %util
nvme0n1           0.00     0.00    0.00    0.00     0.00     0.00     0.00     0.00    0.00    0.00    0.00   0.00   0.00
sda               0.00     4.00    0.00   17.00     0.00    84.00     9.88     0.00    0.00    0.00    0.00   0.00   0.00
sdc               0.00     0.00  160.00    0.00   656.00     0.00     8.20     0.45    2.79    2.79    0.00   2.79  44.70
sdb               0.00     0.00  124.00    0.00   532.00     0.00     8.58     0.15    1.18    1.18    0.00   1.18  14.60
sdd               0.00     0.00  131.00    0.00   552.00     0.00     8.43     0.39    2.96    2.96    0.00   2.96  38.80
md0               0.00     0.00  415.00    0.00  1748.00     0.00     8.42     0.00    0.00    0.00    0.00   0.00   0.00

avg-cpu:  %user   %nice %system %iowait  %steal   %idle
           3.09    0.00    0.06    0.81    0.00   96.03

Device:         rrqm/s   wrqm/s     r/s     w/s    rkB/s    wkB/s avgrq-sz avgqu-sz   await r_await w_await  svctm  %util
nvme0n1           0.00     0.00    0.00    0.00     0.00     0.00     0.00     0.00    0.00    0.00    0.00   0.00   0.00
sda               0.00     1.00    0.00    2.00     0.00    12.00    12.00     0.00    0.00    0.00    0.00   0.00   0.00
sdc               0.00     0.00  143.00    0.00   584.00     0.00     8.17     0.40    2.76    2.76    0.00   2.78  39.80
sdb               0.00     0.00  130.00    0.00   532.00     0.00     8.18     0.31    2.36    2.36    0.00   2.36  30.70
sdd               0.00     0.00  152.00    0.00   692.00     0.00     9.11     0.28    1.84    1.84    0.00   1.84  28.00
md0               0.00     0.00  425.00    0.00  1808.00     0.00     8.51     0.00    0.00    0.00    0.00   0.00   0.00

avg-cpu:  %user   %nice %system %iowait  %steal   %idle
           3.13    0.00    0.03    1.13    0.00   95.72

Device:         rrqm/s   wrqm/s     r/s     w/s    rkB/s    wkB/s avgrq-sz avgqu-sz   await r_await w_await  svctm  %util
nvme0n1           0.00     0.00    0.00    0.00     0.00     0.00     0.00     0.00    0.00    0.00    0.00   0.00   0.00
sda               0.00     0.00    0.00    0.00     0.00     0.00     0.00     0.00    0.00    0.00    0.00   0.00   0.00
sdc               0.00     0.00  141.00    0.00   588.00     0.00     8.34     0.52    3.68    3.68    0.00   3.67  51.70
sdb               0.00     0.00  128.00    0.00   536.00     0.00     8.38     0.23    1.80    1.80    0.00   1.80  23.00
sdd               0.00     0.00  133.00    0.00   544.00     0.00     8.18     0.23    1.77    1.77    0.00   1.77  23.50
md0               0.00     0.00  402.00    0.00  1668.00     0.00     8.30     0.00    0.00    0.00    0.00   0.00   0.00

avg-cpu:  %user   %nice %system %iowait  %steal   %idle
           3.12    0.00    0.09    0.91    0.00   95.88

Device:         rrqm/s   wrqm/s     r/s     w/s    rkB/s    wkB/s avgrq-sz avgqu-sz   await r_await w_await  svctm  %util
nvme0n1           0.00     0.00    0.00    0.00     0.00     0.00     0.00     0.00    0.00    0.00    0.00   0.00   0.00
sda               0.00     0.00    0.00    0.00     0.00     0.00     0.00     0.00    0.00    0.00    0.00   0.00   0.00
sdc               0.00     0.00  174.00    0.00   720.00     0.00     8.28     0.28    1.64    1.64    0.00   1.64  28.50
sdb               0.00     0.00  165.00    0.00   684.00     0.00     8.29     0.34    2.09    2.09    0.00   2.09  34.50
sdd               0.00     0.00  147.00    0.00   612.00     0.00     8.33     0.34    2.34    2.34    0.00   2.34  34.40
md0               0.00     0.00  486.00    0.00  2016.00     0.00     8.30     0.00    0.00    0.00    0.00   0.00   0.00

avg-cpu:  %user   %nice %system %iowait  %steal   %idle
           3.10    0.00    0.03    0.88    0.00   96.00

Device:         rrqm/s   wrqm/s     r/s     w/s    rkB/s    wkB/s avgrq-sz avgqu-sz   await r_await w_await  svctm  %util
nvme0n1           0.00     0.00    0.00    0.00     0.00     0.00     0.00     0.00    0.00    0.00    0.00   0.00   0.00
sda               0.00     0.00    0.00    0.00     0.00     0.00     0.00     0.00    0.00    0.00    0.00   0.00   0.00
sdc               0.00     0.00  142.00    0.00   580.00     0.00     8.17     0.37    2.62    2.62    0.00   2.61  37.00
sdb               0.00     0.00  157.00    0.00   628.00     0.00     8.00     0.27    1.70    1.70    0.00   1.73  27.20
sdd               0.00     0.00  157.00    0.00   700.00     0.00     8.92     0.34    2.15    2.15    0.00   2.15  33.80
md0               0.00     0.00  456.00    0.00  1908.00     0.00     8.37     0.00    0.00    0.00    0.00   0.00   0.00

avg-cpu:  %user   %nice %system %iowait  %steal   %idle
           3.12    0.00    0.06    0.88    0.00   95.94

Device:         rrqm/s   wrqm/s     r/s     w/s    rkB/s    wkB/s avgrq-sz avgqu-sz   await r_await w_await  svctm  %util
nvme0n1           0.00     0.00    0.00    0.00     0.00     0.00     0.00     0.00    0.00    0.00    0.00   0.00   0.00
sda               0.00     4.00    0.00    1.00     0.00    36.00    72.00     0.00    0.00    0.00    0.00   0.00   0.00
sdc               0.00     0.00  171.00    0.00   696.00     0.00     8.14     0.45    2.60    2.60    0.00   2.60  44.50
sdb               0.00     0.00  165.00    0.00   672.00     0.00     8.15     0.21    1.32    1.32    0.00   1.28  21.20
sdd               0.00     0.00  142.00    0.00   580.00     0.00     8.17     0.32    2.24    2.24    0.00   2.27  32.30
md0               0.00     0.00  478.00    0.00  1948.00     0.00     8.15     0.00    0.00    0.00    0.00   0.00   0.00

avg-cpu:  %user   %nice %system %iowait  %steal   %idle
           3.13    0.00    0.03    0.88    0.00   95.97

Device:         rrqm/s   wrqm/s     r/s     w/s    rkB/s    wkB/s avgrq-sz avgqu-sz   await r_await w_await  svctm  %util
nvme0n1           0.00     0.00    0.00    0.00     0.00     0.00     0.00     0.00    0.00    0.00    0.00   0.00   0.00
sda               0.00     3.00    0.00    2.00     0.00    20.00    20.00     0.00    0.00    0.00    0.00   0.00   0.00
sdc               0.00     0.00  159.00    0.00   764.00     0.00     9.61     0.40    2.52    2.52    0.00   2.52  40.00
sdb               0.00     0.00  174.00    0.00   756.00     0.00     8.69     0.29    1.70    1.70    0.00   1.70  29.50
sdd               0.00     0.00  141.00    0.00   600.00     0.00     8.51     0.29    2.09    2.09    0.00   2.06  29.00
md0               0.00     0.00  474.00    0.00  2148.00     0.00     9.06     0.00    0.00    0.00    0.00   0.00   0.00

avg-cpu:  %user   %nice %system %iowait  %steal   %idle
           3.13    0.00    0.03    0.94    0.00   95.90

Device:         rrqm/s   wrqm/s     r/s     w/s    rkB/s    wkB/s avgrq-sz avgqu-sz   await r_await w_await  svctm  %util
nvme0n1           0.00     0.00    0.00    0.00     0.00     0.00     0.00     0.00    0.00    0.00    0.00   0.00   0.00
sda               0.00     0.00    0.00    0.00     0.00     0.00     0.00     0.00    0.00    0.00    0.00   0.00   0.00
sdc               0.00     0.00  162.00    0.00   660.00     0.00     8.15     0.28    1.72    1.72    0.00   1.72  27.90
sdb               0.00     0.00  169.00    0.00   772.00     0.00     9.14     0.25    1.49    1.49    0.00   1.50  25.30
sdd               0.00     0.00  144.00    0.00   612.00     0.00     8.50     0.45    3.12    3.12    0.00   3.12  45.00
md0               0.00     0.00  475.00    0.00  2044.00     0.00     8.61     0.00    0.00    0.00    0.00   0.00   0.00

avg-cpu:  %user   %nice %system %iowait  %steal   %idle
           3.10    0.00    0.06    0.84    0.00   96.00

Device:         rrqm/s   wrqm/s     r/s     w/s    rkB/s    wkB/s avgrq-sz avgqu-sz   await r_await w_await  svctm  %util
nvme0n1           0.00     0.00    0.00    0.00     0.00     0.00     0.00     0.00    0.00    0.00    0.00   0.00   0.00
sda               0.00     0.00    0.00    0.00     0.00     0.00     0.00     0.00    0.00    0.00    0.00   0.00   0.00
sdc               0.00     0.00  136.00    0.00   568.00     0.00     8.35     0.26    1.90    1.90    0.00   1.90  25.80
sdb               0.00     0.00  152.00    0.00   632.00     0.00     8.32     0.38    2.53    2.53    0.00   2.53  38.40
sdd               0.00     0.00  125.00    0.00   524.00     0.00     8.38     0.34    2.75    2.75    0.00   2.75  34.40
md0               0.00     0.00  413.00    0.00  1724.00     0.00     8.35     0.00    0.00    0.00    0.00   0.00   0.00

avg-cpu:  %user   %nice %system %iowait  %steal   %idle
           3.12    0.00    0.06    0.88    0.00   95.94

Device:         rrqm/s   wrqm/s     r/s     w/s    rkB/s    wkB/s avgrq-sz avgqu-sz   await r_await w_await  svctm  %util
nvme0n1           0.00     0.00    0.00    0.00     0.00     0.00     0.00     0.00    0.00    0.00    0.00   0.00   0.00
sda               0.00     0.00    0.00    0.00     0.00     0.00     0.00     0.00    0.00    0.00    0.00   0.00   0.00
sdc               0.00     0.00  148.00    0.00   656.00     0.00     8.86     0.28    1.86    1.86    0.00   1.86  27.60
sdb               0.00     0.00  153.00    0.00   696.00     0.00     9.10     0.35    2.30    2.30    0.00   2.29  35.10
sdd               0.00     0.00  135.00    0.00   568.00     0.00     8.41     0.35    2.59    2.59    0.00   2.60  35.10
md0               0.00     0.00  436.00    0.00  1928.00     0.00     8.84     0.00    0.00    0.00    0.00   0.00   0.00

avg-cpu:  %user   %nice %system %iowait  %steal   %idle
           3.13    0.00    0.03    1.00    0.00   95.84

Device:         rrqm/s   wrqm/s     r/s     w/s    rkB/s    wkB/s avgrq-sz avgqu-sz   await r_await w_await  svctm  %util
nvme0n1           0.00     0.00    0.00    0.00     0.00     0.00     0.00     0.00    0.00    0.00    0.00   0.00   0.00
sda               0.00     0.00    0.00    0.00     0.00     0.00     0.00     0.00    0.00    0.00    0.00   0.00   0.00
sdc               0.00     0.00  154.00    0.00   632.00     0.00     8.21     0.26    1.66    1.66    0.00   1.66  25.60
sdb               0.00     0.00  159.00    0.00   672.00     0.00     8.45     0.34    2.14    2.14    0.00   2.14  34.10
sdd               0.00     0.00  146.00    0.00   600.00     0.00     8.22     0.39    2.67    2.67    0.00   2.66  38.90
md0               0.00     0.00  459.00    0.00  1912.00     0.00     8.33     0.00    0.00    0.00    0.00   0.00   0.00

avg-cpu:  %user   %nice %system %iowait  %steal   %idle
           3.09    0.00    0.03    0.94    0.00   95.94

Device:         rrqm/s   wrqm/s     r/s     w/s    rkB/s    wkB/s avgrq-sz avgqu-sz   await r_await w_await  svctm  %util
nvme0n1           0.00     0.00    0.00    0.00     0.00     0.00     0.00     0.00    0.00    0.00    0.00   0.00   0.00
sda               0.00     1.00    0.00    2.00     0.00    12.00    12.00     0.00    0.00    0.00    0.00   0.00   0.00
sdc               0.00     0.00  129.00    0.00   564.00     0.00     8.74     0.28    2.16    2.16    0.00   2.16  27.80
sdb               0.00     0.00  150.00    0.00   624.00     0.00     8.32     0.47    3.15    3.15    0.00   3.15  47.20
sdd               0.00     0.00  160.00    0.00   676.00     0.00     8.45     0.23    1.45    1.45    0.00   1.45  23.20
md0               0.00     0.00  439.00    0.00  1864.00     0.00     8.49     0.00    0.00    0.00    0.00   0.00   0.00

avg-cpu:  %user   %nice %system %iowait  %steal   %idle
           3.13    0.00    0.06    0.88    0.00   95.94

Device:         rrqm/s   wrqm/s     r/s     w/s    rkB/s    wkB/s avgrq-sz avgqu-sz   await r_await w_await  svctm  %util
nvme0n1           0.00     0.00    0.00    0.00     0.00     0.00     0.00     0.00    0.00    0.00    0.00   0.00   0.00
sda               0.00     0.00    0.00    0.00     0.00     0.00     0.00     0.00    0.00    0.00    0.00   0.00   0.00
sdc               0.00     0.00  159.00    0.00   648.00     0.00     8.15     0.22    1.39    1.39    0.00   1.39  22.10
sdb               0.00     0.00  140.00    0.00   608.00     0.00     8.69     0.40    2.84    2.84    0.00   2.84  39.70
sdd               0.00     0.00  154.00    0.00   664.00     0.00     8.62     0.35    2.29    2.29    0.00   2.31  35.50
md0               0.00     0.00  453.00    0.00  1920.00     0.00     8.48     0.00    0.00    0.00    0.00   0.00   0.00

avg-cpu:  %user   %nice %system %iowait  %steal   %idle
           3.13    0.00    0.03    1.03    0.00   95.81

Device:         rrqm/s   wrqm/s     r/s     w/s    rkB/s    wkB/s avgrq-sz avgqu-sz   await r_await w_await  svctm  %util
nvme0n1           0.00     0.00    0.00    0.00     0.00     0.00     0.00     0.00    0.00    0.00    0.00   0.00   0.00
sda               0.00     0.00    0.00    0.00     0.00     0.00     0.00     0.00    0.00    0.00    0.00   0.00   0.00
sdc               0.00     0.00  141.00    0.00   696.00     0.00     9.87     0.38    2.71    2.71    0.00   2.70  38.10
sdb               0.00     0.00  134.00    0.00   560.00     0.00     8.36     0.34    2.51    2.51    0.00   2.51  33.60
sdd               0.00     0.00  160.00    0.00   700.00     0.00     8.75     0.26    1.65    1.65    0.00   1.64  26.20
md0               0.00     0.00  435.00    0.00  1956.00     0.00     8.99     0.00    0.00    0.00    0.00   0.00   0.00

avg-cpu:  %user   %nice %system %iowait  %steal   %idle
           3.12    0.00    0.06    1.03    0.00   95.78

Device:         rrqm/s   wrqm/s     r/s     w/s    rkB/s    wkB/s avgrq-sz avgqu-sz   await r_await w_await  svctm  %util
nvme0n1           0.00     0.00    0.00    0.00     0.00     0.00     0.00     0.00    0.00    0.00    0.00   0.00   0.00
sda               0.00     0.00    0.00    0.00     0.00     0.00     0.00     0.00    0.00    0.00    0.00   0.00   0.00
sdc               0.00     0.00  122.00    0.00   548.00     0.00     8.98     0.34    2.76    2.76    0.00   2.76  33.70
sdb               0.00     0.00  175.00    0.00   820.00     0.00     9.37     0.21    1.17    1.17    0.00   1.19  20.90
sdd               0.00     0.00  162.00    0.00   684.00     0.00     8.44     0.44    2.70    2.70    0.00   2.70  43.70
md0               0.00     0.00  459.00    0.00  2052.00     0.00     8.94     0.00    0.00    0.00    0.00   0.00   0.00

