Linux 4.17.2 (bench2) 	08/03/2018 	_x86_64_	(32 CPU)

avg-cpu:  %user   %nice %system %iowait  %steal   %idle
           1.92    0.00    1.58    1.50    0.00   94.99

Device:         rrqm/s   wrqm/s     r/s     w/s    rkB/s    wkB/s avgrq-sz avgqu-sz   await r_await w_await  svctm  %util
nvme0n1         957.94     5.20 19311.62  531.71 108021.13 11991.62    12.10     1.37    0.05    0.03    0.67   0.02  40.43
sda               0.11     0.81   14.12    0.57   163.87     8.50    23.47     0.00    0.33    0.32    0.45   0.07   0.10
sdc              32.23     0.14  104.90    0.30  1584.78    83.22    31.71     1.47   13.98   12.95  373.51   0.94   9.93
sdb              30.15     0.15  106.95    0.32  1582.93    83.04    31.06     0.35    3.25    2.08  394.60   0.88   9.43
sdd              32.44     0.13  104.44    0.25  1580.82    82.71    31.78     0.63    6.05    4.19  782.19   0.95   9.93
md0               0.00     0.00  414.00    1.07  5854.03   291.59    29.61     0.00    0.00    0.00    0.00   0.00   0.00

avg-cpu:  %user   %nice %system %iowait  %steal   %idle
           3.12    0.00    0.05    0.16    0.00   96.68

Device:         rrqm/s   wrqm/s     r/s     w/s    rkB/s    wkB/s avgrq-sz avgqu-sz   await r_await w_await  svctm  %util
nvme0n1           0.00     0.00    0.00    0.00     0.00     0.00     0.00     0.00    0.00    0.00    0.00   0.00   0.00
sda               0.00     1.05    0.15    0.65     5.00     9.00    35.00     0.00    0.19    0.33    0.15   0.19   0.01
sdc               0.35     0.00  199.80    0.00  3061.00     0.00    30.64     0.37    1.87    1.87    0.00   1.83  36.50
sdb               0.40     0.00  191.75    0.00  3116.60     0.00    32.51     0.32    1.68    1.68    0.00   1.63  31.24
sdd               0.30     0.00  199.50    0.00  3023.40     0.00    30.31     0.34    1.72    1.72    0.00   1.68  33.55
md0               0.00     0.00  592.15    0.00 10216.00     0.00    34.50     0.00    0.00    0.00    0.00   0.00   0.00

