Linux 4.17.2 (bench2) 	08/03/2018 	_x86_64_	(32 CPU)

avg-cpu:  %user   %nice %system %iowait  %steal   %idle
           1.92    0.00    1.58    1.50    0.00   95.00

Device:         rrqm/s   wrqm/s     r/s     w/s    rkB/s    wkB/s avgrq-sz avgqu-sz   await r_await w_await  svctm  %util
nvme0n1         958.65     5.21 19325.91  532.10 108101.09 12000.49    12.10     1.38    0.05    0.03    0.67   0.02  40.46
sda               0.11     0.81   14.11    0.57   163.86     8.50    23.47     0.00    0.33    0.32    0.45   0.07   0.10
sdc              32.17     0.14  104.44    0.30  1574.18    83.28    31.65     1.46   13.94   12.91  373.51   0.94   9.89
sdb              30.09     0.15  106.48    0.32  1572.33    83.10    31.00     0.34    3.16    1.98  394.60   0.88   9.40
sdd              32.38     0.13  103.98    0.25  1570.21    82.77    31.72     0.62    5.97    4.10  782.19   0.95   9.89
md0               0.00     0.00  412.43    1.07  5811.50   291.81    29.52     0.00    0.00    0.00    0.00   0.00   0.00

avg-cpu:  %user   %nice %system %iowait  %steal   %idle
           3.10    0.00    0.16    2.78    0.00   93.96

Device:         rrqm/s   wrqm/s     r/s     w/s    rkB/s    wkB/s avgrq-sz avgqu-sz   await r_await w_await  svctm  %util
nvme0n1           0.00     0.00    0.00    0.00     0.00     0.00     0.00     0.00    0.00    0.00    0.00   0.00   0.00
sda               0.00     0.00   20.00    0.00    84.00     0.00     8.40     0.00    0.00    0.00    0.00   0.00   0.00
sdc              19.00     0.00  318.00    0.00 31056.00     0.00   195.32     0.62    1.97    1.97    0.00   1.51  48.00
sdb              21.00     0.00  336.00    0.00 32672.00     0.00   194.48     0.41    1.22    1.22    0.00   0.93  31.30
sdd              19.00     0.00  343.00    0.00 30496.00     0.00   177.82     0.71    2.06    2.06    0.00   1.62  55.70
md0               0.00     0.00 1056.00    0.00 131112.00     0.00   248.32     0.00    0.00    0.00    0.00   0.00   0.00

avg-cpu:  %user   %nice %system %iowait  %steal   %idle
           3.09    0.00    0.16    2.81    0.00   93.94

Device:         rrqm/s   wrqm/s     r/s     w/s    rkB/s    wkB/s avgrq-sz avgqu-sz   await r_await w_await  svctm  %util
nvme0n1           0.00     0.00    0.00    0.00     0.00     0.00     0.00     0.00    0.00    0.00    0.00   0.00   0.00
sda               0.00     0.00    0.00    0.00     0.00     0.00     0.00     0.00    0.00    0.00    0.00   0.00   0.00
sdc              28.00     0.00  294.00    0.00 34952.00     0.00   237.77     0.72    2.43    2.43    0.00   1.79  52.70
sdb              29.00     0.00  279.00    0.00 31232.00     0.00   223.89     0.63    2.25    2.25    0.00   1.74  48.60
sdd              31.00     0.00  305.00    0.00 35576.00     0.00   233.29     0.51    1.67    1.67    0.00   1.35  41.20
md0               0.00     0.00  971.00    0.00 144548.00     0.00   297.73     0.00    0.00    0.00    0.00   0.00   0.00

