Linux 4.17.2 (bench2) 	08/03/2018 	_x86_64_	(32 CPU)

avg-cpu:  %user   %nice %system %iowait  %steal   %idle
           1.92    0.00    1.58    1.51    0.00   94.99

Device:         rrqm/s   wrqm/s     r/s     w/s    rkB/s    wkB/s avgrq-sz avgqu-sz   await r_await w_await  svctm  %util
nvme0n1         955.94     5.19 19271.35  530.60 107795.88 11966.61    12.10     1.37    0.05    0.03    0.67   0.02  40.34
sda               0.11     0.81   14.13    0.57   163.91     8.50    23.46     0.00    0.33    0.32    0.45   0.07   0.10
sdc              32.59     0.14  106.37    0.30  1599.63    83.05    31.55     1.49   13.92   12.90  373.51   0.94  10.01
sdb              30.51     0.15  108.41    0.32  1597.77    82.87    30.91     0.36    3.35    2.19  394.60   0.88   9.52
sdd              32.79     0.13  105.91    0.25  1595.68    82.54    31.62     0.65    6.11    4.28  782.19   0.94  10.02
md0               0.00     0.00  419.47    1.07  5907.67   290.99    29.48     0.00    0.00    0.00    0.00   0.00   0.00

avg-cpu:  %user   %nice %system %iowait  %steal   %idle
           3.12    0.00    0.05    2.93    0.00   93.90

Device:         rrqm/s   wrqm/s     r/s     w/s    rkB/s    wkB/s avgrq-sz avgqu-sz   await r_await w_await  svctm  %util
nvme0n1           0.00     0.00    0.00    0.00     0.00     0.00     0.00     0.00    0.00    0.00    0.00   0.00   0.00
sda               0.00     0.95    6.80    0.60    39.80     7.00    12.65     0.00    0.55    0.60    0.00   0.05   0.04
sdc               0.00     0.00  289.10    0.00  1157.60     0.00     8.01     0.35    1.22    1.22    0.00   1.22  35.22
sdb               0.00     0.00  287.65    0.00  1150.60     0.00     8.00     0.30    1.05    1.05    0.00   1.05  30.30
sdd               0.00     0.00  284.40    0.00  1137.60     0.00     8.00     0.33    1.16    1.16    0.00   1.16  33.13
md0               0.00     0.00  861.20    0.00  3446.00     0.00     8.00     0.00    0.00    0.00    0.00   0.00   0.00

