Linux 4.17.2 (bench2) 	08/03/2018 	_x86_64_	(32 CPU)

avg-cpu:  %user   %nice %system %iowait  %steal   %idle
           1.92    0.00    1.58    1.51    0.00   94.99

Device:         rrqm/s   wrqm/s     r/s     w/s    rkB/s    wkB/s avgrq-sz avgqu-sz   await r_await w_await  svctm  %util
nvme0n1         954.96     5.19 19251.53  530.05 107685.01 11954.30    12.10     1.37    0.05    0.03    0.67   0.02  40.30
sda               0.11     0.81   14.13    0.57   163.92     8.51    23.46     0.00    0.33    0.32    0.45   0.07   0.10
sdc              32.62     0.14  107.19    0.30  1610.90    82.96    31.52     1.49   13.82   12.82  373.51   0.93  10.05
sdb              30.54     0.15  109.23    0.32  1609.02    82.78    30.89     0.37    3.34    2.19  394.60   0.87   9.55
sdd              32.82     0.13  106.74    0.25  1606.96    82.45    31.58     0.65    6.08    4.26  782.19   0.94  10.05
md0               0.00     0.00  422.02    1.07  5951.13   290.69    29.51     0.00    0.00    0.00    0.00   0.00   0.00

avg-cpu:  %user   %nice %system %iowait  %steal   %idle
           2.91    0.00    0.41    2.00    0.00   94.68

Device:         rrqm/s   wrqm/s     r/s     w/s    rkB/s    wkB/s avgrq-sz avgqu-sz   await r_await w_await  svctm  %util
nvme0n1           0.00     0.00    0.00    0.00     0.00     0.00     0.00     0.00    0.00    0.00    0.00   0.00   0.00
sda               0.00     0.00   18.00    0.00    76.00     0.00     8.44     0.00    0.00    0.00    0.00   0.00   0.00
sdc             128.00     0.00  159.00    0.00 70092.00     0.00   881.66     1.94   12.19   12.19    0.00   5.30  84.30
sdb             135.00     0.00  158.00    0.00 69608.00     0.00   881.11     1.80   11.38   11.38    0.00   4.88  77.10
sdd             132.00     0.00  172.00    0.00 69740.00     0.00   810.93     1.27    7.37    7.37    0.00   3.65  62.70
md0               0.00     0.00  888.00    0.00 296772.00     0.00   668.41     0.00    0.00    0.00    0.00   0.00   0.00

avg-cpu:  %user   %nice %system %iowait  %steal   %idle
           2.91    0.00    0.44    1.91    0.00   94.74

Device:         rrqm/s   wrqm/s     r/s     w/s    rkB/s    wkB/s avgrq-sz avgqu-sz   await r_await w_await  svctm  %util
nvme0n1           0.00     0.00    0.00    0.00     0.00     0.00     0.00     0.00    0.00    0.00    0.00   0.00   0.00
sda               0.00     2.00    0.00    9.00     0.00    44.00     9.78     0.00    0.00    0.00    0.00   0.00   0.00
sdc             151.00     0.00  182.00    0.00 77416.00     0.00   850.73     1.95   10.57   10.57    0.00   5.01  91.20
sdb             144.00     0.00  206.00    0.00 76980.00     0.00   747.38     1.08    5.20    5.20    0.00   3.05  62.80
sdd             146.00     0.00  197.00    0.00 78424.00     0.00   796.18     0.92    4.66    4.66    0.00   2.55  50.20
md0               0.00     0.00 1033.00    0.00 384416.00     0.00   744.27     0.00    0.00    0.00    0.00   0.00   0.00

avg-cpu:  %user   %nice %system %iowait  %steal   %idle
           2.85    0.00    0.50    1.97    0.00   94.68

Device:         rrqm/s   wrqm/s     r/s     w/s    rkB/s    wkB/s avgrq-sz avgqu-sz   await r_await w_await  svctm  %util
nvme0n1           0.00     0.00    0.00    0.00     0.00     0.00     0.00     0.00    0.00    0.00    0.00   0.00   0.00
sda               0.00     0.00    0.00    0.00     0.00     0.00     0.00     0.00    0.00    0.00    0.00   0.00   0.00
sdc             145.00     0.00  200.00    0.00 78984.00     0.00   789.84     1.58    7.93    7.93    0.00   3.59  71.80
sdb             149.00     0.00  194.00    0.00 79204.00     0.00   816.54     1.19    6.18    6.18    0.00   3.20  62.10
sdd             145.00     0.00  185.00    0.00 77308.00     0.00   835.76     1.82    9.66    9.66    0.00   4.52  83.70
md0               0.00     0.00 1017.00    0.00 358352.00     0.00   704.72     0.00    0.00    0.00    0.00   0.00   0.00

