Linux 4.17.2 (bench2) 	08/03/2018 	_x86_64_	(32 CPU)

avg-cpu:  %user   %nice %system %iowait  %steal   %idle
           1.91    0.00    1.57    1.54    0.00   94.98

Device:         rrqm/s   wrqm/s     r/s     w/s    rkB/s    wkB/s avgrq-sz avgqu-sz   await r_await w_await  svctm  %util
nvme0n1         948.58     5.15 19123.05  526.52 106966.36 11874.52    12.10     1.36    0.05    0.03    0.67   0.02  40.03
sda               0.12     0.81   14.15    0.58   163.99     8.51    23.43     0.00    0.33    0.32    0.45   0.07   0.10
sdc              33.09     0.14  111.50    0.30  1682.93    82.41    31.58     1.52   13.58   12.62  373.51   0.92  10.34
sdb              31.03     0.15  113.52    0.32  1681.03    82.23    30.98     0.40    3.55    2.45  394.60   0.86   9.83
sdd              33.29     0.13  111.04    0.25  1678.94    81.90    31.64     0.69    6.18    4.45  782.19   0.93  10.34
md0               0.00     0.00  436.33    1.06  6233.11   288.75    29.82     0.00    0.00    0.00    0.00   0.00   0.00

avg-cpu:  %user   %nice %system %iowait  %steal   %idle
           2.10    0.00    1.85    0.63    0.00   95.42

Device:         rrqm/s   wrqm/s     r/s     w/s    rkB/s    wkB/s avgrq-sz avgqu-sz   await r_await w_await  svctm  %util
nvme0n1           0.00     0.00    0.00    0.00     0.00     0.00     0.00     0.00    0.00    0.00    0.00   0.00   0.00
sda               0.00     0.00    4.00    0.00   104.00     0.00    52.00     0.00    0.25    0.25    0.00   0.25   0.10
sdc              21.00     0.00   65.00    0.00 12208.00     0.00   375.63     0.69   10.92   10.92    0.00   5.15  33.50
sdb              21.00     0.00   60.00    0.00 11468.00     0.00   382.27     0.45    7.48    7.48    0.00   5.03  30.20
sdd              20.00     0.00   68.00    0.00 11240.00     0.00   330.59     0.79   11.21   11.21    0.00   5.13  34.90
md0               0.00     0.00  255.00    0.00 58384.00     0.00   457.91     0.00    0.00    0.00    0.00   0.00   0.00

avg-cpu:  %user   %nice %system %iowait  %steal   %idle
           2.94    0.00    0.44    0.75    0.00   95.87

Device:         rrqm/s   wrqm/s     r/s     w/s    rkB/s    wkB/s avgrq-sz avgqu-sz   await r_await w_await  svctm  %util
nvme0n1           0.00     0.00    0.00    0.00     0.00     0.00     0.00     0.00    0.00    0.00    0.00   0.00   0.00
sda               0.00    12.00    0.00    2.00     0.00    56.00    56.00     0.00    0.50    0.00    0.50   0.50   0.10
sdc             111.00     0.00  155.00    0.00 59976.00     0.00   773.88     1.41    9.12    9.12    0.00   4.55  70.60
sdb             111.00     0.00  150.00    0.00 59316.00     0.00   790.88     1.33    8.73    8.73    0.00   4.34  65.10
sdd             111.00     0.00  145.00    0.00 59952.00     0.00   826.92     1.24    8.62    8.62    0.00   4.35  63.10
md0               0.00     0.00  784.00    0.00 264928.00     0.00   675.84     0.00    0.00    0.00    0.00   0.00   0.00

avg-cpu:  %user   %nice %system %iowait  %steal   %idle
           2.94    0.00    0.44    0.88    0.00   95.74

Device:         rrqm/s   wrqm/s     r/s     w/s    rkB/s    wkB/s avgrq-sz avgqu-sz   await r_await w_await  svctm  %util
nvme0n1           0.00     0.00    0.00    0.00     0.00     0.00     0.00     0.00    0.00    0.00    0.00   0.00   0.00
sda               0.00     0.00   66.00    0.00   476.00     0.00    14.42     0.01    0.12    0.12    0.00   0.08   0.50
sdc             115.00     0.00  147.00    0.00 61472.00     0.00   836.35     1.65   11.12   11.12    0.00   5.18  76.20
sdb             117.00     0.00  155.00    0.00 62628.00     0.00   808.10     1.13    7.37    7.37    0.00   3.74  58.00
sdd             124.00     0.00  136.00    0.00 62020.00     0.00   912.06     1.36   10.10   10.10    0.00   4.82  65.50
md0               0.00     0.00  796.00    0.00 289616.00     0.00   727.68     0.00    0.00    0.00    0.00   0.00   0.00

avg-cpu:  %user   %nice %system %iowait  %steal   %idle
           2.94    0.00    0.41    0.94    0.00   95.71

Device:         rrqm/s   wrqm/s     r/s     w/s    rkB/s    wkB/s avgrq-sz avgqu-sz   await r_await w_await  svctm  %util
nvme0n1           0.00     0.00    0.00    0.00     0.00     0.00     0.00     0.00    0.00    0.00    0.00   0.00   0.00
sda               0.00     0.00    0.00    0.00     0.00     0.00     0.00     0.00    0.00    0.00    0.00   0.00   0.00
sdc             129.00     0.00  144.00    0.00 64484.00     0.00   895.61     1.38    9.65    9.65    0.00   4.98  71.70
sdb             115.00     0.00  156.00    0.00 63928.00     0.00   819.59     1.02    6.58    6.58    0.00   3.17  49.40
sdd             120.00     0.00  158.00    0.00 64452.00     0.00   815.85     1.69   10.73   10.73    0.00   4.66  73.70
md0               0.00     0.00  825.00    0.00 301900.00     0.00   731.88     0.00    0.00    0.00    0.00   0.00   0.00

avg-cpu:  %user   %nice %system %iowait  %steal   %idle
           2.91    0.00    0.47    1.00    0.00   95.62

Device:         rrqm/s   wrqm/s     r/s     w/s    rkB/s    wkB/s avgrq-sz avgqu-sz   await r_await w_await  svctm  %util
nvme0n1           0.00     0.00    0.00    0.00     0.00     0.00     0.00     0.00    0.00    0.00    0.00   0.00   0.00
sda               0.00     0.00    0.00    0.00     0.00     0.00     0.00     0.00    0.00    0.00    0.00   0.00   0.00
sdc             130.00     0.00  152.00    0.00 66708.00     0.00   877.74     1.37    8.57    8.57    0.00   4.21  64.00
sdb             123.00     0.00  152.00    0.00 67400.00     0.00   886.84     1.71   11.31   11.31    0.00   4.95  75.30
sdd             134.00     0.00  137.00    0.00 67176.00     0.00   980.67     1.67   12.20   12.20    0.00   5.28  72.40
md0               0.00     0.00  822.00    0.00 297172.00     0.00   723.05     0.00    0.00    0.00    0.00   0.00   0.00

avg-cpu:  %user   %nice %system %iowait  %steal   %idle
           2.91    0.00    0.50    0.59    0.00   96.00

Device:         rrqm/s   wrqm/s     r/s     w/s    rkB/s    wkB/s avgrq-sz avgqu-sz   await r_await w_await  svctm  %util
nvme0n1           0.00     0.00    0.00    0.00     0.00     0.00     0.00     0.00    0.00    0.00    0.00   0.00   0.00
sda               0.00     0.00    0.00    0.00     0.00     0.00     0.00     0.00    0.00    0.00    0.00   0.00   0.00
sdc             141.00     0.00  136.00    0.00 65348.00     0.00   961.00     1.39   10.61   10.61    0.00   5.35  72.80
sdb             126.00     0.00  145.00    0.00 65264.00     0.00   900.19     1.64   11.03   11.03    0.00   4.78  69.30
sdd             126.00     0.00  148.00    0.00 65432.00     0.00   884.22     1.47    9.82    9.82    0.00   4.29  63.50
md0               0.00     0.00  831.00    0.00 244180.00     0.00   587.68     0.00    0.00    0.00    0.00   0.00   0.00

avg-cpu:  %user   %nice %system %iowait  %steal   %idle
           2.94    0.00    0.47    0.66    0.00   95.93

Device:         rrqm/s   wrqm/s     r/s     w/s    rkB/s    wkB/s avgrq-sz avgqu-sz   await r_await w_await  svctm  %util
nvme0n1           0.00     0.00    0.00    0.00     0.00     0.00     0.00     0.00    0.00    0.00    0.00   0.00   0.00
sda               0.00     3.00    0.00    2.00     0.00    20.00    20.00     0.00    0.00    0.00    0.00   0.00   0.00
sdc             128.00     0.00  162.00    0.00 69176.00     0.00   854.02     1.39    8.73    8.73    0.00   4.14  67.10
sdb             125.00     0.00  149.00    0.00 67172.00     0.00   901.64     2.10   14.23   14.23    0.00   5.79  86.20
sdd             124.00     0.00  171.00    0.00 68216.00     0.00   797.85     1.71   10.11   10.11    0.00   4.49  76.80
md0               0.00     0.00  853.00    0.00 277452.00     0.00   650.53     0.00    0.00    0.00    0.00   0.00   0.00

avg-cpu:  %user   %nice %system %iowait  %steal   %idle
           2.88    0.00    0.44    0.88    0.00   95.80

Device:         rrqm/s   wrqm/s     r/s     w/s    rkB/s    wkB/s avgrq-sz avgqu-sz   await r_await w_await  svctm  %util
nvme0n1           0.00     0.00    0.00    0.00     0.00     0.00     0.00     0.00    0.00    0.00    0.00   0.00   0.00
sda               0.00     3.00    0.00   22.00     0.00   116.00    10.55     0.00    0.00    0.00    0.00   0.00   0.00
sdc             133.00     0.00  170.00    0.00 70720.00     0.00   832.00     1.54    8.97    8.97    0.00   4.05  68.80
sdb             135.00     0.00  189.00    0.00 72768.00     0.00   770.03     1.27    6.78    6.78    0.00   3.30  62.40
sdd             136.00     0.00  177.00    0.00 71392.00     0.00   806.69     1.55    8.72    8.72    0.00   4.15  73.40
md0               0.00     0.00  944.00    0.00 313096.00     0.00   663.34     0.00    0.00    0.00    0.00   0.00   0.00

avg-cpu:  %user   %nice %system %iowait  %steal   %idle
           2.94    0.00    0.50    0.84    0.00   95.71

Device:         rrqm/s   wrqm/s     r/s     w/s    rkB/s    wkB/s avgrq-sz avgqu-sz   await r_await w_await  svctm  %util
nvme0n1           0.00     0.00    0.00    0.00     0.00     0.00     0.00     0.00    0.00    0.00    0.00   0.00   0.00
sda               0.00     0.00    0.00    0.00     0.00     0.00     0.00     0.00    0.00    0.00    0.00   0.00   0.00
sdc             133.00     0.00  187.00    0.00 73516.00     0.00   786.27     1.33    7.16    7.16    0.00   3.41  63.70
sdb             138.00     0.00  178.00    0.00 73440.00     0.00   825.17     1.68    9.47    9.47    0.00   4.38  77.90
sdd             136.00     0.00  181.00    0.00 73416.00     0.00   811.23     1.22    6.73    6.73    0.00   3.55  64.20
md0               0.00     0.00  954.00    0.00 320504.00     0.00   671.92     0.00    0.00    0.00    0.00   0.00   0.00

avg-cpu:  %user   %nice %system %iowait  %steal   %idle
           2.85    0.00    0.56    0.81    0.00   95.77

Device:         rrqm/s   wrqm/s     r/s     w/s    rkB/s    wkB/s avgrq-sz avgqu-sz   await r_await w_await  svctm  %util
nvme0n1           0.00     0.00    0.00    0.00     0.00     0.00     0.00     0.00    0.00    0.00    0.00   0.00   0.00
sda               0.00     0.00    0.00    0.00     0.00     0.00     0.00     0.00    0.00    0.00    0.00   0.00   0.00
sdc             135.00     0.00  165.00    0.00 75604.00     0.00   916.41     1.36    8.25    8.25    0.00   4.29  70.80
sdb             130.00     0.00  176.00    0.00 75188.00     0.00   854.41     1.45    8.26    8.26    0.00   4.09  71.90
sdd             127.00     0.00  159.00    0.00 74980.00     0.00   943.14     1.39    8.73    8.73    0.00   4.45  70.70
md0               0.00     0.00  891.00    0.00 316100.00     0.00   709.54     0.00    0.00    0.00    0.00   0.00   0.00

avg-cpu:  %user   %nice %system %iowait  %steal   %idle
           2.85    0.00    0.50    1.00    0.00   95.65

Device:         rrqm/s   wrqm/s     r/s     w/s    rkB/s    wkB/s avgrq-sz avgqu-sz   await r_await w_await  svctm  %util
nvme0n1           0.00     0.00    0.00    0.00     0.00     0.00     0.00     0.00    0.00    0.00    0.00   0.00   0.00
sda               0.00     0.00    0.00    0.00     0.00     0.00     0.00     0.00    0.00    0.00    0.00   0.00   0.00
sdc             141.00     0.00  187.00    0.00 77492.00     0.00   828.79     1.40    7.55    7.55    0.00   3.91  73.10
sdb             148.00     0.00  173.00    0.00 76420.00     0.00   883.47     1.60    9.18    9.18    0.00   4.32  74.70
sdd             142.00     0.00  179.00    0.00 77604.00     0.00   867.08     1.63    9.12    9.12    0.00   4.16  74.40
md0               0.00     0.00  964.00    0.00 342248.00     0.00   710.06     0.00    0.00    0.00    0.00   0.00   0.00

avg-cpu:  %user   %nice %system %iowait  %steal   %idle
           2.90    0.00    0.69    0.94    0.00   95.47

Device:         rrqm/s   wrqm/s     r/s     w/s    rkB/s    wkB/s avgrq-sz avgqu-sz   await r_await w_await  svctm  %util
nvme0n1           0.00     0.00    0.00    0.00     0.00     0.00     0.00     0.00    0.00    0.00    0.00   0.00   0.00
sda               0.00     4.00    0.00    2.00     0.00    24.00    24.00     0.00    0.00    0.00    0.00   0.00   0.00
sdc             127.00     0.00  179.00    0.00 70356.00     0.00   786.10     1.40    7.81    7.81    0.00   3.74  66.90
sdb             134.00     0.00  158.00    0.00 71104.00     0.00   900.05     1.61   10.31   10.31    0.00   4.66  73.60
sdd             137.00     0.00  157.00    0.00 69860.00     0.00   889.94     1.44    8.98    8.98    0.00   4.88  76.60
md0               0.00     0.00  892.00    0.00 309504.00     0.00   693.96     0.00    0.00    0.00    0.00   0.00   0.00

avg-cpu:  %user   %nice %system %iowait  %steal   %idle
           2.86    0.00    1.06    0.90    0.00   95.18

Device:         rrqm/s   wrqm/s     r/s     w/s    rkB/s    wkB/s avgrq-sz avgqu-sz   await r_await w_await  svctm  %util
nvme0n1           0.00     0.00    0.00    0.00     0.00     0.00     0.00     0.00    0.00    0.00    0.00   0.00   0.00
sda               0.00     0.00    0.00    0.00     0.00     0.00     0.00     0.00    0.00    0.00    0.00   0.00   0.00
sdc             149.00     0.00  164.00    0.00 77660.00     0.00   947.07     2.01   12.23   12.23    0.00   5.35  87.70
sdb             154.00     0.00  179.00    0.00 77444.00     0.00   865.30     1.41    7.83    7.83    0.00   4.02  71.90
sdd             152.00     0.00  179.00    0.00 77416.00     0.00   864.98     1.60    9.06    9.06    0.00   4.18  74.80
md0               0.00     0.00  982.00    0.00 345884.00     0.00   704.45     0.00    0.00    0.00    0.00   0.00   0.00

avg-cpu:  %user   %nice %system %iowait  %steal   %idle
           2.87    0.00    0.87    0.84    0.00   95.42

Device:         rrqm/s   wrqm/s     r/s     w/s    rkB/s    wkB/s avgrq-sz avgqu-sz   await r_await w_await  svctm  %util
nvme0n1           0.00     0.00    0.00    0.00     0.00     0.00     0.00     0.00    0.00    0.00    0.00   0.00   0.00
sda               0.00     0.00    0.00    0.00     0.00     0.00     0.00     0.00    0.00    0.00    0.00   0.00   0.00
sdc             129.00     0.00  218.00    0.00 74008.00     0.00   678.97     1.55    7.06    7.06    0.00   2.96  64.50
sdb             127.00     0.00  210.00    0.00 74808.00     0.00   712.46     1.46    7.00    7.00    0.00   3.22  67.70
sdd             129.00     0.00  194.00    0.00 74312.00     0.00   766.10     1.77    9.18    9.18    0.00   4.00  77.60
md0               0.00     0.00 1002.00    0.00 317528.00     0.00   633.79     0.00    0.00    0.00    0.00   0.00   0.00

avg-cpu:  %user   %nice %system %iowait  %steal   %idle
           2.87    0.00    0.90    0.87    0.00   95.36

Device:         rrqm/s   wrqm/s     r/s     w/s    rkB/s    wkB/s avgrq-sz avgqu-sz   await r_await w_await  svctm  %util
nvme0n1           0.00     0.00    0.00    0.00     0.00     0.00     0.00     0.00    0.00    0.00    0.00   0.00   0.00
sda               0.00     0.00    0.00    0.00     0.00     0.00     0.00     0.00    0.00    0.00    0.00   0.00   0.00
sdc             151.00     0.00  187.00    0.00 77572.00     0.00   829.65     1.25    6.71    6.71    0.00   3.43  64.10
sdb             143.00     0.00  191.00    0.00 77696.00     0.00   813.57     1.15    6.00    6.00    0.00   3.34  63.70
sdd             147.00     0.00  186.00    0.00 77380.00     0.00   832.04     2.20   11.69   11.69    0.00   5.01  93.10
md0               0.00     0.00 1007.00    0.00 357168.00     0.00   709.37     0.00    0.00    0.00    0.00   0.00   0.00

avg-cpu:  %user   %nice %system %iowait  %steal   %idle
           2.86    0.00    1.03    1.03    0.00   95.08

Device:         rrqm/s   wrqm/s     r/s     w/s    rkB/s    wkB/s avgrq-sz avgqu-sz   await r_await w_await  svctm  %util
nvme0n1           0.00     0.00    0.00    0.00     0.00     0.00     0.00     0.00    0.00    0.00    0.00   0.00   0.00
sda               0.00     0.00    0.00    0.00     0.00     0.00     0.00     0.00    0.00    0.00    0.00   0.00   0.00
sdc             121.00     0.00  191.00    0.00 69828.00     0.00   731.18     1.24    6.57    6.57    0.00   3.35  64.00
sdb             127.00     0.00  169.00    0.00 69248.00     0.00   819.50     1.23    7.28    7.28    0.00   3.50  59.10
sdd             130.00     0.00  180.00    0.00 70244.00     0.00   780.49     1.62    9.14    9.14    0.00   4.31  77.60
md0               0.00     0.00  915.00    0.00 304008.00     0.00   664.50     0.00    0.00    0.00    0.00   0.00   0.00

avg-cpu:  %user   %nice %system %iowait  %steal   %idle
           2.93    0.00    0.65    1.22    0.00   95.20

Device:         rrqm/s   wrqm/s     r/s     w/s    rkB/s    wkB/s avgrq-sz avgqu-sz   await r_await w_await  svctm  %util
nvme0n1           0.00     0.00    0.00    0.00     0.00     0.00     0.00     0.00    0.00    0.00    0.00   0.00   0.00
sda               0.00     1.00    0.00    2.00     0.00    12.00    12.00     0.00    0.00    0.00    0.00   0.00   0.00
sdc             100.00     0.00  101.00    0.00 50160.00     0.00   993.27     2.44   23.97   23.97    0.00   9.27  93.60
sdb              97.00     0.00  112.00    0.00 50116.00     0.00   894.93     1.36   11.79   11.79    0.00   5.25  58.80
sdd              99.00     0.00  108.00    0.00 50448.00     0.00   934.22     0.88    7.88    7.88    0.00   3.94  42.60
md0               0.00     0.00  621.00    0.00 232088.00     0.00   747.47     0.00    0.00    0.00    0.00   0.00   0.00

avg-cpu:  %user   %nice %system %iowait  %steal   %idle
           2.96    0.00    0.65    1.06    0.00   95.32

Device:         rrqm/s   wrqm/s     r/s     w/s    rkB/s    wkB/s avgrq-sz avgqu-sz   await r_await w_await  svctm  %util
nvme0n1           0.00     0.00    0.00    0.00     0.00     0.00     0.00     0.00    0.00    0.00    0.00   0.00   0.00
sda               0.00     0.00    0.00    0.00     0.00     0.00     0.00     0.00    0.00    0.00    0.00   0.00   0.00
sdc              90.00     0.00  129.00    0.00 50720.00     0.00   786.36     1.73   13.53   13.53    0.00   5.83  75.20
sdb              91.00     0.00  133.00    0.00 50800.00     0.00   763.91     0.94    7.32    7.32    0.00   3.43  45.60
sdd              95.00     0.00  123.00    0.00 50916.00     0.00   827.90     0.89    7.53    7.53    0.00   4.20  51.60
md0               0.00     0.00  659.00    0.00 216720.00     0.00   657.72     0.00    0.00    0.00    0.00   0.00   0.00

avg-cpu:  %user   %nice %system %iowait  %steal   %idle
           2.90    0.00    0.81    0.78    0.00   95.51

Device:         rrqm/s   wrqm/s     r/s     w/s    rkB/s    wkB/s avgrq-sz avgqu-sz   await r_await w_await  svctm  %util
nvme0n1           0.00     0.00    0.00    0.00     0.00     0.00     0.00     0.00    0.00    0.00    0.00   0.00   0.00
sda               0.00     0.00    0.00    0.00     0.00     0.00     0.00     0.00    0.00    0.00    0.00   0.00   0.00
sdc             128.71     0.00  176.24    0.00 66186.14     0.00   751.10     1.17    6.56    6.56    0.00   3.40  60.00
sdb             125.74     0.00  155.45    0.00 66257.43     0.00   852.48     1.47    9.29    9.29    0.00   4.18  64.95
sdd             129.70     0.00  171.29    0.00 66788.12     0.00   779.84     1.45    8.45    8.45    0.00   4.10  70.30
md0               0.00     0.00  892.08    0.00 280649.50     0.00   629.20     0.00    0.00    0.00    0.00   0.00   0.00

avg-cpu:  %user   %nice %system %iowait  %steal   %idle
           2.83    0.00    0.97    0.90    0.00   95.30

Device:         rrqm/s   wrqm/s     r/s     w/s    rkB/s    wkB/s avgrq-sz avgqu-sz   await r_await w_await  svctm  %util
nvme0n1           0.00     0.00    0.00    0.00     0.00     0.00     0.00     0.00    0.00    0.00    0.00   0.00   0.00
sda               0.00     0.00    0.00    0.00     0.00     0.00     0.00     0.00    0.00    0.00    0.00   0.00   0.00
sdc             135.00     0.00  202.00    0.00 76996.00     0.00   762.34     1.71    8.54    8.54    0.00   3.82  77.20
sdb             143.00     0.00  187.00    0.00 76672.00     0.00   820.02     1.20    6.48    6.48    0.00   3.38  63.20
sdd             138.00     0.00  189.00    0.00 75052.00     0.00   794.20     1.43    7.43    7.43    0.00   3.60  68.10
md0               0.00     0.00  989.00    0.00 327632.00     0.00   662.55     0.00    0.00    0.00    0.00   0.00   0.00

