Linux 4.17.2 (bench2) 	08/03/2018 	_x86_64_	(32 CPU)

avg-cpu:  %user   %nice %system %iowait  %steal   %idle
           1.92    0.00    1.57    1.52    0.00   94.99

Device:         rrqm/s   wrqm/s     r/s     w/s    rkB/s    wkB/s avgrq-sz avgqu-sz   await r_await w_await  svctm  %util
nvme0n1         954.36     5.18 19239.54  529.72 107617.97 11946.86    12.10     1.37    0.05    0.03    0.67   0.02  40.28
sda               0.11     0.81   14.13    0.57   163.93     8.51    23.46     0.00    0.33    0.32    0.45   0.07   0.10
sdc              32.60     0.14  107.48    0.30  1615.67    82.91    31.52     1.49   13.79   12.79  373.51   0.94  10.08
sdb              30.53     0.15  109.51    0.32  1613.79    82.73    30.89     0.37    3.34    2.20  394.60   0.87   9.58
sdd              32.80     0.13  107.02    0.25  1611.72    82.40    31.59     0.65    6.07    4.26  782.19   0.94  10.08
md0               0.00     0.00  422.82    1.07  5969.69   290.51    29.54     0.00    0.00    0.00    0.00   0.00   0.00

avg-cpu:  %user   %nice %system %iowait  %steal   %idle
           3.06    0.00    0.22    2.91    0.00   93.81

Device:         rrqm/s   wrqm/s     r/s     w/s    rkB/s    wkB/s avgrq-sz avgqu-sz   await r_await w_await  svctm  %util
nvme0n1           0.00     0.00    0.00    0.00     0.00     0.00     0.00     0.00    0.00    0.00    0.00   0.00   0.00
sda               0.00     0.00    4.00    0.00   104.00     0.00    52.00     0.00    0.00    0.00    0.00   0.00   0.00
sdc               3.00     0.00  536.00    0.00 15088.00     0.00    56.30     2.05    3.83    3.83    0.00   0.74  39.60
sdb               3.00     0.00  525.00    0.00 15848.00     0.00    60.37     3.53    6.73    6.73    0.00   0.93  48.60
sdd               5.00     0.00  550.00    0.00 15380.00     0.00    55.93     4.06    7.38    7.38    0.00   1.06  58.50
md0               0.00     0.00 1623.00    0.00 49444.00     0.00    60.93     0.00    0.00    0.00    0.00   0.00   0.00

avg-cpu:  %user   %nice %system %iowait  %steal   %idle
           3.03    0.00    0.25    2.88    0.00   93.84

Device:         rrqm/s   wrqm/s     r/s     w/s    rkB/s    wkB/s avgrq-sz avgqu-sz   await r_await w_await  svctm  %util
nvme0n1           0.00     0.00    0.00    0.00     0.00     0.00     0.00     0.00    0.00    0.00    0.00   0.00   0.00
sda               0.00     0.00    0.00    0.00     0.00     0.00     0.00     0.00    0.00    0.00    0.00   0.00   0.00
sdc              17.00     0.00  714.00    0.00 27304.00     0.00    76.48     3.17    4.44    4.44    0.00   0.69  49.50
sdb              18.00     0.00  644.00    0.00 27352.00     0.00    84.94     3.04    4.72    4.72    0.00   0.93  59.70
sdd              15.00     0.00  799.00    0.00 30780.00     0.00    77.05     2.92    3.65    3.65    0.00   0.58  46.70
md0               0.00     0.00 2208.00    0.00 100932.00     0.00    91.42     0.00    0.00    0.00    0.00   0.00   0.00

avg-cpu:  %user   %nice %system %iowait  %steal   %idle
           3.03    0.00    0.31    1.66    0.00   95.00

Device:         rrqm/s   wrqm/s     r/s     w/s    rkB/s    wkB/s avgrq-sz avgqu-sz   await r_await w_await  svctm  %util
nvme0n1           0.00     0.00    0.00    0.00     0.00     0.00     0.00     0.00    0.00    0.00    0.00   0.00   0.00
sda               0.00    16.00    0.00    2.00     0.00    72.00    72.00     0.00    0.00    0.00    0.00   0.00   0.00
sdc              78.00     0.00  838.00    0.00 59016.00     0.00   140.85     0.56    0.67    0.67    0.00   0.50  41.70
sdb              75.00     0.00  778.00    0.00 59600.00     0.00   153.21     0.61    0.79    0.79    0.00   0.55  42.50
sdd              78.00     0.00  790.00    0.00 62536.00     0.00   158.32     1.03    1.31    1.31    0.00   0.78  61.50
md0               0.00     0.00 2637.00    0.00 253000.00     0.00   191.88     0.00    0.00    0.00    0.00   0.00   0.00

avg-cpu:  %user   %nice %system %iowait  %steal   %idle
           2.97    0.00    0.41    0.41    0.00   96.22

Device:         rrqm/s   wrqm/s     r/s     w/s    rkB/s    wkB/s avgrq-sz avgqu-sz   await r_await w_await  svctm  %util
nvme0n1           0.00     0.00    0.00    0.00     0.00     0.00     0.00     0.00    0.00    0.00    0.00   0.00   0.00
sda               0.00     0.00    0.00    0.00     0.00     0.00     0.00     0.00    0.00    0.00    0.00   0.00   0.00
sdc              52.00     0.00  917.00    0.00 52188.00     0.00   113.82     0.62    0.67    0.67    0.00   0.55  50.70
sdb              50.00     0.00 1005.00    0.00 49252.00     0.00    98.01     0.43    0.43    0.43    0.00   0.36  36.40
sdd              51.00     0.00  926.00    0.00 50096.00     0.00   108.20     0.58    0.63    0.63    0.00   0.44  40.90
md0               0.00     0.00 3008.00    0.00 212884.00     0.00   141.55     0.00    0.00    0.00    0.00   0.00   0.00

avg-cpu:  %user   %nice %system %iowait  %steal   %idle
           3.00    0.00    0.34    0.47    0.00   96.18

Device:         rrqm/s   wrqm/s     r/s     w/s    rkB/s    wkB/s avgrq-sz avgqu-sz   await r_await w_await  svctm  %util
nvme0n1           0.00     0.00    0.00    0.00     0.00     0.00     0.00     0.00    0.00    0.00    0.00   0.00   0.00
sda               0.00     0.00    0.00    0.00     0.00     0.00     0.00     0.00    0.00    0.00    0.00   0.00   0.00
sdc              88.00     0.00  569.00    0.00 59024.00     0.00   207.47     0.86    1.46    1.46    0.00   0.87  49.30
sdb              81.00     0.00  606.00    0.00 58616.00     0.00   193.45     0.61    1.02    1.02    0.00   0.65  39.40
sdd              80.00     0.00  643.00    0.00 58656.00     0.00   182.44     1.13    1.77    1.77    0.00   0.99  63.50
md0               0.00     0.00 2060.00    0.00 233956.00     0.00   227.14     0.00    0.00    0.00    0.00   0.00   0.00

avg-cpu:  %user   %nice %system %iowait  %steal   %idle
           3.00    0.00    0.28    0.66    0.00   96.06

Device:         rrqm/s   wrqm/s     r/s     w/s    rkB/s    wkB/s avgrq-sz avgqu-sz   await r_await w_await  svctm  %util
nvme0n1           0.00     0.00    0.00    0.00     0.00     0.00     0.00     0.00    0.00    0.00    0.00   0.00   0.00
sda               0.00     0.00    0.00    0.00     0.00     0.00     0.00     0.00    0.00    0.00    0.00   0.00   0.00
sdc              69.00     0.00  672.00    0.00 53592.00     0.00   159.50     1.28    1.95    1.95    0.00   1.03  69.40
sdb              74.00     0.00  597.00    0.00 53056.00     0.00   177.74     0.60    1.00    1.00    0.00   0.70  41.50
sdd              77.00     0.00  600.00    0.00 54532.00     0.00   181.77     0.54    0.90    0.90    0.00   0.66  39.30
md0               0.00     0.00 2088.00    0.00 237668.00     0.00   227.65     0.00    0.00    0.00    0.00   0.00   0.00

avg-cpu:  %user   %nice %system %iowait  %steal   %idle
           3.01    0.00    0.38    0.31    0.00   96.31

Device:         rrqm/s   wrqm/s     r/s     w/s    rkB/s    wkB/s avgrq-sz avgqu-sz   await r_await w_await  svctm  %util
nvme0n1           0.00     0.00    0.00    0.00     0.00     0.00     0.00     0.00    0.00    0.00    0.00   0.00   0.00
sda               0.00     0.00    0.00    0.00     0.00     0.00     0.00     0.00    0.00    0.00    0.00   0.00   0.00
sdc              72.00     0.00  960.00    0.00 57624.00     0.00   120.05     0.59    0.60    0.60    0.00   0.47  45.30
sdb              66.00     0.00  901.00    0.00 57020.00     0.00   126.57     0.51    0.55    0.55    0.00   0.43  38.40
sdd              68.00     0.00  887.00    0.00 59636.00     0.00   134.47     0.78    0.87    0.87    0.00   0.61  54.30
md0               0.00     0.00 2959.00    0.00 242976.00     0.00   164.23     0.00    0.00    0.00    0.00   0.00   0.00

avg-cpu:  %user   %nice %system %iowait  %steal   %idle
           3.06    0.00    0.34    0.47    0.00   96.12

Device:         rrqm/s   wrqm/s     r/s     w/s    rkB/s    wkB/s avgrq-sz avgqu-sz   await r_await w_await  svctm  %util
nvme0n1           0.00     0.00    0.00    0.00     0.00     0.00     0.00     0.00    0.00    0.00    0.00   0.00   0.00
sda               0.00     1.00    0.00    2.00     0.00    12.00    12.00     0.00    0.00    0.00    0.00   0.00   0.00
sdc              62.00     0.00  751.00    0.00 54684.00     0.00   145.63     0.85    1.14    1.14    0.00   0.72  54.40
sdb              69.00     0.00  757.00    0.00 55228.00     0.00   145.91     0.79    1.06    1.06    0.00   0.73  54.90
sdd              69.00     0.00  742.00    0.00 54560.00     0.00   147.06     0.52    0.71    0.71    0.00   0.52  38.40
md0               0.00     0.00 2445.00    0.00 219540.00     0.00   179.58     0.00    0.00    0.00    0.00   0.00   0.00

avg-cpu:  %user   %nice %system %iowait  %steal   %idle
           3.07    0.00    0.28    0.19    0.00   96.46

Device:         rrqm/s   wrqm/s     r/s     w/s    rkB/s    wkB/s avgrq-sz avgqu-sz   await r_await w_await  svctm  %util
nvme0n1           0.00     0.00    0.00    0.00     0.00     0.00     0.00     0.00    0.00    0.00    0.00   0.00   0.00
sda               0.00     2.00    0.00    3.00     0.00    36.00    24.00     0.00    0.00    0.00    0.00   0.00   0.00
sdc              66.00     0.00  805.00    0.00 53560.00     0.00   133.07     0.85    1.05    1.05    0.00   0.71  57.10
sdb              68.00     0.00  810.00    0.00 53876.00     0.00   133.03     0.63    0.78    0.78    0.00   0.53  43.20
sdd              74.00     0.00  787.00    0.00 53248.00     0.00   135.32     0.59    0.75    0.75    0.00   0.52  41.10
md0               0.00     0.00 2615.00    0.00 233748.00     0.00   178.77     0.00    0.00    0.00    0.00   0.00   0.00

avg-cpu:  %user   %nice %system %iowait  %steal   %idle
           3.04    0.00    0.31    0.22    0.00   96.43

Device:         rrqm/s   wrqm/s     r/s     w/s    rkB/s    wkB/s avgrq-sz avgqu-sz   await r_await w_await  svctm  %util
nvme0n1           0.00     0.00    0.00    0.00     0.00     0.00     0.00     0.00    0.00    0.00    0.00   0.00   0.00
sda               0.00     0.00    0.00    0.00     0.00     0.00     0.00     0.00    0.00    0.00    0.00   0.00   0.00
sdc              80.00     0.00  671.00    0.00 62388.00     0.00   185.96     0.67    1.01    1.01    0.00   0.70  46.80
sdb              80.00     0.00  771.00    0.00 58972.00     0.00   152.98     0.55    0.72    0.72    0.00   0.55  42.50
sdd              78.00     0.00  810.00    0.00 59028.00     0.00   145.75     0.97    1.20    1.20    0.00   0.75  60.40
md0               0.00     0.00 2486.00    0.00 254488.00     0.00   204.74     0.00    0.00    0.00    0.00   0.00   0.00

avg-cpu:  %user   %nice %system %iowait  %steal   %idle
           3.06    0.00    0.31    0.41    0.00   96.22

Device:         rrqm/s   wrqm/s     r/s     w/s    rkB/s    wkB/s avgrq-sz avgqu-sz   await r_await w_await  svctm  %util
nvme0n1           0.00     0.00    0.00    0.00     0.00     0.00     0.00     0.00    0.00    0.00    0.00   0.00   0.00
sda               0.00     0.00    0.00    0.00     0.00     0.00     0.00     0.00    0.00    0.00    0.00   0.00   0.00
sdc              84.00     0.00  732.00    0.00 62428.00     0.00   170.57     0.69    0.94    0.94    0.00   0.64  46.50
sdb              82.00     0.00  762.00    0.00 60392.00     0.00   158.51     0.91    1.20    1.20    0.00   0.70  53.70
sdd              88.00     0.00  662.00    0.00 62780.00     0.00   189.67     1.14    1.72    1.72    0.00   0.98  65.00
md0               0.00     0.00 2410.00    0.00 254560.00     0.00   211.25     0.00    0.00    0.00    0.00   0.00   0.00

avg-cpu:  %user   %nice %system %iowait  %steal   %idle
           3.04    0.00    0.31    0.22    0.00   96.43

Device:         rrqm/s   wrqm/s     r/s     w/s    rkB/s    wkB/s avgrq-sz avgqu-sz   await r_await w_await  svctm  %util
nvme0n1           0.00     0.00    0.00    0.00     0.00     0.00     0.00     0.00    0.00    0.00    0.00   0.00   0.00
sda               0.00     0.00    0.00    0.00     0.00     0.00     0.00     0.00    0.00    0.00    0.00   0.00   0.00
sdc              74.00     0.00  815.00    0.00 57792.00     0.00   141.82     0.77    0.94    0.94    0.00   0.63  51.40
sdb              75.00     0.00  881.00    0.00 57600.00     0.00   130.76     0.61    0.69    0.69    0.00   0.50  43.90
sdd              76.00     0.00  843.00    0.00 58684.00     0.00   139.23     0.80    0.95    0.95    0.00   0.64  53.60
md0               0.00     0.00 2763.00    0.00 254732.00     0.00   184.39     0.00    0.00    0.00    0.00   0.00   0.00

avg-cpu:  %user   %nice %system %iowait  %steal   %idle
           2.97    0.00    0.44    0.28    0.00   96.31

Device:         rrqm/s   wrqm/s     r/s     w/s    rkB/s    wkB/s avgrq-sz avgqu-sz   await r_await w_await  svctm  %util
nvme0n1           0.00     0.00    0.00    0.00     0.00     0.00     0.00     0.00    0.00    0.00    0.00   0.00   0.00
sda               0.00     4.00    0.00    2.00     0.00    24.00    24.00     0.00    0.50    0.00    0.50   0.50   0.10
sdc              55.00     0.00  969.00    0.00 55100.00     0.00   113.73     0.73    0.75    0.75    0.00   0.51  49.90
sdb              61.00     0.00 1011.00    0.00 53936.00     0.00   106.70     0.55    0.55    0.55    0.00   0.42  42.50
sdd              61.00     0.00  918.00    0.00 55912.00     0.00   121.81     0.55    0.60    0.60    0.00   0.46  42.50
md0               0.00     0.00 3075.00    0.00 218964.00     0.00   142.42     0.00    0.00    0.00    0.00   0.00   0.00

avg-cpu:  %user   %nice %system %iowait  %steal   %idle
           3.04    0.00    0.34    0.19    0.00   96.43

Device:         rrqm/s   wrqm/s     r/s     w/s    rkB/s    wkB/s avgrq-sz avgqu-sz   await r_await w_await  svctm  %util
nvme0n1           0.00     0.00    0.00    0.00     0.00     0.00     0.00     0.00    0.00    0.00    0.00   0.00   0.00
sda               0.00     0.00    0.00    0.00     0.00     0.00     0.00     0.00    0.00    0.00    0.00   0.00   0.00
sdc              63.00     0.00  937.00    0.00 53884.00     0.00   115.01     0.55    0.59    0.59    0.00   0.42  39.40
sdb              70.00     0.00  843.00    0.00 58516.00     0.00   138.83     0.56    0.67    0.67    0.00   0.50  41.80
sdd              63.00     0.00  964.00    0.00 56236.00     0.00   116.67     0.78    0.80    0.80    0.00   0.58  55.90
md0               0.00     0.00 2940.00    0.00 234668.00     0.00   159.64     0.00    0.00    0.00    0.00   0.00   0.00

avg-cpu:  %user   %nice %system %iowait  %steal   %idle
           3.01    0.00    0.34    0.19    0.00   96.46

Device:         rrqm/s   wrqm/s     r/s     w/s    rkB/s    wkB/s avgrq-sz avgqu-sz   await r_await w_await  svctm  %util
nvme0n1           0.00     0.00    0.00    0.00     0.00     0.00     0.00     0.00    0.00    0.00    0.00   0.00   0.00
sda               0.00     0.00    0.00    0.00     0.00     0.00     0.00     0.00    0.00    0.00    0.00   0.00   0.00
sdc              57.00     0.00  994.00    0.00 56544.00     0.00   113.77     0.54    0.55    0.55    0.00   0.45  44.70
sdb              57.00     0.00  947.00    0.00 55340.00     0.00   116.87     0.51    0.54    0.54    0.00   0.45  42.40
sdd              57.00     0.00 1020.00    0.00 54816.00     0.00   107.48     0.47    0.46    0.46    0.00   0.40  40.40
md0               0.00     0.00 3131.00    0.00 227276.00     0.00   145.18     0.00    0.00    0.00    0.00   0.00   0.00

avg-cpu:  %user   %nice %system %iowait  %steal   %idle
           3.00    0.00    0.41    0.22    0.00   96.37

Device:         rrqm/s   wrqm/s     r/s     w/s    rkB/s    wkB/s avgrq-sz avgqu-sz   await r_await w_await  svctm  %util
nvme0n1           0.00     0.00    0.00    0.00     0.00     0.00     0.00     0.00    0.00    0.00    0.00   0.00   0.00
sda               0.00     0.00    0.00    0.00     0.00     0.00     0.00     0.00    0.00    0.00    0.00   0.00   0.00
sdc              63.00     0.00  929.00    0.00 54640.00     0.00   117.63     0.49    0.52    0.52    0.00   0.41  38.50
sdb              56.00     0.00  967.00    0.00 54676.00     0.00   113.08     0.49    0.50    0.50    0.00   0.40  38.50
sdd              57.00     0.00 1001.00    0.00 51152.00     0.00   102.20     0.68    0.68    0.68    0.00   0.52  52.00
md0               0.00     0.00 3077.00    0.00 214812.00     0.00   139.62     0.00    0.00    0.00    0.00   0.00   0.00

avg-cpu:  %user   %nice %system %iowait  %steal   %idle
           3.04    0.00    0.31    0.31    0.00   96.34

Device:         rrqm/s   wrqm/s     r/s     w/s    rkB/s    wkB/s avgrq-sz avgqu-sz   await r_await w_await  svctm  %util
nvme0n1           0.00     0.00    0.00    0.00     0.00     0.00     0.00     0.00    0.00    0.00    0.00   0.00   0.00
sda               0.00     0.00    0.00    0.00     0.00     0.00     0.00     0.00    0.00    0.00    0.00   0.00   0.00
sdc              67.00     0.00  822.00    0.00 54764.00     0.00   133.25     0.68    0.84    0.84    0.00   0.61  50.30
sdb              66.00     0.00  882.00    0.00 53844.00     0.00   122.10     0.67    0.77    0.77    0.00   0.51  45.10
sdd              61.00     0.00  795.00    0.00 54868.00     0.00   138.03     0.59    0.75    0.75    0.00   0.54  42.70
md0               0.00     0.00 2691.00    0.00 223056.00     0.00   165.78     0.00    0.00    0.00    0.00   0.00   0.00

avg-cpu:  %user   %nice %system %iowait  %steal   %idle
           3.03    0.00    0.34    0.22    0.00   96.40

Device:         rrqm/s   wrqm/s     r/s     w/s    rkB/s    wkB/s avgrq-sz avgqu-sz   await r_await w_await  svctm  %util
nvme0n1           0.00     0.00    0.00    0.00     0.00     0.00     0.00     0.00    0.00    0.00    0.00   0.00   0.00
sda               0.00     1.00    0.00    2.00     0.00    12.00    12.00     0.00    0.50    0.00    0.50   0.50   0.10
sdc              84.00     0.00  771.00    0.00 61132.00     0.00   158.58     0.79    1.03    1.03    0.00   0.69  53.20
sdb              89.00     0.00  725.00    0.00 60168.00     0.00   165.98     0.73    1.00    1.00    0.00   0.65  47.00
sdd              88.00     0.00  756.00    0.00 60316.00     0.00   159.57     0.96    1.28    1.28    0.00   0.72  54.60
md0               0.00     0.00 2521.00    0.00 259012.00     0.00   205.48     0.00    0.00    0.00    0.00   0.00   0.00

avg-cpu:  %user   %nice %system %iowait  %steal   %idle
           3.07    0.00    0.13    0.28    0.00   96.53

Device:         rrqm/s   wrqm/s     r/s     w/s    rkB/s    wkB/s avgrq-sz avgqu-sz   await r_await w_await  svctm  %util
nvme0n1           0.00     0.00    0.00    0.00     0.00     0.00     0.00     0.00    0.00    0.00    0.00   0.00   0.00
sda               0.00     0.00    0.00    0.00     0.00     0.00     0.00     0.00    0.00    0.00    0.00   0.00   0.00
sdc              31.00     0.00  470.00    0.00 31984.00     0.00   136.10     1.22    2.52    2.52    0.00   1.58  74.20
sdb              35.00     0.00  517.00    0.00 31932.00     0.00   123.53     0.34    0.65    0.65    0.00   0.48  24.70
sdd              37.00     0.00  481.00    0.00 33064.00     0.00   137.48     0.30    0.63    0.63    0.00   0.48  23.00
md0               0.00     0.00 1562.00    0.00 123320.00     0.00   157.90     0.00    0.00    0.00    0.00   0.00   0.00

avg-cpu:  %user   %nice %system %iowait  %steal   %idle
           3.03    0.00    0.38    0.13    0.00   96.47

Device:         rrqm/s   wrqm/s     r/s     w/s    rkB/s    wkB/s avgrq-sz avgqu-sz   await r_await w_await  svctm  %util
nvme0n1           0.00     0.00    0.00    0.00     0.00     0.00     0.00     0.00    0.00    0.00    0.00   0.00   0.00
sda               0.00     0.00    0.00    0.00     0.00     0.00     0.00     0.00    0.00    0.00    0.00   0.00   0.00
sdc              49.00     0.00  907.00    0.00 49136.00     0.00   108.35     0.60    0.70    0.70    0.00   0.55  49.70
sdb              45.00     0.00  948.00    0.00 45656.00     0.00    96.32     0.40    0.42    0.42    0.00   0.36  33.70
sdd              49.00     0.00  867.00    0.00 47000.00     0.00   108.42     0.50    0.57    0.57    0.00   0.45  39.00
md0               0.00     0.00 2865.00    0.00 182908.00     0.00   127.68     0.00    0.00    0.00    0.00   0.00   0.00

