Linux 4.17.2 (bench2) 	08/03/2018 	_x86_64_	(32 CPU)

avg-cpu:  %user   %nice %system %iowait  %steal   %idle
           1.92    0.00    1.58    1.50    0.00   95.00

Device:         rrqm/s   wrqm/s     r/s     w/s    rkB/s    wkB/s avgrq-sz avgqu-sz   await r_await w_await  svctm  %util
nvme0n1         958.49     5.21 19322.68  532.01 108083.04 11998.49    12.10     1.38    0.05    0.03    0.67   0.02  40.45
sda               0.11     0.81   14.12    0.57   163.87     8.50    23.47     0.00    0.33    0.32    0.45   0.07   0.10
sdc              32.18     0.14  104.58    0.30  1576.58    83.27    31.65     1.46   13.93   12.90  373.51   0.94   9.90
sdb              30.10     0.15  106.63    0.32  1574.73    83.09    31.00     0.34    3.16    1.98  394.60   0.88   9.41
sdd              32.38     0.13  104.12    0.25  1572.63    82.76    31.72     0.62    5.97    4.10  782.19   0.95   9.90
md0               0.00     0.00  412.86    1.07  5820.57   291.76    29.53     0.00    0.00    0.00    0.00   0.00   0.00

avg-cpu:  %user   %nice %system %iowait  %steal   %idle
           3.07    0.00    0.22    0.46    0.00   96.25

Device:         rrqm/s   wrqm/s     r/s     w/s    rkB/s    wkB/s avgrq-sz avgqu-sz   await r_await w_await  svctm  %util
nvme0n1           0.00     0.00    0.00    0.00     0.00     0.00     0.00     0.00    0.00    0.00    0.00   0.00   0.00
sda               0.00     1.30    0.25    0.65     5.40    10.00    34.22     0.00    0.17    0.20    0.15   0.17   0.01
sdc              11.95     0.00 1505.25    0.00 21185.60     0.00    28.15     0.74    0.49    0.49    0.00   0.26  39.20
sdb              11.50     0.00 1519.25    0.00 21013.20     0.00    27.66     0.66    0.43    0.43    0.00   0.19  28.21
sdd              12.35     0.00 1510.75    0.00 21210.20     0.00    28.08     0.82    0.54    0.54    0.00   0.27  40.16
md0               0.00     0.00 4571.10    0.00 77137.60     0.00    33.75     0.00    0.00    0.00    0.00   0.00   0.00

