Linux 4.17.2 (bench2) 	08/03/2018 	_x86_64_	(32 CPU)

avg-cpu:  %user   %nice %system %iowait  %steal   %idle
           1.92    0.00    1.57    1.53    0.00   94.98

Device:         rrqm/s   wrqm/s     r/s     w/s    rkB/s    wkB/s avgrq-sz avgqu-sz   await r_await w_await  svctm  %util
nvme0n1         951.00     5.17 19171.80  527.86 107239.04 11904.79    12.10     1.36    0.05    0.03    0.67   0.02  40.13
sda               0.11     0.81   14.14    0.57   163.98     8.51    23.44     0.00    0.33    0.32    0.45   0.07   0.10
sdc              33.02     0.14  109.76    0.30  1649.27    82.62    31.47     1.51   13.75   12.78  373.51   0.93  10.24
sdb              30.95     0.15  111.79    0.32  1647.40    82.44    30.86     0.40    3.54    2.43  394.60   0.87   9.73
sdd              33.22     0.13  109.30    0.25  1645.30    82.11    31.54     0.68    6.22    4.45  782.19   0.93  10.24
md0               0.00     0.00  430.92    1.06  6099.20   289.48    29.58     0.00    0.00    0.00    0.00   0.00   0.00

avg-cpu:  %user   %nice %system %iowait  %steal   %idle
           3.08    0.00    0.19    0.29    0.00   96.44

Device:         rrqm/s   wrqm/s     r/s     w/s    rkB/s    wkB/s avgrq-sz avgqu-sz   await r_await w_await  svctm  %util
nvme0n1           0.00     0.00    0.00    0.00     0.00     0.00     0.00     0.00    0.00    0.00    0.00   0.00   0.00
sda               0.00     0.95    1.00    0.60     5.40     7.00    15.50     0.00    0.09    0.05    0.17   0.09   0.01
sdc               0.00     0.00 1523.60    0.00  6095.60     0.00     8.00     0.34    0.23    0.23    0.00   0.23  34.43
sdb               0.00     0.00 1513.50    0.00  6054.00     0.00     8.00     0.28    0.19    0.19    0.00   0.19  28.02
sdd               0.00     0.00 1529.30    0.00  6117.20     0.00     8.00     0.32    0.21    0.21    0.00   0.21  32.46
md0               0.00     0.00 4566.45    0.00 18267.00     0.00     8.00     0.00    0.00    0.00    0.00   0.00   0.00

