Linux 4.17.2 (bench2) 	08/03/2018 	_x86_64_	(32 CPU)

avg-cpu:  %user   %nice %system %iowait  %steal   %idle
           1.92    0.00    1.57    1.53    0.00   94.98

Device:         rrqm/s   wrqm/s     r/s     w/s    rkB/s    wkB/s avgrq-sz avgqu-sz   await r_await w_await  svctm  %util
nvme0n1         949.84     5.16 19148.35  527.21 107107.91 11890.24    12.10     1.36    0.05    0.03    0.67   0.02  40.08
sda               0.12     0.81   14.15    0.57   163.99     8.51    23.44     0.00    0.33    0.32    0.45   0.07   0.10
sdc              33.04     0.14  110.53    0.30  1661.14    82.52    31.47     1.51   13.66   12.69  373.51   0.93  10.28
sdb              30.97     0.15  112.56    0.32  1659.24    82.34    30.86     0.40    3.53    2.43  394.60   0.87   9.77
sdd              33.23     0.13  110.07    0.25  1657.14    82.01    31.53     0.68    6.19    4.44  782.19   0.93  10.28
md0               0.00     0.00  433.26    1.06  6145.75   289.13    29.63     0.00    0.00    0.00    0.00   0.00   0.00

avg-cpu:  %user   %nice %system %iowait  %steal   %idle
           3.12    0.00    0.04    3.06    0.00   93.78

Device:         rrqm/s   wrqm/s     r/s     w/s    rkB/s    wkB/s avgrq-sz avgqu-sz   await r_await w_await  svctm  %util
nvme0n1           0.00     0.00    0.00    0.00     0.00     0.00     0.00     0.00    0.00    0.00    0.00   0.00   0.00
sda               0.00     1.20    4.00    0.70    31.00     8.40    16.77     0.00    0.27    0.28    0.21   0.06   0.03
sdc               0.90     0.00  192.60    0.00  3605.80     0.00    37.44     0.38    1.96    1.96    0.00   1.91  36.84
sdb               0.40     0.00  201.50    0.00  3568.60     0.00    35.42     0.33    1.63    1.63    0.00   1.58  31.81
sdd               0.30     0.00  199.15    0.00  3221.60     0.00    32.35     0.35    1.74    1.74    0.00   1.70  33.76
md0               0.00     0.00  594.90    0.00 11733.20     0.00    39.45     0.00    0.00    0.00    0.00   0.00   0.00

