Linux 4.17.2 (bench2) 	08/03/2018 	_x86_64_	(32 CPU)

avg-cpu:  %user   %nice %system %iowait  %steal   %idle
           1.92    0.00    1.58    1.51    0.00   94.99

Device:         rrqm/s   wrqm/s     r/s     w/s    rkB/s    wkB/s avgrq-sz avgqu-sz   await r_await w_await  svctm  %util
nvme0n1         954.96     5.19 19251.50  530.05 107684.89 11954.29    12.10     1.37    0.05    0.03    0.67   0.02  40.30
sda               0.11     0.81   14.13    0.57   163.92     8.51    23.46     0.00    0.33    0.32    0.45   0.07   0.10
sdc              32.62     0.14  107.19    0.30  1610.98    82.96    31.52     1.49   13.82   12.82  373.51   0.93  10.05
sdb              30.54     0.15  109.23    0.32  1609.10    82.78    30.89     0.37    3.34    2.19  394.60   0.87   9.55
sdd              32.82     0.13  106.74    0.25  1607.04    82.45    31.58     0.65    6.08    4.26  782.19   0.94  10.05
md0               0.00     0.00  422.02    1.07  5951.50   290.69    29.51     0.00    0.00    0.00    0.00   0.00   0.00

avg-cpu:  %user   %nice %system %iowait  %steal   %idle
           2.87    0.00    0.52    2.16    0.00   94.46

Device:         rrqm/s   wrqm/s     r/s     w/s    rkB/s    wkB/s avgrq-sz avgqu-sz   await r_await w_await  svctm  %util
nvme0n1           0.00     0.00    0.00    0.00     0.00     0.00     0.00     0.00    0.00    0.00    0.00   0.00   0.00
sda               0.00     1.05    0.20    0.65     5.20     7.60    30.12     0.00    0.12    0.50    0.00   0.12   0.01
sdc             117.75     0.00  158.10    0.00 64368.80     0.00   814.28     1.37    8.70    8.70    0.00   4.26  67.34
sdb             118.05     0.00  163.30    0.00 64365.00     0.00   788.30     1.32    8.09    8.09    0.00   3.98  64.96
sdd             118.05     0.00  161.70    0.00 64335.80     0.00   795.74     1.32    8.14    8.14    0.00   3.93  63.62
md0               0.00     0.00  836.90    0.00 288239.60     0.00   688.83     0.00    0.00    0.00    0.00   0.00   0.00

