Linux 4.17.2 (bench2) 	08/03/2018 	_x86_64_	(32 CPU)

avg-cpu:  %user   %nice %system %iowait  %steal   %idle
           1.92    0.00    1.58    1.51    0.00   94.99

Device:         rrqm/s   wrqm/s     r/s     w/s    rkB/s    wkB/s avgrq-sz avgqu-sz   await r_await w_await  svctm  %util
nvme0n1         955.56     5.19 19263.67  530.39 107752.95 11961.84    12.10     1.37    0.05    0.03    0.67   0.02  40.33
sda               0.11     0.81   14.13    0.57   163.92     8.50    23.46     0.00    0.33    0.32    0.45   0.07   0.10
sdc              32.63     0.14  106.72    0.30  1600.78    83.02    31.47     1.49   13.89   12.88  373.51   0.94  10.03
sdb              30.55     0.15  108.76    0.32  1598.91    82.84    30.84     0.37    3.35    2.20  394.60   0.87   9.53
sdd              32.83     0.13  106.26    0.25  1596.83    82.50    31.53     0.65    6.11    4.28  782.19   0.94  10.03
md0               0.00     0.00  420.62    1.07  5910.68   290.87    29.41     0.00    0.00    0.00    0.00   0.00   0.00

avg-cpu:  %user   %nice %system %iowait  %steal   %idle
           3.10    0.00    0.13    2.97    0.00   93.80

Device:         rrqm/s   wrqm/s     r/s     w/s    rkB/s    wkB/s avgrq-sz avgqu-sz   await r_await w_await  svctm  %util
nvme0n1           0.00     0.00    0.00    0.00     0.00     0.00     0.00     0.00    0.00    0.00    0.00   0.00   0.00
sda               0.00     0.00   18.00    0.00    76.00     0.00     8.44     0.00    0.06    0.06    0.00   0.06   0.10
sdc               0.00     0.00  199.00    0.00  3196.00     0.00    32.12     0.31    1.57    1.57    0.00   1.53  30.50
sdb               0.00     0.00  163.00    0.00  2028.00     0.00    24.88     0.42    2.60    2.60    0.00   2.51  40.90
sdd               0.00     0.00  219.00    0.00  4188.00     0.00    38.25     0.30    1.38    1.38    0.00   1.31  28.70
md0               0.00     0.00  581.00    0.00 10328.00     0.00    35.55     0.00    0.00    0.00    0.00   0.00   0.00

avg-cpu:  %user   %nice %system %iowait  %steal   %idle
           3.13    0.00    0.19    2.97    0.00   93.71

Device:         rrqm/s   wrqm/s     r/s     w/s    rkB/s    wkB/s avgrq-sz avgqu-sz   await r_await w_await  svctm  %util
nvme0n1           0.00     0.00    0.00    0.00     0.00     0.00     0.00     0.00    0.00    0.00    0.00   0.00   0.00
sda               0.00     0.00    0.00    0.00     0.00     0.00     0.00     0.00    0.00    0.00    0.00   0.00   0.00
sdc               0.00     0.00  170.00    0.00  2420.00     0.00    28.47     0.38    2.22    2.22    0.00   2.19  37.30
sdb               0.00     0.00  200.00    0.00  3756.00     0.00    37.56     0.46    2.32    2.32    0.00   2.29  45.70
sdd               0.00     0.00  185.00    0.00  3104.00     0.00    33.56     0.16    0.85    0.85    0.00   0.84  15.60
md0               0.00     0.00  555.00    0.00 10288.00     0.00    37.07     0.00    0.00    0.00    0.00   0.00   0.00

