Linux 4.17.2 (bench2) 	08/03/2018 	_x86_64_	(32 CPU)

avg-cpu:  %user   %nice %system %iowait  %steal   %idle
           1.92    0.00    1.57    1.52    0.00   94.99

Device:         rrqm/s   wrqm/s     r/s     w/s    rkB/s    wkB/s avgrq-sz avgqu-sz   await r_await w_await  svctm  %util
nvme0n1         954.25     5.18 19237.33  529.66 107605.63 11945.49    12.10     1.37    0.05    0.03    0.67   0.02  40.27
sda               0.11     0.81   14.13    0.57   163.93     8.51    23.46     0.00    0.33    0.32    0.45   0.07   0.10
sdc              32.60     0.14  107.62    0.30  1618.94    82.90    31.54     1.49   13.77   12.77  373.51   0.93  10.08
sdb              30.53     0.15  109.66    0.32  1617.06    82.72    30.91     0.37    3.34    2.20  394.60   0.87   9.58
sdd              32.80     0.13  107.16    0.25  1614.99    82.39    31.61     0.65    6.07    4.26  782.19   0.94  10.08
md0               0.00     0.00  423.25    1.07  5982.65   290.47    29.57     0.00    0.00    0.00    0.00   0.00   0.00

avg-cpu:  %user   %nice %system %iowait  %steal   %idle
           2.94    0.00    0.53    2.28    0.00   94.24

Device:         rrqm/s   wrqm/s     r/s     w/s    rkB/s    wkB/s avgrq-sz avgqu-sz   await r_await w_await  svctm  %util
nvme0n1           0.00     0.00    0.00    0.00     0.00     0.00     0.00     0.00    0.00    0.00    0.00   0.00   0.00
sda               0.00     0.00   19.00    0.00    80.00     0.00     8.42     0.02    0.95    0.95    0.00   0.05   0.10
sdc             125.00     0.00  154.00    0.00 66804.00     0.00   867.58     1.69   11.02   11.02    0.00   4.83  74.40
sdb             127.00     0.00  155.00    0.00 64612.00     0.00   833.70     1.43    9.06    9.06    0.00   4.57  70.90
sdd             124.00     0.00  159.00    0.00 64228.00     0.00   807.90     1.53    9.35    9.35    0.00   4.14  65.90
md0               0.00     0.00  849.00    0.00 303824.00     0.00   715.72     0.00    0.00    0.00    0.00   0.00   0.00

avg-cpu:  %user   %nice %system %iowait  %steal   %idle
           2.88    0.00    0.53    2.41    0.00   94.18

Device:         rrqm/s   wrqm/s     r/s     w/s    rkB/s    wkB/s avgrq-sz avgqu-sz   await r_await w_await  svctm  %util
nvme0n1           0.00     0.00    0.00    0.00     0.00     0.00     0.00     0.00    0.00    0.00    0.00   0.00   0.00
sda               0.00     0.00    0.00    0.00     0.00     0.00     0.00     0.00    0.00    0.00    0.00   0.00   0.00
sdc             119.00     0.00  169.00    0.00 62464.00     0.00   739.22     1.18    6.75    6.75    0.00   3.60  60.80
sdb             118.00     0.00  163.00    0.00 65076.00     0.00   798.48     1.50    9.27    9.27    0.00   4.72  77.00
sdd             113.00     0.00  171.00    0.00 65204.00     0.00   762.62     1.22    7.22    7.22    0.00   3.50  59.80
md0               0.00     0.00  855.00    0.00 325204.00     0.00   760.71     0.00    0.00    0.00    0.00   0.00   0.00

