Linux 4.17.2 (bench2) 	08/03/2018 	_x86_64_	(32 CPU)

avg-cpu:  %user   %nice %system %iowait  %steal   %idle
           1.92    0.00    1.57    1.52    0.00   94.99

Device:         rrqm/s   wrqm/s     r/s     w/s    rkB/s    wkB/s avgrq-sz avgqu-sz   await r_await w_await  svctm  %util
nvme0n1         953.24     5.18 19217.00  529.10 107491.89 11932.86    12.10     1.37    0.05    0.03    0.67   0.02  40.23
sda               0.11     0.81   14.13    0.57   163.93     8.51    23.45     0.00    0.33    0.32    0.45   0.07   0.10
sdc              32.67     0.14  108.22    0.30  1634.56    82.82    31.65     1.49   13.76   12.77  373.51   0.93  10.13
sdb              30.59     0.15  110.26    0.32  1632.67    82.64    31.02     0.38    3.40    2.26  394.60   0.87   9.63
sdd              32.86     0.13  107.76    0.25  1630.59    82.30    31.72     0.66    6.11    4.32  782.19   0.94  10.14
md0               0.00     0.00  425.24    1.07  6046.31   290.17    29.73     0.00    0.00    0.00    0.00   0.00   0.00

avg-cpu:  %user   %nice %system %iowait  %steal   %idle
           3.12    0.00    0.02    1.32    0.00   95.54

Device:         rrqm/s   wrqm/s     r/s     w/s    rkB/s    wkB/s avgrq-sz avgqu-sz   await r_await w_await  svctm  %util
nvme0n1           0.00     0.00    0.00    0.00     0.00     0.00     0.00     0.00    0.00    0.00    0.00   0.00   0.00
sda               0.00     0.85    0.20    0.65     5.20     8.00    31.06     0.00    0.06    0.25    0.00   0.06   0.01
sdc               0.00     0.00   41.10    0.00   164.40     0.00     8.00     0.32    7.86    7.86    0.00   7.87  32.33
sdb               0.00     0.00   42.20    0.00   168.80     0.00     8.00     0.34    7.94    7.94    0.00   7.94  33.50
sdd               0.00     0.00   41.95    0.00   167.80     0.00     8.00     0.34    8.02    8.02    0.00   8.02  33.63
md0               0.00     0.00  125.30    0.00   501.20     0.00     8.00     0.00    0.00    0.00    0.00   0.00   0.00

