Linux 4.17.2 (bench2) 	08/03/2018 	_x86_64_	(32 CPU)

avg-cpu:  %user   %nice %system %iowait  %steal   %idle
           1.93    0.00    1.58    1.50    0.00   95.00

Device:         rrqm/s   wrqm/s     r/s     w/s    rkB/s    wkB/s avgrq-sz avgqu-sz   await r_await w_await  svctm  %util
nvme0n1         960.25     5.22 19358.32  532.99 108282.39 12020.62    12.10     1.38    0.05    0.03    0.67   0.02  40.52
sda               0.11     0.81   14.11    0.57   163.84     8.50    23.48     0.00    0.33    0.32    0.46   0.07   0.10
sdc              32.20     0.14  103.56    0.30  1555.02    83.42    31.55     1.46   14.03   12.99  373.51   0.95   9.82
sdb              30.11     0.15  105.60    0.32  1553.18    83.24    30.90     0.33    3.15    1.95  394.60   0.88   9.33
sdd              32.40     0.13  103.10    0.25  1551.06    82.91    31.62     0.62    5.98    4.09  782.19   0.95   9.82
md0               0.00     0.00  409.85    1.07  5734.21   292.30    29.33     0.00    0.00    0.00    0.00   0.00   0.00

avg-cpu:  %user   %nice %system %iowait  %steal   %idle
           3.12    0.00    0.03    3.09    0.00   93.75

Device:         rrqm/s   wrqm/s     r/s     w/s    rkB/s    wkB/s avgrq-sz avgqu-sz   await r_await w_await  svctm  %util
nvme0n1           0.00     0.00    0.00    0.00     0.00     0.00     0.00     0.00    0.00    0.00    0.00   0.00   0.00
sda               0.00     0.00   33.00    0.00   136.00     0.00     8.24     0.00    0.03    0.03    0.00   0.03   0.10
sdc               0.00     0.00   47.00    0.00   188.00     0.00     8.00     0.42    8.87    8.87    0.00   8.87  41.70
sdb               0.00     0.00   34.00    0.00   136.00     0.00     8.00     0.28    7.91    7.91    0.00   8.15  27.70
sdd               0.00     0.00   41.00    0.00   164.00     0.00     8.00     0.30    7.44    7.44    0.00   7.44  30.50
md0               0.00     0.00  122.00    0.00   488.00     0.00     8.00     0.00    0.00    0.00    0.00   0.00   0.00

avg-cpu:  %user   %nice %system %iowait  %steal   %idle
           3.12    0.00    0.00    3.12    0.00   93.75

Device:         rrqm/s   wrqm/s     r/s     w/s    rkB/s    wkB/s avgrq-sz avgqu-sz   await r_await w_await  svctm  %util
nvme0n1           0.00     0.00    0.00    0.00     0.00     0.00     0.00     0.00    0.00    0.00    0.00   0.00   0.00
sda               0.00     0.00    0.00    0.00     0.00     0.00     0.00     0.00    0.00    0.00    0.00   0.00   0.00
sdc               0.00     0.00   36.00    0.00   144.00     0.00     8.00     0.30    8.08    8.08    0.00   8.33  30.00
sdb               0.00     0.00   43.00    0.00   172.00     0.00     8.00     0.35    8.37    8.37    0.00   8.12  34.90
sdd               0.00     0.00   43.00    0.00   172.00     0.00     8.00     0.35    8.12    8.12    0.00   8.12  34.90
md0               0.00     0.00  122.00    0.00   488.00     0.00     8.00     0.00    0.00    0.00    0.00   0.00   0.00

