Linux 4.17.2 (bench2) 	08/03/2018 	_x86_64_	(32 CPU)

avg-cpu:  %user   %nice %system %iowait  %steal   %idle
           1.92    0.00    1.58    1.50    0.00   95.00

Device:         rrqm/s   wrqm/s     r/s     w/s    rkB/s    wkB/s avgrq-sz avgqu-sz   await r_await w_await  svctm  %util
nvme0n1         959.66     5.21 19346.36  532.67 108215.50 12013.19    12.10     1.38    0.05    0.03    0.67   0.02  40.50
sda               0.11     0.81   14.11    0.57   163.85     8.50    23.48     0.00    0.33    0.32    0.46   0.07   0.10
sdc              32.19     0.14  103.86    0.30  1561.87    83.37    31.59     1.46   13.99   12.95  373.51   0.94   9.84
sdb              30.10     0.15  105.91    0.32  1560.03    83.19    30.94     0.33    3.14    1.95  394.60   0.88   9.35
sdd              32.39     0.13  103.41    0.25  1557.89    82.86    31.66     0.62    5.97    4.09  782.19   0.95   9.84
md0               0.00     0.00  410.75    1.07  5761.92   292.12    29.40     0.00    0.00    0.00    0.00   0.00   0.00

avg-cpu:  %user   %nice %system %iowait  %steal   %idle
           3.13    0.00    0.03    0.44    0.00   96.40

Device:         rrqm/s   wrqm/s     r/s     w/s    rkB/s    wkB/s avgrq-sz avgqu-sz   await r_await w_await  svctm  %util
nvme0n1           0.00     0.00    0.00    0.00     0.00     0.00     0.00     0.00    0.00    0.00    0.00   0.00   0.00
sda               0.00     0.00   23.00    0.00    96.00     0.00     8.35     0.00    0.09    0.09    0.00   0.04   0.10
sdc               0.00     0.00  150.00    0.00   624.00     0.00     8.32     0.20    1.35    1.35    0.00   1.33  20.00
sdb               0.00     0.00  179.00    0.00   752.00     0.00     8.40     0.32    1.77    1.77    0.00   1.79  32.00
sdd               0.00     0.00  131.00    0.00   548.00     0.00     8.37     0.47    3.57    3.57    0.00   3.57  46.80
md0               0.00     0.00  460.00    0.00  1924.00     0.00     8.37     0.00    0.00    0.00    0.00   0.00   0.00

avg-cpu:  %user   %nice %system %iowait  %steal   %idle
           3.12    0.00    0.03    0.56    0.00   96.28

Device:         rrqm/s   wrqm/s     r/s     w/s    rkB/s    wkB/s avgrq-sz avgqu-sz   await r_await w_await  svctm  %util
nvme0n1           0.00     0.00    0.00    0.00     0.00     0.00     0.00     0.00    0.00    0.00    0.00   0.00   0.00
sda               0.00     0.00    0.00    0.00     0.00     0.00     0.00     0.00    0.00    0.00    0.00   0.00   0.00
sdc               0.00     0.00  141.00    0.00   576.00     0.00     8.17     0.23    1.65    1.65    0.00   1.65  23.20
sdb               0.00     0.00  137.00    0.00   572.00     0.00     8.35     0.48    3.55    3.55    0.00   3.53  48.30
sdd               0.00     0.00  154.00    0.00   628.00     0.00     8.16     0.27    1.73    1.73    0.00   1.73  26.70
md0               0.00     0.00  432.00    0.00  1776.00     0.00     8.22     0.00    0.00    0.00    0.00   0.00   0.00

