Linux 4.17.2 (bench2) 	08/03/2018 	_x86_64_	(32 CPU)

avg-cpu:  %user   %nice %system %iowait  %steal   %idle
           1.92    0.00    1.58    1.50    0.00   95.00

Device:         rrqm/s   wrqm/s     r/s     w/s    rkB/s    wkB/s avgrq-sz avgqu-sz   await r_await w_await  svctm  %util
nvme0n1         959.24     5.21 19337.86  532.43 108167.94 12007.91    12.10     1.38    0.05    0.03    0.67   0.02  40.48
sda               0.11     0.81   14.11    0.57   163.86     8.50    23.48     0.00    0.33    0.32    0.46   0.07   0.10
sdc              32.18     0.14  104.13    0.30  1565.81    83.34    31.58     1.46   13.96   12.92  373.51   0.94   9.86
sdb              30.09     0.15  106.18    0.32  1563.96    83.16    30.93     0.34    3.14    1.95  394.60   0.88   9.37
sdd              32.38     0.13  103.67    0.25  1561.83    82.82    31.65     0.62    5.96    4.08  782.19   0.95   9.86
md0               0.00     0.00  411.50    1.07  5776.75   291.99    29.42     0.00    0.00    0.00    0.00   0.00   0.00

avg-cpu:  %user   %nice %system %iowait  %steal   %idle
           3.07    0.00    0.31    2.63    0.00   93.99

Device:         rrqm/s   wrqm/s     r/s     w/s    rkB/s    wkB/s avgrq-sz avgqu-sz   await r_await w_await  svctm  %util
nvme0n1           0.00     0.00    0.00    0.00     0.00     0.00     0.00     0.00    0.00    0.00    0.00   0.00   0.00
sda               0.00     0.00    1.00    0.00     8.00     0.00    16.00     0.00    0.00    0.00    0.00   0.00   0.00
sdc              58.00     0.00  795.00    0.00 52236.00     0.00   131.41     0.56    0.70    0.70    0.00   0.50  39.80
sdb              55.00     0.00  842.00    0.00 52668.00     0.00   125.10     0.62    0.74    0.74    0.00   0.57  47.70
sdd              67.00     0.00  816.00    0.00 52404.00     0.00   128.44     0.76    0.94    0.94    0.00   0.64  52.20
md0               0.00     0.00 2633.00    0.00 212880.00     0.00   161.70     0.00    0.00    0.00    0.00   0.00   0.00

avg-cpu:  %user   %nice %system %iowait  %steal   %idle
           3.04    0.00    0.38    2.63    0.00   93.96

Device:         rrqm/s   wrqm/s     r/s     w/s    rkB/s    wkB/s avgrq-sz avgqu-sz   await r_await w_await  svctm  %util
nvme0n1           0.00     0.00    0.00    0.00     0.00     0.00     0.00     0.00    0.00    0.00    0.00   0.00   0.00
sda               0.00     0.00    0.00    0.00     0.00     0.00     0.00     0.00    0.00    0.00    0.00   0.00   0.00
sdc              57.00     0.00  947.00    0.00 56548.00     0.00   119.43     0.54    0.57    0.57    0.00   0.45  42.50
sdb              57.00     0.00 1048.00    0.00 52380.00     0.00    99.96     0.68    0.65    0.65    0.00   0.51  53.10
sdd              65.00     0.00  891.00    0.00 58388.00     0.00   131.06     0.53    0.59    0.59    0.00   0.47  41.80
md0               0.00     0.00 3065.00    0.00 216088.00     0.00   141.00     0.00    0.00    0.00    0.00   0.00   0.00

