Linux 4.17.2 (bench2) 	08/03/2018 	_x86_64_	(32 CPU)

avg-cpu:  %user   %nice %system %iowait  %steal   %idle
           1.92    0.00    1.58    1.50    0.00   95.00

Device:         rrqm/s   wrqm/s     r/s     w/s    rkB/s    wkB/s avgrq-sz avgqu-sz   await r_await w_await  svctm  %util
nvme0n1         959.32     5.21 19339.58  532.48 108177.57 12008.98    12.10     1.38    0.05    0.03    0.67   0.02  40.48
sda               0.11     0.81   14.11    0.57   163.86     8.50    23.48     0.00    0.33    0.32    0.46   0.07   0.10
sdc              32.18     0.14  104.02    0.30  1564.70    83.34    31.60     1.46   13.97   12.93  373.51   0.94   9.86
sdb              30.09     0.15  106.07    0.32  1562.85    83.16    30.94     0.33    3.14    1.95  394.60   0.88   9.37
sdd              32.38     0.13  103.56    0.25  1560.72    82.83    31.66     0.62    5.97    4.09  782.19   0.95   9.86
md0               0.00     0.00  411.19    1.07  5772.69   292.02    29.42     0.00    0.00    0.00    0.00   0.00   0.00

avg-cpu:  %user   %nice %system %iowait  %steal   %idle
           3.07    0.00    0.27    2.74    0.00   93.92

Device:         rrqm/s   wrqm/s     r/s     w/s    rkB/s    wkB/s avgrq-sz avgqu-sz   await r_await w_await  svctm  %util
nvme0n1           0.00     0.00    0.00    0.00     0.00     0.00     0.00     0.00    0.00    0.00    0.00   0.00   0.00
sda               0.00     1.30    0.25    1.20     5.40    12.00    24.00     0.00    0.03    0.00    0.04   0.03   0.01
sdc              10.70     0.00 1504.15    0.00 20257.40     0.00    26.94     0.71    0.47    0.47    0.00   0.26  39.62
sdb              11.30     0.00 1497.20    0.00 21052.00     0.00    28.12     0.60    0.40    0.40    0.00   0.19  28.98
sdd              11.05     0.00 1475.55    0.00 20523.00     0.00    27.82     0.77    0.52    0.52    0.00   0.26  38.26
md0               0.00     0.00 4510.05    0.00 75201.80     0.00    33.35     0.00    0.00    0.00    0.00   0.00   0.00

