Linux 4.17.2 (bench2) 	08/03/2018 	_x86_64_	(32 CPU)

avg-cpu:  %user   %nice %system %iowait  %steal   %idle
           1.92    0.00    1.57    1.52    0.00   94.99

Device:         rrqm/s   wrqm/s     r/s     w/s    rkB/s    wkB/s avgrq-sz avgqu-sz   await r_await w_await  svctm  %util
nvme0n1         953.73     5.18 19226.79  529.37 107546.66 11938.94    12.10     1.37    0.05    0.03    0.67   0.02  40.25
sda               0.11     0.81   14.13    0.57   163.93     8.51    23.45     0.00    0.33    0.32    0.45   0.07   0.10
sdc              32.61     0.14  107.80    0.30  1624.84    82.86    31.60     1.49   13.77   12.77  373.51   0.94  10.11
sdb              30.53     0.15  109.83    0.32  1622.97    82.68    30.97     0.37    3.36    2.22  394.60   0.87   9.61
sdd              32.80     0.13  107.34    0.25  1620.88    82.35    31.66     0.66    6.08    4.28  782.19   0.94  10.11
md0               0.00     0.00  423.79    1.07  6007.38   290.31    29.65     0.00    0.00    0.00    0.00   0.00   0.00

avg-cpu:  %user   %nice %system %iowait  %steal   %idle
           3.09    0.00    0.13    0.20    0.00   96.58

Device:         rrqm/s   wrqm/s     r/s     w/s    rkB/s    wkB/s avgrq-sz avgqu-sz   await r_await w_await  svctm  %util
nvme0n1           0.00     0.00    0.00    0.00     0.00     0.00     0.00     0.00    0.00    0.00    0.00   0.00   0.00
sda               0.00     1.25    3.65    1.20    29.60    10.60    16.58     0.00    0.19    0.25    0.00   0.05   0.03
sdc              18.95     0.00  292.35    0.00 30063.40     0.00   205.67     0.58    1.97    1.97    0.00   1.55  45.27
sdb              19.00     0.00  289.65    0.00 29137.60     0.00   201.19     0.61    2.11    2.11    0.00   1.61  46.66
sdd              19.00     0.00  291.60    0.00 29848.60     0.00   204.72     0.58    1.99    1.99    0.00   1.55  45.28
md0               0.00     0.00  930.60    0.00 118303.80     0.00   254.25     0.00    0.00    0.00    0.00   0.00   0.00

