Linux 4.17.2 (bench2) 	08/03/2018 	_x86_64_	(32 CPU)

avg-cpu:  %user   %nice %system %iowait  %steal   %idle
           1.92    0.00    1.58    1.50    0.00   94.99

Device:         rrqm/s   wrqm/s     r/s     w/s    rkB/s    wkB/s avgrq-sz avgqu-sz   await r_await w_await  svctm  %util
nvme0n1         957.77     5.20 19308.33  531.62 108002.76 11989.58    12.10     1.37    0.05    0.03    0.67   0.02  40.42
sda               0.12     0.81   14.12    0.57   163.87     8.50    23.47     0.00    0.33    0.32    0.45   0.07   0.10
sdc              32.26     0.14  104.93    0.30  1586.09    83.21    31.73     1.47   14.01   12.98  373.51   0.94   9.94
sdb              30.18     0.15  106.97    0.32  1584.23    83.03    31.08     0.35    3.28    2.10  394.60   0.88   9.44
sdd              32.46     0.13  104.47    0.25  1582.12    82.70    31.80     0.64    6.08    4.22  782.19   0.95   9.94
md0               0.00     0.00  414.17    1.07  5858.98   291.54    29.62     0.00    0.00    0.00    0.00   0.00   0.00

avg-cpu:  %user   %nice %system %iowait  %steal   %idle
           3.06    0.00    0.13    0.06    0.00   96.75

Device:         rrqm/s   wrqm/s     r/s     w/s    rkB/s    wkB/s avgrq-sz avgqu-sz   await r_await w_await  svctm  %util
nvme0n1           0.00     0.00    0.00    0.00     0.00     0.00     0.00     0.00    0.00    0.00    0.00   0.00   0.00
sda               0.00     0.00    4.00    0.00   104.00     0.00    52.00     0.00    0.25    0.25    0.00   0.25   0.10
sdc              11.00     0.00  201.00    0.00 17408.00     0.00   173.21     0.71    3.53    3.53    0.00   2.37  47.60
sdb               7.00     0.00  185.00    0.00 17572.00     0.00   189.97     0.60    3.25    3.25    0.00   2.12  39.20
sdd               9.00     0.00  200.00    0.00 16872.00     0.00   168.72     0.75    3.71    3.71    0.00   2.75  54.90
md0               0.00     0.00  615.00    0.00 70668.00     0.00   229.81     0.00    0.00    0.00    0.00   0.00   0.00

avg-cpu:  %user   %nice %system %iowait  %steal   %idle
           3.09    0.00    0.12    0.53    0.00   96.25

Device:         rrqm/s   wrqm/s     r/s     w/s    rkB/s    wkB/s avgrq-sz avgqu-sz   await r_await w_await  svctm  %util
nvme0n1           0.00     0.00    0.00    0.00     0.00     0.00     0.00     0.00    0.00    0.00    0.00   0.00   0.00
sda               0.00     0.00    0.00    0.00     0.00     0.00     0.00     0.00    0.00    0.00    0.00   0.00   0.00
sdc               5.00     0.00  224.00    0.00 19412.00     0.00   173.32     0.88    3.75    3.75    0.00   2.06  46.10
sdb              10.00     0.00  217.00    0.00 19444.00     0.00   179.21     1.03    4.49    4.49    0.00   2.95  64.00
sdd               7.00     0.00  181.00    0.00 17452.00     0.00   192.84     0.66    3.53    3.53    0.00   2.27  41.00
md0               0.00     0.00  651.00    0.00 72452.00     0.00   222.59     0.00    0.00    0.00    0.00   0.00   0.00

avg-cpu:  %user   %nice %system %iowait  %steal   %idle
           3.10    0.00    0.13    2.91    0.00   93.87

Device:         rrqm/s   wrqm/s     r/s     w/s    rkB/s    wkB/s avgrq-sz avgqu-sz   await r_await w_await  svctm  %util
nvme0n1           0.00     0.00    0.00    0.00     0.00     0.00     0.00     0.00    0.00    0.00    0.00   0.00   0.00
sda               0.00     0.00    0.00    0.00     0.00     0.00     0.00     0.00    0.00    0.00    0.00   0.00   0.00
sdc              17.00     0.00  211.00    0.00 22168.00     0.00   210.12     0.68    3.41    3.41    0.00   2.44  51.50
sdb              12.00     0.00  246.00    0.00 23472.00     0.00   190.83     0.56    2.54    2.54    0.00   1.55  38.10
sdd              14.00     0.00  229.00    0.00 21808.00     0.00   190.46     0.60    2.74    2.74    0.00   2.08  47.60
md0               0.00     0.00  721.00    0.00 87920.00     0.00   243.88     0.00    0.00    0.00    0.00   0.00   0.00

avg-cpu:  %user   %nice %system %iowait  %steal   %idle
           3.06    0.00    0.19    2.94    0.00   93.81

Device:         rrqm/s   wrqm/s     r/s     w/s    rkB/s    wkB/s avgrq-sz avgqu-sz   await r_await w_await  svctm  %util
nvme0n1           0.00     0.00    0.00    0.00     0.00     0.00     0.00     0.00    0.00    0.00    0.00   0.00   0.00
sda               0.00     8.00    0.00    2.00     0.00    40.00    40.00     0.00    0.00    0.00    0.00   0.00   0.00
sdc              25.00     0.00  272.00    0.00 31668.00     0.00   232.85     0.66    2.44    2.44    0.00   1.89  51.50
sdb              20.00     0.00  282.00    0.00 30672.00     0.00   217.53     0.41    1.41    1.41    0.00   1.19  33.60
sdd              19.00     0.00  269.00    0.00 29576.00     0.00   219.90     0.64    2.39    2.39    0.00   2.00  53.90
md0               0.00     0.00  888.00    0.00 127704.00     0.00   287.62     0.00    0.00    0.00    0.00   0.00   0.00

avg-cpu:  %user   %nice %system %iowait  %steal   %idle
           3.13    0.00    0.09    2.91    0.00   93.87

Device:         rrqm/s   wrqm/s     r/s     w/s    rkB/s    wkB/s avgrq-sz avgqu-sz   await r_await w_await  svctm  %util
nvme0n1           0.00     0.00    0.00    0.00     0.00     0.00     0.00     0.00    0.00    0.00    0.00   0.00   0.00
sda               0.00     0.00    0.00    0.00     0.00     0.00     0.00     0.00    0.00    0.00    0.00   0.00   0.00
sdc              20.00     0.00  287.00    0.00 28988.00     0.00   202.01     0.51    1.79    1.79    0.00   1.54  44.30
sdb              17.00     0.00  256.00    0.00 24328.00     0.00   190.06     0.57    2.27    2.27    0.00   1.94  49.60
sdd              17.00     0.00  252.00    0.00 26184.00     0.00   207.81     0.47    1.85    1.85    0.00   1.49  37.60
md0               0.00     0.00  851.00    0.00 105800.00     0.00   248.65     0.00    0.00    0.00    0.00   0.00   0.00

avg-cpu:  %user   %nice %system %iowait  %steal   %idle
           3.06    0.00    0.16    2.91    0.00   93.87

Device:         rrqm/s   wrqm/s     r/s     w/s    rkB/s    wkB/s avgrq-sz avgqu-sz   await r_await w_await  svctm  %util
nvme0n1           0.00     0.00    0.00    0.00     0.00     0.00     0.00     0.00    0.00    0.00    0.00   0.00   0.00
sda               0.00     0.00    0.00    0.00     0.00     0.00     0.00     0.00    0.00    0.00    0.00   0.00   0.00
sdc              33.00     0.00  257.00    0.00 35648.00     0.00   277.42     0.59    2.30    2.30    0.00   1.69  43.40
sdb              32.00     0.00  242.00    0.00 32800.00     0.00   271.07     0.74    3.07    3.07    0.00   2.11  51.00
sdd              32.00     0.00  265.00    0.00 32380.00     0.00   244.38     0.82    3.11    3.11    0.00   2.26  59.80
md0               0.00     0.00  860.00    0.00 138220.00     0.00   321.44     0.00    0.00    0.00    0.00   0.00   0.00

avg-cpu:  %user   %nice %system %iowait  %steal   %idle
           3.10    0.00    0.13    2.94    0.00   93.84

Device:         rrqm/s   wrqm/s     r/s     w/s    rkB/s    wkB/s avgrq-sz avgqu-sz   await r_await w_await  svctm  %util
nvme0n1           0.00     0.00    0.00    0.00     0.00     0.00     0.00     0.00    0.00    0.00    0.00   0.00   0.00
sda               0.00     0.00    0.00    0.00     0.00     0.00     0.00     0.00    0.00    0.00    0.00   0.00   0.00
sdc              24.00     0.00  285.00    0.00 32048.00     0.00   224.90     1.10    3.86    3.86    0.00   2.58  73.40
sdb              22.00     0.00  279.00    0.00 30532.00     0.00   218.87     0.52    1.88    1.88    0.00   1.33  37.00
sdd              22.00     0.00  248.00    0.00 28752.00     0.00   231.87     0.38    1.54    1.54    0.00   1.14  28.30
md0               0.00     0.00  880.00    0.00 118884.00     0.00   270.19     0.00    0.00    0.00    0.00   0.00   0.00

avg-cpu:  %user   %nice %system %iowait  %steal   %idle
           3.07    0.00    0.16    2.91    0.00   93.87

Device:         rrqm/s   wrqm/s     r/s     w/s    rkB/s    wkB/s avgrq-sz avgqu-sz   await r_await w_await  svctm  %util
nvme0n1           0.00     0.00    0.00    0.00     0.00     0.00     0.00     0.00    0.00    0.00    0.00   0.00   0.00
sda               0.00     3.00    0.00    2.00     0.00    36.00    36.00     0.00    0.00    0.00    0.00   0.00   0.00
sdc              16.00     0.00  284.00    0.00 27480.00     0.00   193.52     0.72    2.54    2.54    0.00   1.80  51.10
sdb              17.00     0.00  295.00    0.00 29732.00     0.00   201.57     0.62    2.09    2.09    0.00   1.47  43.30
sdd              17.00     0.00  302.00    0.00 29144.00     0.00   193.01     0.46    1.51    1.51    0.00   1.22  36.90
md0               0.00     0.00  929.00    0.00 110776.00     0.00   238.48     0.00    0.00    0.00    0.00   0.00   0.00

avg-cpu:  %user   %nice %system %iowait  %steal   %idle
           3.10    0.00    0.13    2.91    0.00   93.87

Device:         rrqm/s   wrqm/s     r/s     w/s    rkB/s    wkB/s avgrq-sz avgqu-sz   await r_await w_await  svctm  %util
nvme0n1           0.00     0.00    0.00    0.00     0.00     0.00     0.00     0.00    0.00    0.00    0.00   0.00   0.00
sda               0.00     4.00    0.00    2.00     0.00    24.00    24.00     0.00    0.00    0.00    0.00   0.00   0.00
sdc              25.00     0.00  297.00    0.00 29584.00     0.00   199.22     0.48    1.63    1.63    0.00   1.32  39.30
sdb              23.00     0.00  283.00    0.00 28608.00     0.00   202.18     0.58    2.06    2.06    0.00   1.61  45.60
sdd              24.00     0.00  264.00    0.00 29716.00     0.00   225.12     0.77    2.91    2.91    0.00   2.07  54.60
md0               0.00     0.00  918.00    0.00 120352.00     0.00   262.20     0.00    0.00    0.00    0.00   0.00   0.00

avg-cpu:  %user   %nice %system %iowait  %steal   %idle
           3.07    0.00    0.16    2.91    0.00   93.87

Device:         rrqm/s   wrqm/s     r/s     w/s    rkB/s    wkB/s avgrq-sz avgqu-sz   await r_await w_await  svctm  %util
nvme0n1           0.00     0.00    0.00    0.00     0.00     0.00     0.00     0.00    0.00    0.00    0.00   0.00   0.00
sda               0.00     0.00    0.00    0.00     0.00     0.00     0.00     0.00    0.00    0.00    0.00   0.00   0.00
sdc              19.00     0.00  310.00    0.00 27004.00     0.00   174.22     0.87    2.81    2.81    0.00   2.07  64.30
sdb              18.00     0.00  263.00    0.00 27700.00     0.00   210.65     0.45    1.72    1.72    0.00   1.39  36.60
sdd              17.00     0.00  322.00    0.00 29472.00     0.00   183.06     0.40    1.23    1.23    0.00   0.97  31.30
md0               0.00     0.00  949.00    0.00 114548.00     0.00   241.41     0.00    0.00    0.00    0.00   0.00   0.00

avg-cpu:  %user   %nice %system %iowait  %steal   %idle
           3.06    0.00    0.19    2.91    0.00   93.84

Device:         rrqm/s   wrqm/s     r/s     w/s    rkB/s    wkB/s avgrq-sz avgqu-sz   await r_await w_await  svctm  %util
nvme0n1           0.00     0.00    0.00    0.00     0.00     0.00     0.00     0.00    0.00    0.00    0.00   0.00   0.00
sda               0.00     0.00    0.00    0.00     0.00     0.00     0.00     0.00    0.00    0.00    0.00   0.00   0.00
sdc              25.00     0.00  278.00    0.00 33448.00     0.00   240.63     0.82    2.94    2.94    0.00   2.29  63.80
sdb              25.00     0.00  283.00    0.00 32056.00     0.00   226.54     0.60    2.13    2.13    0.00   1.67  47.30
sdd              25.00     0.00  296.00    0.00 31352.00     0.00   211.84     0.35    1.18    1.18    0.00   0.91  26.80
md0               0.00     0.00  931.00    0.00 131004.00     0.00   281.43     0.00    0.00    0.00    0.00   0.00   0.00

avg-cpu:  %user   %nice %system %iowait  %steal   %idle
           3.09    0.00    0.19    2.88    0.00   93.84

Device:         rrqm/s   wrqm/s     r/s     w/s    rkB/s    wkB/s avgrq-sz avgqu-sz   await r_await w_await  svctm  %util
nvme0n1           0.00     0.00    0.00    0.00     0.00     0.00     0.00     0.00    0.00    0.00    0.00   0.00   0.00
sda               0.00     0.00    0.00    0.00     0.00     0.00     0.00     0.00    0.00    0.00    0.00   0.00   0.00
sdc              30.00     0.00  316.00    0.00 33436.00     0.00   211.62     0.61    1.94    1.94    0.00   1.56  49.30
sdb              31.00     0.00  291.00    0.00 33876.00     0.00   232.82     0.69    2.29    2.29    0.00   1.86  54.10
sdd              27.00     0.00  325.00    0.00 34204.00     0.00   210.49     0.51    1.44    1.44    0.00   1.18  38.50
md0               0.00     0.00 1023.00    0.00 141032.00     0.00   275.72     0.00    0.00    0.00    0.00   0.00   0.00

avg-cpu:  %user   %nice %system %iowait  %steal   %idle
           3.07    0.00    0.19    2.82    0.00   93.93

Device:         rrqm/s   wrqm/s     r/s     w/s    rkB/s    wkB/s avgrq-sz avgqu-sz   await r_await w_await  svctm  %util
nvme0n1           0.00     0.00    0.00    0.00     0.00     0.00     0.00     0.00    0.00    0.00    0.00   0.00   0.00
sda               0.00     1.00    0.00   12.00     0.00    52.00     8.67     0.00    0.00    0.00    0.00   0.00   0.00
sdc              23.00     0.00  355.00    0.00 34932.00     0.00   196.80     0.58    1.65    1.65    0.00   1.23  43.50
sdb              26.00     0.00  329.00    0.00 34204.00     0.00   207.93     0.61    1.93    1.93    0.00   1.52  50.00
sdd              26.00     0.00  331.00    0.00 36588.00     0.00   221.08     0.61    1.97    1.97    0.00   1.39  45.90
md0               0.00     0.00 1086.00    0.00 139164.00     0.00   256.29     0.00    0.00    0.00    0.00   0.00   0.00

avg-cpu:  %user   %nice %system %iowait  %steal   %idle
           3.10    0.00    0.13    2.91    0.00   93.87

Device:         rrqm/s   wrqm/s     r/s     w/s    rkB/s    wkB/s avgrq-sz avgqu-sz   await r_await w_await  svctm  %util
nvme0n1           0.00     0.00    0.00    0.00     0.00     0.00     0.00     0.00    0.00    0.00    0.00   0.00   0.00
sda               0.00     1.00    0.00    2.00     0.00    12.00    12.00     0.00    0.00    0.00    0.00   0.00   0.00
sdc              17.00     0.00  346.00    0.00 30536.00     0.00   176.51     0.46    1.33    1.33    0.00   1.13  39.00
sdb              16.00     0.00  265.00    0.00 26664.00     0.00   201.24     0.59    2.23    2.23    0.00   1.85  48.90
sdd              13.00     0.00  299.00    0.00 30372.00     0.00   203.16     0.58    1.93    1.93    0.00   1.62  48.30
md0               0.00     0.00  956.00    0.00 112444.00     0.00   235.24     0.00    0.00    0.00    0.00   0.00   0.00

avg-cpu:  %user   %nice %system %iowait  %steal   %idle
           3.06    0.00    0.22    2.91    0.00   93.81

Device:         rrqm/s   wrqm/s     r/s     w/s    rkB/s    wkB/s avgrq-sz avgqu-sz   await r_await w_await  svctm  %util
nvme0n1           0.00     0.00    0.00    0.00     0.00     0.00     0.00     0.00    0.00    0.00    0.00   0.00   0.00
sda               0.00     0.00    0.00    0.00     0.00     0.00     0.00     0.00    0.00    0.00    0.00   0.00   0.00
sdc              15.00     0.00  310.00    0.00 27960.00     0.00   180.39     0.58    1.88    1.88    0.00   1.59  49.30
sdb              15.00     0.00  288.00    0.00 29228.00     0.00   202.97     0.48    1.66    1.66    0.00   1.46  42.00
sdd              15.00     0.00  287.00    0.00 30884.00     0.00   215.22     0.59    2.05    2.05    0.00   1.77  50.90
md0               0.00     0.00  930.00    0.00 118784.00     0.00   255.45     0.00    0.00    0.00    0.00   0.00   0.00

avg-cpu:  %user   %nice %system %iowait  %steal   %idle
           3.07    0.00    0.16    2.91    0.00   93.87

Device:         rrqm/s   wrqm/s     r/s     w/s    rkB/s    wkB/s avgrq-sz avgqu-sz   await r_await w_await  svctm  %util
nvme0n1           0.00     0.00    0.00    0.00     0.00     0.00     0.00     0.00    0.00    0.00    0.00   0.00   0.00
sda               0.00     0.00    0.00    0.00     0.00     0.00     0.00     0.00    0.00    0.00    0.00   0.00   0.00
sdc              21.00     0.00  281.00    0.00 29252.00     0.00   208.20     0.67    2.38    2.38    0.00   1.89  53.00
sdb              20.00     0.00  272.00    0.00 31536.00     0.00   231.88     0.67    2.40    2.40    0.00   1.85  50.40
sdd              21.00     0.00  310.00    0.00 29856.00     0.00   192.62     0.49    1.58    1.58    0.00   1.26  39.20
md0               0.00     0.00  928.00    0.00 123668.00     0.00   266.53     0.00    0.00    0.00    0.00   0.00   0.00

avg-cpu:  %user   %nice %system %iowait  %steal   %idle
           3.09    0.00    0.19    2.88    0.00   93.84

Device:         rrqm/s   wrqm/s     r/s     w/s    rkB/s    wkB/s avgrq-sz avgqu-sz   await r_await w_await  svctm  %util
nvme0n1           0.00     0.00    0.00    0.00     0.00     0.00     0.00     0.00    0.00    0.00    0.00   0.00   0.00
sda               0.00     0.00    0.00    0.00     0.00     0.00     0.00     0.00    0.00    0.00    0.00   0.00   0.00
sdc              21.00     0.00  342.00    0.00 36032.00     0.00   210.71     0.64    1.87    1.87    0.00   1.53  52.20
sdb              19.00     0.00  329.00    0.00 34060.00     0.00   207.05     0.40    1.25    1.25    0.00   1.05  34.70
sdd              19.00     0.00  315.00    0.00 33352.00     0.00   211.76     0.54    1.72    1.72    0.00   1.50  47.10
md0               0.00     0.00 1042.00    0.00 134640.00     0.00   258.43     0.00    0.00    0.00    0.00   0.00   0.00

avg-cpu:  %user   %nice %system %iowait  %steal   %idle
           3.10    0.00    0.13    2.94    0.00   93.84

Device:         rrqm/s   wrqm/s     r/s     w/s    rkB/s    wkB/s avgrq-sz avgqu-sz   await r_await w_await  svctm  %util
nvme0n1           0.00     0.00    0.00    0.00     0.00     0.00     0.00     0.00    0.00    0.00    0.00   0.00   0.00
sda               0.00     0.00    0.00    0.00     0.00     0.00     0.00     0.00    0.00    0.00    0.00   0.00   0.00
sdc               8.00     0.00  287.00    0.00 26688.00     0.00   185.98     0.68    2.37    2.37    0.00   2.02  58.00
sdb               9.00     0.00  318.00    0.00 25716.00     0.00   161.74     0.26    0.81    0.81    0.00   0.66  20.90
sdd              12.00     0.00  321.00    0.00 24888.00     0.00   155.07     0.60    1.88    1.88    0.00   1.64  52.60
md0               0.00     0.00  955.00    0.00 99328.00     0.00   208.02     0.00    0.00    0.00    0.00   0.00   0.00

avg-cpu:  %user   %nice %system %iowait  %steal   %idle
           3.07    0.00    0.16    2.88    0.00   93.90

Device:         rrqm/s   wrqm/s     r/s     w/s    rkB/s    wkB/s avgrq-sz avgqu-sz   await r_await w_await  svctm  %util
nvme0n1           0.00     0.00    0.00    0.00     0.00     0.00     0.00     0.00    0.00    0.00    0.00   0.00   0.00
sda               0.00     1.00    0.00    2.00     0.00    12.00    12.00     0.00    0.00    0.00    0.00   0.00   0.00
sdc              13.00     0.00  366.00    0.00 31984.00     0.00   174.78     0.46    1.25    1.25    0.00   1.01  36.90
sdb              14.00     0.00  355.00    0.00 29272.00     0.00   164.91     0.32    0.90    0.90    0.00   0.79  27.90
sdd              15.00     0.00  327.00    0.00 35844.00     0.00   219.23     0.83    2.56    2.56    0.00   2.05  67.10
md0               0.00     0.00 1090.00    0.00 124988.00     0.00   229.34     0.00    0.00    0.00    0.00   0.00   0.00

avg-cpu:  %user   %nice %system %iowait  %steal   %idle
           3.09    0.00    0.16    2.91    0.00   93.84

Device:         rrqm/s   wrqm/s     r/s     w/s    rkB/s    wkB/s avgrq-sz avgqu-sz   await r_await w_await  svctm  %util
nvme0n1           0.00     0.00    0.00    0.00     0.00     0.00     0.00     0.00    0.00    0.00    0.00   0.00   0.00
sda               0.00     0.00    0.00    0.00     0.00     0.00     0.00     0.00    0.00    0.00    0.00   0.00   0.00
sdc              23.00     0.00  316.00    0.00 31160.00     0.00   197.22     0.39    1.23    1.23    0.00   0.94  29.70
sdb              23.00     0.00  252.00    0.00 31640.00     0.00   251.11     0.53    2.09    2.09    0.00   1.64  41.40
sdd              26.00     0.00  277.00    0.00 33052.00     0.00   238.64     0.91    3.28    3.28    0.00   2.55  70.70
md0               0.00     0.00  917.00    0.00 130048.00     0.00   283.64     0.00    0.00    0.00    0.00   0.00   0.00

