Linux 4.17.2 (bench2) 	08/03/2018 	_x86_64_	(32 CPU)

avg-cpu:  %user   %nice %system %iowait  %steal   %idle
           1.92    0.00    1.58    1.51    0.00   94.99

Device:         rrqm/s   wrqm/s     r/s     w/s    rkB/s    wkB/s avgrq-sz avgqu-sz   await r_await w_await  svctm  %util
nvme0n1         956.13     5.19 19275.13  530.70 107817.04 11968.96    12.10     1.37    0.05    0.03    0.67   0.02  40.35
sda               0.11     0.81   14.13    0.57   163.91     8.50    23.46     0.00    0.33    0.32    0.45   0.07   0.10
sdc              32.59     0.14  106.33    0.30  1599.68    83.07    31.56     1.48   13.90   12.89  373.51   0.94  10.00
sdb              30.51     0.15  108.37    0.32  1597.81    82.89    30.93     0.36    3.33    2.17  394.60   0.87   9.51
sdd              32.79     0.13  105.87    0.25  1595.73    82.55    31.63     0.65    6.09    4.26  782.19   0.94  10.01
md0               0.00     0.00  419.35    1.07  5908.03   291.04    29.49     0.00    0.00    0.00    0.00   0.00   0.00

avg-cpu:  %user   %nice %system %iowait  %steal   %idle
           3.04    0.00    0.25    2.85    0.00   93.87

Device:         rrqm/s   wrqm/s     r/s     w/s    rkB/s    wkB/s avgrq-sz avgqu-sz   await r_await w_await  svctm  %util
nvme0n1           0.00     0.00    0.00    0.00     0.00     0.00     0.00     0.00    0.00    0.00    0.00   0.00   0.00
sda               0.00     0.00   21.00    0.00   124.00     0.00    11.81     0.00    0.05    0.05    0.00   0.05   0.10
sdc               0.00     0.00 2101.00    0.00  8428.00     0.00     8.02     0.35    0.17    0.17    0.00   0.17  35.40
sdb               0.00     0.00 1809.00    0.00  7236.00     0.00     8.00     0.32    0.18    0.18    0.00   0.18  31.70
sdd               0.00     0.00 1848.00    0.00  7392.00     0.00     8.00     0.28    0.15    0.15    0.00   0.15  28.50
md0               0.00     0.00 5759.00    0.00 23060.00     0.00     8.01     0.00    0.00    0.00    0.00   0.00   0.00

avg-cpu:  %user   %nice %system %iowait  %steal   %idle
           3.10    0.00    0.22    2.88    0.00   93.80

Device:         rrqm/s   wrqm/s     r/s     w/s    rkB/s    wkB/s avgrq-sz avgqu-sz   await r_await w_await  svctm  %util
nvme0n1           0.00     0.00    0.00    0.00     0.00     0.00     0.00     0.00    0.00    0.00    0.00   0.00   0.00
sda               0.00     0.00    0.00    0.00     0.00     0.00     0.00     0.00    0.00    0.00    0.00   0.00   0.00
sdc               0.00     0.00 2043.00    0.00  8172.00     0.00     8.00     0.31    0.15    0.15    0.00   0.15  31.00
sdb               0.00     0.00 1811.00    0.00  7244.00     0.00     8.00     0.31    0.17    0.17    0.00   0.17  30.60
sdd               0.00     0.00 1986.00    0.00  7944.00     0.00     8.00     0.34    0.17    0.17    0.00   0.17  33.80
md0               0.00     0.00 5840.00    0.00 23360.00     0.00     8.00     0.00    0.00    0.00    0.00   0.00   0.00

avg-cpu:  %user   %nice %system %iowait  %steal   %idle
           3.13    0.00    0.19    2.88    0.00   93.81

Device:         rrqm/s   wrqm/s     r/s     w/s    rkB/s    wkB/s avgrq-sz avgqu-sz   await r_await w_await  svctm  %util
nvme0n1           0.00     0.00    0.00    0.00     0.00     0.00     0.00     0.00    0.00    0.00    0.00   0.00   0.00
sda               0.00     0.00    0.00    0.00     0.00     0.00     0.00     0.00    0.00    0.00    0.00   0.00   0.00
sdc               0.00     0.00 2119.00    0.00  8476.00     0.00     8.00     0.32    0.15    0.15    0.00   0.15  31.70
sdb               0.00     0.00 2319.00    0.00  9276.00     0.00     8.00     0.33    0.14    0.14    0.00   0.14  32.70
sdd               0.00     0.00 2201.00    0.00  8804.00     0.00     8.00     0.31    0.14    0.14    0.00   0.14  30.90
md0               0.00     0.00 6640.00    0.00 26560.00     0.00     8.00     0.00    0.00    0.00    0.00   0.00   0.00

avg-cpu:  %user   %nice %system %iowait  %steal   %idle
           3.10    0.00    0.25    2.88    0.00   93.78

Device:         rrqm/s   wrqm/s     r/s     w/s    rkB/s    wkB/s avgrq-sz avgqu-sz   await r_await w_await  svctm  %util
nvme0n1           0.00     0.00    0.00    0.00     0.00     0.00     0.00     0.00    0.00    0.00    0.00   0.00   0.00
sda               0.00     0.00    0.00    0.00     0.00     0.00     0.00     0.00    0.00    0.00    0.00   0.00   0.00
sdc               0.00     0.00 2083.00    0.00  8332.00     0.00     8.00     0.33    0.16    0.16    0.00   0.16  33.30
sdb               0.00     0.00 2089.00    0.00  8356.00     0.00     8.00     0.29    0.14    0.14    0.00   0.14  28.80
sdd               0.00     0.00 2090.00    0.00  8360.00     0.00     8.00     0.34    0.16    0.16    0.00   0.16  33.70
md0               0.00     0.00 6261.00    0.00 25044.00     0.00     8.00     0.00    0.00    0.00    0.00   0.00   0.00

avg-cpu:  %user   %nice %system %iowait  %steal   %idle
           3.10    0.00    0.13    2.88    0.00   93.89

Device:         rrqm/s   wrqm/s     r/s     w/s    rkB/s    wkB/s avgrq-sz avgqu-sz   await r_await w_await  svctm  %util
nvme0n1           0.00     0.00    0.00    0.00     0.00     0.00     0.00     0.00    0.00    0.00    0.00   0.00   0.00
sda               0.00     0.00    0.00    0.00     0.00     0.00     0.00     0.00    0.00    0.00    0.00   0.00   0.00
sdc               0.00     0.00 1943.00    0.00  7772.00     0.00     8.00     0.35    0.18    0.18    0.00   0.18  34.80
sdb               0.00     0.00 1869.00    0.00  7476.00     0.00     8.00     0.29    0.16    0.16    0.00   0.16  29.10
sdd               0.00     0.00 1938.00    0.00  7752.00     0.00     8.00     0.33    0.17    0.17    0.00   0.17  32.60
md0               0.00     0.00 5751.00    0.00 23004.00     0.00     8.00     0.00    0.00    0.00    0.00   0.00   0.00

avg-cpu:  %user   %nice %system %iowait  %steal   %idle
           3.13    0.00    0.22    2.88    0.00   93.77

Device:         rrqm/s   wrqm/s     r/s     w/s    rkB/s    wkB/s avgrq-sz avgqu-sz   await r_await w_await  svctm  %util
nvme0n1           0.00     0.00    0.00    0.00     0.00     0.00     0.00     0.00    0.00    0.00    0.00   0.00   0.00
sda               0.00     9.00   56.00    2.00   436.00    44.00    16.55     0.02    0.33    0.32    0.50   0.10   0.60
sdc               0.00     0.00 2130.00    0.00  8520.00     0.00     8.00     0.34    0.16    0.16    0.00   0.16  34.50
sdb               0.00     0.00 2012.00    0.00  8048.00     0.00     8.00     0.33    0.17    0.17    0.00   0.17  33.30
sdd               0.00     0.00 1954.00    0.00  7816.00     0.00     8.00     0.29    0.15    0.15    0.00   0.15  28.70
md0               0.00     0.00 6096.00    0.00 24384.00     0.00     8.00     0.00    0.00    0.00    0.00   0.00   0.00

avg-cpu:  %user   %nice %system %iowait  %steal   %idle
           3.07    0.00    0.25    2.88    0.00   93.81

Device:         rrqm/s   wrqm/s     r/s     w/s    rkB/s    wkB/s avgrq-sz avgqu-sz   await r_await w_await  svctm  %util
nvme0n1           0.00     0.00    0.00    0.00     0.00     0.00     0.00     0.00    0.00    0.00    0.00   0.00   0.00
sda               0.00     0.00    0.00    0.00     0.00     0.00     0.00     0.00    0.00    0.00    0.00   0.00   0.00
sdc               0.00     0.00 1953.00    0.00  7812.00     0.00     8.00     0.27    0.14    0.14    0.00   0.14  27.00
sdb               0.00     0.00 2147.00    0.00  8588.00     0.00     8.00     0.35    0.16    0.16    0.00   0.16  34.90
sdd               0.00     0.00 2075.00    0.00  8300.00     0.00     8.00     0.33    0.16    0.16    0.00   0.16  32.50
md0               0.00     0.00 6174.00    0.00 24696.00     0.00     8.00     0.00    0.00    0.00    0.00   0.00   0.00

avg-cpu:  %user   %nice %system %iowait  %steal   %idle
           3.10    0.00    0.22    2.88    0.00   93.80

Device:         rrqm/s   wrqm/s     r/s     w/s    rkB/s    wkB/s avgrq-sz avgqu-sz   await r_await w_await  svctm  %util
nvme0n1           0.00     0.00    0.00    0.00     0.00     0.00     0.00     0.00    0.00    0.00    0.00   0.00   0.00
sda               0.00     0.00    0.00    0.00     0.00     0.00     0.00     0.00    0.00    0.00    0.00   0.00   0.00
sdc               0.00     0.00 1915.00    0.00  7660.00     0.00     8.00     0.28    0.15    0.15    0.00   0.15  28.10
sdb               0.00     0.00 2141.00    0.00  8564.00     0.00     8.00     0.32    0.15    0.15    0.00   0.15  32.10
sdd               0.00     0.00 2077.00    0.00  8308.00     0.00     8.00     0.35    0.17    0.17    0.00   0.17  34.60
md0               0.00     0.00 6133.00    0.00 24532.00     0.00     8.00     0.00    0.00    0.00    0.00   0.00   0.00

avg-cpu:  %user   %nice %system %iowait  %steal   %idle
           3.07    0.00    0.22    2.88    0.00   93.83

Device:         rrqm/s   wrqm/s     r/s     w/s    rkB/s    wkB/s avgrq-sz avgqu-sz   await r_await w_await  svctm  %util
nvme0n1           0.00     0.00    0.00    0.00     0.00     0.00     0.00     0.00    0.00    0.00    0.00   0.00   0.00
sda               0.00     0.00    0.00    0.00     0.00     0.00     0.00     0.00    0.00    0.00    0.00   0.00   0.00
sdc               0.00     0.00 2138.00    0.00  8552.00     0.00     8.00     0.35    0.16    0.16    0.00   0.16  34.60
sdb               0.00     0.00 2055.00    0.00  8220.00     0.00     8.00     0.30    0.15    0.15    0.00   0.15  30.50
sdd               0.00     0.00 1989.00    0.00  7956.00     0.00     8.00     0.31    0.16    0.16    0.00   0.16  31.00
md0               0.00     0.00 6183.00    0.00 24732.00     0.00     8.00     0.00    0.00    0.00    0.00   0.00   0.00

avg-cpu:  %user   %nice %system %iowait  %steal   %idle
           3.10    0.00    0.25    2.88    0.00   93.78

Device:         rrqm/s   wrqm/s     r/s     w/s    rkB/s    wkB/s avgrq-sz avgqu-sz   await r_await w_await  svctm  %util
nvme0n1           0.00     0.00    0.00    0.00     0.00     0.00     0.00     0.00    0.00    0.00    0.00   0.00   0.00
sda               0.00     0.00    0.00    0.00     0.00     0.00     0.00     0.00    0.00    0.00    0.00   0.00   0.00
sdc               0.00     0.00 2175.00    0.00  8700.00     0.00     8.00     0.31    0.14    0.14    0.00   0.14  31.00
sdb               0.00     0.00 2088.00    0.00  8352.00     0.00     8.00     0.33    0.16    0.16    0.00   0.16  32.50
sdd               0.00     0.00 2008.00    0.00  8032.00     0.00     8.00     0.32    0.16    0.16    0.00   0.16  31.70
md0               0.00     0.00 6270.00    0.00 25080.00     0.00     8.00     0.00    0.00    0.00    0.00   0.00   0.00

avg-cpu:  %user   %nice %system %iowait  %steal   %idle
           3.10    0.00    0.25    2.88    0.00   93.78

Device:         rrqm/s   wrqm/s     r/s     w/s    rkB/s    wkB/s avgrq-sz avgqu-sz   await r_await w_await  svctm  %util
nvme0n1           0.00     0.00    0.00    0.00     0.00     0.00     0.00     0.00    0.00    0.00    0.00   0.00   0.00
sda               0.00     4.00    2.00    6.00     8.00    56.00    16.00     0.00    0.00    0.00    0.00   0.00   0.00
sdc               0.00     0.00 2112.00    0.00  8448.00     0.00     8.00     0.32    0.15    0.15    0.00   0.15  31.80
sdb               0.00     0.00 2250.00    0.00  9000.00     0.00     8.00     0.34    0.15    0.15    0.00   0.15  34.10
sdd               0.00     0.00 2060.00    0.00  8240.00     0.00     8.00     0.30    0.14    0.14    0.00   0.14  29.80
md0               0.00     0.00 6422.00    0.00 25688.00     0.00     8.00     0.00    0.00    0.00    0.00   0.00   0.00

avg-cpu:  %user   %nice %system %iowait  %steal   %idle
           3.13    0.00    0.19    2.88    0.00   93.81

Device:         rrqm/s   wrqm/s     r/s     w/s    rkB/s    wkB/s avgrq-sz avgqu-sz   await r_await w_await  svctm  %util
nvme0n1           0.00     0.00    0.00    0.00     0.00     0.00     0.00     0.00    0.00    0.00    0.00   0.00   0.00
sda               0.00     0.00    0.00    0.00     0.00     0.00     0.00     0.00    0.00    0.00    0.00   0.00   0.00
sdc               0.00     0.00 2079.00    0.00  8316.00     0.00     8.00     0.31    0.15    0.15    0.00   0.15  31.40
sdb               0.00     0.00 1960.00    0.00  7840.00     0.00     8.00     0.32    0.16    0.16    0.00   0.16  32.10
sdd               0.00     0.00 2030.00    0.00  8120.00     0.00     8.00     0.31    0.15    0.15    0.00   0.15  31.00
md0               0.00     0.00 6070.00    0.00 24280.00     0.00     8.00     0.00    0.00    0.00    0.00   0.00   0.00

avg-cpu:  %user   %nice %system %iowait  %steal   %idle
           3.10    0.00    0.25    2.91    0.00   93.75

Device:         rrqm/s   wrqm/s     r/s     w/s    rkB/s    wkB/s avgrq-sz avgqu-sz   await r_await w_await  svctm  %util
nvme0n1           0.00     0.00    0.00    0.00     0.00     0.00     0.00     0.00    0.00    0.00    0.00   0.00   0.00
sda               0.00     0.00    0.00    0.00     0.00     0.00     0.00     0.00    0.00    0.00    0.00   0.00   0.00
sdc               0.00     0.00 1930.00    0.00  7720.00     0.00     8.00     0.29    0.15    0.15    0.00   0.15  29.40
sdb               0.00     0.00 2024.00    0.00  8096.00     0.00     8.00     0.35    0.17    0.17    0.00   0.17  34.90
sdd               0.00     0.00 2061.00    0.00  8244.00     0.00     8.00     0.30    0.15    0.15    0.00   0.15  30.40
md0               0.00     0.00 6015.00    0.00 24060.00     0.00     8.00     0.00    0.00    0.00    0.00   0.00   0.00

avg-cpu:  %user   %nice %system %iowait  %steal   %idle
           3.10    0.00    0.19    2.88    0.00   93.83

Device:         rrqm/s   wrqm/s     r/s     w/s    rkB/s    wkB/s avgrq-sz avgqu-sz   await r_await w_await  svctm  %util
nvme0n1           0.00     0.00    0.00    0.00     0.00     0.00     0.00     0.00    0.00    0.00    0.00   0.00   0.00
sda               0.00     0.00    0.00    0.00     0.00     0.00     0.00     0.00    0.00    0.00    0.00   0.00   0.00
sdc               0.00     0.00 1961.00    0.00  7844.00     0.00     8.00     0.30    0.15    0.15    0.00   0.15  29.90
sdb               0.00     0.00 2142.00    0.00  8568.00     0.00     8.00     0.32    0.15    0.15    0.00   0.15  32.30
sdd               0.00     0.00 1947.00    0.00  7788.00     0.00     8.00     0.33    0.17    0.17    0.00   0.17  33.20
md0               0.00     0.00 6050.00    0.00 24200.00     0.00     8.00     0.00    0.00    0.00    0.00   0.00   0.00

avg-cpu:  %user   %nice %system %iowait  %steal   %idle
           3.10    0.00    0.25    2.88    0.00   93.78

Device:         rrqm/s   wrqm/s     r/s     w/s    rkB/s    wkB/s avgrq-sz avgqu-sz   await r_await w_await  svctm  %util
nvme0n1           0.00     0.00    0.00    0.00     0.00     0.00     0.00     0.00    0.00    0.00    0.00   0.00   0.00
sda               0.00     0.00    0.00    0.00     0.00     0.00     0.00     0.00    0.00    0.00    0.00   0.00   0.00
sdc               0.00     0.00 2200.00    0.00  8800.00     0.00     8.00     0.37    0.17    0.17    0.00   0.17  36.70
sdb               0.00     0.00 1968.00    0.00  7872.00     0.00     8.00     0.28    0.14    0.14    0.00   0.14  28.30
sdd               0.00     0.00 2138.00    0.00  8552.00     0.00     8.00     0.30    0.14    0.14    0.00   0.14  29.60
md0               0.00     0.00 6305.00    0.00 25220.00     0.00     8.00     0.00    0.00    0.00    0.00   0.00   0.00

avg-cpu:  %user   %nice %system %iowait  %steal   %idle
           3.10    0.00    0.19    2.88    0.00   93.83

Device:         rrqm/s   wrqm/s     r/s     w/s    rkB/s    wkB/s avgrq-sz avgqu-sz   await r_await w_await  svctm  %util
nvme0n1           0.00     0.00    0.00    0.00     0.00     0.00     0.00     0.00    0.00    0.00    0.00   0.00   0.00
sda               0.00     6.00    0.00    2.00     0.00    32.00    32.00     0.00    0.00    0.00    0.00   0.00   0.00
sdc               0.00     0.00 2042.00    0.00  8168.00     0.00     8.00     0.31    0.15    0.15    0.00   0.15  31.40
sdb               0.00     0.00 2080.00    0.00  8320.00     0.00     8.00     0.31    0.15    0.15    0.00   0.15  31.40
sdd               0.00     0.00 1924.00    0.00  7696.00     0.00     8.00     0.33    0.17    0.17    0.00   0.17  33.10
md0               0.00     0.00 6046.00    0.00 24184.00     0.00     8.00     0.00    0.00    0.00    0.00   0.00   0.00

avg-cpu:  %user   %nice %system %iowait  %steal   %idle
           3.10    0.00    0.25    2.88    0.00   93.78

Device:         rrqm/s   wrqm/s     r/s     w/s    rkB/s    wkB/s avgrq-sz avgqu-sz   await r_await w_await  svctm  %util
nvme0n1           0.00     0.00    0.00    0.00     0.00     0.00     0.00     0.00    0.00    0.00    0.00   0.00   0.00
sda               0.00     0.00    0.00    0.00     0.00     0.00     0.00     0.00    0.00    0.00    0.00   0.00   0.00
sdc               0.00     0.00 1986.00    0.00  7944.00     0.00     8.00     0.30    0.15    0.15    0.00   0.15  30.10
sdb               0.00     0.00 2101.00    0.00  8404.00     0.00     8.00     0.32    0.15    0.15    0.00   0.15  32.40
sdd               0.00     0.00 1995.00    0.00  7980.00     0.00     8.00     0.33    0.17    0.17    0.00   0.17  33.00
md0               0.00     0.00 6082.00    0.00 24328.00     0.00     8.00     0.00    0.00    0.00    0.00   0.00   0.00

avg-cpu:  %user   %nice %system %iowait  %steal   %idle
           3.10    0.00    0.22    2.88    0.00   93.80

Device:         rrqm/s   wrqm/s     r/s     w/s    rkB/s    wkB/s avgrq-sz avgqu-sz   await r_await w_await  svctm  %util
nvme0n1           0.00     0.00    0.00    0.00     0.00     0.00     0.00     0.00    0.00    0.00    0.00   0.00   0.00
sda               0.00     0.00    0.00    0.00     0.00     0.00     0.00     0.00    0.00    0.00    0.00   0.00   0.00
sdc               0.00     0.00 2277.00    0.00  9108.00     0.00     8.00     0.35    0.16    0.16    0.00   0.16  35.30
sdb               0.00     0.00 2159.00    0.00  8636.00     0.00     8.00     0.32    0.15    0.15    0.00   0.15  32.30
sdd               0.00     0.00 2011.00    0.00  8044.00     0.00     8.00     0.28    0.14    0.14    0.00   0.14  27.90
md0               0.00     0.00 6447.00    0.00 25788.00     0.00     8.00     0.00    0.00    0.00    0.00   0.00   0.00

avg-cpu:  %user   %nice %system %iowait  %steal   %idle
           3.10    0.00    0.22    2.88    0.00   93.81

Device:         rrqm/s   wrqm/s     r/s     w/s    rkB/s    wkB/s avgrq-sz avgqu-sz   await r_await w_await  svctm  %util
nvme0n1           0.00     0.00    0.00    0.00     0.00     0.00     0.00     0.00    0.00    0.00    0.00   0.00   0.00
sda               0.00     0.00    0.00    0.00     0.00     0.00     0.00     0.00    0.00    0.00    0.00   0.00   0.00
sdc               0.00     0.00 2077.00    0.00  8308.00     0.00     8.00     0.31    0.15    0.15    0.00   0.15  31.40
sdb               0.00     0.00 1875.00    0.00  7500.00     0.00     8.00     0.32    0.17    0.17    0.00   0.17  32.40
sdd               0.00     0.00 1960.00    0.00  7840.00     0.00     8.00     0.31    0.16    0.16    0.00   0.16  31.40
md0               0.00     0.00 5912.00    0.00 23648.00     0.00     8.00     0.00    0.00    0.00    0.00   0.00   0.00

avg-cpu:  %user   %nice %system %iowait  %steal   %idle
           3.10    0.00    0.25    2.88    0.00   93.78

Device:         rrqm/s   wrqm/s     r/s     w/s    rkB/s    wkB/s avgrq-sz avgqu-sz   await r_await w_await  svctm  %util
nvme0n1           0.00     0.00    0.00    0.00     0.00     0.00     0.00     0.00    0.00    0.00    0.00   0.00   0.00
sda               0.00     1.00    0.00    1.00     0.00    12.00    24.00     0.00    0.00    0.00    0.00   0.00   0.00
sdc               0.00     0.00 2161.00    0.00  8644.00     0.00     8.00     0.32    0.15    0.15    0.00   0.15  31.60
sdb               0.00     0.00 2006.00    0.00  8024.00     0.00     8.00     0.32    0.16    0.16    0.00   0.16  31.80
sdd               0.00     0.00 2146.00    0.00  8584.00     0.00     8.00     0.32    0.15    0.15    0.00   0.15  31.60
md0               0.00     0.00 6313.00    0.00 25252.00     0.00     8.00     0.00    0.00    0.00    0.00   0.00   0.00

