Linux 4.17.2 (bench2) 	08/03/2018 	_x86_64_	(32 CPU)

avg-cpu:  %user   %nice %system %iowait  %steal   %idle
           1.91    0.00    1.57    1.54    0.00   94.98

Device:         rrqm/s   wrqm/s     r/s     w/s    rkB/s    wkB/s avgrq-sz avgqu-sz   await r_await w_await  svctm  %util
nvme0n1         947.91     5.15 19109.47  526.14 106890.42 11866.09    12.10     1.36    0.05    0.03    0.67   0.02  40.00
sda               0.12     0.81   14.15    0.58   163.98     8.51    23.43     0.00    0.33    0.32    0.45   0.07   0.10
sdc              33.15     0.14  111.73    0.30  1688.12    82.35    31.61     1.54   13.71   12.75  373.51   0.93  10.38
sdb              31.09     0.15  113.75    0.32  1686.21    82.17    31.01     0.42    3.69    2.60  394.60   0.86   9.86
sdd              33.35     0.13  111.27    0.25  1684.13    81.84    31.67     0.71    6.33    4.60  782.19   0.93  10.38
md0               0.00     0.00  437.20    1.06  6253.02   288.54    29.85     0.00    0.00    0.00    0.00   0.00   0.00

avg-cpu:  %user   %nice %system %iowait  %steal   %idle
           3.03    0.00    0.31    2.78    0.00   93.87

Device:         rrqm/s   wrqm/s     r/s     w/s    rkB/s    wkB/s avgrq-sz avgqu-sz   await r_await w_await  svctm  %util
nvme0n1           0.00     0.00    0.00    0.00     0.00     0.00     0.00     0.00    0.00    0.00    0.00   0.00   0.00
sda               0.00     0.00    1.00    0.00     8.00     0.00    16.00     0.00    0.00    0.00    0.00   0.00   0.00
sdc              66.00     0.00  820.00    0.00 53904.00     0.00   131.47     0.54    0.66    0.66    0.00   0.49  40.10
sdb              66.00     0.00  825.00    0.00 55908.00     0.00   135.53     0.54    0.65    0.65    0.00   0.49  40.70
sdd              69.00     0.00  892.00    0.00 55072.00     0.00   123.48     0.82    0.91    0.91    0.00   0.67  59.60
md0               0.00     0.00 2739.00    0.00 228272.00     0.00   166.68     0.00    0.00    0.00    0.00   0.00   0.00

avg-cpu:  %user   %nice %system %iowait  %steal   %idle
           3.03    0.00    0.34    2.75    0.00   93.87

Device:         rrqm/s   wrqm/s     r/s     w/s    rkB/s    wkB/s avgrq-sz avgqu-sz   await r_await w_await  svctm  %util
nvme0n1           0.00     0.00    0.00    0.00     0.00     0.00     0.00     0.00    0.00    0.00    0.00   0.00   0.00
sda               0.00     0.00    0.00   11.00     0.00    44.00     8.00     0.00    0.00    0.00    0.00   0.00   0.00
sdc              52.00     0.00 1053.00    0.00 52164.00     0.00    99.08     0.47    0.44    0.44    0.00   0.36  37.70
sdb              50.00     0.00 1053.00    0.00 53044.00     0.00   100.75     0.69    0.66    0.66    0.00   0.46  48.80
sdd              51.00     0.00  993.00    0.00 55056.00     0.00   110.89     0.55    0.55    0.55    0.00   0.43  42.50
md0               0.00     0.00 3252.00    0.00 218180.00     0.00   134.18     0.00    0.00    0.00    0.00   0.00   0.00

avg-cpu:  %user   %nice %system %iowait  %steal   %idle
           3.04    0.00    0.25    2.72    0.00   93.99

Device:         rrqm/s   wrqm/s     r/s     w/s    rkB/s    wkB/s avgrq-sz avgqu-sz   await r_await w_await  svctm  %util
nvme0n1           0.00     0.00    0.00    0.00     0.00     0.00     0.00     0.00    0.00    0.00    0.00   0.00   0.00
sda               0.00     0.00    0.00    0.00     0.00     0.00     0.00     0.00    0.00    0.00    0.00   0.00   0.00
sdc              57.00     0.00  959.00    0.00 52048.00     0.00   108.55     0.54    0.57    0.57    0.00   0.46  44.20
sdb              57.00     0.00  910.00    0.00 54420.00     0.00   119.60     0.55    0.61    0.61    0.00   0.45  41.40
sdd              56.00     0.00  990.00    0.00 54560.00     0.00   110.22     0.62    0.62    0.62    0.00   0.51  50.30
md0               0.00     0.00 3031.00    0.00 220988.00     0.00   145.82     0.00    0.00    0.00    0.00   0.00   0.00

