Linux 4.17.2 (bench2) 	08/03/2018 	_x86_64_	(32 CPU)

avg-cpu:  %user   %nice %system %iowait  %steal   %idle
           1.92    0.00    1.57    1.53    0.00   94.98

Device:         rrqm/s   wrqm/s     r/s     w/s    rkB/s    wkB/s avgrq-sz avgqu-sz   await r_await w_await  svctm  %util
nvme0n1         950.15     5.16 19154.64  527.39 107143.07 11894.14    12.10     1.36    0.05    0.03    0.67   0.02  40.10
sda               0.11     0.81   14.14    0.57   163.99     8.51    23.44     0.00    0.33    0.32    0.45   0.07   0.10
sdc              33.04     0.14  110.47    0.30  1659.08    82.55    31.45     1.51   13.67   12.70  373.51   0.93  10.27
sdb              30.98     0.15  112.50    0.32  1657.19    82.37    30.84     0.40    3.53    2.42  394.60   0.86   9.75
sdd              33.24     0.13  110.01    0.25  1655.08    82.04    31.51     0.68    6.19    4.44  782.19   0.93  10.27
md0               0.00     0.00  433.10    1.06  6136.83   289.22    29.60     0.00    0.00    0.00    0.00   0.00   0.00

avg-cpu:  %user   %nice %system %iowait  %steal   %idle
           2.94    0.00    0.38    2.66    0.00   94.03

Device:         rrqm/s   wrqm/s     r/s     w/s    rkB/s    wkB/s avgrq-sz avgqu-sz   await r_await w_await  svctm  %util
nvme0n1           0.00     0.00    0.00    0.00     0.00     0.00     0.00     0.00    0.00    0.00    0.00   0.00   0.00
sda               0.00     0.00   19.00    0.00    80.00     0.00     8.42     0.00    0.05    0.05    0.00   0.05   0.10
sdc             126.00     0.00  160.00    0.00 67956.00     0.00   849.45     1.61   10.07   10.07    0.00   4.51  72.10
sdb             135.00     0.00  152.00    0.00 67808.00     0.00   892.21     1.52    9.96    9.96    0.00   4.91  74.60
sdd             128.00     0.00  151.00    0.00 66732.00     0.00   883.87     1.90   12.36   12.36    0.00   5.36  80.90
md0               0.00     0.00  858.00    0.00 322280.00     0.00   751.24     0.00    0.00    0.00    0.00   0.00   0.00

avg-cpu:  %user   %nice %system %iowait  %steal   %idle
           2.91    0.00    0.44    2.56    0.00   94.09

Device:         rrqm/s   wrqm/s     r/s     w/s    rkB/s    wkB/s avgrq-sz avgqu-sz   await r_await w_await  svctm  %util
nvme0n1           0.00     0.00    0.00    0.00     0.00     0.00     0.00     0.00    0.00    0.00    0.00   0.00   0.00
sda               0.00     8.00    0.00    2.00     0.00    40.00    40.00     0.00    0.50    0.00    0.50   0.50   0.10
sdc             138.00     0.00  191.00    0.00 77128.00     0.00   807.62     1.81    9.45    9.45    0.00   4.35  83.00
sdb             145.00     0.00  182.00    0.00 76992.00     0.00   846.07     1.25    6.81    6.81    0.00   3.53  64.20
sdd             142.00     0.00  195.00    0.00 78524.00     0.00   805.37     1.52    7.94    7.94    0.00   3.81  74.20
md0               0.00     0.00  990.00    0.00 376408.00     0.00   760.42     0.00    0.00    0.00    0.00   0.00   0.00

