Linux 4.17.2 (bench2) 	08/03/2018 	_x86_64_	(32 CPU)

avg-cpu:  %user   %nice %system %iowait  %steal   %idle
           1.92    0.00    1.58    1.51    0.00   94.99

Device:         rrqm/s   wrqm/s     r/s     w/s    rkB/s    wkB/s avgrq-sz avgqu-sz   await r_await w_await  svctm  %util
nvme0n1         957.20     5.20 19296.78  531.30 107938.15 11982.40    12.10     1.37    0.05    0.03    0.67   0.02  40.40
sda               0.11     0.81   14.12    0.57   163.88     8.50    23.47     0.00    0.33    0.32    0.45   0.07   0.10
sdc              32.48     0.14  105.33    0.30  1596.43    83.16    31.80     1.48   14.03   13.00  373.51   0.94   9.97
sdb              30.40     0.15  107.37    0.32  1594.56    82.98    31.15     0.36    3.34    2.17  394.60   0.88   9.47
sdd              32.68     0.13  104.87    0.25  1592.48    82.65    31.87     0.65    6.14    4.28  782.19   0.95   9.97
md0               0.00     0.00  416.03    1.07  5899.53   291.37    29.69     0.00    0.00    0.00    0.00   0.00   0.00

avg-cpu:  %user   %nice %system %iowait  %steal   %idle
           3.13    0.00    0.06    0.94    0.00   95.87

Device:         rrqm/s   wrqm/s     r/s     w/s    rkB/s    wkB/s avgrq-sz avgqu-sz   await r_await w_await  svctm  %util
nvme0n1           0.00     0.00    0.00    0.00     0.00     0.00     0.00     0.00    0.00    0.00    0.00   0.00   0.00
sda               0.00     0.00   21.00    0.00   124.00     0.00    11.81     0.00    0.05    0.05    0.00   0.05   0.10
sdc               0.00     0.00  154.00    0.00   616.00     0.00     8.00     0.22    1.41    1.41    0.00   1.41  21.70
sdb               0.00     0.00  164.00    0.00   656.00     0.00     8.00     0.36    2.15    2.15    0.00   2.22  36.40
sdd               0.00     0.00  163.00    0.00   652.00     0.00     8.00     0.41    2.49    2.49    0.00   2.48  40.50
md0               0.00     0.00  481.00    0.00  1924.00     0.00     8.00     0.00    0.00    0.00    0.00   0.00   0.00

avg-cpu:  %user   %nice %system %iowait  %steal   %idle
           3.13    0.00    0.03    0.94    0.00   95.90

Device:         rrqm/s   wrqm/s     r/s     w/s    rkB/s    wkB/s avgrq-sz avgqu-sz   await r_await w_await  svctm  %util
nvme0n1           0.00     0.00    0.00    0.00     0.00     0.00     0.00     0.00    0.00    0.00    0.00   0.00   0.00
sda               0.00     0.00    0.00    0.00     0.00     0.00     0.00     0.00    0.00    0.00    0.00   0.00   0.00
sdc               0.00     0.00  174.00    0.00   696.00     0.00     8.00     0.32    1.86    1.86    0.00   1.86  32.30
sdb               0.00     0.00  159.00    0.00   636.00     0.00     8.00     0.30    1.99    1.99    0.00   1.91  30.40
sdd               0.00     0.00  157.00    0.00   628.00     0.00     8.00     0.35    2.24    2.24    0.00   2.25  35.40
md0               0.00     0.00  490.00    0.00  1960.00     0.00     8.00     0.00    0.00    0.00    0.00   0.00   0.00

avg-cpu:  %user   %nice %system %iowait  %steal   %idle
           3.12    0.00    0.06    1.03    0.00   95.78

Device:         rrqm/s   wrqm/s     r/s     w/s    rkB/s    wkB/s avgrq-sz avgqu-sz   await r_await w_await  svctm  %util
nvme0n1           0.00     0.00    0.00    0.00     0.00     0.00     0.00     0.00    0.00    0.00    0.00   0.00   0.00
sda               0.00     0.00    0.00    0.00     0.00     0.00     0.00     0.00    0.00    0.00    0.00   0.00   0.00
sdc               0.00     0.00  172.00    0.00   688.00     0.00     8.00     0.36    2.07    2.07    0.00   2.07  35.60
sdb               0.00     0.00  159.00    0.00   636.00     0.00     8.00     0.34    2.14    2.14    0.00   2.16  34.30
sdd               0.00     0.00  181.00    0.00   724.00     0.00     8.00     0.28    1.58    1.58    0.00   1.57  28.40
md0               0.00     0.00  512.00    0.00  2048.00     0.00     8.00     0.00    0.00    0.00    0.00   0.00   0.00

avg-cpu:  %user   %nice %system %iowait  %steal   %idle
           3.13    0.00    0.03    0.97    0.00   95.87

Device:         rrqm/s   wrqm/s     r/s     w/s    rkB/s    wkB/s avgrq-sz avgqu-sz   await r_await w_await  svctm  %util
nvme0n1           0.00     0.00    0.00    0.00     0.00     0.00     0.00     0.00    0.00    0.00    0.00   0.00   0.00
sda               0.00     0.00    0.00    0.00     0.00     0.00     0.00     0.00    0.00    0.00    0.00   0.00   0.00
sdc               0.00     0.00  168.00    0.00   672.00     0.00     8.00     0.33    1.97    1.97    0.00   1.96  33.00
sdb               0.00     0.00  178.00    0.00   712.00     0.00     8.00     0.39    2.17    2.17    0.00   2.17  38.60
sdd               0.00     0.00  179.00    0.00   716.00     0.00     8.00     0.27    1.48    1.48    0.00   1.48  26.50
md0               0.00     0.00  525.00    0.00  2100.00     0.00     8.00     0.00    0.00    0.00    0.00   0.00   0.00

avg-cpu:  %user   %nice %system %iowait  %steal   %idle
           3.10    0.00    0.06    0.97    0.00   95.87

Device:         rrqm/s   wrqm/s     r/s     w/s    rkB/s    wkB/s avgrq-sz avgqu-sz   await r_await w_await  svctm  %util
nvme0n1           0.00     0.00    0.00    0.00     0.00     0.00     0.00     0.00    0.00    0.00    0.00   0.00   0.00
sda               0.00     0.00    0.00    0.00     0.00     0.00     0.00     0.00    0.00    0.00    0.00   0.00   0.00
sdc               0.00     0.00  143.00    0.00   572.00     0.00     8.00     0.36    2.50    2.50    0.00   2.55  36.50
sdb               0.00     0.00  172.00    0.00   688.00     0.00     8.00     0.32    1.87    1.87    0.00   1.86  32.00
sdd               0.00     0.00  189.00    0.00   756.00     0.00     8.00     0.29    1.55    1.55    0.00   1.55  29.30
md0               0.00     0.00  504.00    0.00  2016.00     0.00     8.00     0.00    0.00    0.00    0.00   0.00   0.00

avg-cpu:  %user   %nice %system %iowait  %steal   %idle
           3.13    0.00    0.03    0.75    0.00   96.09

Device:         rrqm/s   wrqm/s     r/s     w/s    rkB/s    wkB/s avgrq-sz avgqu-sz   await r_await w_await  svctm  %util
nvme0n1           0.00     0.00    0.00    0.00     0.00     0.00     0.00     0.00    0.00    0.00    0.00   0.00   0.00
sda               0.00    10.00    0.00    2.00     0.00    48.00    48.00     0.00    0.00    0.00    0.00   0.00   0.00
sdc               0.00     0.00  191.00    0.00   764.00     0.00     8.00     0.32    1.70    1.70    0.00   1.66  31.70
sdb               0.00     0.00  146.00    0.00   584.00     0.00     8.00     0.34    2.30    2.30    0.00   2.31  33.70
sdd               0.00     0.00  161.00    0.00   644.00     0.00     8.00     0.33    2.03    2.03    0.00   2.03  32.70
md0               0.00     0.00  498.00    0.00  1992.00     0.00     8.00     0.00    0.00    0.00    0.00   0.00   0.00

avg-cpu:  %user   %nice %system %iowait  %steal   %idle
           3.12    0.00    0.06    0.94    0.00   95.88

Device:         rrqm/s   wrqm/s     r/s     w/s    rkB/s    wkB/s avgrq-sz avgqu-sz   await r_await w_await  svctm  %util
nvme0n1           0.00     0.00    0.00    0.00     0.00     0.00     0.00     0.00    0.00    0.00    0.00   0.00   0.00
sda               0.00     0.00    0.00    0.00     0.00     0.00     0.00     0.00    0.00    0.00    0.00   0.00   0.00
sdc               0.00     0.00  150.00    0.00   600.00     0.00     8.00     0.41    2.74    2.74    0.00   2.75  41.20
sdb               0.00     0.00  141.00    0.00   564.00     0.00     8.00     0.28    2.02    2.02    0.00   2.01  28.40
sdd               0.00     0.00  176.00    0.00   704.00     0.00     8.00     0.29    1.63    1.63    0.00   1.63  28.70
md0               0.00     0.00  467.00    0.00  1868.00     0.00     8.00     0.00    0.00    0.00    0.00   0.00   0.00

avg-cpu:  %user   %nice %system %iowait  %steal   %idle
           3.13    0.00    0.03    0.88    0.00   95.97

Device:         rrqm/s   wrqm/s     r/s     w/s    rkB/s    wkB/s avgrq-sz avgqu-sz   await r_await w_await  svctm  %util
nvme0n1           0.00     0.00    0.00    0.00     0.00     0.00     0.00     0.00    0.00    0.00    0.00   0.00   0.00
sda               0.00     0.00    0.00    0.00     0.00     0.00     0.00     0.00    0.00    0.00    0.00   0.00   0.00
sdc               0.00     0.00  151.00    0.00   604.00     0.00     8.00     0.44    2.95    2.95    0.00   2.94  44.40
sdb               0.00     0.00  143.00    0.00   572.00     0.00     8.00     0.21    1.45    1.45    0.00   1.45  20.80
sdd               0.00     0.00  150.00    0.00   600.00     0.00     8.00     0.34    2.25    2.25    0.00   2.25  33.70
md0               0.00     0.00  444.00    0.00  1776.00     0.00     8.00     0.00    0.00    0.00    0.00   0.00   0.00

avg-cpu:  %user   %nice %system %iowait  %steal   %idle
           3.13    0.00    0.03    1.09    0.00   95.75

Device:         rrqm/s   wrqm/s     r/s     w/s    rkB/s    wkB/s avgrq-sz avgqu-sz   await r_await w_await  svctm  %util
nvme0n1           0.00     0.00    0.00    0.00     0.00     0.00     0.00     0.00    0.00    0.00    0.00   0.00   0.00
sda               0.00     0.00    0.00    0.00     0.00     0.00     0.00     0.00    0.00    0.00    0.00   0.00   0.00
sdc               0.00     0.00  189.00    0.00   756.00     0.00     8.00     0.27    1.41    1.41    0.00   1.41  26.60
sdb               0.00     0.00  158.00    0.00   632.00     0.00     8.00     0.31    1.93    1.93    0.00   1.94  30.60
sdd               0.00     0.00  191.00    0.00   764.00     0.00     8.00     0.41    2.14    2.14    0.00   2.14  40.80
md0               0.00     0.00  538.00    0.00  2152.00     0.00     8.00     0.00    0.00    0.00    0.00   0.00   0.00

avg-cpu:  %user   %nice %system %iowait  %steal   %idle
           3.13    0.00    0.03    1.03    0.00   95.81

Device:         rrqm/s   wrqm/s     r/s     w/s    rkB/s    wkB/s avgrq-sz avgqu-sz   await r_await w_await  svctm  %util
nvme0n1           0.00     0.00    0.00    0.00     0.00     0.00     0.00     0.00    0.00    0.00    0.00   0.00   0.00
sda               0.00     0.00    0.00    6.00     0.00    40.00    13.33     0.00    0.00    0.00    0.00   0.00   0.00
sdc               0.00     0.00  161.00    0.00   644.00     0.00     8.00     0.45    2.74    2.74    0.00   2.77  44.60
sdb               0.00     0.00  162.00    0.00   648.00     0.00     8.00     0.31    1.94    1.94    0.00   1.94  31.40
sdd               0.00     0.00  182.00    0.00   728.00     0.00     8.00     0.22    1.23    1.23    0.00   1.23  22.40
md0               0.00     0.00  505.00    0.00  2020.00     0.00     8.00     0.00    0.00    0.00    0.00   0.00   0.00

avg-cpu:  %user   %nice %system %iowait  %steal   %idle
           3.10    0.00    0.03    0.81    0.00   96.06

Device:         rrqm/s   wrqm/s     r/s     w/s    rkB/s    wkB/s avgrq-sz avgqu-sz   await r_await w_await  svctm  %util
nvme0n1           0.00     0.00    0.00    0.00     0.00     0.00     0.00     0.00    0.00    0.00    0.00   0.00   0.00
sda               0.00     6.00    0.00    2.00     0.00    32.00    32.00     0.00    0.00    0.00    0.00   0.00   0.00
sdc               0.00     0.00  169.00    0.00   676.00     0.00     8.00     0.43    2.59    2.59    0.00   2.56  43.30
sdb               0.00     0.00  158.00    0.00   632.00     0.00     8.00     0.16    1.01    1.01    0.00   1.01  16.00
sdd               0.00     0.00  168.00    0.00   672.00     0.00     8.00     0.39    2.33    2.33    0.00   2.33  39.20
md0               0.00     0.00  495.00    0.00  1980.00     0.00     8.00     0.00    0.00    0.00    0.00   0.00   0.00

avg-cpu:  %user   %nice %system %iowait  %steal   %idle
           3.12    0.00    0.06    0.88    0.00   95.94

Device:         rrqm/s   wrqm/s     r/s     w/s    rkB/s    wkB/s avgrq-sz avgqu-sz   await r_await w_await  svctm  %util
nvme0n1           0.00     0.00    0.00    0.00     0.00     0.00     0.00     0.00    0.00    0.00    0.00   0.00   0.00
sda               0.00     0.00    0.00    0.00     0.00     0.00     0.00     0.00    0.00    0.00    0.00   0.00   0.00
sdc               0.00     0.00  173.00    0.00   692.00     0.00     8.00     0.43    2.51    2.51    0.00   2.50  43.30
sdb               0.00     0.00  181.00    0.00   724.00     0.00     8.00     0.25    1.37    1.37    0.00   1.37  24.80
sdd               0.00     0.00  159.00    0.00   636.00     0.00     8.00     0.30    1.85    1.85    0.00   1.87  29.80
md0               0.00     0.00  513.00    0.00  2052.00     0.00     8.00     0.00    0.00    0.00    0.00   0.00   0.00

avg-cpu:  %user   %nice %system %iowait  %steal   %idle
           3.13    0.00    0.00    0.94    0.00   95.93

Device:         rrqm/s   wrqm/s     r/s     w/s    rkB/s    wkB/s avgrq-sz avgqu-sz   await r_await w_await  svctm  %util
nvme0n1           0.00     0.00    0.00    0.00     0.00     0.00     0.00     0.00    0.00    0.00    0.00   0.00   0.00
sda               0.00     0.00    0.00    0.00     0.00     0.00     0.00     0.00    0.00    0.00    0.00   0.00   0.00
sdc               0.00     0.00  131.00    0.00   524.00     0.00     8.00     0.24    1.85    1.85    0.00   1.85  24.30
sdb               0.00     0.00  159.00    0.00   636.00     0.00     8.00     0.34    2.15    2.15    0.00   2.15  34.20
sdd               0.00     0.00  137.00    0.00   548.00     0.00     8.00     0.40    2.88    2.88    0.00   2.92  40.00
md0               0.00     0.00  427.00    0.00  1708.00     0.00     8.00     0.00    0.00    0.00    0.00   0.00   0.00

avg-cpu:  %user   %nice %system %iowait  %steal   %idle
           3.13    0.00    0.06    0.88    0.00   95.94

Device:         rrqm/s   wrqm/s     r/s     w/s    rkB/s    wkB/s avgrq-sz avgqu-sz   await r_await w_await  svctm  %util
nvme0n1           0.00     0.00    0.00    0.00     0.00     0.00     0.00     0.00    0.00    0.00    0.00   0.00   0.00
sda               0.00     0.00    0.00    0.00     0.00     0.00     0.00     0.00    0.00    0.00    0.00   0.00   0.00
sdc               0.00     0.00  181.00    0.00   724.00     0.00     8.00     0.39    2.15    2.15    0.00   2.15  38.90
sdb               0.00     0.00  152.00    0.00   608.00     0.00     8.00     0.26    1.72    1.72    0.00   1.72  26.10
sdd               0.00     0.00  180.00    0.00   720.00     0.00     8.00     0.33    1.89    1.89    0.00   1.84  33.10
md0               0.00     0.00  513.00    0.00  2052.00     0.00     8.00     0.00    0.00    0.00    0.00   0.00   0.00

avg-cpu:  %user   %nice %system %iowait  %steal   %idle
           3.13    0.00    0.03    0.94    0.00   95.90

Device:         rrqm/s   wrqm/s     r/s     w/s    rkB/s    wkB/s avgrq-sz avgqu-sz   await r_await w_await  svctm  %util
nvme0n1           0.00     0.00    0.00    0.00     0.00     0.00     0.00     0.00    0.00    0.00    0.00   0.00   0.00
sda               0.00     0.00    0.00    0.00     0.00     0.00     0.00     0.00    0.00    0.00    0.00   0.00   0.00
sdc               0.00     0.00  160.00    0.00   640.00     0.00     8.00     0.39    2.42    2.42    0.00   2.42  38.70
sdb               0.00     0.00  170.00    0.00   680.00     0.00     8.00     0.21    1.25    1.25    0.00   1.25  21.20
sdd               0.00     0.00  184.00    0.00   736.00     0.00     8.00     0.38    2.08    2.08    0.00   2.08  38.30
md0               0.00     0.00  514.00    0.00  2056.00     0.00     8.00     0.00    0.00    0.00    0.00   0.00   0.00

avg-cpu:  %user   %nice %system %iowait  %steal   %idle
           3.09    0.00    0.06    0.84    0.00   96.00

Device:         rrqm/s   wrqm/s     r/s     w/s    rkB/s    wkB/s avgrq-sz avgqu-sz   await r_await w_await  svctm  %util
nvme0n1           0.00     0.00    0.00    0.00     0.00     0.00     0.00     0.00    0.00    0.00    0.00   0.00   0.00
sda               0.00     1.00    0.00    2.00     0.00    12.00    12.00     0.00    0.00    0.00    0.00   0.00   0.00
sdc               0.00     0.00  193.00    0.00   772.00     0.00     8.00     0.43    2.21    2.21    0.00   2.21  42.70
sdb               0.00     0.00  166.00    0.00   664.00     0.00     8.00     0.21    1.22    1.22    0.00   1.24  20.60
sdd               0.00     0.00  160.00    0.00   640.00     0.00     8.00     0.35    2.19    2.19    0.00   2.19  35.00
md0               0.00     0.00  519.00    0.00  2076.00     0.00     8.00     0.00    0.00    0.00    0.00   0.00   0.00

avg-cpu:  %user   %nice %system %iowait  %steal   %idle
           3.13    0.00    0.03    0.84    0.00   96.00

Device:         rrqm/s   wrqm/s     r/s     w/s    rkB/s    wkB/s avgrq-sz avgqu-sz   await r_await w_await  svctm  %util
nvme0n1           0.00     0.00    0.00    0.00     0.00     0.00     0.00     0.00    0.00    0.00    0.00   0.00   0.00
sda               0.00     0.00    0.00    0.00     0.00     0.00     0.00     0.00    0.00    0.00    0.00   0.00   0.00
sdc               0.00     0.00  154.00    0.00   616.00     0.00     8.00     0.40    2.60    2.60    0.00   2.60  40.10
sdb               0.00     0.00  172.00    0.00   688.00     0.00     8.00     0.43    2.53    2.53    0.00   2.51  43.20
sdd               0.00     0.00  157.00    0.00   628.00     0.00     8.00     0.15    0.98    0.98    0.00   0.98  15.40
md0               0.00     0.00  483.00    0.00  1932.00     0.00     8.00     0.00    0.00    0.00    0.00   0.00   0.00

avg-cpu:  %user   %nice %system %iowait  %steal   %idle
           3.13    0.00    0.03    0.94    0.00   95.90

Device:         rrqm/s   wrqm/s     r/s     w/s    rkB/s    wkB/s avgrq-sz avgqu-sz   await r_await w_await  svctm  %util
nvme0n1           0.00     0.00    0.00    0.00     0.00     0.00     0.00     0.00    0.00    0.00    0.00   0.00   0.00
sda               0.00     0.00    0.00    0.00     0.00     0.00     0.00     0.00    0.00    0.00    0.00   0.00   0.00
sdc               0.00     0.00  161.00    0.00   644.00     0.00     8.00     0.27    1.68    1.68    0.00   1.68  27.10
sdb               0.00     0.00  161.00    0.00   644.00     0.00     8.00     0.31    1.91    1.91    0.00   1.91  30.70
sdd               0.00     0.00  150.00    0.00   600.00     0.00     8.00     0.40    2.65    2.65    0.00   2.67  40.00
md0               0.00     0.00  472.00    0.00  1888.00     0.00     8.00     0.00    0.00    0.00    0.00   0.00   0.00

avg-cpu:  %user   %nice %system %iowait  %steal   %idle
           3.13    0.00    0.06    0.94    0.00   95.87

Device:         rrqm/s   wrqm/s     r/s     w/s    rkB/s    wkB/s avgrq-sz avgqu-sz   await r_await w_await  svctm  %util
nvme0n1           0.00     0.00    0.00    0.00     0.00     0.00     0.00     0.00    0.00    0.00    0.00   0.00   0.00
sda               0.00     0.00    0.00    0.00     0.00     0.00     0.00     0.00    0.00    0.00    0.00   0.00   0.00
sdc               0.00     0.00  172.00    0.00   688.00     0.00     8.00     0.30    1.77    1.77    0.00   1.77  30.40
sdb               0.00     0.00  176.00    0.00   704.00     0.00     8.00     0.27    1.52    1.52    0.00   1.52  26.80
sdd               0.00     0.00  185.00    0.00   740.00     0.00     8.00     0.41    2.22    2.22    0.00   2.22  41.00
md0               0.00     0.00  533.00    0.00  2132.00     0.00     8.00     0.00    0.00    0.00    0.00   0.00   0.00

avg-cpu:  %user   %nice %system %iowait  %steal   %idle
           3.10    0.00    0.06    1.03    0.00   95.81

Device:         rrqm/s   wrqm/s     r/s     w/s    rkB/s    wkB/s avgrq-sz avgqu-sz   await r_await w_await  svctm  %util
nvme0n1           0.00     0.00    0.00    0.00     0.00     0.00     0.00     0.00    0.00    0.00    0.00   0.00   0.00
sda               0.00     1.00    0.00    1.00     0.00    12.00    24.00     0.00    0.00    0.00    0.00   0.00   0.00
sdc               0.00     0.00  176.00    0.00   704.00     0.00     8.00     0.24    1.35    1.35    0.00   1.36  24.00
sdb               0.00     0.00  177.00    0.00   708.00     0.00     8.00     0.34    1.91    1.91    0.00   1.91  33.80
sdd               0.00     0.00  150.00    0.00   600.00     0.00     8.00     0.40    2.70    2.70    0.00   2.69  40.30
md0               0.00     0.00  503.00    0.00  2012.00     0.00     8.00     0.00    0.00    0.00    0.00   0.00   0.00

