Linux 4.17.2 (bench2) 	08/03/2018 	_x86_64_	(32 CPU)

avg-cpu:  %user   %nice %system %iowait  %steal   %idle
           1.92    0.00    1.58    1.50    0.00   94.99

Device:         rrqm/s   wrqm/s     r/s     w/s    rkB/s    wkB/s avgrq-sz avgqu-sz   await r_await w_await  svctm  %util
nvme0n1         957.82     5.20 19309.30  531.64 108008.20 11990.18    12.10     1.37    0.05    0.03    0.67   0.02  40.42
sda               0.12     0.81   14.12    0.57   163.87     8.50    23.47     0.00    0.33    0.32    0.45   0.07   0.10
sdc              32.24     0.14  104.92    0.30  1585.19    83.21    31.71     1.47   14.01   12.98  373.51   0.94   9.93
sdb              30.16     0.15  106.96    0.32  1583.33    83.03    31.06     0.35    3.28    2.10  394.60   0.88   9.44
sdd              32.45     0.13  104.46    0.25  1581.23    82.70    31.78     0.64    6.08    4.22  782.19   0.95   9.94
md0               0.00     0.00  414.08    1.07  5855.47   291.56    29.61     0.00    0.00    0.00    0.00   0.00   0.00

avg-cpu:  %user   %nice %system %iowait  %steal   %idle
           3.10    0.00    0.11    2.99    0.00   93.81

Device:         rrqm/s   wrqm/s     r/s     w/s    rkB/s    wkB/s avgrq-sz avgqu-sz   await r_await w_await  svctm  %util
nvme0n1           0.00     0.00    0.00    0.00     0.00     0.00     0.00     0.00    0.00    0.00    0.00   0.00   0.00
sda               0.00     1.15    3.85    1.20    30.40    10.20    16.08     0.00    0.31    0.40    0.00   0.05   0.03
sdc              18.95     0.00  279.45    0.00 28248.80     0.00   202.17     0.69    2.48    2.48    0.00   1.80  50.32
sdb              18.00     0.00  279.70    0.00 27839.40     0.00   199.07     0.58    2.09    2.09    0.00   1.59  44.51
sdd              18.40     0.00  276.45    0.00 27803.20     0.00   201.14     0.61    2.19    2.19    0.00   1.62  44.73
md0               0.00     0.00  891.10    0.00 112495.20     0.00   252.49     0.00    0.00    0.00    0.00   0.00   0.00

