Linux 4.17.2 (bench2) 	08/03/2018 	_x86_64_	(32 CPU)

avg-cpu:  %user   %nice %system %iowait  %steal   %idle
           1.92    0.00    1.58    1.51    0.00   94.99

Device:         rrqm/s   wrqm/s     r/s     w/s    rkB/s    wkB/s avgrq-sz avgqu-sz   await r_await w_await  svctm  %util
nvme0n1         956.98     5.20 19292.40  531.18 107913.64 11979.68    12.10     1.37    0.05    0.03    0.67   0.02  40.39
sda               0.11     0.81   14.12    0.57   163.89     8.50    23.46     0.00    0.33    0.32    0.45   0.07   0.10
sdc              32.52     0.14  105.56    0.30  1597.25    83.14    31.75     1.48   14.00   12.98  373.51   0.94   9.97
sdb              30.44     0.15  107.60    0.32  1595.38    82.96    31.10     0.36    3.34    2.17  394.60   0.88   9.48
sdd              32.72     0.13  105.10    0.25  1593.30    82.63    31.82     0.65    6.12    4.27  782.19   0.95   9.98
md0               0.00     0.00  416.83    1.07  5901.74   291.30    29.64     0.00    0.00    0.00    0.00   0.00   0.00

avg-cpu:  %user   %nice %system %iowait  %steal   %idle
           0.00    0.00    0.02    0.01    0.00   99.97

Device:         rrqm/s   wrqm/s     r/s     w/s    rkB/s    wkB/s avgrq-sz avgqu-sz   await r_await w_await  svctm  %util
nvme0n1           0.00     0.00    0.00    0.00     0.00     0.00     0.00     0.00    0.00    0.00    0.00   0.00   0.00
sda               0.00     0.80    3.80    1.10    27.80     8.40    14.78     0.00    0.30    0.36    0.09   0.06   0.03
sdc               0.00     0.00   41.65    0.00   166.60     0.00     8.00     0.33    7.92    7.92    0.00   7.92  33.01
sdb               0.00     0.00   42.30    0.00   169.20     0.00     8.00     0.34    8.10    8.10    0.00   8.10  34.26
sdd               0.00     0.00   39.60    0.00   158.40     0.00     8.00     0.32    8.05    8.05    0.00   8.05  31.88
md0               0.00     0.00  123.60    0.00   494.40     0.00     8.00     0.00    0.00    0.00    0.00   0.00   0.00

