Linux 4.17.2 (bench2) 	08/03/2018 	_x86_64_	(32 CPU)

avg-cpu:  %user   %nice %system %iowait  %steal   %idle
           1.92    0.00    1.57    1.52    0.00   94.99

Device:         rrqm/s   wrqm/s     r/s     w/s    rkB/s    wkB/s avgrq-sz avgqu-sz   await r_await w_await  svctm  %util
nvme0n1         953.19     5.18 19215.90  529.07 107485.73 11932.18    12.10     1.37    0.05    0.03    0.67   0.02  40.23
sda               0.11     0.81   14.13    0.57   163.93     8.51    23.45     0.00    0.33    0.32    0.45   0.07   0.10
sdc              32.66     0.14  108.22    0.30  1634.50    82.81    31.65     1.50   13.78   12.79  373.51   0.93  10.14
sdb              30.59     0.15  110.26    0.32  1632.62    82.63    31.02     0.38    3.41    2.28  394.60   0.87   9.63
sdd              32.86     0.13  107.77    0.25  1630.54    82.30    31.71     0.66    6.13    4.33  782.19   0.94  10.14
md0               0.00     0.00  425.24    1.07  6046.07   290.15    29.73     0.00    0.00    0.00    0.00   0.00   0.00

avg-cpu:  %user   %nice %system %iowait  %steal   %idle
           0.00    0.00    0.05    3.05    0.00   96.90

Device:         rrqm/s   wrqm/s     r/s     w/s    rkB/s    wkB/s avgrq-sz avgqu-sz   await r_await w_await  svctm  %util
nvme0n1           0.00     0.00    0.00    0.00     0.00     0.00     0.00     0.00    0.00    0.00    0.00   0.00   0.00
sda               0.00     0.95    0.15    1.25     5.00     9.60    20.86     0.00    0.04    0.33    0.00   0.04   0.01
sdc               0.00     0.00  143.95    0.00   608.20     0.00     8.45     0.35    2.41    2.41    0.00   2.41  34.70
sdb               0.00     0.00  146.00    0.00   626.40     0.00     8.58     0.29    1.98    1.98    0.00   1.98  28.96
sdd               0.00     0.00  149.00    0.00   642.80     0.00     8.63     0.35    2.32    2.32    0.00   2.32  34.61
md0               0.00     0.00  439.00    0.00  1879.60     0.00     8.56     0.00    0.00    0.00    0.00   0.00   0.00

