Linux 4.17.2 (bench2) 	08/03/2018 	_x86_64_	(32 CPU)

avg-cpu:  %user   %nice %system %iowait  %steal   %idle
           1.92    0.00    1.57    1.53    0.00   94.98

Device:         rrqm/s   wrqm/s     r/s     w/s    rkB/s    wkB/s avgrq-sz avgqu-sz   await r_await w_await  svctm  %util
nvme0n1         950.24     5.16 19156.35  527.43 107152.66 11895.21    12.10     1.36    0.05    0.03    0.67   0.02  40.10
sda               0.11     0.81   14.14    0.57   163.99     8.51    23.44     0.00    0.33    0.32    0.45   0.07   0.10
sdc              33.04     0.14  110.35    0.30  1656.39    82.55    31.43     1.51   13.68   12.71  373.51   0.93  10.26
sdb              30.98     0.15  112.38    0.32  1654.50    82.38    30.82     0.40    3.53    2.42  394.60   0.87   9.75
sdd              33.24     0.13  109.89    0.25  1652.40    82.04    31.50     0.68    6.19    4.44  782.19   0.93  10.26
md0               0.00     0.00  432.74    1.06  6126.05   289.25    29.58     0.00    0.00    0.00    0.00   0.00   0.00

avg-cpu:  %user   %nice %system %iowait  %steal   %idle
           0.07    0.00    0.56    1.05    0.00   98.31

Device:         rrqm/s   wrqm/s     r/s     w/s    rkB/s    wkB/s avgrq-sz avgqu-sz   await r_await w_await  svctm  %util
nvme0n1           0.00     0.00    0.00    0.00     0.00     0.00     0.00     0.00    0.00    0.00    0.00   0.00   0.00
sda               0.00     1.50    3.50    1.80    29.00    14.00    16.23     0.00    0.24    0.34    0.03   0.06   0.03
sdc               0.00     0.00 1129.10    0.00  4516.40     0.00     8.00     1.21    1.07    1.07    0.00   0.30  33.50
sdb               0.00     0.00 1114.65    0.00  4461.60     0.00     8.01     1.25    1.12    1.12    0.00   0.31  34.34
sdd               0.00     0.00 1115.45    0.00  4461.80     0.00     8.00     1.29    1.16    1.16    0.00   0.32  35.95
md0               0.00     0.00 3359.45    0.00 13440.80     0.00     8.00     0.00    0.00    0.00    0.00   0.00   0.00

