Linux 4.17.2 (bench2) 	08/03/2018 	_x86_64_	(32 CPU)

avg-cpu:  %user   %nice %system %iowait  %steal   %idle
           1.92    0.00    1.58    1.50    0.00   95.00

Device:         rrqm/s   wrqm/s     r/s     w/s    rkB/s    wkB/s avgrq-sz avgqu-sz   await r_await w_await  svctm  %util
nvme0n1         958.30     5.20 19318.86  531.91 108061.66 11996.11    12.10     1.38    0.05    0.03    0.67   0.02  40.44
sda               0.11     0.81   14.12    0.57   163.87     8.50    23.47     0.00    0.33    0.32    0.45   0.07   0.10
sdc              32.22     0.14  104.83    0.30  1582.87    83.25    31.70     1.46   13.90   12.87  373.51   0.94   9.91
sdb              30.14     0.15  106.87    0.32  1581.01    83.07    31.05     0.34    3.16    1.99  394.60   0.88   9.41
sdd              32.43     0.13  104.36    0.25  1578.91    82.74    31.77     0.62    5.97    4.10  782.19   0.95   9.91
md0               0.00     0.00  413.74    1.07  5846.02   291.70    29.59     0.00    0.00    0.00    0.00   0.00   0.00

avg-cpu:  %user   %nice %system %iowait  %steal   %idle
           0.03    0.00    0.56    0.60    0.00   98.81

Device:         rrqm/s   wrqm/s     r/s     w/s    rkB/s    wkB/s avgrq-sz avgqu-sz   await r_await w_await  svctm  %util
nvme0n1           0.00     0.00    0.00    0.00     0.00     0.00     0.00     0.00    0.00    0.00    0.00   0.00   0.00
sda               0.00     0.00    1.00    0.00     8.00     0.00    16.00     0.00    0.00    0.00    0.00   0.00   0.00
sdc            1011.00     0.00 2385.00    0.00 13580.00     0.00    11.39    14.43    6.02    6.02    0.00   0.27  65.10
sdb             969.00     0.00 2446.00    0.00 13648.00     0.00    11.16     9.99    4.05    4.05    0.00   0.18  44.50
sdd             979.00     0.00 2531.00    0.00 14040.00     0.00    11.09    11.26    4.44    4.44    0.00   0.21  54.10
md0               0.00     0.00 10340.00    0.00 41360.00     0.00     8.00     0.00    0.00    0.00    0.00   0.00   0.00

avg-cpu:  %user   %nice %system %iowait  %steal   %idle
           0.00    0.00    0.53    0.53    0.00   98.93

Device:         rrqm/s   wrqm/s     r/s     w/s    rkB/s    wkB/s avgrq-sz avgqu-sz   await r_await w_await  svctm  %util
nvme0n1           0.00     0.00    0.00    0.00     0.00     0.00     0.00     0.00    0.00    0.00    0.00   0.00   0.00
sda               0.00     9.00    0.00    2.00     0.00    44.00    44.00     0.00    0.50    0.00    0.50   0.50   0.10
sdc             987.00     0.00 2240.00    0.00 12924.00     0.00    11.54    10.75    4.83    4.83    0.00   0.25  55.30
sdb             990.00     0.00 2365.00    0.00 13408.00     0.00    11.34    12.62    5.35    5.35    0.00   0.26  61.00
sdd            1033.00     0.00 2425.00    0.00 13832.00     0.00    11.41     7.82    3.23    3.23    0.00   0.17  41.80
md0               0.00     0.00 10025.00    0.00 40100.00     0.00     8.00     0.00    0.00    0.00    0.00   0.00   0.00

