Linux 4.17.2 (bench2) 	08/03/2018 	_x86_64_	(32 CPU)

avg-cpu:  %user   %nice %system %iowait  %steal   %idle
           1.92    0.00    1.57    1.52    0.00   94.99

Device:         rrqm/s   wrqm/s     r/s     w/s    rkB/s    wkB/s avgrq-sz avgqu-sz   await r_await w_await  svctm  %util
nvme0n1         951.97     5.17 19191.24  528.39 107347.81 11916.87    12.10     1.37    0.05    0.03    0.67   0.02  40.17
sda               0.11     0.81   14.14    0.57   163.95     8.51    23.45     0.00    0.33    0.32    0.45   0.07   0.10
sdc              32.94     0.14  108.91    0.30  1646.63    82.70    31.67     1.51   13.83   12.84  373.51   0.93  10.20
sdb              30.87     0.15  110.94    0.32  1644.75    82.53    31.05     0.39    3.53    2.40  394.60   0.87   9.69
sdd              33.14     0.13  108.45    0.25  1642.65    82.19    31.74     0.68    6.23    4.45  782.19   0.94  10.20
md0               0.00     0.00  428.12    1.07  6092.44   289.78    29.74     0.00    0.00    0.00    0.00   0.00   0.00

avg-cpu:  %user   %nice %system %iowait  %steal   %idle
           0.03    0.00    0.69   27.00    0.00   72.28

Device:         rrqm/s   wrqm/s     r/s     w/s    rkB/s    wkB/s avgrq-sz avgqu-sz   await r_await w_await  svctm  %util
nvme0n1           0.00     0.00    0.00    0.00     0.00     0.00     0.00     0.00    0.00    0.00    0.00   0.00   0.00
sda               0.00     0.00   78.00    0.00   560.00     0.00    14.36     0.02    0.31    0.31    0.00   0.09   0.70
sdc               0.00     0.00  405.00    0.00  1620.00     0.00     8.00     5.14   12.70   12.70    0.00   1.77  71.60
sdb               0.00     0.00  396.00    0.00  1584.00     0.00     8.00     6.15   15.40   15.40    0.00   2.00  79.20
sdd               0.00     0.00  300.00    0.00  1200.00     0.00     8.00     4.43   14.58   14.58    0.00   2.36  70.90
md0               0.00     0.00 1120.00    0.00  4480.00     0.00     8.00     0.00    0.00    0.00    0.00   0.00   0.00

avg-cpu:  %user   %nice %system %iowait  %steal   %idle
           0.03    0.00    0.44   25.25    0.00   74.28

Device:         rrqm/s   wrqm/s     r/s     w/s    rkB/s    wkB/s avgrq-sz avgqu-sz   await r_await w_await  svctm  %util
nvme0n1           0.00     0.00    0.00    0.00     0.00     0.00     0.00     0.00    0.00    0.00    0.00   0.00   0.00
sda               0.00    10.00    0.00    2.00     0.00    48.00    48.00     0.00    0.00    0.00    0.00   0.00   0.00
sdc               0.00     0.00  403.00    0.00  1612.00     0.00     8.00     4.89   12.20   12.20    0.00   1.82  73.20
sdb               0.00     0.00  384.00    0.00  1536.00     0.00     8.00     5.00   12.72   12.72    0.00   1.91  73.20
sdd               0.00     0.00  410.00    0.00  1640.00     0.00     8.00     6.09   15.01   15.01    0.00   1.96  80.50
md0               0.00     0.00 1184.00    0.00  4736.00     0.00     8.00     0.00    0.00    0.00    0.00   0.00   0.00

avg-cpu:  %user   %nice %system %iowait  %steal   %idle
           0.03    0.00    0.75   26.07    0.00   73.15

Device:         rrqm/s   wrqm/s     r/s     w/s    rkB/s    wkB/s avgrq-sz avgqu-sz   await r_await w_await  svctm  %util
nvme0n1           0.00     0.00    0.00    0.00     0.00     0.00     0.00     0.00    0.00    0.00    0.00   0.00   0.00
sda               0.00     0.00    0.00    0.00     0.00     0.00     0.00     0.00    0.00    0.00    0.00   0.00   0.00
sdc               0.00     0.00  369.00    0.00  1476.00     0.00     8.00     5.52   14.47   14.47    0.00   2.10  77.60
sdb               0.00     0.00  378.00    0.00  1512.00     0.00     8.00     5.16   13.68   13.68    0.00   1.90  72.00
sdd               0.00     0.00  383.00    0.00  1532.00     0.00     8.00     5.36   13.97   13.97    0.00   2.01  77.00
md0               0.00     0.00 1152.00    0.00  4608.00     0.00     8.00     0.00    0.00    0.00    0.00   0.00   0.00

avg-cpu:  %user   %nice %system %iowait  %steal   %idle
           0.06    0.00    0.63   22.26    0.00   77.06

Device:         rrqm/s   wrqm/s     r/s     w/s    rkB/s    wkB/s avgrq-sz avgqu-sz   await r_await w_await  svctm  %util
nvme0n1           0.00     0.00    0.00    0.00     0.00     0.00     0.00     0.00    0.00    0.00    0.00   0.00   0.00
sda               0.00     0.00    0.00    0.00     0.00     0.00     0.00     0.00    0.00    0.00    0.00   0.00   0.00
sdc               0.00     0.00  416.00    0.00  1664.00     0.00     8.00     4.28   10.75   10.75    0.00   1.52  63.30
sdb               0.00     0.00  377.00    0.00  1508.00     0.00     8.00     5.41   14.81   14.81    0.00   1.88  70.80
sdd               0.00     0.00  354.00    0.00  1416.00     0.00     8.00     4.85   13.65   13.65    0.00   2.06  72.90
md0               0.00     0.00 1120.00    0.00  4480.00     0.00     8.00     0.00    0.00    0.00    0.00   0.00   0.00

avg-cpu:  %user   %nice %system %iowait  %steal   %idle
           0.00    0.00    0.66   26.46    0.00   72.88

Device:         rrqm/s   wrqm/s     r/s     w/s    rkB/s    wkB/s avgrq-sz avgqu-sz   await r_await w_await  svctm  %util
nvme0n1           0.00     0.00    0.00    0.00     0.00     0.00     0.00     0.00    0.00    0.00    0.00   0.00   0.00
sda               0.00     0.00    0.00    0.00     0.00     0.00     0.00     0.00    0.00    0.00    0.00   0.00   0.00
sdc               0.00     0.00  394.00    0.00  1576.00     0.00     8.00     5.50   13.70   13.70    0.00   1.89  74.50
sdb               0.00     0.00  408.00    0.00  1632.00     0.00     8.00     4.84   11.56   11.56    0.00   1.67  68.00
sdd               0.00     0.00  389.00    0.00  1556.00     0.00     8.00     5.55   14.15   14.15    0.00   1.95  75.80
md0               0.00     0.00 1216.00    0.00  4864.00     0.00     8.00     0.00    0.00    0.00    0.00   0.00   0.00

avg-cpu:  %user   %nice %system %iowait  %steal   %idle
           0.03    0.00    0.56   20.59    0.00   78.82

Device:         rrqm/s   wrqm/s     r/s     w/s    rkB/s    wkB/s avgrq-sz avgqu-sz   await r_await w_await  svctm  %util
nvme0n1           0.00     0.00    0.00    0.00     0.00     0.00     0.00     0.00    0.00    0.00    0.00   0.00   0.00
sda               0.00     0.00    0.00    0.00     0.00     0.00     0.00     0.00    0.00    0.00    0.00   0.00   0.00
sdc               0.00     0.00  275.00    0.00  1100.00     0.00     8.00     5.66   21.03   21.03    0.00   2.85  78.50
sdb               0.00     0.00  342.00    0.00  1368.00     0.00     8.00     4.88   14.46   14.46    0.00   1.82  62.40
sdd               0.00     0.00  304.00    0.00  1216.00     0.00     8.00     3.79   12.73   12.73    0.00   1.84  55.80
md0               0.00     0.00  896.00    0.00  3584.00     0.00     8.00     0.00    0.00    0.00    0.00   0.00   0.00

avg-cpu:  %user   %nice %system %iowait  %steal   %idle
           0.03    0.00    0.75   25.17    0.00   74.05

Device:         rrqm/s   wrqm/s     r/s     w/s    rkB/s    wkB/s avgrq-sz avgqu-sz   await r_await w_await  svctm  %util
nvme0n1           0.00     0.00    0.00    0.00     0.00     0.00     0.00     0.00    0.00    0.00    0.00   0.00   0.00
sda               0.00     1.00    0.00    2.00     0.00    12.00    12.00     0.00    0.50    0.00    0.50   0.50   0.10
sdc               0.00     0.00  376.00    0.00  1504.00     0.00     8.00     4.50   11.98   11.98    0.00   1.90  71.30
sdb               0.00     0.00  361.00    0.00  1444.00     0.00     8.00     5.21   14.55   14.55    0.00   2.17  78.50
sdd               0.00     0.00  445.00    0.00  1780.00     0.00     8.00     6.21   13.85   13.85    0.00   1.88  83.50
md0               0.00     0.00 1184.00    0.00  4736.00     0.00     8.00     0.00    0.00    0.00    0.00   0.00   0.00

avg-cpu:  %user   %nice %system %iowait  %steal   %idle
           0.00    0.00    0.53   21.25    0.00   78.22

Device:         rrqm/s   wrqm/s     r/s     w/s    rkB/s    wkB/s avgrq-sz avgqu-sz   await r_await w_await  svctm  %util
nvme0n1           0.00     0.00    0.00    0.00     0.00     0.00     0.00     0.00    0.00    0.00    0.00   0.00   0.00
sda               0.00     0.00    0.00    0.00     0.00     0.00     0.00     0.00    0.00    0.00    0.00   0.00   0.00
sdc               0.00     0.00  379.00    0.00  1516.00     0.00     8.00     4.38   11.57   11.57    0.00   1.80  68.30
sdb               0.00     0.00  359.00    0.00  1436.00     0.00     8.00     4.31   12.12   12.12    0.00   1.80  64.70
sdd               0.00     0.00  385.00    0.00  1540.00     0.00     8.00     4.89   12.88   12.88    0.00   1.84  70.80
md0               0.00     0.00 1152.00    0.00  4608.00     0.00     8.00     0.00    0.00    0.00    0.00   0.00   0.00

avg-cpu:  %user   %nice %system %iowait  %steal   %idle
           0.06    0.00    0.59   23.91    0.00   75.43

Device:         rrqm/s   wrqm/s     r/s     w/s    rkB/s    wkB/s avgrq-sz avgqu-sz   await r_await w_await  svctm  %util
nvme0n1           0.00     0.00    0.00    0.00     0.00     0.00     0.00     0.00    0.00    0.00    0.00   0.00   0.00
sda               0.00     0.00    0.00    0.00     0.00     0.00     0.00     0.00    0.00    0.00    0.00   0.00   0.00
sdc               0.00     0.00  395.00    0.00  1580.00     0.00     8.00     4.61   11.60   11.60    0.00   1.64  64.80
sdb               0.00     0.00  380.00    0.00  1520.00     0.00     8.00     5.15   13.53   13.53    0.00   2.02  76.90
sdd               0.00     0.00  407.00    0.00  1628.00     0.00     8.00     5.16   12.67   12.67    0.00   1.79  73.00
md0               0.00     0.00 1152.00    0.00  4608.00     0.00     8.00     0.00    0.00    0.00    0.00   0.00   0.00

avg-cpu:  %user   %nice %system %iowait  %steal   %idle
           0.06    0.00    0.47   25.38    0.00   74.09

Device:         rrqm/s   wrqm/s     r/s     w/s    rkB/s    wkB/s avgrq-sz avgqu-sz   await r_await w_await  svctm  %util
nvme0n1           0.00     0.00    0.00    0.00     0.00     0.00     0.00     0.00    0.00    0.00    0.00   0.00   0.00
sda               0.00     0.00    0.00    0.00     0.00     0.00     0.00     0.00    0.00    0.00    0.00   0.00   0.00
sdc               0.00     0.00  464.00    0.00  1856.00     0.00     8.00     5.67   12.28   12.28    0.00   1.61  74.90
sdb               0.00     0.00  408.00    0.00  1632.00     0.00     8.00     5.66   13.69   13.69    0.00   1.80  73.40
sdd               0.00     0.00  350.00    0.00  1400.00     0.00     8.00     4.75   13.54   13.54    0.00   2.09  73.20
md0               0.00     0.00 1248.00    0.00  4992.00     0.00     8.00     0.00    0.00    0.00    0.00   0.00   0.00

avg-cpu:  %user   %nice %system %iowait  %steal   %idle
           0.03    0.00    0.44   27.51    0.00   72.02

Device:         rrqm/s   wrqm/s     r/s     w/s    rkB/s    wkB/s avgrq-sz avgqu-sz   await r_await w_await  svctm  %util
nvme0n1           0.00     0.00    0.00    0.00     0.00     0.00     0.00     0.00    0.00    0.00    0.00   0.00   0.00
sda               0.00     1.00    0.00    3.00     0.00    32.00    21.33     0.00    0.00    0.00    0.00   0.00   0.00
sdc               0.00     0.00  358.00    0.00  1432.00     0.00     8.00     4.85   13.47   13.47    0.00   2.11  75.70
sdb               0.00     0.00  388.00    0.00  1552.00     0.00     8.00     5.94   15.50   15.50    0.00   1.95  75.50
sdd               0.00     0.00  394.00    0.00  1576.00     0.00     8.00     5.59   14.01   14.01    0.00   1.83  72.20
md0               0.00     0.00 1120.00    0.00  4480.00     0.00     8.00     0.00    0.00    0.00    0.00   0.00   0.00

avg-cpu:  %user   %nice %system %iowait  %steal   %idle
           0.03    0.00    0.50   25.05    0.00   74.42

Device:         rrqm/s   wrqm/s     r/s     w/s    rkB/s    wkB/s avgrq-sz avgqu-sz   await r_await w_await  svctm  %util
nvme0n1           0.00     0.00    0.00    0.00     0.00     0.00     0.00     0.00    0.00    0.00    0.00   0.00   0.00
sda               0.00     3.00    0.00    2.00     0.00    20.00    20.00     0.00    0.00    0.00    0.00   0.00   0.00
sdc               0.00     0.00  383.00    0.00  1532.00     0.00     8.00     5.14   13.45   13.45    0.00   1.89  72.20
sdb               0.00     0.00  364.00    0.00  1456.00     0.00     8.00     4.76   13.01   13.01    0.00   1.98  71.90
sdd               0.00     0.00  386.00    0.00  1544.00     0.00     8.00     6.04   15.72   15.72    0.00   2.11  81.60
md0               0.00     0.00 1152.00    0.00  4608.00     0.00     8.00     0.00    0.00    0.00    0.00   0.00   0.00

avg-cpu:  %user   %nice %system %iowait  %steal   %idle
           0.00    0.00    0.63   25.31    0.00   74.06

Device:         rrqm/s   wrqm/s     r/s     w/s    rkB/s    wkB/s avgrq-sz avgqu-sz   await r_await w_await  svctm  %util
nvme0n1           0.00     0.00    0.00    0.00     0.00     0.00     0.00     0.00    0.00    0.00    0.00   0.00   0.00
sda               0.00     0.00    0.00    0.00     0.00     0.00     0.00     0.00    0.00    0.00    0.00   0.00   0.00
sdc               0.00     0.00  412.00    0.00  1648.00     0.00     8.00     5.42   13.27   13.27    0.00   1.83  75.40
sdb               0.00     0.00  391.00    0.00  1564.00     0.00     8.00     5.27   13.62   13.62    0.00   1.87  73.00
sdd               0.00     0.00  433.00    0.00  1732.00     0.00     8.00     5.09   11.67   11.67    0.00   1.62  70.20
md0               0.00     0.00 1216.00    0.00  4864.00     0.00     8.00     0.00    0.00    0.00    0.00   0.00   0.00

avg-cpu:  %user   %nice %system %iowait  %steal   %idle
           0.03    0.00    0.69   23.79    0.00   75.49

Device:         rrqm/s   wrqm/s     r/s     w/s    rkB/s    wkB/s avgrq-sz avgqu-sz   await r_await w_await  svctm  %util
nvme0n1           0.00     0.00    0.00    0.00     0.00     0.00     0.00     0.00    0.00    0.00    0.00   0.00   0.00
sda               0.00     0.00    0.00    0.00     0.00     0.00     0.00     0.00    0.00    0.00    0.00   0.00   0.00
sdc               0.00     0.00  449.00    0.00  1796.00     0.00     8.00     5.17   11.34   11.34    0.00   1.56  70.20
sdb               0.00     0.00  396.00    0.00  1584.00     0.00     8.00     4.61   11.62   11.62    0.00   1.87  74.00
sdd               0.00     0.00  404.00    0.00  1616.00     0.00     8.00     5.55   13.98   13.98    0.00   1.94  78.30
md0               0.00     0.00 1248.00    0.00  4992.00     0.00     8.00     0.00    0.00    0.00    0.00   0.00   0.00

avg-cpu:  %user   %nice %system %iowait  %steal   %idle
           0.00    0.00    0.63   23.68    0.00   75.70

Device:         rrqm/s   wrqm/s     r/s     w/s    rkB/s    wkB/s avgrq-sz avgqu-sz   await r_await w_await  svctm  %util
nvme0n1           0.00     0.00    0.00    0.00     0.00     0.00     0.00     0.00    0.00    0.00    0.00   0.00   0.00
sda               0.00     0.00    0.00    0.00     0.00     0.00     0.00     0.00    0.00    0.00    0.00   0.00   0.00
sdc               0.00     0.00  389.00    0.00  1556.00     0.00     8.00     4.57   11.90   11.90    0.00   1.75  68.00
sdb               0.00     0.00  383.00    0.00  1532.00     0.00     8.00     5.22   13.62   13.62    0.00   2.02  77.30
sdd               0.00     0.00  380.00    0.00  1520.00     0.00     8.00     4.91   12.81   12.81    0.00   1.96  74.40
md0               0.00     0.00 1152.00    0.00  4608.00     0.00     8.00     0.00    0.00    0.00    0.00   0.00   0.00

avg-cpu:  %user   %nice %system %iowait  %steal   %idle
           0.03    0.00    0.31   26.25    0.00   73.40

Device:         rrqm/s   wrqm/s     r/s     w/s    rkB/s    wkB/s avgrq-sz avgqu-sz   await r_await w_await  svctm  %util
nvme0n1           0.00     0.00    0.00    0.00     0.00     0.00     0.00     0.00    0.00    0.00    0.00   0.00   0.00
sda               0.00     0.00    0.00    0.00     0.00     0.00     0.00     0.00    0.00    0.00    0.00   0.00   0.00
sdc               0.00     0.00  377.00    0.00  1508.00     0.00     8.00     4.71   12.51   12.51    0.00   1.98  74.50
sdb               0.00     0.00  416.00    0.00  1664.00     0.00     8.00     6.16   14.83   14.83    0.00   1.86  77.40
sdd               0.00     0.00  395.00    0.00  1580.00     0.00     8.00     5.39   13.82   13.82    0.00   1.95  76.90
md0               0.00     0.00 1184.00    0.00  4736.00     0.00     8.00     0.00    0.00    0.00    0.00   0.00   0.00

avg-cpu:  %user   %nice %system %iowait  %steal   %idle
           0.06    0.00    0.62   24.22    0.00   75.09

Device:         rrqm/s   wrqm/s     r/s     w/s    rkB/s    wkB/s avgrq-sz avgqu-sz   await r_await w_await  svctm  %util
nvme0n1           0.00     0.00    0.00    0.00     0.00     0.00     0.00     0.00    0.00    0.00    0.00   0.00   0.00
sda               0.00     1.00    0.00    2.00     0.00    12.00    12.00     0.00    0.00    0.00    0.00   0.00   0.00
sdc               0.00     0.00  363.00    0.00  1452.00     0.00     8.00     4.38   12.04   12.04    0.00   1.76  63.80
sdb               0.00     0.00  379.00    0.00  1516.00     0.00     8.00     5.01   13.11   13.11    0.00   1.88  71.30
sdd               0.00     0.00  358.00    0.00  1432.00     0.00     8.00     5.34   14.57   14.57    0.00   2.12  75.90
md0               0.00     0.00 1120.00    0.00  4480.00     0.00     8.00     0.00    0.00    0.00    0.00   0.00   0.00

avg-cpu:  %user   %nice %system %iowait  %steal   %idle
           0.00    0.00    0.34   24.68    0.00   74.98

Device:         rrqm/s   wrqm/s     r/s     w/s    rkB/s    wkB/s avgrq-sz avgqu-sz   await r_await w_await  svctm  %util
nvme0n1           0.00     0.00    0.00    0.00     0.00     0.00     0.00     0.00    0.00    0.00    0.00   0.00   0.00
sda               0.00     0.00    0.00    0.00     0.00     0.00     0.00     0.00    0.00    0.00    0.00   0.00   0.00
sdc               0.00     0.00  381.00    0.00  1524.00     0.00     8.00     4.97   12.98   12.98    0.00   1.87  71.40
sdb               0.00     0.00  397.00    0.00  1588.00     0.00     8.00     5.25   13.38   13.38    0.00   1.91  75.70
sdd               0.00     0.00  378.00    0.00  1512.00     0.00     8.00     4.86   13.01   13.01    0.00   1.83  69.30
md0               0.00     0.00 1152.00    0.00  4608.00     0.00     8.00     0.00    0.00    0.00    0.00   0.00   0.00

avg-cpu:  %user   %nice %system %iowait  %steal   %idle
           0.03    0.00    0.25   22.26    0.00   77.46

Device:         rrqm/s   wrqm/s     r/s     w/s    rkB/s    wkB/s avgrq-sz avgqu-sz   await r_await w_await  svctm  %util
nvme0n1           0.00     0.00    0.00    0.00     0.00     0.00     0.00     0.00    0.00    0.00    0.00   0.00   0.00
sda               0.00     0.00    0.00    0.00     0.00     0.00     0.00     0.00    0.00    0.00    0.00   0.00   0.00
sdc               0.00     0.00  280.00    0.00  1120.00     0.00     8.00     7.44   26.46   26.46    0.00   3.02  84.60
sdb               0.00     0.00  233.00    0.00   932.00     0.00     8.00     2.49   10.45   10.45    0.00   1.79  41.60
sdd               0.00     0.00  275.00    0.00  1100.00     0.00     8.00     3.34   12.33   12.33    0.00   1.77  48.80
md0               0.00     0.00  800.00    0.00  3200.00     0.00     8.00     0.00    0.00    0.00    0.00   0.00   0.00

avg-cpu:  %user   %nice %system %iowait  %steal   %idle
           0.00    0.00    0.63   23.57    0.00   75.80

Device:         rrqm/s   wrqm/s     r/s     w/s    rkB/s    wkB/s avgrq-sz avgqu-sz   await r_await w_await  svctm  %util
nvme0n1           0.00     0.00    0.00    0.00     0.00     0.00     0.00     0.00    0.00    0.00    0.00   0.00   0.00
sda               0.00     0.00    0.00    0.00     0.00     0.00     0.00     0.00    0.00    0.00    0.00   0.00   0.00
sdc               0.00     0.00  377.00    0.00  1508.00     0.00     8.00     4.88   13.18   13.18    0.00   1.86  70.30
sdb               0.00     0.00  376.00    0.00  1504.00     0.00     8.00     4.99   13.21   13.21    0.00   1.88  70.70
sdd               0.00     0.00  330.00    0.00  1320.00     0.00     8.00     5.17   15.76   15.76    0.00   2.47  81.50
md0               0.00     0.00 1056.00    0.00  4224.00     0.00     8.00     0.00    0.00    0.00    0.00   0.00   0.00

