Linux 4.17.2 (bench2) 	08/03/2018 	_x86_64_	(32 CPU)

avg-cpu:  %user   %nice %system %iowait  %steal   %idle
           1.91    0.00    1.57    1.54    0.00   94.98

Device:         rrqm/s   wrqm/s     r/s     w/s    rkB/s    wkB/s avgrq-sz avgqu-sz   await r_await w_await  svctm  %util
nvme0n1         948.71     5.15 19125.60  526.59 106980.62 11876.11    12.10     1.36    0.05    0.03    0.67   0.02  40.04
sda               0.12     0.81   14.15    0.58   163.99     8.51    23.43     0.00    0.33    0.32    0.45   0.07   0.10
sdc              33.03     0.14  111.32    0.30  1677.94    82.42    31.54     1.52   13.60   12.63  373.51   0.93  10.33
sdb              30.97     0.15  113.35    0.32  1676.06    82.24    30.94     0.40    3.55    2.45  394.60   0.86   9.82
sdd              33.23     0.13  110.86    0.25  1673.96    81.91    31.61     0.69    6.19    4.45  782.19   0.93  10.34
md0               0.00     0.00  435.62    1.06  6212.51   288.79    29.78     0.00    0.00    0.00    0.00   0.00   0.00

avg-cpu:  %user   %nice %system %iowait  %steal   %idle
           0.00    0.00    0.22   12.92    0.00   86.87

Device:         rrqm/s   wrqm/s     r/s     w/s    rkB/s    wkB/s avgrq-sz avgqu-sz   await r_await w_await  svctm  %util
nvme0n1           0.00     0.00    0.00    0.00     0.00     0.00     0.00     0.00    0.00    0.00    0.00   0.00   0.00
sda               0.00     0.00    1.00    0.00     8.00     0.00    16.00     0.00    1.00    1.00    0.00   1.00   0.10
sdc               8.00     0.00  740.00    0.00 15816.00     0.00    42.75     2.86    3.86    3.86    0.00   0.97  71.70
sdb               9.00     0.00  746.00    0.00 15828.00     0.00    42.43     2.77    3.72    3.72    0.00   0.89  66.30
sdd              13.00     0.00  696.00    0.00 15260.00     0.00    43.85     2.35    3.37    3.37    0.00   0.87  60.50
md0               0.00     0.00 2202.00    0.00 54460.00     0.00    49.46     0.00    0.00    0.00    0.00   0.00   0.00

avg-cpu:  %user   %nice %system %iowait  %steal   %idle
           0.03    0.00    0.25   12.78    0.00   86.94

Device:         rrqm/s   wrqm/s     r/s     w/s    rkB/s    wkB/s avgrq-sz avgqu-sz   await r_await w_await  svctm  %util
nvme0n1           0.00     0.00    0.00    0.00     0.00     0.00     0.00     0.00    0.00    0.00    0.00   0.00   0.00
sda               0.00     0.00    0.00    0.00     0.00     0.00     0.00     0.00    0.00    0.00    0.00   0.00   0.00
sdc               2.00     0.00  704.00    0.00 11956.00     0.00    33.97     2.67    3.79    3.79    0.00   1.00  70.40
sdb               2.00     0.00  724.00    0.00 12656.00     0.00    34.96     2.62    3.60    3.60    0.00   0.91  66.20
sdd               1.00     0.00  783.00    0.00 12008.00     0.00    30.67     2.78    3.56    3.56    0.00   0.88  68.60
md0               0.00     0.00 2212.00    0.00 39156.00     0.00    35.40     0.00    0.00    0.00    0.00   0.00   0.00

