Linux 4.17.2 (bench2) 	08/03/2018 	_x86_64_	(32 CPU)

avg-cpu:  %user   %nice %system %iowait  %steal   %idle
           1.92    0.00    1.58    1.50    0.00   95.00

Device:         rrqm/s   wrqm/s     r/s     w/s    rkB/s    wkB/s avgrq-sz avgqu-sz   await r_await w_await  svctm  %util
nvme0n1         959.60     5.21 19345.05  532.63 108208.17 12012.38    12.10     1.38    0.05    0.03    0.67   0.02  40.50
sda               0.11     0.81   14.11    0.57   163.85     8.50    23.48     0.00    0.33    0.32    0.46   0.07   0.10
sdc              32.18     0.14  103.87    0.30  1561.81    83.37    31.59     1.46   13.99   12.95  373.51   0.94   9.84
sdb              30.10     0.15  105.92    0.32  1559.97    83.19    30.93     0.33    3.14    1.95  394.60   0.88   9.36
sdd              32.39     0.13  103.41    0.25  1557.84    82.85    31.65     0.62    5.97    4.09  782.19   0.95   9.85
md0               0.00     0.00  410.75    1.07  5761.68   292.10    29.40     0.00    0.00    0.00    0.00   0.00   0.00

avg-cpu:  %user   %nice %system %iowait  %steal   %idle
           0.03    0.00    0.31    0.50    0.00   99.16

Device:         rrqm/s   wrqm/s     r/s     w/s    rkB/s    wkB/s avgrq-sz avgqu-sz   await r_await w_await  svctm  %util
nvme0n1           0.00     0.00    0.00    0.00     0.00     0.00     0.00     0.00    0.00    0.00    0.00   0.00   0.00
sda               0.00     0.00    4.00    0.00   104.00     0.00    52.00     0.00    0.50    0.50    0.00   0.50   0.20
sdc               0.00     0.00  227.00    0.00   908.00     0.00     8.00     5.02   21.89   21.89    0.00   3.71  84.20
sdb               0.00     0.00  209.00    0.00   836.00     0.00     8.00     4.16   19.43   19.43    0.00   3.55  74.10
sdd               0.00     0.00  212.00    0.00   848.00     0.00     8.00     4.62   21.56   21.56    0.00   3.94  83.50
md0               0.00     0.00  656.00    0.00  2624.00     0.00     8.00     0.00    0.00    0.00    0.00   0.00   0.00

avg-cpu:  %user   %nice %system %iowait  %steal   %idle
           0.00    0.00    0.28    0.19    0.00   99.53

Device:         rrqm/s   wrqm/s     r/s     w/s    rkB/s    wkB/s avgrq-sz avgqu-sz   await r_await w_await  svctm  %util
nvme0n1           0.00     0.00    0.00    0.00     0.00     0.00     0.00     0.00    0.00    0.00    0.00   0.00   0.00
sda               0.00     0.00    0.00    0.00     0.00     0.00     0.00     0.00    0.00    0.00    0.00   0.00   0.00
sdc               0.00     0.00  223.00    0.00   892.00     0.00     8.00     4.73   21.35   21.35    0.00   3.63  81.00
sdb               0.00     0.00  241.00    0.00   964.00     0.00     8.00     5.55   23.37   23.37    0.00   3.61  87.00
sdd               0.00     0.00  197.00    0.00   788.00     0.00     8.00     3.97   20.37   20.37    0.00   3.91  77.10
md0               0.00     0.00  678.00    0.00  2712.00     0.00     8.00     0.00    0.00    0.00    0.00   0.00   0.00

avg-cpu:  %user   %nice %system %iowait  %steal   %idle
           0.03    0.00    0.25    0.13    0.00   99.59

Device:         rrqm/s   wrqm/s     r/s     w/s    rkB/s    wkB/s avgrq-sz avgqu-sz   await r_await w_await  svctm  %util
nvme0n1           0.00     0.00    0.00    0.00     0.00     0.00     0.00     0.00    0.00    0.00    0.00   0.00   0.00
sda               0.00     0.00    0.00    0.00     0.00     0.00     0.00     0.00    0.00    0.00    0.00   0.00   0.00
sdc               0.00     0.00  208.00    0.00   832.00     0.00     8.00     4.65   22.25   22.25    0.00   3.89  80.90
sdb               0.00     0.00  212.00    0.00   848.00     0.00     8.00     4.13   19.23   19.23    0.00   3.35  71.10
sdd               0.00     0.00  206.00    0.00   824.00     0.00     8.00     4.59   21.97   21.97    0.00   3.76  77.40
md0               0.00     0.00  625.00    0.00  2500.00     0.00     8.00     0.00    0.00    0.00    0.00   0.00   0.00

avg-cpu:  %user   %nice %system %iowait  %steal   %idle
           0.00    0.00    0.13    0.31    0.00   99.56

Device:         rrqm/s   wrqm/s     r/s     w/s    rkB/s    wkB/s avgrq-sz avgqu-sz   await r_await w_await  svctm  %util
nvme0n1           0.00     0.00    0.00    0.00     0.00     0.00     0.00     0.00    0.00    0.00    0.00   0.00   0.00
sda               0.00     0.00    0.00    0.00     0.00     0.00     0.00     0.00    0.00    0.00    0.00   0.00   0.00
sdc               0.00     0.00  220.00    0.00   880.00     0.00     8.00     4.55   20.88   20.88    0.00   3.73  82.00
sdb               0.00     0.00  236.00    0.00   944.00     0.00     8.00     4.79   20.47   20.47    0.00   3.35  79.00
sdd               0.00     0.00  231.00    0.00   924.00     0.00     8.00     5.14   22.12   22.12    0.00   3.66  84.50
md0               0.00     0.00  667.00    0.00  2668.00     0.00     8.00     0.00    0.00    0.00    0.00   0.00   0.00

avg-cpu:  %user   %nice %system %iowait  %steal   %idle
           0.03    0.00    0.19    0.09    0.00   99.69

Device:         rrqm/s   wrqm/s     r/s     w/s    rkB/s    wkB/s avgrq-sz avgqu-sz   await r_await w_await  svctm  %util
nvme0n1           0.00     0.00    0.00    0.00     0.00     0.00     0.00     0.00    0.00    0.00    0.00   0.00   0.00
sda               0.00     7.00    0.00    2.00     0.00    36.00    36.00     0.00    0.00    0.00    0.00   0.00   0.00
sdc               0.00     0.00  194.00    0.00   776.00     0.00     8.00     4.08   20.93   20.93    0.00   3.90  75.60
sdb               0.00     0.00  217.00    0.00   868.00     0.00     8.00     4.92   22.76   22.76    0.00   3.55  77.10
sdd               0.00     0.00  206.00    0.00   824.00     0.00     8.00     4.13   20.43   20.43    0.00   3.65  75.20
md0               0.00     0.00  638.00    0.00  2552.00     0.00     8.00     0.00    0.00    0.00    0.00   0.00   0.00

avg-cpu:  %user   %nice %system %iowait  %steal   %idle
           0.00    0.00    0.09    0.13    0.00   99.78

Device:         rrqm/s   wrqm/s     r/s     w/s    rkB/s    wkB/s avgrq-sz avgqu-sz   await r_await w_await  svctm  %util
nvme0n1           0.00     0.00    0.00    0.00     0.00     0.00     0.00     0.00    0.00    0.00    0.00   0.00   0.00
sda               0.00     1.00    0.00    3.00     0.00    40.00    26.67     0.00    0.00    0.00    0.00   0.00   0.00
sdc               0.00     0.00  244.00    0.00   976.00     0.00     8.00     5.27   21.17   21.17    0.00   3.35  81.70
sdb               0.00     0.00  234.00    0.00   936.00     0.00     8.00     4.36   18.56   18.56    0.00   3.27  76.50
sdd               0.00     0.00  209.00    0.00   836.00     0.00     8.00     4.07   19.28   19.28    0.00   3.49  73.00
md0               0.00     0.00  684.00    0.00  2736.00     0.00     8.00     0.00    0.00    0.00    0.00   0.00   0.00

avg-cpu:  %user   %nice %system %iowait  %steal   %idle
           0.03    0.00    0.09    0.13    0.00   99.75

Device:         rrqm/s   wrqm/s     r/s     w/s    rkB/s    wkB/s avgrq-sz avgqu-sz   await r_await w_await  svctm  %util
nvme0n1           0.00     0.00    0.00    0.00     0.00     0.00     0.00     0.00    0.00    0.00    0.00   0.00   0.00
sda               0.00     0.00    0.00    0.00     0.00     0.00     0.00     0.00    0.00    0.00    0.00   0.00   0.00
sdc               0.00     0.00  217.00    0.00   868.00     0.00     8.00     5.10   23.87   23.87    0.00   3.89  84.50
sdb               0.00     0.00  205.00    0.00   820.00     0.00     8.00     4.37   20.97   20.97    0.00   3.57  73.20
sdd               0.00     0.00  222.00    0.00   888.00     0.00     8.00     5.23   23.55   23.55    0.00   3.69  82.00
md0               0.00     0.00  631.00    0.00  2524.00     0.00     8.00     0.00    0.00    0.00    0.00   0.00   0.00

avg-cpu:  %user   %nice %system %iowait  %steal   %idle
           0.00    0.00    0.13    0.34    0.00   99.53

Device:         rrqm/s   wrqm/s     r/s     w/s    rkB/s    wkB/s avgrq-sz avgqu-sz   await r_await w_await  svctm  %util
nvme0n1           0.00     0.00    0.00    0.00     0.00     0.00     0.00     0.00    0.00    0.00    0.00   0.00   0.00
sda               0.00     0.00    0.00    0.00     0.00     0.00     0.00     0.00    0.00    0.00    0.00   0.00   0.00
sdc               0.00     0.00  197.00    0.00   788.00     0.00     8.00     3.79   19.53   19.53    0.00   3.59  70.70
sdb               0.00     0.00  229.00    0.00   916.00     0.00     8.00     5.03   22.33   22.33    0.00   3.57  81.80
sdd               0.00     0.00  218.00    0.00   872.00     0.00     8.00     4.79   22.36   22.36    0.00   3.80  82.80
md0               0.00     0.00  636.00    0.00  2544.00     0.00     8.00     0.00    0.00    0.00    0.00   0.00   0.00

avg-cpu:  %user   %nice %system %iowait  %steal   %idle
           0.03    0.00    0.28    0.22    0.00   99.47

Device:         rrqm/s   wrqm/s     r/s     w/s    rkB/s    wkB/s avgrq-sz avgqu-sz   await r_await w_await  svctm  %util
nvme0n1           0.00     0.00    0.00    0.00     0.00     0.00     0.00     0.00    0.00    0.00    0.00   0.00   0.00
sda               0.00     0.00    0.00    0.00     0.00     0.00     0.00     0.00    0.00    0.00    0.00   0.00   0.00
sdc               0.00     0.00  218.00    0.00   872.00     0.00     8.00     4.80   21.76   21.76    0.00   3.47  75.60
sdb               0.00     0.00  194.00    0.00   776.00     0.00     8.00     4.14   21.51   21.51    0.00   3.91  75.80
sdd               0.00     0.00  231.00    0.00   924.00     0.00     8.00     5.21   22.58   22.58    0.00   3.43  79.20
md0               0.00     0.00  643.00    0.00  2572.00     0.00     8.00     0.00    0.00    0.00    0.00   0.00   0.00

avg-cpu:  %user   %nice %system %iowait  %steal   %idle
           0.00    0.00    0.38    0.25    0.00   99.38

Device:         rrqm/s   wrqm/s     r/s     w/s    rkB/s    wkB/s avgrq-sz avgqu-sz   await r_await w_await  svctm  %util
nvme0n1           0.00     0.00    0.00    0.00     0.00     0.00     0.00     0.00    0.00    0.00    0.00   0.00   0.00
sda               0.00     7.00    0.00    2.00     0.00    36.00    36.00     0.00    0.00    0.00    0.00   0.00   0.00
sdc               0.00     0.00  214.00    0.00   856.00     0.00     8.00     4.72   22.12   22.12    0.00   3.79  81.10
sdb               0.00     0.00  238.00    0.00   952.00     0.00     8.00     5.10   21.45   21.45    0.00   3.42  81.50
sdd               0.00     0.00  209.00    0.00   836.00     0.00     8.00     5.15   24.65   24.65    0.00   3.79  79.20
md0               0.00     0.00  661.00    0.00  2644.00     0.00     8.00     0.00    0.00    0.00    0.00   0.00   0.00

avg-cpu:  %user   %nice %system %iowait  %steal   %idle
           0.03    0.00    0.28    0.00    0.00   99.69

Device:         rrqm/s   wrqm/s     r/s     w/s    rkB/s    wkB/s avgrq-sz avgqu-sz   await r_await w_await  svctm  %util
nvme0n1           0.00     0.00    0.00    0.00     0.00     0.00     0.00     0.00    0.00    0.00    0.00   0.00   0.00
sda               0.00     4.00    0.00   17.00     0.00   100.00    11.76     0.00    0.00    0.00    0.00   0.00   0.00
sdc               0.00     0.00  220.00    0.00   880.00     0.00     8.00     4.56   19.96   19.96    0.00   3.65  80.20
sdb               0.00     0.00  202.00    0.00   808.00     0.00     8.00     3.65   17.87   17.87    0.00   3.33  67.30
sdd               0.00     0.00  238.00    0.00   952.00     0.00     8.00     5.18   21.17   21.17    0.00   3.47  82.50
md0               0.00     0.00  678.00    0.00  2712.00     0.00     8.00     0.00    0.00    0.00    0.00   0.00   0.00

avg-cpu:  %user   %nice %system %iowait  %steal   %idle
           0.03    0.00    0.31    0.16    0.00   99.50

Device:         rrqm/s   wrqm/s     r/s     w/s    rkB/s    wkB/s avgrq-sz avgqu-sz   await r_await w_await  svctm  %util
nvme0n1           0.00     0.00    0.00    0.00     0.00     0.00     0.00     0.00    0.00    0.00    0.00   0.00   0.00
sda               0.00     0.00    0.00    0.00     0.00     0.00     0.00     0.00    0.00    0.00    0.00   0.00   0.00
sdc               0.00     0.00  217.00    0.00   868.00     0.00     8.00     4.40   20.29   20.29    0.00   3.39  73.60
sdb               0.00     0.00  230.00    0.00   920.00     0.00     8.00     4.63   19.97   19.97    0.00   3.37  77.50
sdd               0.00     0.00  212.00    0.00   848.00     0.00     8.00     4.80   23.00   23.00    0.00   3.89  82.50
md0               0.00     0.00  659.00    0.00  2636.00     0.00     8.00     0.00    0.00    0.00    0.00   0.00   0.00

avg-cpu:  %user   %nice %system %iowait  %steal   %idle
           0.03    0.00    0.41    0.09    0.00   99.47

Device:         rrqm/s   wrqm/s     r/s     w/s    rkB/s    wkB/s avgrq-sz avgqu-sz   await r_await w_await  svctm  %util
nvme0n1           0.00     0.00    0.00    0.00     0.00     0.00     0.00     0.00    0.00    0.00    0.00   0.00   0.00
sda               0.00     0.00    0.00    0.00     0.00     0.00     0.00     0.00    0.00    0.00    0.00   0.00   0.00
sdc               0.00     0.00  203.00    0.00   812.00     0.00     8.00     4.40   21.81   21.81    0.00   3.92  79.60
sdb               0.00     0.00  210.00    0.00   840.00     0.00     8.00     4.90   22.89   22.89    0.00   4.12  86.60
sdd               0.00     0.00  211.00    0.00   844.00     0.00     8.00     4.37   20.34   20.34    0.00   3.78  79.80
md0               0.00     0.00  627.00    0.00  2508.00     0.00     8.00     0.00    0.00    0.00    0.00   0.00   0.00

avg-cpu:  %user   %nice %system %iowait  %steal   %idle
           0.03    0.00    0.34    0.16    0.00   99.47

Device:         rrqm/s   wrqm/s     r/s     w/s    rkB/s    wkB/s avgrq-sz avgqu-sz   await r_await w_await  svctm  %util
nvme0n1           0.00     0.00    0.00    0.00     0.00     0.00     0.00     0.00    0.00    0.00    0.00   0.00   0.00
sda               0.00     0.00    0.00    0.00     0.00     0.00     0.00     0.00    0.00    0.00    0.00   0.00   0.00
sdc               0.00     0.00  249.00    0.00   996.00     0.00     8.00     5.61   22.75   22.75    0.00   3.62  90.20
sdb               0.00     0.00  233.00    0.00   932.00     0.00     8.00     4.90   21.73   21.73    0.00   3.49  81.40
sdd               0.00     0.00  201.00    0.00   804.00     0.00     8.00     3.80   18.84   18.84    0.00   3.62  72.70
md0               0.00     0.00  670.00    0.00  2680.00     0.00     8.00     0.00    0.00    0.00    0.00   0.00   0.00

avg-cpu:  %user   %nice %system %iowait  %steal   %idle
           0.00    0.00    0.22    0.16    0.00   99.62

Device:         rrqm/s   wrqm/s     r/s     w/s    rkB/s    wkB/s avgrq-sz avgqu-sz   await r_await w_await  svctm  %util
nvme0n1           0.00     0.00    0.00    0.00     0.00     0.00     0.00     0.00    0.00    0.00    0.00   0.00   0.00
sda               0.00     3.00    0.00    2.00     0.00    20.00    20.00     0.00    0.00    0.00    0.00   0.00   0.00
sdc               0.00     0.00  229.00    0.00   916.00     0.00     8.00     5.40   23.90   23.90    0.00   3.74  85.60
sdb               0.00     0.00  195.00    0.00   780.00     0.00     8.00     3.93   20.00   20.00    0.00   3.57  69.60
sdd               0.00     0.00  233.00    0.00   932.00     0.00     8.00     4.79   21.01   21.01    0.00   3.31  77.10
md0               0.00     0.00  663.00    0.00  2652.00     0.00     8.00     0.00    0.00    0.00    0.00   0.00   0.00

avg-cpu:  %user   %nice %system %iowait  %steal   %idle
           0.00    0.00    0.25    0.19    0.00   99.56

Device:         rrqm/s   wrqm/s     r/s     w/s    rkB/s    wkB/s avgrq-sz avgqu-sz   await r_await w_await  svctm  %util
nvme0n1           0.00     0.00    0.00    0.00     0.00     0.00     0.00     0.00    0.00    0.00    0.00   0.00   0.00
sda               0.00     0.00    0.00    0.00     0.00     0.00     0.00     0.00    0.00    0.00    0.00   0.00   0.00
sdc               0.00     0.00  213.00    0.00   852.00     0.00     8.00     3.91   18.35   18.35    0.00   3.19  67.90
sdb               0.00     0.00  240.00    0.00   960.00     0.00     8.00     4.84   20.12   20.12    0.00   3.30  79.20
sdd               0.00     0.00  214.00    0.00   856.00     0.00     8.00     4.50   21.08   21.08    0.00   3.57  76.50
md0               0.00     0.00  663.00    0.00  2652.00     0.00     8.00     0.00    0.00    0.00    0.00   0.00   0.00

avg-cpu:  %user   %nice %system %iowait  %steal   %idle
           0.00    0.00    0.34    0.16    0.00   99.50

Device:         rrqm/s   wrqm/s     r/s     w/s    rkB/s    wkB/s avgrq-sz avgqu-sz   await r_await w_await  svctm  %util
nvme0n1           0.00     0.00    0.00    0.00     0.00     0.00     0.00     0.00    0.00    0.00    0.00   0.00   0.00
sda               0.00     0.00    0.00    0.00     0.00     0.00     0.00     0.00    0.00    0.00    0.00   0.00   0.00
sdc               0.00     0.00  224.00    0.00   896.00     0.00     8.00     4.54   20.20   20.20    0.00   3.49  78.10
sdb               0.00     0.00  217.00    0.00   868.00     0.00     8.00     4.74   22.06   22.06    0.00   3.76  81.50
sdd               0.00     0.00  223.00    0.00   892.00     0.00     8.00     4.66   21.20   21.20    0.00   3.64  81.20
md0               0.00     0.00  655.00    0.00  2620.00     0.00     8.00     0.00    0.00    0.00    0.00   0.00   0.00

avg-cpu:  %user   %nice %system %iowait  %steal   %idle
           0.03    0.00    0.31    0.13    0.00   99.53

Device:         rrqm/s   wrqm/s     r/s     w/s    rkB/s    wkB/s avgrq-sz avgqu-sz   await r_await w_await  svctm  %util
nvme0n1           0.00     0.00    0.00    0.00     0.00     0.00     0.00     0.00    0.00    0.00    0.00   0.00   0.00
sda               0.00     0.00    0.00    0.00     0.00     0.00     0.00     0.00    0.00    0.00    0.00   0.00   0.00
sdc               0.00     0.00  205.00    0.00   820.00     0.00     8.00     4.59   21.82   21.82    0.00   3.79  77.70
sdb               0.00     0.00  219.00    0.00   876.00     0.00     8.00     4.40   19.63   19.63    0.00   3.32  72.70
sdd               0.00     0.00  219.00    0.00   876.00     0.00     8.00     5.31   23.81   23.81    0.00   3.85  84.40
md0               0.00     0.00  665.00    0.00  2660.00     0.00     8.00     0.00    0.00    0.00    0.00   0.00   0.00

avg-cpu:  %user   %nice %system %iowait  %steal   %idle
           0.03    0.00    0.22    0.34    0.00   99.41

Device:         rrqm/s   wrqm/s     r/s     w/s    rkB/s    wkB/s avgrq-sz avgqu-sz   await r_await w_await  svctm  %util
nvme0n1           0.00     0.00    0.00    0.00     0.00     0.00     0.00     0.00    0.00    0.00    0.00   0.00   0.00
sda               0.00     0.00    0.00    0.00     0.00     0.00     0.00     0.00    0.00    0.00    0.00   0.00   0.00
sdc               0.00     0.00  242.00    0.00   968.00     0.00     8.00     5.56   23.77   23.77    0.00   3.53  85.40
sdb               0.00     0.00  189.00    0.00   756.00     0.00     8.00     4.02   20.88   20.88    0.00   3.80  71.90
sdd               0.00     0.00  225.00    0.00   900.00     0.00     8.00     5.11   22.54   22.54    0.00   3.57  80.30
md0               0.00     0.00  650.00    0.00  2600.00     0.00     8.00     0.00    0.00    0.00    0.00   0.00   0.00

avg-cpu:  %user   %nice %system %iowait  %steal   %idle
           0.03    0.00    0.16    0.13    0.00   99.69

Device:         rrqm/s   wrqm/s     r/s     w/s    rkB/s    wkB/s avgrq-sz avgqu-sz   await r_await w_await  svctm  %util
nvme0n1           0.00     0.00    0.00    0.00     0.00     0.00     0.00     0.00    0.00    0.00    0.00   0.00   0.00
sda               0.00     1.00    0.00    2.00     0.00    12.00    12.00     0.00    0.50    0.00    0.50   0.50   0.10
sdc               0.00     0.00  223.00    0.00   892.00     0.00     8.00     4.57   20.30   20.30    0.00   3.39  75.50
sdb               0.00     0.00  222.00    0.00   888.00     0.00     8.00     4.38   20.20   20.20    0.00   3.43  76.20
sdd               0.00     0.00  221.00    0.00   884.00     0.00     8.00     4.96   22.69   22.69    0.00   3.73  82.50
md0               0.00     0.00  669.00    0.00  2676.00     0.00     8.00     0.00    0.00    0.00    0.00   0.00   0.00

