Linux 4.17.2 (bench2) 	08/03/2018 	_x86_64_	(32 CPU)

avg-cpu:  %user   %nice %system %iowait  %steal   %idle
           1.92    0.00    1.58    1.51    0.00   94.99

Device:         rrqm/s   wrqm/s     r/s     w/s    rkB/s    wkB/s avgrq-sz avgqu-sz   await r_await w_await  svctm  %util
nvme0n1         954.71     5.19 19246.63  529.92 107657.63 11951.26    12.10     1.37    0.05    0.03    0.67   0.02  40.29
sda               0.11     0.81   14.13    0.57   163.93     8.51    23.46     0.00    0.33    0.32    0.45   0.07   0.10
sdc              32.61     0.14  107.22    0.30  1611.70    82.94    31.52     1.49   13.82   12.82  373.51   0.94  10.06
sdb              30.54     0.15  109.26    0.32  1609.83    82.76    30.89     0.37    3.35    2.20  394.60   0.87   9.56
sdd              32.81     0.13  106.76    0.25  1607.76    82.43    31.59     0.65    6.08    4.27  782.19   0.94  10.06
md0               0.00     0.00  422.08    1.07  5954.76   290.61    29.52     0.00    0.00    0.00    0.00   0.00   0.00

avg-cpu:  %user   %nice %system %iowait  %steal   %idle
           0.00    0.00    0.16    0.72    0.00   99.12

Device:         rrqm/s   wrqm/s     r/s     w/s    rkB/s    wkB/s avgrq-sz avgqu-sz   await r_await w_await  svctm  %util
nvme0n1           0.00     0.00    0.00    0.00     0.00     0.00     0.00     0.00    0.00    0.00    0.00   0.00   0.00
sda               0.00     0.00   33.00    0.00   136.00     0.00     8.24     0.02    0.73    0.73    0.00   0.03   0.10
sdc               0.00     0.00  219.00    0.00   876.00     0.00     8.00     5.16   23.23   23.23    0.00   3.76  82.40
sdb               0.00     0.00  224.00    0.00   896.00     0.00     8.00     5.10   22.41   22.41    0.00   3.62  81.00
sdd               0.00     0.00  196.00    0.00   784.00     0.00     8.00     4.49   22.48   22.48    0.00   4.17  81.80
md0               0.00     0.00  636.00    0.00  2544.00     0.00     8.00     0.00    0.00    0.00    0.00   0.00   0.00

avg-cpu:  %user   %nice %system %iowait  %steal   %idle
           0.00    0.00    0.13    0.66    0.00   99.22

Device:         rrqm/s   wrqm/s     r/s     w/s    rkB/s    wkB/s avgrq-sz avgqu-sz   await r_await w_await  svctm  %util
nvme0n1           0.00     0.00    0.00    0.00     0.00     0.00     0.00     0.00    0.00    0.00    0.00   0.00   0.00
sda               0.00     0.00    0.00    0.00     0.00     0.00     0.00     0.00    0.00    0.00    0.00   0.00   0.00
sdc               0.00     0.00  250.00    0.00  1000.00     0.00     8.00     5.38   21.20   21.20    0.00   3.33  83.20
sdb               0.00     0.00  216.00    0.00   864.00     0.00     8.00     5.06   23.84   23.84    0.00   3.83  82.70
sdd               0.00     0.00  200.00    0.00   800.00     0.00     8.00     4.01   20.57   20.57    0.00   3.60  72.10
md0               0.00     0.00  641.00    0.00  2564.00     0.00     8.00     0.00    0.00    0.00    0.00   0.00   0.00

