Linux 4.17.2 (bench2) 	08/03/2018 	_x86_64_	(32 CPU)

avg-cpu:  %user   %nice %system %iowait  %steal   %idle
           1.93    0.00    1.58    1.50    0.00   95.00

Device:         rrqm/s   wrqm/s     r/s     w/s    rkB/s    wkB/s avgrq-sz avgqu-sz   await r_await w_await  svctm  %util
nvme0n1         960.43     5.22 19361.98  533.09 108302.83 12022.89    12.10     1.38    0.05    0.03    0.67   0.02  40.53
sda               0.11     0.81   14.11    0.57   163.83     8.50    23.49     0.00    0.33    0.32    0.46   0.07   0.10
sdc              32.20     0.14  103.37    0.30  1550.75    83.44    31.53     1.46   14.06   13.01  373.51   0.95   9.81
sdb              30.11     0.15  105.42    0.32  1548.91    83.26    30.87     0.33    3.15    1.95  394.60   0.88   9.33
sdd              32.40     0.13  102.91    0.25  1546.79    82.93    31.60     0.62    5.99    4.10  782.19   0.95   9.81
md0               0.00     0.00  409.29    1.07  5716.95   292.35    29.29     0.00    0.00    0.00    0.00   0.00   0.00

avg-cpu:  %user   %nice %system %iowait  %steal   %idle
           0.02    0.00    0.10    1.05    0.00   98.83

Device:         rrqm/s   wrqm/s     r/s     w/s    rkB/s    wkB/s avgrq-sz avgqu-sz   await r_await w_await  svctm  %util
nvme0n1           0.00     0.00    0.00    0.00     0.00     0.00     0.00     0.00    0.00    0.00    0.00   0.00   0.00
sda               0.00     0.95   18.55    0.60   340.20     7.00    36.26     0.01    0.32    0.33    0.00   0.09   0.17
sdc               0.00     0.00  225.35    0.00   901.40     0.00     8.00     0.34    1.52    1.52    0.00   1.52  34.20
sdb               0.00     0.00  221.20    0.00   884.80     0.00     8.00     0.30    1.36    1.36    0.00   1.36  30.06
sdd               0.00     0.00  220.20    0.00   880.80     0.00     8.00     0.32    1.45    1.45    0.00   1.45  32.01
md0               0.00     0.00  666.80    0.00  2667.20     0.00     8.00     0.00    0.00    0.00    0.00   0.00   0.00

