Linux 4.17.2 (bench2) 	08/03/2018 	_x86_64_	(32 CPU)

avg-cpu:  %user   %nice %system %iowait  %steal   %idle
           1.91    0.00    1.57    1.54    0.00   94.98

Device:         rrqm/s   wrqm/s     r/s     w/s    rkB/s    wkB/s avgrq-sz avgqu-sz   await r_await w_await  svctm  %util
nvme0n1         949.08     5.15 19133.08  526.79 107022.49 11880.76    12.10     1.36    0.05    0.03    0.67   0.02  40.05
sda               0.12     0.81   14.15    0.58   163.99     8.51    23.44     0.00    0.33    0.32    0.45   0.07   0.10
sdc              33.03     0.14  111.05    0.30  1672.38    82.45    31.52     1.52   13.62   12.65  373.51   0.93  10.32
sdb              30.96     0.15  113.07    0.32  1670.49    82.28    30.92     0.40    3.54    2.44  394.60   0.86   9.80
sdd              33.22     0.13  110.59    0.25  1668.40    81.94    31.59     0.69    6.18    4.44  782.19   0.93  10.32
md0               0.00     0.00  434.77    1.06  6191.21   288.90    29.74     0.00    0.00    0.00    0.00   0.00   0.00

avg-cpu:  %user   %nice %system %iowait  %steal   %idle
           0.00    0.00    0.06    3.02    0.00   96.91

Device:         rrqm/s   wrqm/s     r/s     w/s    rkB/s    wkB/s avgrq-sz avgqu-sz   await r_await w_await  svctm  %util
nvme0n1           0.00     0.00    0.00    0.00     0.00     0.00     0.00     0.00    0.00    0.00    0.00   0.00   0.00
sda               0.00     1.25    3.55    1.55    29.20    12.20    16.24     0.00    0.12    0.14    0.06   0.04   0.02
sdc               0.20     0.00  195.65    0.00  3135.00     0.00    32.05     0.32    1.61    1.61    0.00   1.56  30.54
sdb               0.25     0.00  193.35    0.00  3311.80     0.00    34.26     0.34    1.77    1.77    0.00   1.72  33.34
sdd               0.35     0.00  196.90    0.00  3079.60     0.00    31.28     0.38    1.94    1.94    0.00   1.89  37.19
md0               0.00     0.00  586.75    0.00 10576.20     0.00    36.05     0.00    0.00    0.00    0.00   0.00   0.00

