Linux 4.17.2 (bench2) 	08/03/2018 	_x86_64_	(32 CPU)

avg-cpu:  %user   %nice %system %iowait  %steal   %idle
           1.92    0.00    1.58    1.51    0.00   94.99

Device:         rrqm/s   wrqm/s     r/s     w/s    rkB/s    wkB/s avgrq-sz avgqu-sz   await r_await w_await  svctm  %util
nvme0n1         957.12     5.20 19295.23  531.26 107929.45 11981.44    12.10     1.37    0.05    0.03    0.67   0.02  40.39
sda               0.11     0.81   14.12    0.57   163.89     8.50    23.47     0.00    0.33    0.32    0.45   0.07   0.10
sdc              32.49     0.14  105.35    0.30  1596.43    83.15    31.80     1.48   14.03   13.00  373.51   0.94   9.97
sdb              30.41     0.15  107.39    0.32  1594.56    82.97    31.15     0.36    3.34    2.17  394.60   0.88   9.47
sdd              32.69     0.13  104.89    0.25  1592.48    82.64    31.86     0.65    6.13    4.28  782.19   0.95   9.97
md0               0.00     0.00  416.10    1.07  5899.45   291.35    29.68     0.00    0.00    0.00    0.00   0.00   0.00

avg-cpu:  %user   %nice %system %iowait  %steal   %idle
           0.00    0.00    0.19    2.88    0.00   96.93

Device:         rrqm/s   wrqm/s     r/s     w/s    rkB/s    wkB/s avgrq-sz avgqu-sz   await r_await w_await  svctm  %util
nvme0n1           0.00     0.00    0.00    0.00     0.00     0.00     0.00     0.00    0.00    0.00    0.00   0.00   0.00
sda               0.00     0.00   20.00    0.00   120.00     0.00    12.00     0.00    0.00    0.00    0.00   0.00   0.00
sdc               0.00     0.00 1099.00    0.00  4396.00     0.00     8.00     0.43    0.39    0.39    0.00   0.39  43.20
sdb               0.00     0.00  894.00    0.00  3576.00     0.00     8.00     0.29    0.33    0.33    0.00   0.33  29.50
sdd               0.00     0.00  998.00    0.00  3992.00     0.00     8.00     0.22    0.22    0.22    0.00   0.22  22.40
md0               0.00     0.00 2991.00    0.00 11964.00     0.00     8.00     0.00    0.00    0.00    0.00   0.00   0.00

avg-cpu:  %user   %nice %system %iowait  %steal   %idle
           0.03    0.00    0.25    2.84    0.00   96.87

Device:         rrqm/s   wrqm/s     r/s     w/s    rkB/s    wkB/s avgrq-sz avgqu-sz   await r_await w_await  svctm  %util
nvme0n1           0.00     0.00    0.00    0.00     0.00     0.00     0.00     0.00    0.00    0.00    0.00   0.00   0.00
sda               0.00     0.00    0.00    0.00     0.00     0.00     0.00     0.00    0.00    0.00    0.00   0.00   0.00
sdc               0.00     0.00 1068.00    0.00  4272.00     0.00     8.00     0.29    0.27    0.27    0.00   0.27  29.00
sdb               0.00     0.00 1181.00    0.00  4724.00     0.00     8.00     0.40    0.34    0.34    0.00   0.34  39.90
sdd               0.00     0.00 1076.00    0.00  4304.00     0.00     8.00     0.25    0.23    0.23    0.00   0.23  25.10
md0               0.00     0.00 3325.00    0.00 13300.00     0.00     8.00     0.00    0.00    0.00    0.00   0.00   0.00

avg-cpu:  %user   %nice %system %iowait  %steal   %idle
           0.00    0.00    0.22    2.88    0.00   96.90

Device:         rrqm/s   wrqm/s     r/s     w/s    rkB/s    wkB/s avgrq-sz avgqu-sz   await r_await w_await  svctm  %util
nvme0n1           0.00     0.00    0.00    0.00     0.00     0.00     0.00     0.00    0.00    0.00    0.00   0.00   0.00
sda               0.00     0.00    0.00    0.00     0.00     0.00     0.00     0.00    0.00    0.00    0.00   0.00   0.00
sdc               0.00     0.00 1055.00    0.00  4220.00     0.00     8.00     0.34    0.32    0.32    0.00   0.32  34.20
sdb               0.00     0.00 1189.00    0.00  4756.00     0.00     8.00     0.39    0.33    0.33    0.00   0.33  39.40
sdd               0.00     0.00  903.00    0.00  3612.00     0.00     8.00     0.20    0.22    0.22    0.00   0.22  19.50
md0               0.00     0.00 3147.00    0.00 12588.00     0.00     8.00     0.00    0.00    0.00    0.00   0.00   0.00

avg-cpu:  %user   %nice %system %iowait  %steal   %idle
           0.03    0.00    0.19    2.85    0.00   96.93

Device:         rrqm/s   wrqm/s     r/s     w/s    rkB/s    wkB/s avgrq-sz avgqu-sz   await r_await w_await  svctm  %util
nvme0n1           0.00     0.00    0.00    0.00     0.00     0.00     0.00     0.00    0.00    0.00    0.00   0.00   0.00
sda               0.00     0.00    0.00    0.00     0.00     0.00     0.00     0.00    0.00    0.00    0.00   0.00   0.00
sdc               0.00     0.00  923.00    0.00  3692.00     0.00     8.00     0.25    0.27    0.27    0.00   0.27  25.00
sdb               0.00     0.00 1385.00    0.00  5540.00     0.00     8.00     0.40    0.29    0.29    0.00   0.29  40.00
sdd               0.00     0.00 1063.00    0.00  4252.00     0.00     8.00     0.29    0.27    0.27    0.00   0.27  28.80
md0               0.00     0.00 3371.00    0.00 13484.00     0.00     8.00     0.00    0.00    0.00    0.00   0.00   0.00

avg-cpu:  %user   %nice %system %iowait  %steal   %idle
           0.00    0.00    0.25    2.85    0.00   96.90

Device:         rrqm/s   wrqm/s     r/s     w/s    rkB/s    wkB/s avgrq-sz avgqu-sz   await r_await w_await  svctm  %util
nvme0n1           0.00     0.00    0.00    0.00     0.00     0.00     0.00     0.00    0.00    0.00    0.00   0.00   0.00
sda               0.00     0.00    0.00    0.00     0.00     0.00     0.00     0.00    0.00    0.00    0.00   0.00   0.00
sdc               0.00     0.00 1133.00    0.00  4532.00     0.00     8.00     0.36    0.32    0.32    0.00   0.32  36.50
sdb               0.00     0.00  909.00    0.00  3636.00     0.00     8.00     0.24    0.27    0.27    0.00   0.27  24.10
sdd               0.00     0.00 1016.00    0.00  4064.00     0.00     8.00     0.33    0.33    0.33    0.00   0.33  33.20
md0               0.00     0.00 3059.00    0.00 12236.00     0.00     8.00     0.00    0.00    0.00    0.00   0.00   0.00

avg-cpu:  %user   %nice %system %iowait  %steal   %idle
           0.00    0.00    0.22    2.85    0.00   96.93

Device:         rrqm/s   wrqm/s     r/s     w/s    rkB/s    wkB/s avgrq-sz avgqu-sz   await r_await w_await  svctm  %util
nvme0n1           0.00     0.00    0.00    0.00     0.00     0.00     0.00     0.00    0.00    0.00    0.00   0.00   0.00
sda               0.00     9.00    0.00    2.00     0.00    44.00    44.00     0.00    0.00    0.00    0.00   0.00   0.00
sdc               0.00     0.00 1071.00    0.00  4284.00     0.00     8.00     0.33    0.31    0.31    0.00   0.31  32.90
sdb               0.00     0.00 1090.00    0.00  4360.00     0.00     8.00     0.30    0.28    0.28    0.00   0.28  30.50
sdd               0.00     0.00 1150.00    0.00  4600.00     0.00     8.00     0.31    0.27    0.27    0.00   0.27  30.60
md0               0.00     0.00 3310.00    0.00 13240.00     0.00     8.00     0.00    0.00    0.00    0.00   0.00   0.00

avg-cpu:  %user   %nice %system %iowait  %steal   %idle
           0.03    0.00    0.19    2.85    0.00   96.93

Device:         rrqm/s   wrqm/s     r/s     w/s    rkB/s    wkB/s avgrq-sz avgqu-sz   await r_await w_await  svctm  %util
nvme0n1           0.00     0.00    0.00    0.00     0.00     0.00     0.00     0.00    0.00    0.00    0.00   0.00   0.00
sda               0.00     0.00    0.00    0.00     0.00     0.00     0.00     0.00    0.00    0.00    0.00   0.00   0.00
sdc               0.00     0.00  931.00    0.00  3724.00     0.00     8.00     0.30    0.32    0.32    0.00   0.32  29.90
sdb               0.00     0.00 1047.00    0.00  4188.00     0.00     8.00     0.19    0.18    0.18    0.00   0.18  18.90
sdd               0.00     0.00 1351.00    0.00  5404.00     0.00     8.00     0.45    0.33    0.33    0.00   0.33  45.10
md0               0.00     0.00 3329.00    0.00 13316.00     0.00     8.00     0.00    0.00    0.00    0.00   0.00   0.00

avg-cpu:  %user   %nice %system %iowait  %steal   %idle
           0.03    0.00    0.22    2.85    0.00   96.90

Device:         rrqm/s   wrqm/s     r/s     w/s    rkB/s    wkB/s avgrq-sz avgqu-sz   await r_await w_await  svctm  %util
nvme0n1           0.00     0.00    0.00    0.00     0.00     0.00     0.00     0.00    0.00    0.00    0.00   0.00   0.00
sda               0.00     0.00    0.00    0.00     0.00     0.00     0.00     0.00    0.00    0.00    0.00   0.00   0.00
sdc               0.00     0.00 1211.88    0.00  4847.52     0.00     8.00     0.29    0.24    0.24    0.00   0.24  29.41
sdb               0.00     0.00 1038.61    0.00  4154.46     0.00     8.00     0.28    0.27    0.27    0.00   0.27  28.32
sdd               0.00     0.00 1082.18    0.00  4328.71     0.00     8.00     0.35    0.32    0.32    0.00   0.32  34.95
md0               0.00     0.00 3332.67    0.00 13330.69     0.00     8.00     0.00    0.00    0.00    0.00   0.00   0.00

avg-cpu:  %user   %nice %system %iowait  %steal   %idle
           0.00    0.00    0.19    2.85    0.00   96.96

Device:         rrqm/s   wrqm/s     r/s     w/s    rkB/s    wkB/s avgrq-sz avgqu-sz   await r_await w_await  svctm  %util
nvme0n1           0.00     0.00    0.00    0.00     0.00     0.00     0.00     0.00    0.00    0.00    0.00   0.00   0.00
sda               0.00     0.00    0.00    0.00     0.00     0.00     0.00     0.00    0.00    0.00    0.00   0.00   0.00
sdc               0.00     0.00  993.00    0.00  3972.00     0.00     8.00     0.34    0.35    0.35    0.00   0.35  34.40
sdb               0.00     0.00  884.00    0.00  3536.00     0.00     8.00     0.25    0.29    0.29    0.00   0.29  25.20
sdd               0.00     0.00 1052.00    0.00  4208.00     0.00     8.00     0.36    0.34    0.34    0.00   0.34  36.00
md0               0.00     0.00 2929.00    0.00 11716.00     0.00     8.00     0.00    0.00    0.00    0.00   0.00   0.00

avg-cpu:  %user   %nice %system %iowait  %steal   %idle
           0.03    0.00    0.22    2.91    0.00   96.84

Device:         rrqm/s   wrqm/s     r/s     w/s    rkB/s    wkB/s avgrq-sz avgqu-sz   await r_await w_await  svctm  %util
nvme0n1           0.00     0.00    0.00    0.00     0.00     0.00     0.00     0.00    0.00    0.00    0.00   0.00   0.00
sda               0.00     0.00    0.00    0.00     0.00     0.00     0.00     0.00    0.00    0.00    0.00   0.00   0.00
sdc               0.00     0.00  955.00    0.00  3820.00     0.00     8.00     0.45    0.46    0.46    0.00   0.47  44.80
sdb               0.00     0.00 1006.00    0.00  4024.00     0.00     8.00     0.33    0.33    0.33    0.00   0.33  32.70
sdd               0.00     0.00  822.00    0.00  3288.00     0.00     8.00     0.17    0.21    0.21    0.00   0.20  16.80
md0               0.00     0.00 2783.00    0.00 11132.00     0.00     8.00     0.00    0.00    0.00    0.00   0.00   0.00

avg-cpu:  %user   %nice %system %iowait  %steal   %idle
           0.00    0.00    0.22    2.82    0.00   96.96

Device:         rrqm/s   wrqm/s     r/s     w/s    rkB/s    wkB/s avgrq-sz avgqu-sz   await r_await w_await  svctm  %util
nvme0n1           0.00     0.00    0.00    0.00     0.00     0.00     0.00     0.00    0.00    0.00    0.00   0.00   0.00
sda               0.00     1.00    0.00    2.00     0.00    12.00    12.00     0.00    0.00    0.00    0.00   0.00   0.00
sdc               0.00     0.00 1119.00    0.00  4476.00     0.00     8.00     0.27    0.25    0.25    0.00   0.24  27.10
sdb               0.00     0.00 1222.00    0.00  4888.00     0.00     8.00     0.33    0.27    0.27    0.00   0.27  32.80
sdd               0.00     0.00  983.00    0.00  3932.00     0.00     8.00     0.33    0.33    0.33    0.00   0.34  33.00
md0               0.00     0.00 3324.00    0.00 13296.00     0.00     8.00     0.00    0.00    0.00    0.00   0.00   0.00

avg-cpu:  %user   %nice %system %iowait  %steal   %idle
           0.03    0.00    0.28    2.87    0.00   96.81

Device:         rrqm/s   wrqm/s     r/s     w/s    rkB/s    wkB/s avgrq-sz avgqu-sz   await r_await w_await  svctm  %util
nvme0n1           0.00     0.00    0.00    0.00     0.00     0.00     0.00     0.00    0.00    0.00    0.00   0.00   0.00
sda               0.00     0.00    0.00    0.00     0.00     0.00     0.00     0.00    0.00    0.00    0.00   0.00   0.00
sdc               0.00     0.00 1075.00    0.00  4300.00     0.00     8.00     0.32    0.29    0.29    0.00   0.29  31.50
sdb               0.00     0.00 1159.00    0.00  4636.00     0.00     8.00     0.36    0.31    0.31    0.00   0.31  36.30
sdd               0.00     0.00  994.00    0.00  3976.00     0.00     8.00     0.27    0.27    0.27    0.00   0.27  26.70
md0               0.00     0.00 3228.00    0.00 12912.00     0.00     8.00     0.00    0.00    0.00    0.00   0.00   0.00

avg-cpu:  %user   %nice %system %iowait  %steal   %idle
           0.00    0.00    0.16    2.88    0.00   96.96

Device:         rrqm/s   wrqm/s     r/s     w/s    rkB/s    wkB/s avgrq-sz avgqu-sz   await r_await w_await  svctm  %util
nvme0n1           0.00     0.00    0.00    0.00     0.00     0.00     0.00     0.00    0.00    0.00    0.00   0.00   0.00
sda               0.00     0.00    0.00    0.00     0.00     0.00     0.00     0.00    0.00    0.00    0.00   0.00   0.00
sdc               0.00     0.00  871.00    0.00  3484.00     0.00     8.00     0.38    0.44    0.44    0.00   0.44  37.90
sdb               0.00     0.00  982.00    0.00  3928.00     0.00     8.00     0.31    0.32    0.32    0.00   0.32  31.00
sdd               0.00     0.00 1060.00    0.00  4240.00     0.00     8.00     0.25    0.23    0.23    0.00   0.23  24.60
md0               0.00     0.00 2913.00    0.00 11652.00     0.00     8.00     0.00    0.00    0.00    0.00   0.00   0.00

avg-cpu:  %user   %nice %system %iowait  %steal   %idle
           0.00    0.00    0.22    2.88    0.00   96.90

Device:         rrqm/s   wrqm/s     r/s     w/s    rkB/s    wkB/s avgrq-sz avgqu-sz   await r_await w_await  svctm  %util
nvme0n1           0.00     0.00    0.00    0.00     0.00     0.00     0.00     0.00    0.00    0.00    0.00   0.00   0.00
sda               0.00     0.00    0.00    0.00     0.00     0.00     0.00     0.00    0.00    0.00    0.00   0.00   0.00
sdc               0.00     0.00 1038.00    0.00  4152.00     0.00     8.00     0.47    0.45    0.45    0.00   0.45  46.60
sdb               0.00     0.00  773.00    0.00  3092.00     0.00     8.00     0.17    0.22    0.22    0.00   0.22  17.20
sdd               0.00     0.00 1068.00    0.00  4272.00     0.00     8.00     0.30    0.29    0.29    0.00   0.29  30.50
md0               0.00     0.00 2879.00    0.00 11516.00     0.00     8.00     0.00    0.00    0.00    0.00   0.00   0.00

avg-cpu:  %user   %nice %system %iowait  %steal   %idle
           0.03    0.00    0.25    2.84    0.00   96.87

Device:         rrqm/s   wrqm/s     r/s     w/s    rkB/s    wkB/s avgrq-sz avgqu-sz   await r_await w_await  svctm  %util
nvme0n1           0.00     0.00    0.00    0.00     0.00     0.00     0.00     0.00    0.00    0.00    0.00   0.00   0.00
sda               0.00     1.00    0.00    3.00     0.00    32.00    21.33     0.00    0.00    0.00    0.00   0.00   0.00
sdc               0.00     0.00 1135.00    0.00  4540.00     0.00     8.00     0.40    0.35    0.35    0.00   0.35  39.50
sdb               0.00     0.00  974.00    0.00  3896.00     0.00     8.00     0.21    0.22    0.22    0.00   0.22  21.20
sdd               0.00     0.00  983.00    0.00  3932.00     0.00     8.00     0.33    0.33    0.33    0.00   0.33  32.70
md0               0.00     0.00 3092.00    0.00 12368.00     0.00     8.00     0.00    0.00    0.00    0.00   0.00   0.00

avg-cpu:  %user   %nice %system %iowait  %steal   %idle
           0.03    0.00    0.19    2.85    0.00   96.93

Device:         rrqm/s   wrqm/s     r/s     w/s    rkB/s    wkB/s avgrq-sz avgqu-sz   await r_await w_await  svctm  %util
nvme0n1           0.00     0.00    0.00    0.00     0.00     0.00     0.00     0.00    0.00    0.00    0.00   0.00   0.00
sda               0.00     3.00    0.00    2.00     0.00    20.00    20.00     0.00    0.50    0.00    0.50   0.50   0.10
sdc               0.00     0.00 1054.00    0.00  4216.00     0.00     8.00     0.25    0.24    0.24    0.00   0.24  24.80
sdb               0.00     0.00 1121.00    0.00  4484.00     0.00     8.00     0.38    0.34    0.34    0.00   0.34  38.10
sdd               0.00     0.00 1149.00    0.00  4596.00     0.00     8.00     0.32    0.28    0.28    0.00   0.28  32.10
md0               0.00     0.00 3324.00    0.00 13296.00     0.00     8.00     0.00    0.00    0.00    0.00   0.00   0.00

avg-cpu:  %user   %nice %system %iowait  %steal   %idle
           0.03    0.00    0.19    2.85    0.00   96.93

Device:         rrqm/s   wrqm/s     r/s     w/s    rkB/s    wkB/s avgrq-sz avgqu-sz   await r_await w_await  svctm  %util
nvme0n1           0.00     0.00    0.00    0.00     0.00     0.00     0.00     0.00    0.00    0.00    0.00   0.00   0.00
sda               0.00     0.00    0.00    0.00     0.00     0.00     0.00     0.00    0.00    0.00    0.00   0.00   0.00
sdc               0.00     0.00 1057.00    0.00  4228.00     0.00     8.00     0.23    0.21    0.21    0.00   0.21  22.50
sdb               0.00     0.00 1125.00    0.00  4500.00     0.00     8.00     0.28    0.25    0.25    0.00   0.25  28.40
sdd               0.00     0.00 1131.00    0.00  4524.00     0.00     8.00     0.44    0.39    0.39    0.00   0.39  44.00
md0               0.00     0.00 3313.00    0.00 13252.00     0.00     8.00     0.00    0.00    0.00    0.00   0.00   0.00

avg-cpu:  %user   %nice %system %iowait  %steal   %idle
           0.03    0.00    0.25    2.84    0.00   96.87

Device:         rrqm/s   wrqm/s     r/s     w/s    rkB/s    wkB/s avgrq-sz avgqu-sz   await r_await w_await  svctm  %util
nvme0n1           0.00     0.00    0.00    0.00     0.00     0.00     0.00     0.00    0.00    0.00    0.00   0.00   0.00
sda               0.00     0.00    0.00    0.00     0.00     0.00     0.00     0.00    0.00    0.00    0.00   0.00   0.00
sdc               0.00     0.00 1102.00    0.00  4408.00     0.00     8.00     0.26    0.24    0.24    0.00   0.24  25.90
sdb               0.00     0.00  854.00    0.00  3416.00     0.00     8.00     0.20    0.24    0.24    0.00   0.24  20.40
sdd               0.00     0.00 1207.00    0.00  4828.00     0.00     8.00     0.47    0.38    0.38    0.00   0.39  46.90
md0               0.00     0.00 3163.00    0.00 12652.00     0.00     8.00     0.00    0.00    0.00    0.00   0.00   0.00

avg-cpu:  %user   %nice %system %iowait  %steal   %idle
           0.00    0.00    0.22    2.88    0.00   96.90

Device:         rrqm/s   wrqm/s     r/s     w/s    rkB/s    wkB/s avgrq-sz avgqu-sz   await r_await w_await  svctm  %util
nvme0n1           0.00     0.00    0.00    0.00     0.00     0.00     0.00     0.00    0.00    0.00    0.00   0.00   0.00
sda               0.00     0.00    0.00    0.00     0.00     0.00     0.00     0.00    0.00    0.00    0.00   0.00   0.00
sdc               0.00     0.00  879.00    0.00  3516.00     0.00     8.00     0.29    0.33    0.33    0.00   0.33  29.20
sdb               0.00     0.00  928.00    0.00  3712.00     0.00     8.00     0.35    0.38    0.38    0.00   0.38  34.90
sdd               0.00     0.00 1075.00    0.00  4300.00     0.00     8.00     0.30    0.29    0.29    0.00   0.28  30.10
md0               0.00     0.00 2882.00    0.00 11528.00     0.00     8.00     0.00    0.00    0.00    0.00   0.00   0.00

avg-cpu:  %user   %nice %system %iowait  %steal   %idle
           0.03    0.00    0.19    2.85    0.00   96.93

Device:         rrqm/s   wrqm/s     r/s     w/s    rkB/s    wkB/s avgrq-sz avgqu-sz   await r_await w_await  svctm  %util
nvme0n1           0.00     0.00    0.00    0.00     0.00     0.00     0.00     0.00    0.00    0.00    0.00   0.00   0.00
sda               0.00     5.00    0.00    4.00     0.00    64.00    32.00     0.00    0.00    0.00    0.00   0.00   0.00
sdc               0.00     0.00 1041.00    0.00  4164.00     0.00     8.00     0.36    0.35    0.35    0.00   0.35  36.30
sdb               0.00     0.00 1114.00    0.00  4456.00     0.00     8.00     0.32    0.29    0.29    0.00   0.29  32.10
sdd               0.00     0.00  910.00    0.00  3640.00     0.00     8.00     0.26    0.28    0.28    0.00   0.28  25.90
md0               0.00     0.00 3066.00    0.00 12264.00     0.00     8.00     0.00    0.00    0.00    0.00   0.00   0.00

