Linux 4.17.2 (bench2) 	08/03/2018 	_x86_64_	(32 CPU)

avg-cpu:  %user   %nice %system %iowait  %steal   %idle
           1.92    0.00    1.58    1.51    0.00   94.99

Device:         rrqm/s   wrqm/s     r/s     w/s    rkB/s    wkB/s avgrq-sz avgqu-sz   await r_await w_await  svctm  %util
nvme0n1         955.32     5.19 19258.78  530.25 107725.58 11958.81    12.10     1.37    0.05    0.03    0.67   0.02  40.32
sda               0.11     0.81   14.13    0.57   163.92     8.50    23.46     0.00    0.33    0.32    0.45   0.07   0.10
sdc              32.62     0.14  106.91    0.30  1605.03    83.00    31.49     1.49   13.86   12.85  373.51   0.94  10.04
sdb              30.55     0.15  108.95    0.32  1603.15    82.82    30.86     0.37    3.35    2.20  394.60   0.87   9.54
sdd              32.82     0.13  106.45    0.25  1601.08    82.48    31.56     0.65    6.10    4.27  782.19   0.94  10.04
md0               0.00     0.00  421.18    1.07  5927.71   290.80    29.45     0.00    0.00    0.00    0.00   0.00   0.00

avg-cpu:  %user   %nice %system %iowait  %steal   %idle
           0.00    0.00    0.05    0.01    0.00   99.94

Device:         rrqm/s   wrqm/s     r/s     w/s    rkB/s    wkB/s avgrq-sz avgqu-sz   await r_await w_await  svctm  %util
nvme0n1           0.00     0.00    0.00    0.00     0.00     0.00     0.00     0.00    0.00    0.00    0.00   0.00   0.00
sda               0.00     1.00    5.05    0.70    35.20     7.80    14.96     0.00    0.33    0.37    0.07   0.05   0.03
sdc               0.00     0.00   78.25    0.00   313.00     0.00     8.00     1.37   17.53   17.53    0.00   8.03  62.86
sdb               0.00     0.00   78.45    0.00   313.80     0.00     8.00     1.36   17.38   17.38    0.00   8.05  63.15
sdd               0.00     0.00   79.10    0.00   316.40     0.00     8.00     1.38   17.37   17.37    0.00   8.00  63.28
md0               0.00     0.00  235.90    0.00   943.60     0.00     8.00     0.00    0.00    0.00    0.00   0.00   0.00

