Linux 4.17.2 (bench2) 	08/03/2018 	_x86_64_	(32 CPU)

avg-cpu:  %user   %nice %system %iowait  %steal   %idle
           1.92    0.00    1.57    1.52    0.00   94.99

Device:         rrqm/s   wrqm/s     r/s     w/s    rkB/s    wkB/s avgrq-sz avgqu-sz   await r_await w_await  svctm  %util
nvme0n1         953.50     5.18 19222.08  529.24 107520.30 11936.02    12.10     1.37    0.05    0.03    0.67   0.02  40.24
sda               0.11     0.81   14.13    0.57   163.94     8.51    23.45     0.00    0.33    0.32    0.45   0.07   0.10
sdc              32.61     0.14  108.05    0.30  1629.45    82.84    31.61     1.49   13.75   12.75  373.51   0.93  10.12
sdb              30.53     0.15  110.09    0.32  1627.57    82.66    30.98     0.37    3.36    2.23  394.60   0.87   9.62
sdd              32.80     0.13  107.59    0.25  1625.48    82.33    31.67     0.66    6.08    4.28  782.19   0.94  10.12
md0               0.00     0.00  424.55    1.07  6024.95   290.24    29.68     0.00    0.00    0.00    0.00   0.00   0.00

avg-cpu:  %user   %nice %system %iowait  %steal   %idle
           0.06    0.00    0.97    0.66    0.00   98.30

Device:         rrqm/s   wrqm/s     r/s     w/s    rkB/s    wkB/s avgrq-sz avgqu-sz   await r_await w_await  svctm  %util
nvme0n1           0.00     0.00    0.00    0.00     0.00     0.00     0.00     0.00    0.00    0.00    0.00   0.00   0.00
sda               0.00     0.00   18.00    0.00    76.00     0.00     8.44     0.00    0.00    0.00    0.00   0.00   0.00
sdc              16.00     0.00 1420.00    0.00  5744.00     0.00     8.09    11.72    8.21    8.21    0.00   0.45  64.00
sdb              26.00     0.00 1474.00    0.00  6016.00     0.00     8.16     8.92    6.05    6.05    0.00   0.34  50.30
sdd              18.00     0.00 1411.00    0.00  5708.00     0.00     8.09    13.33    9.37    9.37    0.00   0.47  66.50
md0               0.00     0.00 4329.00    0.00 17316.00     0.00     8.00     0.00    0.00    0.00    0.00   0.00   0.00

avg-cpu:  %user   %nice %system %iowait  %steal   %idle
           0.00    0.00    1.19    0.53    0.00   98.27

Device:         rrqm/s   wrqm/s     r/s     w/s    rkB/s    wkB/s avgrq-sz avgqu-sz   await r_await w_await  svctm  %util
nvme0n1           0.00     0.00    0.00    0.00     0.00     0.00     0.00     0.00    0.00    0.00    0.00   0.00   0.00
sda               0.00     0.00    0.00    0.00     0.00     0.00     0.00     0.00    0.00    0.00    0.00   0.00   0.00
sdc               5.00     0.00 1393.00    0.00  5592.00     0.00     8.03     7.26    5.29    5.29    0.00   0.28  38.50
sdb               3.00     0.00 1389.00    0.00  5568.00     0.00     8.02    12.41    8.76    8.76    0.00   0.42  58.20
sdd               8.00     0.00 1406.00    0.00  5664.00     0.00     8.06    15.09   10.83   10.83    0.00   0.54  75.60
md0               0.00     0.00 4172.00    0.00 16688.00     0.00     8.00     0.00    0.00    0.00    0.00   0.00   0.00

