Linux 4.17.2 (bench2) 	08/03/2018 	_x86_64_	(32 CPU)

avg-cpu:  %user   %nice %system %iowait  %steal   %idle
           1.93    0.00    1.58    1.49    0.00   95.00

Device:         rrqm/s   wrqm/s     r/s     w/s    rkB/s    wkB/s avgrq-sz avgqu-sz   await r_await w_await  svctm  %util
nvme0n1         961.49     5.22 19383.33  533.68 108422.27 12036.15    12.10     1.38    0.05    0.03    0.67   0.02  40.58
sda               0.11     0.81   14.10    0.57   163.80     8.50    23.49     0.00    0.33    0.32    0.46   0.07   0.10
sdc              32.13     0.14  102.52    0.30  1548.15    83.53    31.74     1.45   14.13   13.08  373.51   0.95   9.77
sdb              30.05     0.15  104.57    0.32  1546.31    83.35    31.07     0.33    3.12    1.92  394.60   0.89   9.28
sdd              32.34     0.13  102.06    0.25  1544.18    83.02    31.81     0.61    5.99    4.08  782.19   0.96   9.77
md0               0.00     0.00  406.56    1.08  5710.30   292.68    29.45     0.00    0.00    0.00    0.00   0.00   0.00

avg-cpu:  %user   %nice %system %iowait  %steal   %idle
           0.09    0.00    1.22   11.70    0.00   86.99

Device:         rrqm/s   wrqm/s     r/s     w/s    rkB/s    wkB/s avgrq-sz avgqu-sz   await r_await w_await  svctm  %util
nvme0n1           0.00     0.00    0.00    0.00     0.00     0.00     0.00     0.00    0.00    0.00    0.00   0.00   0.00
sda               0.00     0.00   20.00    0.00   120.00     0.00    12.00     0.00    0.10    0.10    0.00   0.05   0.10
sdc               0.00     0.00 2548.00    0.00 10192.00     0.00     8.00     1.99    0.78    0.78    0.00   0.14  36.20
sdb               0.00     0.00 2568.00    0.00 10272.00     0.00     8.00     2.14    0.83    0.83    0.00   0.15  38.60
sdd               0.00     0.00 2532.00    0.00 10128.00     0.00     8.00     1.91    0.76    0.76    0.00   0.14  34.50
md0               0.00     0.00 7648.00    0.00 30592.00     0.00     8.00     0.00    0.00    0.00    0.00   0.00   0.00

avg-cpu:  %user   %nice %system %iowait  %steal   %idle
           0.06    0.00    1.10   11.45    0.00   87.39

Device:         rrqm/s   wrqm/s     r/s     w/s    rkB/s    wkB/s avgrq-sz avgqu-sz   await r_await w_await  svctm  %util
nvme0n1           0.00     0.00    0.00    0.00     0.00     0.00     0.00     0.00    0.00    0.00    0.00   0.00   0.00
sda               0.00     0.00    0.00    0.00     0.00     0.00     0.00     0.00    0.00    0.00    0.00   0.00   0.00
sdc               0.00     0.00 2407.00    0.00  9628.00     0.00     8.00     1.83    0.76    0.76    0.00   0.14  33.50
sdb               0.00     0.00 2469.00    0.00  9876.00     0.00     8.00     2.06    0.84    0.84    0.00   0.15  37.10
sdd               0.00     0.00 2470.00    0.00  9880.00     0.00     8.00     2.02    0.82    0.82    0.00   0.15  36.80
md0               0.00     0.00 7346.00    0.00 29384.00     0.00     8.00     0.00    0.00    0.00    0.00   0.00   0.00

avg-cpu:  %user   %nice %system %iowait  %steal   %idle
           0.09    0.00    1.29   11.38    0.00   87.24

Device:         rrqm/s   wrqm/s     r/s     w/s    rkB/s    wkB/s avgrq-sz avgqu-sz   await r_await w_await  svctm  %util
nvme0n1           0.00     0.00    0.00    0.00     0.00     0.00     0.00     0.00    0.00    0.00    0.00   0.00   0.00
sda               0.00     0.00    0.00    0.00     0.00     0.00     0.00     0.00    0.00    0.00    0.00   0.00   0.00
sdc               0.00     0.00 2693.00    0.00 10772.00     0.00     8.00     1.92    0.72    0.72    0.00   0.14  36.50
sdb               0.00     0.00 2740.00    0.00 10960.00     0.00     8.00     2.01    0.74    0.74    0.00   0.13  36.80
sdd               0.00     0.00 2937.00    0.00 11748.00     0.00     8.00     1.97    0.67    0.67    0.00   0.12  35.60
md0               0.00     0.00 8369.00    0.00 33476.00     0.00     8.00     0.00    0.00    0.00    0.00   0.00   0.00

avg-cpu:  %user   %nice %system %iowait  %steal   %idle
           0.09    0.00    1.29   10.03    0.00   88.59

Device:         rrqm/s   wrqm/s     r/s     w/s    rkB/s    wkB/s avgrq-sz avgqu-sz   await r_await w_await  svctm  %util
nvme0n1           0.00     0.00    0.00    0.00     0.00     0.00     0.00     0.00    0.00    0.00    0.00   0.00   0.00
sda               0.00     0.00    0.00    0.00     0.00     0.00     0.00     0.00    0.00    0.00    0.00   0.00   0.00
sdc               0.00     0.00 2642.00    0.00 10568.00     0.00     8.00     2.14    0.81    0.81    0.00   0.15  39.10
sdb               0.00     0.00 2861.00    0.00 11444.00     0.00     8.00     1.97    0.69    0.69    0.00   0.12  33.60
sdd               0.00     0.00 2751.00    0.00 11004.00     0.00     8.00     1.91    0.70    0.70    0.00   0.13  34.40
md0               0.00     0.00 8255.00    0.00 33020.00     0.00     8.00     0.00    0.00    0.00    0.00   0.00   0.00

avg-cpu:  %user   %nice %system %iowait  %steal   %idle
           0.09    0.00    1.16    9.46    0.00   89.28

Device:         rrqm/s   wrqm/s     r/s     w/s    rkB/s    wkB/s avgrq-sz avgqu-sz   await r_await w_await  svctm  %util
nvme0n1           0.00     0.00    0.00    0.00     0.00     0.00     0.00     0.00    0.00    0.00    0.00   0.00   0.00
sda               0.00     9.00    0.00    2.00     0.00    44.00    44.00     0.00    0.50    0.00    0.50   0.50   0.10
sdc               0.00     0.00 2546.00    0.00 10184.00     0.00     8.00     1.90    0.75    0.75    0.00   0.14  34.90
sdb               0.00     0.00 2560.00    0.00 10240.00     0.00     8.00     2.13    0.83    0.83    0.00   0.14  36.20
sdd               0.00     0.00 2742.00    0.00 10968.00     0.00     8.00     2.14    0.78    0.78    0.00   0.14  38.10
md0               0.00     0.00 7848.00    0.00 31392.00     0.00     8.00     0.00    0.00    0.00    0.00   0.00   0.00

avg-cpu:  %user   %nice %system %iowait  %steal   %idle
           0.06    0.00    1.41    9.12    0.00   89.41

Device:         rrqm/s   wrqm/s     r/s     w/s    rkB/s    wkB/s avgrq-sz avgqu-sz   await r_await w_await  svctm  %util
nvme0n1           0.00     0.00    0.00    0.00     0.00     0.00     0.00     0.00    0.00    0.00    0.00   0.00   0.00
sda               0.00     0.00    0.00    0.00     0.00     0.00     0.00     0.00    0.00    0.00    0.00   0.00   0.00
sdc               0.00     0.00 2316.00    0.00  9264.00     0.00     8.00     1.72    0.75    0.75    0.00   0.16  36.40
sdb               0.00     0.00 2534.00    0.00 10136.00     0.00     8.00     1.96    0.78    0.78    0.00   0.14  35.70
sdd               0.00     0.00 2583.00    0.00 10332.00     0.00     8.00     2.16    0.84    0.84    0.00   0.14  37.30
md0               0.00     0.00 7431.00    0.00 29720.00     0.00     8.00     0.00    0.00    0.00    0.00   0.00   0.00

avg-cpu:  %user   %nice %system %iowait  %steal   %idle
           0.06    0.00    1.19    9.37    0.00   89.38

Device:         rrqm/s   wrqm/s     r/s     w/s    rkB/s    wkB/s avgrq-sz avgqu-sz   await r_await w_await  svctm  %util
nvme0n1           0.00     0.00    0.00    0.00     0.00     0.00     0.00     0.00    0.00    0.00    0.00   0.00   0.00
sda               0.00     0.00    0.00    0.00     0.00     0.00     0.00     0.00    0.00    0.00    0.00   0.00   0.00
sdc               0.00     0.00 2572.00    0.00 10288.00     0.00     8.00     2.07    0.81    0.81    0.00   0.14  37.00
sdb               0.00     0.00 2802.00    0.00 11208.00     0.00     8.00     2.03    0.73    0.73    0.00   0.13  37.70
sdd               0.00     0.00 2464.00    0.00  9856.00     0.00     8.00     1.91    0.78    0.78    0.00   0.14  35.00
md0               0.00     0.00 7840.00    0.00 31364.00     0.00     8.00     0.00    0.00    0.00    0.00   0.00   0.00

avg-cpu:  %user   %nice %system %iowait  %steal   %idle
           0.09    0.00    1.41    9.40    0.00   89.09

Device:         rrqm/s   wrqm/s     r/s     w/s    rkB/s    wkB/s avgrq-sz avgqu-sz   await r_await w_await  svctm  %util
nvme0n1           0.00     0.00    0.00    0.00     0.00     0.00     0.00     0.00    0.00    0.00    0.00   0.00   0.00
sda               0.00     0.00    0.00    0.00     0.00     0.00     0.00     0.00    0.00    0.00    0.00   0.00   0.00
sdc               0.00     0.00 2505.00    0.00 10020.00     0.00     8.00     2.04    0.82    0.82    0.00   0.15  37.30
sdb               0.00     0.00 2443.00    0.00  9772.00     0.00     8.00     1.98    0.81    0.81    0.00   0.14  35.30
sdd               0.00     0.00 2621.00    0.00 10484.00     0.00     8.00     1.95    0.75    0.75    0.00   0.13  34.80
md0               0.00     0.00 7569.00    0.00 30276.00     0.00     8.00     0.00    0.00    0.00    0.00   0.00   0.00

avg-cpu:  %user   %nice %system %iowait  %steal   %idle
           0.09    0.00    1.19    9.16    0.00   89.55

Device:         rrqm/s   wrqm/s     r/s     w/s    rkB/s    wkB/s avgrq-sz avgqu-sz   await r_await w_await  svctm  %util
nvme0n1           0.00     0.00    0.00    0.00     0.00     0.00     0.00     0.00    0.00    0.00    0.00   0.00   0.00
sda               0.00     4.00    0.00   12.00     0.00    64.00    10.67     0.00    0.00    0.00    0.00   0.00   0.00
sdc               0.00     0.00 2408.00    0.00  9632.00     0.00     8.00     2.00    0.83    0.83    0.00   0.16  39.00
sdb               0.00     0.00 2525.00    0.00 10100.00     0.00     8.00     2.03    0.80    0.80    0.00   0.15  37.00
sdd               0.00     0.00 2270.00    0.00  9080.00     0.00     8.00     1.80    0.80    0.80    0.00   0.14  32.70
md0               0.00     0.00 7203.00    0.00 28812.00     0.00     8.00     0.00    0.00    0.00    0.00   0.00   0.00

avg-cpu:  %user   %nice %system %iowait  %steal   %idle
           0.06    0.00    1.38    9.21    0.00   89.35

Device:         rrqm/s   wrqm/s     r/s     w/s    rkB/s    wkB/s avgrq-sz avgqu-sz   await r_await w_await  svctm  %util
nvme0n1           0.00     0.00    0.00    0.00     0.00     0.00     0.00     0.00    0.00    0.00    0.00   0.00   0.00
sda               0.00     1.00    0.00    2.00     0.00    12.00    12.00     0.00    0.00    0.00    0.00   0.00   0.00
sdc               0.00     0.00 2730.00    0.00 10920.00     0.00     8.00     1.93    0.70    0.70    0.00   0.13  36.60
sdb               0.00     0.00 3056.00    0.00 12224.00     0.00     8.00     2.12    0.70    0.70    0.00   0.13  39.50
sdd               0.00     0.00 2584.00    0.00 10336.00     0.00     8.00     1.85    0.72    0.72    0.00   0.13  32.80
md0               0.00     0.00 8368.00    0.00 33472.00     0.00     8.00     0.00    0.00    0.00    0.00   0.00   0.00

avg-cpu:  %user   %nice %system %iowait  %steal   %idle
           0.09    0.00    1.28    9.24    0.00   89.38

Device:         rrqm/s   wrqm/s     r/s     w/s    rkB/s    wkB/s avgrq-sz avgqu-sz   await r_await w_await  svctm  %util
nvme0n1           0.00     0.00    0.00    0.00     0.00     0.00     0.00     0.00    0.00    0.00    0.00   0.00   0.00
sda               0.00     0.00    0.00    0.00     0.00     0.00     0.00     0.00    0.00    0.00    0.00   0.00   0.00
sdc               0.00     0.00 2383.00    0.00  9532.00     0.00     8.00     2.14    0.91    0.91    0.00   0.16  37.70
sdb               0.00     0.00 2353.00    0.00  9412.00     0.00     8.00     2.07    0.88    0.88    0.00   0.16  37.60
sdd               0.00     0.00 2395.00    0.00  9580.00     0.00     8.00     1.80    0.75    0.75    0.00   0.14  33.60
md0               0.00     0.00 7133.00    0.00 28532.00     0.00     8.00     0.00    0.00    0.00    0.00   0.00   0.00

avg-cpu:  %user   %nice %system %iowait  %steal   %idle
           0.06    0.00    1.10    9.05    0.00   89.79

Device:         rrqm/s   wrqm/s     r/s     w/s    rkB/s    wkB/s avgrq-sz avgqu-sz   await r_await w_await  svctm  %util
nvme0n1           0.00     0.00    0.00    0.00     0.00     0.00     0.00     0.00    0.00    0.00    0.00   0.00   0.00
sda               0.00     0.00    0.00    0.00     0.00     0.00     0.00     0.00    0.00    0.00    0.00   0.00   0.00
sdc               0.00     0.00 2507.00    0.00 10028.00     0.00     8.00     2.04    0.82    0.82    0.00   0.14  36.30
sdb               0.00     0.00 2387.00    0.00  9548.00     0.00     8.00     1.90    0.80    0.80    0.00   0.15  35.80
sdd               0.00     0.00 2333.00    0.00  9332.00     0.00     8.00     1.96    0.85    0.85    0.00   0.16  36.50
md0               0.00     0.00 7227.00    0.00 28908.00     0.00     8.00     0.00    0.00    0.00    0.00   0.00   0.00

avg-cpu:  %user   %nice %system %iowait  %steal   %idle
           0.06    0.00    1.32    7.15    0.00   91.47

Device:         rrqm/s   wrqm/s     r/s     w/s    rkB/s    wkB/s avgrq-sz avgqu-sz   await r_await w_await  svctm  %util
nvme0n1           0.00     0.00    0.00    0.00     0.00     0.00     0.00     0.00    0.00    0.00    0.00   0.00   0.00
sda               0.00     0.00    0.00    0.00     0.00     0.00     0.00     0.00    0.00    0.00    0.00   0.00   0.00
sdc               0.00     0.00 2428.00    0.00  9712.00     0.00     8.00     1.84    0.76    0.76    0.00   0.15  35.40
sdb               0.00     0.00 2684.00    0.00 10736.00     0.00     8.00     1.91    0.72    0.72    0.00   0.13  34.60
sdd               0.00     0.00 2765.00    0.00 11060.00     0.00     8.00     2.14    0.77    0.77    0.00   0.14  38.20
md0               0.00     0.00 7873.00    0.00 31492.00     0.00     8.00     0.00    0.00    0.00    0.00   0.00   0.00

avg-cpu:  %user   %nice %system %iowait  %steal   %idle
           0.09    0.00    1.23    6.94    0.00   91.74

Device:         rrqm/s   wrqm/s     r/s     w/s    rkB/s    wkB/s avgrq-sz avgqu-sz   await r_await w_await  svctm  %util
nvme0n1           0.00     0.00    0.00    0.00     0.00     0.00     0.00     0.00    0.00    0.00    0.00   0.00   0.00
sda               0.00     2.00    0.00    5.00     0.00    68.00    27.20     0.00    0.00    0.00    0.00   0.00   0.00
sdc               0.00     0.00 2829.00    0.00 11316.00     0.00     8.00     2.04    0.72    0.72    0.00   0.13  37.50
sdb               0.00     0.00 2754.00    0.00 11016.00     0.00     8.00     1.85    0.67    0.67    0.00   0.13  35.50
sdd               0.00     0.00 2801.00    0.00 11204.00     0.00     8.00     2.00    0.72    0.72    0.00   0.13  37.80
md0               0.00     0.00 8386.00    0.00 33544.00     0.00     8.00     0.00    0.00    0.00    0.00   0.00   0.00

avg-cpu:  %user   %nice %system %iowait  %steal   %idle
           0.09    0.00    1.23    7.40    0.00   91.28

Device:         rrqm/s   wrqm/s     r/s     w/s    rkB/s    wkB/s avgrq-sz avgqu-sz   await r_await w_await  svctm  %util
nvme0n1           0.00     0.00    0.00    0.00     0.00     0.00     0.00     0.00    0.00    0.00    0.00   0.00   0.00
sda               0.00     7.00    0.00    2.00     0.00    36.00    36.00     0.00    0.00    0.00    0.00   0.00   0.00
sdc               0.00     0.00 2950.00    0.00 11800.00     0.00     8.00     2.06    0.70    0.70    0.00   0.12  35.50
sdb               0.00     0.00 2996.00    0.00 11984.00     0.00     8.00     2.05    0.69    0.69    0.00   0.12  36.80
sdd               0.00     0.00 2937.00    0.00 11748.00     0.00     8.00     2.09    0.72    0.72    0.00   0.12  36.30
md0               0.00     0.00 8885.00    0.00 35540.00     0.00     8.00     0.00    0.00    0.00    0.00   0.00   0.00

avg-cpu:  %user   %nice %system %iowait  %steal   %idle
           0.06    0.00    1.23    7.35    0.00   91.36

Device:         rrqm/s   wrqm/s     r/s     w/s    rkB/s    wkB/s avgrq-sz avgqu-sz   await r_await w_await  svctm  %util
nvme0n1           0.00     0.00    0.00    0.00     0.00     0.00     0.00     0.00    0.00    0.00    0.00   0.00   0.00
sda               0.00     0.00    0.00    0.00     0.00     0.00     0.00     0.00    0.00    0.00    0.00   0.00   0.00
sdc               0.00     0.00 2754.00    0.00 11016.00     0.00     8.00     2.15    0.78    0.78    0.00   0.14  38.60
sdb               0.00     0.00 2776.00    0.00 11104.00     0.00     8.00     2.12    0.76    0.76    0.00   0.13  37.30
sdd               0.00     0.00 2558.00    0.00 10232.00     0.00     8.00     1.84    0.72    0.72    0.00   0.13  34.30
md0               0.00     0.00 8081.00    0.00 32324.00     0.00     8.00     0.00    0.00    0.00    0.00   0.00   0.00

avg-cpu:  %user   %nice %system %iowait  %steal   %idle
           0.03    0.00    1.20    7.08    0.00   91.70

Device:         rrqm/s   wrqm/s     r/s     w/s    rkB/s    wkB/s avgrq-sz avgqu-sz   await r_await w_await  svctm  %util
nvme0n1           0.00     0.00    0.00    0.00     0.00     0.00     0.00     0.00    0.00    0.00    0.00   0.00   0.00
sda               0.00     0.00    0.00    0.00     0.00     0.00     0.00     0.00    0.00    0.00    0.00   0.00   0.00
sdc               0.00     0.00 2737.00    0.00 10948.00     0.00     8.00     1.88    0.69    0.69    0.00   0.13  35.20
sdb               0.00     0.00 2958.00    0.00 11832.00     0.00     8.00     2.05    0.70    0.70    0.00   0.12  36.90
sdd               0.00     0.00 2729.00    0.00 10916.00     0.00     8.00     2.02    0.74    0.74    0.00   0.13  36.80
md0               0.00     0.00 8431.00    0.00 33724.00     0.00     8.00     0.00    0.00    0.00    0.00   0.00   0.00

avg-cpu:  %user   %nice %system %iowait  %steal   %idle
           0.09    0.00    1.26    7.25    0.00   91.40

Device:         rrqm/s   wrqm/s     r/s     w/s    rkB/s    wkB/s avgrq-sz avgqu-sz   await r_await w_await  svctm  %util
nvme0n1           0.00     0.00    0.00    0.00     0.00     0.00     0.00     0.00    0.00    0.00    0.00   0.00   0.00
sda               0.00     0.00    0.00    0.00     0.00     0.00     0.00     0.00    0.00    0.00    0.00   0.00   0.00
sdc               0.00     0.00 2562.00    0.00 10248.00     0.00     8.00     2.00    0.78    0.78    0.00   0.14  35.60
sdb               0.00     0.00 2561.00    0.00 10244.00     0.00     8.00     1.97    0.77    0.77    0.00   0.14  35.80
sdd               0.00     0.00 2579.00    0.00 10316.00     0.00     8.00     2.06    0.80    0.80    0.00   0.14  36.20
md0               0.00     0.00 7699.00    0.00 30796.00     0.00     8.00     0.00    0.00    0.00    0.00   0.00   0.00

avg-cpu:  %user   %nice %system %iowait  %steal   %idle
           0.13    0.00    1.26    7.22    0.00   91.39

Device:         rrqm/s   wrqm/s     r/s     w/s    rkB/s    wkB/s avgrq-sz avgqu-sz   await r_await w_await  svctm  %util
nvme0n1           0.00     0.00    0.00    0.00     0.00     0.00     0.00     0.00    0.00    0.00    0.00   0.00   0.00
sda               0.00     0.00    0.00    0.00     0.00     0.00     0.00     0.00    0.00    0.00    0.00   0.00   0.00
sdc               0.00     0.00 2895.00    0.00 11580.00     0.00     8.00     2.17    0.75    0.75    0.00   0.13  37.90
sdb               0.00     0.00 2651.00    0.00 10604.00     0.00     8.00     1.79    0.68    0.68    0.00   0.12  32.90
sdd               0.00     0.00 2757.00    0.00 11028.00     0.00     8.00     2.04    0.74    0.74    0.00   0.13  36.90
md0               0.00     0.00 8308.00    0.00 33228.00     0.00     8.00     0.00    0.00    0.00    0.00   0.00   0.00

avg-cpu:  %user   %nice %system %iowait  %steal   %idle
           0.06    0.00    1.16    5.21    0.00   93.56

Device:         rrqm/s   wrqm/s     r/s     w/s    rkB/s    wkB/s avgrq-sz avgqu-sz   await r_await w_await  svctm  %util
nvme0n1           0.00     0.00    0.00    0.00     0.00     0.00     0.00     0.00    0.00    0.00    0.00   0.00   0.00
sda               0.00     1.00    0.00    2.00     0.00    12.00    12.00     0.00    0.50    0.00    0.50   0.50   0.10
sdc               0.00     0.00 2437.00    0.00  9748.00     0.00     8.00     1.81    0.75    0.75    0.00   0.13  32.70
sdb               0.00     0.00 2759.00    0.00 11036.00     0.00     8.00     2.20    0.79    0.79    0.00   0.14  38.40
sdd               0.00     0.00 2705.00    0.00 10820.00     0.00     8.00     2.12    0.78    0.78    0.00   0.14  37.60
md0               0.00     0.00 7899.00    0.00 31600.00     0.00     8.00     0.00    0.00    0.00    0.00   0.00   0.00

