Linux 4.17.2 (bench2) 	08/03/2018 	_x86_64_	(32 CPU)

avg-cpu:  %user   %nice %system %iowait  %steal   %idle
           1.92    0.00    1.58    1.50    0.00   95.00

Device:         rrqm/s   wrqm/s     r/s     w/s    rkB/s    wkB/s avgrq-sz avgqu-sz   await r_await w_await  svctm  %util
nvme0n1         958.50     5.21 19323.00  532.02 108084.83 11998.69    12.10     1.38    0.05    0.03    0.67   0.02  40.45
sda               0.11     0.81   14.12    0.57   163.87     8.50    23.47     0.00    0.33    0.32    0.45   0.07   0.10
sdc              32.18     0.14  104.57    0.30  1576.53    83.27    31.65     1.46   13.93   12.90  373.51   0.94   9.90
sdb              30.10     0.15  106.61    0.32  1574.67    83.09    31.01     0.34    3.16    1.98  394.60   0.88   9.41
sdd              32.38     0.13  104.11    0.25  1572.57    82.76    31.72     0.62    5.97    4.10  782.19   0.95   9.90
md0               0.00     0.00  412.83    1.07  5820.40   291.77    29.53     0.00    0.00    0.00    0.00   0.00   0.00

avg-cpu:  %user   %nice %system %iowait  %steal   %idle
           0.03    0.00    0.16   21.80    0.00   78.01

Device:         rrqm/s   wrqm/s     r/s     w/s    rkB/s    wkB/s avgrq-sz avgqu-sz   await r_await w_await  svctm  %util
nvme0n1           0.00     0.00    0.00    0.00     0.00     0.00     0.00     0.00    0.00    0.00    0.00   0.00   0.00
sda               0.00     0.00    4.00    0.00   104.00     0.00    52.00     0.00    0.50    0.50    0.00   0.50   0.20
sdc               1.00     0.00  652.00    0.00  5644.00     0.00    17.31     5.28    8.09    8.09    0.00   1.26  81.90
sdb               0.00     0.00  564.00    0.00  5468.00     0.00    19.39     2.67    4.73    4.73    0.00   1.10  62.00
sdd               1.00     0.00  595.00    0.00  5392.00     0.00    18.12     3.00    5.05    5.05    0.00   1.09  64.60
md0               0.00     0.00 1815.00    0.00 17084.00     0.00    18.83     0.00    0.00    0.00    0.00   0.00   0.00

avg-cpu:  %user   %nice %system %iowait  %steal   %idle
           0.00    0.00    0.19   23.46    0.00   76.35

Device:         rrqm/s   wrqm/s     r/s     w/s    rkB/s    wkB/s avgrq-sz avgqu-sz   await r_await w_await  svctm  %util
nvme0n1           0.00     0.00    0.00    0.00     0.00     0.00     0.00     0.00    0.00    0.00    0.00   0.00   0.00
sda               0.00     0.00    0.00    0.00     0.00     0.00     0.00     0.00    0.00    0.00    0.00   0.00   0.00
sdc               0.00     0.00  588.00    0.00  5272.00     0.00    17.93     2.96    5.01    5.01    0.00   1.12  66.00
sdb               0.00     0.00  588.00    0.00  4212.00     0.00    14.33     3.40    5.74    5.74    0.00   1.30  76.60
sdd               1.00     0.00  620.00    0.00  6208.00     0.00    20.03     4.17    6.72    6.72    0.00   1.18  73.10
md0               0.00     0.00 1802.00    0.00 16100.00     0.00    17.87     0.00    0.00    0.00    0.00   0.00   0.00

avg-cpu:  %user   %nice %system %iowait  %steal   %idle
           0.00    0.00    0.38   21.05    0.00   78.57

Device:         rrqm/s   wrqm/s     r/s     w/s    rkB/s    wkB/s avgrq-sz avgqu-sz   await r_await w_await  svctm  %util
nvme0n1           0.00     0.00    0.00    0.00     0.00     0.00     0.00     0.00    0.00    0.00    0.00   0.00   0.00
sda               0.00    11.00    0.00    2.00     0.00    52.00    52.00     0.00    0.50    0.00    0.50   0.50   0.10
sdc               0.00     0.00  668.00    0.00  5188.00     0.00    15.53     2.78    4.16    4.16    0.00   0.89  59.20
sdb               0.00     0.00  686.00    0.00  5404.00     0.00    15.76     2.25    3.31    3.31    0.00   0.79  53.90
sdd               0.00     0.00  695.00    0.00  4832.00     0.00    13.91     4.00    5.72    5.72    0.00   1.14  79.30
md0               0.00     0.00 2047.00    0.00 15832.00     0.00    15.47     0.00    0.00    0.00    0.00   0.00   0.00

avg-cpu:  %user   %nice %system %iowait  %steal   %idle
           0.03    0.00    0.25   24.62    0.00   75.09

Device:         rrqm/s   wrqm/s     r/s     w/s    rkB/s    wkB/s avgrq-sz avgqu-sz   await r_await w_await  svctm  %util
nvme0n1           0.00     0.00    0.00    0.00     0.00     0.00     0.00     0.00    0.00    0.00    0.00   0.00   0.00
sda               0.00     0.00    0.00    0.00     0.00     0.00     0.00     0.00    0.00    0.00    0.00   0.00   0.00
sdc               0.00     0.00  716.00    0.00  5168.00     0.00    14.44     2.71    3.81    3.81    0.00   0.90  64.70
sdb               0.00     0.00  686.00    0.00  4556.00     0.00    13.28     3.48    4.93    4.93    0.00   1.08  74.30
sdd               0.00     0.00  690.00    0.00  5224.00     0.00    15.14     3.16    4.62    4.62    0.00   1.07  73.70
md0               0.00     0.00 2096.00    0.00 15964.00     0.00    15.23     0.00    0.00    0.00    0.00   0.00   0.00

avg-cpu:  %user   %nice %system %iowait  %steal   %idle
           0.00    0.00    0.38   23.50    0.00   76.13

Device:         rrqm/s   wrqm/s     r/s     w/s    rkB/s    wkB/s avgrq-sz avgqu-sz   await r_await w_await  svctm  %util
nvme0n1           0.00     0.00    0.00    0.00     0.00     0.00     0.00     0.00    0.00    0.00    0.00   0.00   0.00
sda               0.00     0.00    0.00    0.00     0.00     0.00     0.00     0.00    0.00    0.00    0.00   0.00   0.00
sdc               2.00     0.00  717.00    0.00  5236.00     0.00    14.61     3.52    4.80    4.80    0.00   1.07  76.50
sdb               0.00     0.00  727.00    0.00  4548.00     0.00    12.51     2.76    3.93    3.93    0.00   0.93  67.40
sdd               0.00     0.00  694.00    0.00  4980.00     0.00    14.35     2.91    4.21    4.21    0.00   0.95  66.20
md0               0.00     0.00 2137.00    0.00 15228.00     0.00    14.25     0.00    0.00    0.00    0.00   0.00   0.00

avg-cpu:  %user   %nice %system %iowait  %steal   %idle
           0.03    0.00    0.34   23.04    0.00   76.58

Device:         rrqm/s   wrqm/s     r/s     w/s    rkB/s    wkB/s avgrq-sz avgqu-sz   await r_await w_await  svctm  %util
nvme0n1           0.00     0.00    0.00    0.00     0.00     0.00     0.00     0.00    0.00    0.00    0.00   0.00   0.00
sda               0.00    24.00    0.00   79.00     0.00   436.00    11.04     0.05    0.67    0.00    0.67   0.01   0.10
sdc               0.00     0.00  756.00    0.00  4432.00     0.00    11.72     3.48    4.64    4.64    0.00   0.94  70.70
sdb               0.00     0.00  762.00    0.00  4796.00     0.00    12.59     2.19    2.88    2.88    0.00   0.73  55.30
sdd               1.00     0.00  714.00    0.00  4600.00     0.00    12.89     3.20    4.49    4.49    0.00   1.01  72.30
md0               0.00     0.00 2230.00    0.00 14032.00     0.00    12.58     0.00    0.00    0.00    0.00   0.00   0.00

avg-cpu:  %user   %nice %system %iowait  %steal   %idle
           0.00    0.00    0.19   22.59    0.00   77.22

Device:         rrqm/s   wrqm/s     r/s     w/s    rkB/s    wkB/s avgrq-sz avgqu-sz   await r_await w_await  svctm  %util
nvme0n1           0.00     0.00    0.00    0.00     0.00     0.00     0.00     0.00    0.00    0.00    0.00   0.00   0.00
sda               0.00     0.00    0.00    0.00     0.00     0.00     0.00     0.00    0.00    0.00    0.00   0.00   0.00
sdc               1.00     0.00  640.00    0.00  5448.00     0.00    17.02     2.86    4.54    4.54    0.00   0.98  63.00
sdb               1.00     0.00  622.00    0.00  5836.00     0.00    18.77     2.67    4.18    4.18    0.00   0.99  61.60
sdd               1.00     0.00  620.00    0.00  6148.00     0.00    19.83     3.72    6.00    6.00    0.00   1.27  78.70
md0               0.00     0.00 1888.00    0.00 19708.00     0.00    20.88     0.00    0.00    0.00    0.00   0.00   0.00

avg-cpu:  %user   %nice %system %iowait  %steal   %idle
           0.03    0.00    0.47   21.03    0.00   78.47

Device:         rrqm/s   wrqm/s     r/s     w/s    rkB/s    wkB/s avgrq-sz avgqu-sz   await r_await w_await  svctm  %util
nvme0n1           0.00     0.00    0.00    0.00     0.00     0.00     0.00     0.00    0.00    0.00    0.00   0.00   0.00
sda               0.00    10.00    0.00    2.00     0.00    48.00    48.00     0.00    0.50    0.00    0.50   0.50   0.10
sdc               0.00     0.00  753.00    0.00  4324.00     0.00    11.48     1.75    2.34    2.34    0.00   0.59  44.80
sdb               0.00     0.00  697.00    0.00  4916.00     0.00    14.11     3.37    4.93    4.93    0.00   1.15  80.20
sdd               0.00     0.00  626.00    0.00  3432.00     0.00    10.96     2.59    4.05    4.05    0.00   0.92  57.50
md0               0.00     0.00 2077.00    0.00 13136.00     0.00    12.65     0.00    0.00    0.00    0.00   0.00   0.00

avg-cpu:  %user   %nice %system %iowait  %steal   %idle
           0.00    0.00    0.28   23.85    0.00   75.87

Device:         rrqm/s   wrqm/s     r/s     w/s    rkB/s    wkB/s avgrq-sz avgqu-sz   await r_await w_await  svctm  %util
nvme0n1           0.00     0.00    0.00    0.00     0.00     0.00     0.00     0.00    0.00    0.00    0.00   0.00   0.00
sda               0.00     0.00    0.00    0.00     0.00     0.00     0.00     0.00    0.00    0.00    0.00   0.00   0.00
sdc               0.00     0.00  737.00    0.00  4384.00     0.00    11.90     2.79    3.79    3.79    0.00   0.85  62.40
sdb               0.00     0.00  770.00    0.00  4832.00     0.00    12.55     3.67    4.77    4.77    0.00   0.94  72.60
sdd               0.00     0.00  751.00    0.00  5004.00     0.00    13.33     2.69    3.60    3.60    0.00   0.78  58.80
md0               0.00     0.00 2253.00    0.00 14548.00     0.00    12.91     0.00    0.00    0.00    0.00   0.00   0.00

avg-cpu:  %user   %nice %system %iowait  %steal   %idle
           0.03    0.00    0.28   25.68    0.00   74.01

Device:         rrqm/s   wrqm/s     r/s     w/s    rkB/s    wkB/s avgrq-sz avgqu-sz   await r_await w_await  svctm  %util
nvme0n1           0.00     0.00    0.00    0.00     0.00     0.00     0.00     0.00    0.00    0.00    0.00   0.00   0.00
sda               0.00     0.00    0.00    0.00     0.00     0.00     0.00     0.00    0.00    0.00    0.00   0.00   0.00
sdc               0.00     0.00  735.00    0.00  4832.00     0.00    13.15     3.79    5.15    5.15    0.00   1.06  77.70
sdb               0.00     0.00  722.00    0.00  4324.00     0.00    11.98     3.47    4.78    4.78    0.00   1.07  77.40
sdd               0.00     0.00  766.00    0.00  5260.00     0.00    13.73     2.82    3.74    3.74    0.00   0.84  64.20
md0               0.00     0.00 2225.00    0.00 14844.00     0.00    13.34     0.00    0.00    0.00    0.00   0.00   0.00

avg-cpu:  %user   %nice %system %iowait  %steal   %idle
           0.00    0.00    0.38   24.23    0.00   75.40

Device:         rrqm/s   wrqm/s     r/s     w/s    rkB/s    wkB/s avgrq-sz avgqu-sz   await r_await w_await  svctm  %util
nvme0n1           0.00     0.00    0.00    0.00     0.00     0.00     0.00     0.00    0.00    0.00    0.00   0.00   0.00
sda               0.00     2.00    0.00    1.00     0.00    28.00    56.00     0.00    0.00    0.00    0.00   0.00   0.00
sdc               0.00     0.00  750.00    0.00  4164.00     0.00    11.10     3.83    5.11    5.11    0.00   0.94  70.20
sdb               0.00     0.00  714.00    0.00  4020.00     0.00    11.26     2.24    3.16    3.16    0.00   0.78  55.40
sdd               0.00     0.00  711.00    0.00  4464.00     0.00    12.56     2.83    3.95    3.95    0.00   0.89  63.00
md0               0.00     0.00 2175.00    0.00 12872.00     0.00    11.84     0.00    0.00    0.00    0.00   0.00   0.00

avg-cpu:  %user   %nice %system %iowait  %steal   %idle
           0.03    0.00    0.25   24.41    0.00   75.31

Device:         rrqm/s   wrqm/s     r/s     w/s    rkB/s    wkB/s avgrq-sz avgqu-sz   await r_await w_await  svctm  %util
nvme0n1           0.00     0.00    0.00    0.00     0.00     0.00     0.00     0.00    0.00    0.00    0.00   0.00   0.00
sda               0.00     0.00    0.00    0.00     0.00     0.00     0.00     0.00    0.00    0.00    0.00   0.00   0.00
sdc               0.00     0.00  730.00    0.00  4720.00     0.00    12.93     2.86    3.92    3.92    0.00   0.92  66.80
sdb               0.00     0.00  708.00    0.00  3696.00     0.00    10.44     2.94    4.16    4.16    0.00   0.98  69.10
sdd               0.00     0.00  763.00    0.00  4472.00     0.00    11.72     3.54    4.65    4.65    0.00   0.97  74.00
md0               0.00     0.00 2198.00    0.00 13208.00     0.00    12.02     0.00    0.00    0.00    0.00   0.00   0.00

avg-cpu:  %user   %nice %system %iowait  %steal   %idle
           0.00    0.00    0.38   26.22    0.00   73.40

Device:         rrqm/s   wrqm/s     r/s     w/s    rkB/s    wkB/s avgrq-sz avgqu-sz   await r_await w_await  svctm  %util
nvme0n1           0.00     0.00    0.00    0.00     0.00     0.00     0.00     0.00    0.00    0.00    0.00   0.00   0.00
sda               0.00     3.00    0.00    2.00     0.00    20.00    20.00     0.00    0.00    0.00    0.00   0.00   0.00
sdc               0.00     0.00  711.00    0.00  4620.00     0.00    13.00     3.07    4.26    4.26    0.00   0.94  67.10
sdb               0.00     0.00  700.00    0.00  3480.00     0.00     9.94     3.00    4.29    4.29    0.00   0.92  64.30
sdd               0.00     0.00  675.00    0.00  4288.00     0.00    12.71     3.48    5.17    5.17    0.00   1.14  77.20
md0               0.00     0.00 2093.00    0.00 12680.00     0.00    12.12     0.00    0.00    0.00    0.00   0.00   0.00

avg-cpu:  %user   %nice %system %iowait  %steal   %idle
           0.03    0.00    0.34   21.79    0.00   77.83

Device:         rrqm/s   wrqm/s     r/s     w/s    rkB/s    wkB/s avgrq-sz avgqu-sz   await r_await w_await  svctm  %util
nvme0n1           0.00     0.00    0.00    0.00     0.00     0.00     0.00     0.00    0.00    0.00    0.00   0.00   0.00
sda               0.00     0.00    0.00    0.00     0.00     0.00     0.00     0.00    0.00    0.00    0.00   0.00   0.00
sdc               0.00     0.00  629.00    0.00  3964.00     0.00    12.60     3.39    5.47    5.47    0.00   1.13  70.80
sdb               0.00     0.00  560.00    0.00  3344.00     0.00    11.94     2.01    3.58    3.58    0.00   0.85  47.40
sdd               0.00     0.00  580.00    0.00  3128.00     0.00    10.79     2.56    4.28    4.28    0.00   0.96  55.50
md0               0.00     0.00 1768.00    0.00 10560.00     0.00    11.95     0.00    0.00    0.00    0.00   0.00   0.00

avg-cpu:  %user   %nice %system %iowait  %steal   %idle
           0.03    0.00    0.22   24.19    0.00   75.56

Device:         rrqm/s   wrqm/s     r/s     w/s    rkB/s    wkB/s avgrq-sz avgqu-sz   await r_await w_await  svctm  %util
nvme0n1           0.00     0.00    0.00    0.00     0.00     0.00     0.00     0.00    0.00    0.00    0.00   0.00   0.00
sda               0.00     0.00    0.00    0.00     0.00     0.00     0.00     0.00    0.00    0.00    0.00   0.00   0.00
sdc               0.00     0.00  686.00    0.00  4256.00     0.00    12.41     2.74    3.92    3.92    0.00   0.77  52.50
sdb               0.00     0.00  641.00    0.00  4508.00     0.00    14.07     2.28    3.48    3.48    0.00   0.86  55.30
sdd               0.00     0.00  685.00    0.00  4356.00     0.00    12.72     3.78    5.62    5.62    0.00   1.22  83.50
md0               0.00     0.00 2021.00    0.00 13896.00     0.00    13.75     0.00    0.00    0.00    0.00   0.00   0.00

avg-cpu:  %user   %nice %system %iowait  %steal   %idle
           0.03    0.00    0.44   21.43    0.00   78.10

Device:         rrqm/s   wrqm/s     r/s     w/s    rkB/s    wkB/s avgrq-sz avgqu-sz   await r_await w_await  svctm  %util
nvme0n1           0.00     0.00    0.00    0.00     0.00     0.00     0.00     0.00    0.00    0.00    0.00   0.00   0.00
sda               0.00     0.00    0.00    0.00     0.00     0.00     0.00     0.00    0.00    0.00    0.00   0.00   0.00
sdc               2.00     0.00  789.00    0.00  6544.00     0.00    16.59     3.03    3.89    3.89    0.00   0.90  71.00
sdb               2.00     0.00  760.00    0.00  5940.00     0.00    15.63     1.87    2.52    2.52    0.00   0.63  48.20
sdd               2.00     0.00  743.00    0.00  6984.00     0.00    18.80     3.30    4.45    4.45    0.00   0.97  71.80
md0               0.00     0.00 2287.00    0.00 21188.00     0.00    18.53     0.00    0.00    0.00    0.00   0.00   0.00

avg-cpu:  %user   %nice %system %iowait  %steal   %idle
           0.00    0.00    0.25   24.25    0.00   75.50

Device:         rrqm/s   wrqm/s     r/s     w/s    rkB/s    wkB/s avgrq-sz avgqu-sz   await r_await w_await  svctm  %util
nvme0n1           0.00     0.00    0.00    0.00     0.00     0.00     0.00     0.00    0.00    0.00    0.00   0.00   0.00
sda               0.00     0.00    0.00    0.00     0.00     0.00     0.00     0.00    0.00    0.00    0.00   0.00   0.00
sdc               0.00     0.00  701.00    0.00  5064.00     0.00    14.45     2.06    2.89    2.89    0.00   0.74  52.10
sdb               1.00     0.00  726.00    0.00  4440.00     0.00    12.23     3.53    4.86    4.86    0.00   1.03  75.00
sdd               0.00     0.00  665.00    0.00  5420.00     0.00    16.30     3.45    5.12    5.12    0.00   1.09  72.30
md0               0.00     0.00 2101.00    0.00 16052.00     0.00    15.28     0.00    0.00    0.00    0.00   0.00   0.00

avg-cpu:  %user   %nice %system %iowait  %steal   %idle
           0.03    0.00    0.44   24.19    0.00   75.34

Device:         rrqm/s   wrqm/s     r/s     w/s    rkB/s    wkB/s avgrq-sz avgqu-sz   await r_await w_await  svctm  %util
nvme0n1           0.00     0.00    0.00    0.00     0.00     0.00     0.00     0.00    0.00    0.00    0.00   0.00   0.00
sda               0.00     1.00    0.00    2.00     0.00    12.00    12.00     0.00    0.00    0.00    0.00   0.00   0.00
sdc               0.00     0.00  828.00    0.00  5108.00     0.00    12.34     2.62    3.19    3.19    0.00   0.73  60.50
sdb               0.00     0.00  705.00    0.00  3892.00     0.00    11.04     3.36    4.71    4.71    0.00   1.15  81.30
sdd               0.00     0.00  819.00    0.00  4668.00     0.00    11.40     3.04    3.78    3.78    0.00   0.85  69.80
md0               0.00     0.00 2343.00    0.00 13816.00     0.00    11.79     0.00    0.00    0.00    0.00   0.00   0.00

avg-cpu:  %user   %nice %system %iowait  %steal   %idle
           0.00    0.00    0.47   24.48    0.00   75.05

Device:         rrqm/s   wrqm/s     r/s     w/s    rkB/s    wkB/s avgrq-sz avgqu-sz   await r_await w_await  svctm  %util
nvme0n1           0.00     0.00    0.00    0.00     0.00     0.00     0.00     0.00    0.00    0.00    0.00   0.00   0.00
sda               0.00     0.00    0.00    0.00     0.00     0.00     0.00     0.00    0.00    0.00    0.00   0.00   0.00
sdc               0.00     0.00  689.00    0.00  4368.00     0.00    12.68     2.98    4.33    4.33    0.00   1.04  72.00
sdb               0.00     0.00  671.00    0.00  3700.00     0.00    11.03     3.42    5.15    5.15    0.00   0.97  65.10
sdd               0.00     0.00  668.00    0.00  4452.00     0.00    13.33     3.02    4.50    4.50    0.00   1.05  69.90
md0               0.00     0.00 2040.00    0.00 12828.00     0.00    12.58     0.00    0.00    0.00    0.00   0.00   0.00

avg-cpu:  %user   %nice %system %iowait  %steal   %idle
           0.00    0.00    0.25   24.19    0.00   75.56

Device:         rrqm/s   wrqm/s     r/s     w/s    rkB/s    wkB/s avgrq-sz avgqu-sz   await r_await w_await  svctm  %util
nvme0n1           0.00     0.00    0.00    0.00     0.00     0.00     0.00     0.00    0.00    0.00    0.00   0.00   0.00
sda               0.00     0.00    0.00    0.00     0.00     0.00     0.00     0.00    0.00    0.00    0.00   0.00   0.00
sdc               0.00     0.00  705.00    0.00  4424.00     0.00    12.55     3.69    5.15    5.15    0.00   1.11  78.40
sdb               0.00     0.00  725.00    0.00  4784.00     0.00    13.20     2.72    3.75    3.75    0.00   0.85  61.80
sdd               0.00     0.00  716.00    0.00  4552.00     0.00    12.72     2.77    3.83    3.83    0.00   0.93  66.60
md0               0.00     0.00 2146.00    0.00 14048.00     0.00    13.09     0.00    0.00    0.00    0.00   0.00   0.00

