Linux 4.17.2 (bench2) 	08/03/2018 	_x86_64_	(32 CPU)

avg-cpu:  %user   %nice %system %iowait  %steal   %idle
           1.92    0.00    1.57    1.53    0.00   94.98

Device:         rrqm/s   wrqm/s     r/s     w/s    rkB/s    wkB/s avgrq-sz avgqu-sz   await r_await w_await  svctm  %util
nvme0n1         950.93     5.16 19170.39  527.82 107231.19 11903.92    12.10     1.36    0.05    0.03    0.67   0.02  40.13
sda               0.11     0.81   14.14    0.57   163.98     8.51    23.44     0.00    0.33    0.32    0.45   0.07   0.10
sdc              33.03     0.14  109.85    0.30  1649.54    82.61    31.45     1.51   13.75   12.77  373.51   0.93  10.24
sdb              30.96     0.15  111.88    0.32  1647.67    82.44    30.84     0.40    3.55    2.43  394.60   0.87   9.73
sdd              33.22     0.13  109.39    0.25  1645.57    82.10    31.52     0.68    6.22    4.46  782.19   0.93  10.24
md0               0.00     0.00  431.18    1.06  6099.94   289.46    29.56     0.00    0.00    0.00    0.00   0.00   0.00

avg-cpu:  %user   %nice %system %iowait  %steal   %idle
           0.00    0.00    0.31    1.78    0.00   97.90

Device:         rrqm/s   wrqm/s     r/s     w/s    rkB/s    wkB/s avgrq-sz avgqu-sz   await r_await w_await  svctm  %util
nvme0n1           0.00     0.00    0.00    0.00     0.00     0.00     0.00     0.00    0.00    0.00    0.00   0.00   0.00
sda               0.00     0.00   19.00    0.00   104.00     0.00    10.95     0.00    0.00    0.00    0.00   0.00   0.00
sdc               0.00     0.00 2167.00    0.00  8668.00     0.00     8.00     0.31    0.14    0.14    0.00   0.14  30.70
sdb               0.00     0.00 2197.00    0.00  8788.00     0.00     8.00     0.32    0.15    0.15    0.00   0.15  31.90
sdd               0.00     0.00 2103.00    0.00  8412.00     0.00     8.00     0.32    0.15    0.15    0.00   0.15  31.80
md0               0.00     0.00 6467.00    0.00 25868.00     0.00     8.00     0.00    0.00    0.00    0.00   0.00   0.00

avg-cpu:  %user   %nice %system %iowait  %steal   %idle
           0.03    0.00    0.28    2.78    0.00   96.91

Device:         rrqm/s   wrqm/s     r/s     w/s    rkB/s    wkB/s avgrq-sz avgqu-sz   await r_await w_await  svctm  %util
nvme0n1           0.00     0.00    0.00    0.00     0.00     0.00     0.00     0.00    0.00    0.00    0.00   0.00   0.00
sda               0.00     0.00    0.00    0.00     0.00     0.00     0.00     0.00    0.00    0.00    0.00   0.00   0.00
sdc               0.00     0.00 2251.00    0.00  9004.00     0.00     8.00     0.31    0.14    0.14    0.00   0.14  31.00
sdb               0.00     0.00 2356.00    0.00  9424.00     0.00     8.00     0.33    0.14    0.14    0.00   0.14  32.80
sdd               0.00     0.00 2162.00    0.00  8648.00     0.00     8.00     0.30    0.14    0.14    0.00   0.14  30.50
md0               0.00     0.00 6769.00    0.00 27076.00     0.00     8.00     0.00    0.00    0.00    0.00   0.00   0.00

avg-cpu:  %user   %nice %system %iowait  %steal   %idle
           0.00    0.00    0.31    0.88    0.00   98.81

Device:         rrqm/s   wrqm/s     r/s     w/s    rkB/s    wkB/s avgrq-sz avgqu-sz   await r_await w_await  svctm  %util
nvme0n1           0.00     0.00    0.00    0.00     0.00     0.00     0.00     0.00    0.00    0.00    0.00   0.00   0.00
sda               0.00     0.00    0.00    0.00     0.00     0.00     0.00     0.00    0.00    0.00    0.00   0.00   0.00
sdc               0.00     0.00 2206.00    0.00  8824.00     0.00     8.00     0.31    0.14    0.14    0.00   0.14  31.00
sdb               0.00     0.00 2221.00    0.00  8884.00     0.00     8.00     0.32    0.15    0.15    0.00   0.15  32.30
sdd               0.00     0.00 2185.00    0.00  8740.00     0.00     8.00     0.31    0.14    0.14    0.00   0.14  31.40
md0               0.00     0.00 6613.00    0.00 26452.00     0.00     8.00     0.00    0.00    0.00    0.00   0.00   0.00

avg-cpu:  %user   %nice %system %iowait  %steal   %idle
           0.00    0.00    0.31    0.25    0.00   99.44

Device:         rrqm/s   wrqm/s     r/s     w/s    rkB/s    wkB/s avgrq-sz avgqu-sz   await r_await w_await  svctm  %util
nvme0n1           0.00     0.00    0.00    0.00     0.00     0.00     0.00     0.00    0.00    0.00    0.00   0.00   0.00
sda               0.00     0.00    0.00    0.00     0.00     0.00     0.00     0.00    0.00    0.00    0.00   0.00   0.00
sdc               0.00     0.00 2162.00    0.00  8648.00     0.00     8.00     0.30    0.14    0.14    0.00   0.14  30.40
sdb               0.00     0.00 2186.00    0.00  8744.00     0.00     8.00     0.30    0.14    0.14    0.00   0.14  30.10
sdd               0.00     0.00 2262.00    0.00  9048.00     0.00     8.00     0.33    0.15    0.15    0.00   0.15  33.20
md0               0.00     0.00 6610.00    0.00 26440.00     0.00     8.00     0.00    0.00    0.00    0.00   0.00   0.00

avg-cpu:  %user   %nice %system %iowait  %steal   %idle
           0.03    0.00    0.28    0.28    0.00   99.40

Device:         rrqm/s   wrqm/s     r/s     w/s    rkB/s    wkB/s avgrq-sz avgqu-sz   await r_await w_await  svctm  %util
nvme0n1           0.00     0.00    0.00    0.00     0.00     0.00     0.00     0.00    0.00    0.00    0.00   0.00   0.00
sda               0.00    10.00    0.00    2.00     0.00    48.00    48.00     0.00    0.00    0.00    0.00   0.00   0.00
sdc               0.00     0.00 2268.00    0.00  9072.00     0.00     8.00     0.35    0.15    0.15    0.00   0.15  34.60
sdb               0.00     0.00 2124.00    0.00  8496.00     0.00     8.00     0.31    0.15    0.15    0.00   0.15  30.80
sdd               0.00     0.00 2212.00    0.00  8848.00     0.00     8.00     0.30    0.14    0.14    0.00   0.14  30.30
md0               0.00     0.00 6603.00    0.00 26412.00     0.00     8.00     0.00    0.00    0.00    0.00   0.00   0.00

avg-cpu:  %user   %nice %system %iowait  %steal   %idle
           0.00    0.00    0.31    0.28    0.00   99.40

Device:         rrqm/s   wrqm/s     r/s     w/s    rkB/s    wkB/s avgrq-sz avgqu-sz   await r_await w_await  svctm  %util
nvme0n1           0.00     0.00    0.00    0.00     0.00     0.00     0.00     0.00    0.00    0.00    0.00   0.00   0.00
sda               0.00     2.00    0.00   15.00     0.00    68.00     9.07     0.00    0.00    0.00    0.00   0.00   0.00
sdc               0.00     0.00 2304.00    0.00  9216.00     0.00     8.00     0.34    0.15    0.15    0.00   0.15  33.80
sdb               0.00     0.00 2142.00    0.00  8568.00     0.00     8.00     0.31    0.15    0.15    0.00   0.15  31.40
sdd               0.00     0.00 2124.00    0.00  8496.00     0.00     8.00     0.30    0.14    0.14    0.00   0.14  29.90
md0               0.00     0.00 6570.00    0.00 26280.00     0.00     8.00     0.00    0.00    0.00    0.00   0.00   0.00

avg-cpu:  %user   %nice %system %iowait  %steal   %idle
           0.03    0.00    0.28    0.34    0.00   99.34

Device:         rrqm/s   wrqm/s     r/s     w/s    rkB/s    wkB/s avgrq-sz avgqu-sz   await r_await w_await  svctm  %util
nvme0n1           0.00     0.00    0.00    0.00     0.00     0.00     0.00     0.00    0.00    0.00    0.00   0.00   0.00
sda               0.00     0.00    0.00    0.00     0.00     0.00     0.00     0.00    0.00    0.00    0.00   0.00   0.00
sdc               0.00     0.00 2097.00    0.00  8388.00     0.00     8.00     0.35    0.17    0.17    0.00   0.17  35.30
sdb               0.00     0.00 2086.00    0.00  8344.00     0.00     8.00     0.29    0.14    0.14    0.00   0.14  29.10
sdd               0.00     0.00 2042.00    0.00  8168.00     0.00     8.00     0.30    0.15    0.15    0.00   0.15  30.00
md0               0.00     0.00 6225.00    0.00 24900.00     0.00     8.00     0.00    0.00    0.00    0.00   0.00   0.00

avg-cpu:  %user   %nice %system %iowait  %steal   %idle
           0.00    0.00    0.34    0.28    0.00   99.37

Device:         rrqm/s   wrqm/s     r/s     w/s    rkB/s    wkB/s avgrq-sz avgqu-sz   await r_await w_await  svctm  %util
nvme0n1           0.00     0.00    0.00    0.00     0.00     0.00     0.00     0.00    0.00    0.00    0.00   0.00   0.00
sda               0.00     0.00    0.00    0.00     0.00     0.00     0.00     0.00    0.00    0.00    0.00   0.00   0.00
sdc               0.00     0.00 2211.00    0.00  8844.00     0.00     8.00     0.31    0.14    0.14    0.00   0.14  31.30
sdb               0.00     0.00 2165.00    0.00  8660.00     0.00     8.00     0.31    0.15    0.15    0.00   0.15  31.40
sdd               0.00     0.00 2204.00    0.00  8816.00     0.00     8.00     0.33    0.15    0.15    0.00   0.15  32.60
md0               0.00     0.00 6580.00    0.00 26320.00     0.00     8.00     0.00    0.00    0.00    0.00   0.00   0.00

avg-cpu:  %user   %nice %system %iowait  %steal   %idle
           0.00    0.00    0.25    0.31    0.00   99.44

Device:         rrqm/s   wrqm/s     r/s     w/s    rkB/s    wkB/s avgrq-sz avgqu-sz   await r_await w_await  svctm  %util
nvme0n1           0.00     0.00    0.00    0.00     0.00     0.00     0.00     0.00    0.00    0.00    0.00   0.00   0.00
sda               0.00     0.00    0.00    0.00     0.00     0.00     0.00     0.00    0.00    0.00    0.00   0.00   0.00
sdc               0.00     0.00 2086.00    0.00  8344.00     0.00     8.00     0.40    0.20    0.20    0.00   0.19  40.30
sdb               0.00     0.00 1906.00    0.00  7624.00     0.00     8.00     0.27    0.14    0.14    0.00   0.14  26.90
sdd               0.00     0.00 1988.00    0.00  7952.00     0.00     8.00     0.28    0.14    0.14    0.00   0.14  27.80
md0               0.00     0.00 5980.00    0.00 23920.00     0.00     8.00     0.00    0.00    0.00    0.00   0.00   0.00

avg-cpu:  %user   %nice %system %iowait  %steal   %idle
           0.03    0.00    0.28    0.41    0.00   99.28

Device:         rrqm/s   wrqm/s     r/s     w/s    rkB/s    wkB/s avgrq-sz avgqu-sz   await r_await w_await  svctm  %util
nvme0n1           0.00     0.00    0.00    0.00     0.00     0.00     0.00     0.00    0.00    0.00    0.00   0.00   0.00
sda               0.00     1.00    0.00    2.00     0.00    12.00    12.00     0.00    0.00    0.00    0.00   0.00   0.00
sdc               0.00     0.00 2044.00    0.00  8176.00     0.00     8.00     0.35    0.15    0.15    0.00   0.17  35.10
sdb               0.00     0.00 2108.00    0.00  8432.00     0.00     8.00     0.30    0.14    0.14    0.00   0.14  30.30
sdd               0.00     0.00 2157.00    0.00  8628.00     0.00     8.00     0.30    0.14    0.14    0.00   0.14  30.40
md0               0.00     0.00 6309.00    0.00 25236.00     0.00     8.00     0.00    0.00    0.00    0.00   0.00   0.00

avg-cpu:  %user   %nice %system %iowait  %steal   %idle
           0.00    0.00    0.28    0.28    0.00   99.44

Device:         rrqm/s   wrqm/s     r/s     w/s    rkB/s    wkB/s avgrq-sz avgqu-sz   await r_await w_await  svctm  %util
nvme0n1           0.00     0.00    0.00    0.00     0.00     0.00     0.00     0.00    0.00    0.00    0.00   0.00   0.00
sda               0.00     0.00    0.00    5.00     0.00    36.00    14.40     0.00    0.00    0.00    0.00   0.00   0.00
sdc               0.00     0.00 2135.00    0.00  8540.00     0.00     8.00     0.35    0.19    0.19    0.00   0.16  34.80
sdb               0.00     0.00 2139.00    0.00  8556.00     0.00     8.00     0.29    0.14    0.14    0.00   0.14  29.50
sdd               0.00     0.00 2084.00    0.00  8336.00     0.00     8.00     0.30    0.15    0.15    0.00   0.14  30.10
md0               0.00     0.00 6359.00    0.00 25432.00     0.00     8.00     0.00    0.00    0.00    0.00   0.00   0.00

avg-cpu:  %user   %nice %system %iowait  %steal   %idle
           0.03    0.00    0.34    0.28    0.00   99.34

Device:         rrqm/s   wrqm/s     r/s     w/s    rkB/s    wkB/s avgrq-sz avgqu-sz   await r_await w_await  svctm  %util
nvme0n1           0.00     0.00    0.00    0.00     0.00     0.00     0.00     0.00    0.00    0.00    0.00   0.00   0.00
sda               0.00     0.00    0.00    0.00     0.00     0.00     0.00     0.00    0.00    0.00    0.00   0.00   0.00
sdc               0.00     0.00 2235.00    0.00  8940.00     0.00     8.00     0.32    0.14    0.14    0.00   0.14  32.00
sdb               0.00     0.00 2150.00    0.00  8600.00     0.00     8.00     0.30    0.14    0.14    0.00   0.14  30.30
sdd               0.00     0.00 2114.00    0.00  8456.00     0.00     8.00     0.31    0.15    0.15    0.00   0.15  31.30
md0               0.00     0.00 6499.00    0.00 26000.00     0.00     8.00     0.00    0.00    0.00    0.00   0.00   0.00

avg-cpu:  %user   %nice %system %iowait  %steal   %idle
           0.00    0.00    0.22    0.34    0.00   99.44

Device:         rrqm/s   wrqm/s     r/s     w/s    rkB/s    wkB/s avgrq-sz avgqu-sz   await r_await w_await  svctm  %util
nvme0n1           0.00     0.00    0.00    0.00     0.00     0.00     0.00     0.00    0.00    0.00    0.00   0.00   0.00
sda               0.00     0.00    0.00    0.00     0.00     0.00     0.00     0.00    0.00    0.00    0.00   0.00   0.00
sdc               0.00     0.00 2083.00    0.00  8332.00     0.00     8.00     0.37    0.18    0.18    0.00   0.18  37.30
sdb               0.00     0.00 2062.00    0.00  8252.00     0.00     8.00     0.30    0.15    0.15    0.00   0.15  30.10
sdd               0.00     0.00 1960.00    0.00  7840.00     0.00     8.00     0.28    0.14    0.14    0.00   0.14  27.50
md0               0.00     0.00 6104.00    0.00 24416.00     0.00     8.00     0.00    0.00    0.00    0.00   0.00   0.00

avg-cpu:  %user   %nice %system %iowait  %steal   %idle
           0.03    0.00    0.31    0.28    0.00   99.37

Device:         rrqm/s   wrqm/s     r/s     w/s    rkB/s    wkB/s avgrq-sz avgqu-sz   await r_await w_await  svctm  %util
nvme0n1           0.00     0.00    0.00    0.00     0.00     0.00     0.00     0.00    0.00    0.00    0.00   0.00   0.00
sda               0.00     0.00    0.00    0.00     0.00     0.00     0.00     0.00    0.00    0.00    0.00   0.00   0.00
sdc               0.00     0.00 2163.00    0.00  8652.00     0.00     8.00     0.31    0.14    0.14    0.00   0.14  30.70
sdb               0.00     0.00 2195.00    0.00  8776.00     0.00     8.00     0.31    0.14    0.14    0.00   0.14  31.00
sdd               0.00     0.00 2202.00    0.00  8808.00     0.00     8.00     0.32    0.15    0.15    0.00   0.15  32.40
md0               0.00     0.00 6560.00    0.00 26240.00     0.00     8.00     0.00    0.00    0.00    0.00   0.00   0.00

avg-cpu:  %user   %nice %system %iowait  %steal   %idle
           0.00    0.00    0.28    0.28    0.00   99.44

Device:         rrqm/s   wrqm/s     r/s     w/s    rkB/s    wkB/s avgrq-sz avgqu-sz   await r_await w_await  svctm  %util
nvme0n1           0.00     0.00    0.00    0.00     0.00     0.00     0.00     0.00    0.00    0.00    0.00   0.00   0.00
sda               0.00     3.00    0.00    2.00     0.00    20.00    20.00     0.00    0.00    0.00    0.00   0.00   0.00
sdc               0.00     0.00 2046.00    0.00  8184.00     0.00     8.00     0.35    0.17    0.17    0.00   0.17  35.00
sdb               0.00     0.00 2021.00    0.00  8084.00     0.00     8.00     0.29    0.14    0.14    0.00   0.14  29.20
sdd               0.00     0.00 2108.00    0.00  8432.00     0.00     8.00     0.30    0.14    0.14    0.00   0.14  29.90
md0               0.00     0.00 6175.00    0.00 24700.00     0.00     8.00     0.00    0.00    0.00    0.00   0.00   0.00

avg-cpu:  %user   %nice %system %iowait  %steal   %idle
           0.03    0.00    0.31    0.31    0.00   99.34

Device:         rrqm/s   wrqm/s     r/s     w/s    rkB/s    wkB/s avgrq-sz avgqu-sz   await r_await w_await  svctm  %util
nvme0n1           0.00     0.00    0.00    0.00     0.00     0.00     0.00     0.00    0.00    0.00    0.00   0.00   0.00
sda               0.00     0.00    0.00    0.00     0.00     0.00     0.00     0.00    0.00    0.00    0.00   0.00   0.00
sdc               0.00     0.00 2177.00    0.00  8708.00     0.00     8.00     0.32    0.15    0.15    0.00   0.15  31.70
sdb               0.00     0.00 2161.00    0.00  8644.00     0.00     8.00     0.32    0.15    0.15    0.00   0.15  31.60
sdd               0.00     0.00 2142.00    0.00  8568.00     0.00     8.00     0.32    0.15    0.15    0.00   0.15  31.70
md0               0.00     0.00 6480.00    0.00 25920.00     0.00     8.00     0.00    0.00    0.00    0.00   0.00   0.00

avg-cpu:  %user   %nice %system %iowait  %steal   %idle
           0.00    0.00    0.31    0.25    0.00   99.44

Device:         rrqm/s   wrqm/s     r/s     w/s    rkB/s    wkB/s avgrq-sz avgqu-sz   await r_await w_await  svctm  %util
nvme0n1           0.00     0.00    0.00    0.00     0.00     0.00     0.00     0.00    0.00    0.00    0.00   0.00   0.00
sda               0.00     0.00    0.00    0.00     0.00     0.00     0.00     0.00    0.00    0.00    0.00   0.00   0.00
sdc               0.00     0.00 2220.00    0.00  8880.00     0.00     8.00     0.32    0.14    0.14    0.00   0.14  31.90
sdb               0.00     0.00 2165.00    0.00  8660.00     0.00     8.00     0.31    0.14    0.14    0.00   0.14  30.90
sdd               0.00     0.00 2218.00    0.00  8872.00     0.00     8.00     0.31    0.14    0.14    0.00   0.14  31.20
md0               0.00     0.00 6603.00    0.00 26412.00     0.00     8.00     0.00    0.00    0.00    0.00   0.00   0.00

avg-cpu:  %user   %nice %system %iowait  %steal   %idle
           0.00    0.00    0.31    0.31    0.00   99.37

Device:         rrqm/s   wrqm/s     r/s     w/s    rkB/s    wkB/s avgrq-sz avgqu-sz   await r_await w_await  svctm  %util
nvme0n1           0.00     0.00    0.00    0.00     0.00     0.00     0.00     0.00    0.00    0.00    0.00   0.00   0.00
sda               0.00     0.00    0.00    0.00     0.00     0.00     0.00     0.00    0.00    0.00    0.00   0.00   0.00
sdc               0.00     0.00 2255.00    0.00  9020.00     0.00     8.00     0.31    0.14    0.14    0.00   0.14  31.40
sdb               0.00     0.00 2185.00    0.00  8740.00     0.00     8.00     0.29    0.14    0.14    0.00   0.14  29.50
sdd               0.00     0.00 2280.00    0.00  9120.00     0.00     8.00     0.33    0.15    0.15    0.00   0.15  33.10
md0               0.00     0.00 6720.00    0.00 26880.00     0.00     8.00     0.00    0.00    0.00    0.00   0.00   0.00

avg-cpu:  %user   %nice %system %iowait  %steal   %idle
           0.00    0.00    0.31    0.28    0.00   99.40

Device:         rrqm/s   wrqm/s     r/s     w/s    rkB/s    wkB/s avgrq-sz avgqu-sz   await r_await w_await  svctm  %util
nvme0n1           0.00     0.00    0.00    0.00     0.00     0.00     0.00     0.00    0.00    0.00    0.00   0.00   0.00
sda               0.00     0.00    0.00    0.00     0.00     0.00     0.00     0.00    0.00    0.00    0.00   0.00   0.00
sdc               0.00     0.00 2123.00    0.00  8492.00     0.00     8.00     0.31    0.14    0.14    0.00   0.14  30.70
sdb               0.00     0.00 2196.00    0.00  8784.00     0.00     8.00     0.32    0.14    0.14    0.00   0.14  31.50
sdd               0.00     0.00 2261.00    0.00  9048.00     0.00     8.00     0.33    0.14    0.14    0.00   0.14  32.50
md0               0.00     0.00 6581.00    0.00 26324.00     0.00     8.00     0.00    0.00    0.00    0.00   0.00   0.00

avg-cpu:  %user   %nice %system %iowait  %steal   %idle
           0.03    0.00    0.31    0.28    0.00   99.37

Device:         rrqm/s   wrqm/s     r/s     w/s    rkB/s    wkB/s avgrq-sz avgqu-sz   await r_await w_await  svctm  %util
nvme0n1           0.00     0.00    0.00    0.00     0.00     0.00     0.00     0.00    0.00    0.00    0.00   0.00   0.00
sda               0.00     1.00    0.00    2.00     0.00    12.00    12.00     0.00    0.00    0.00    0.00   0.00   0.00
sdc               0.00     0.00 2274.00    0.00  9096.00     0.00     8.00     0.33    0.14    0.14    0.00   0.14  32.60
sdb               0.00     0.00 2255.00    0.00  9020.00     0.00     8.00     0.32    0.14    0.14    0.00   0.14  32.30
sdd               0.00     0.00 2016.00    0.00  8060.00     0.00     8.00     0.29    0.15    0.15    0.00   0.15  29.30
md0               0.00     0.00 6545.00    0.00 26180.00     0.00     8.00     0.00    0.00    0.00    0.00   0.00   0.00

