Linux 4.17.2 (bench2) 	08/03/2018 	_x86_64_	(32 CPU)

avg-cpu:  %user   %nice %system %iowait  %steal   %idle
           1.92    0.00    1.58    1.51    0.00   94.99

Device:         rrqm/s   wrqm/s     r/s     w/s    rkB/s    wkB/s avgrq-sz avgqu-sz   await r_await w_await  svctm  %util
nvme0n1         956.06     5.19 19273.86  530.67 107809.93 11968.17    12.10     1.37    0.05    0.03    0.67   0.02  40.35
sda               0.11     0.81   14.13    0.57   163.91     8.50    23.46     0.00    0.33    0.32    0.45   0.07   0.10
sdc              32.59     0.14  106.36    0.30  1599.73    83.06    31.55     1.48   13.91   12.89  373.51   0.94  10.01
sdb              30.51     0.15  108.40    0.32  1597.86    82.88    30.92     0.36    3.33    2.17  394.60   0.87   9.51
sdd              32.79     0.13  105.90    0.25  1595.78    82.55    31.62     0.65    6.10    4.26  782.19   0.94  10.01
md0               0.00     0.00  419.43    1.07  5908.10   291.02    29.48     0.00    0.00    0.00    0.00   0.00   0.00

avg-cpu:  %user   %nice %system %iowait  %steal   %idle
           0.00    0.00    0.04   43.05    0.00   56.90

Device:         rrqm/s   wrqm/s     r/s     w/s    rkB/s    wkB/s avgrq-sz avgqu-sz   await r_await w_await  svctm  %util
nvme0n1           0.00     0.00    0.00    0.00     0.00     0.00     0.00     0.00    0.00    0.00    0.00   0.00   0.00
sda               0.00     0.85    4.30    0.55    29.20     6.60    14.76     0.00    0.32    0.35    0.09   0.06   0.03
sdc               0.00     0.00  131.15    0.00   525.80     0.00     8.02     4.91   37.42   37.42    0.00   7.23  94.82
sdb               0.00     0.00  131.50    0.00   526.00     0.00     8.00     5.10   38.56   38.56    0.00   7.31  96.08
sdd               0.00     0.00  131.85    0.00   527.40     0.00     8.00     4.89   37.07   37.07    0.00   7.29  96.13
md0               0.00     0.00  395.25    0.00  1581.60     0.00     8.00     0.00    0.00    0.00    0.00   0.00   0.00

