Linux 4.17.2 (bench2) 	08/03/2018 	_x86_64_	(32 CPU)

avg-cpu:  %user   %nice %system %iowait  %steal   %idle
           1.92    0.00    1.57    1.53    0.00   94.99

Device:         rrqm/s   wrqm/s     r/s     w/s    rkB/s    wkB/s avgrq-sz avgqu-sz   await r_await w_await  svctm  %util
nvme0n1         951.74     5.17 19186.77  528.27 107322.79 11914.09    12.10     1.37    0.05    0.03    0.67   0.02  40.17
sda               0.11     0.81   14.14    0.57   163.96     8.51    23.45     0.00    0.33    0.32    0.45   0.07   0.10
sdc              32.99     0.14  109.21    0.30  1647.77    82.69    31.60     1.51   13.79   12.81  373.51   0.93  10.20
sdb              30.92     0.15  111.24    0.32  1645.90    82.51    30.99     0.39    3.52    2.40  394.60   0.87   9.70
sdd              33.18     0.13  108.75    0.25  1643.79    82.17    31.67     0.68    6.21    4.44  782.19   0.94  10.20
md0               0.00     0.00  429.16    1.06  6095.60   289.71    29.68     0.00    0.00    0.00    0.00   0.00   0.00

avg-cpu:  %user   %nice %system %iowait  %steal   %idle
           0.07    0.00    1.15   16.73    0.00   82.05

Device:         rrqm/s   wrqm/s     r/s     w/s    rkB/s    wkB/s avgrq-sz avgqu-sz   await r_await w_await  svctm  %util
nvme0n1           0.00     0.00    0.00    0.00     0.00     0.00     0.00     0.00    0.00    0.00    0.00   0.00   0.00
sda               0.00     0.95    3.90    0.55    27.60     6.80    15.46     0.00    0.38    0.42    0.09   0.07   0.03
sdc               0.00     0.00 2636.80    0.00 10548.40     0.00     8.00     2.11    0.80    0.80    0.00   0.14  37.73
sdb               0.00     0.00 2571.40    0.00 10285.60     0.00     8.00     1.99    0.77    0.77    0.00   0.14  35.38
sdd               0.00     0.00 2643.50    0.00 10574.00     0.00     8.00     2.05    0.78    0.78    0.00   0.14  36.51
md0               0.00     0.00 7852.05    0.00 31408.80     0.00     8.00     0.00    0.00    0.00    0.00   0.00   0.00

