Linux 4.17.2 (bench2) 	08/03/2018 	_x86_64_	(32 CPU)

avg-cpu:  %user   %nice %system %iowait  %steal   %idle
           1.92    0.00    1.58    1.50    0.00   95.00

Device:         rrqm/s   wrqm/s     r/s     w/s    rkB/s    wkB/s avgrq-sz avgqu-sz   await r_await w_await  svctm  %util
nvme0n1         958.16     5.20 19316.17  531.83 108046.61 11994.44    12.10     1.37    0.05    0.03    0.67   0.02  40.44
sda               0.12     0.81   14.12    0.57   163.87     8.50    23.47     0.00    0.33    0.32    0.45   0.07   0.10
sdc              32.24     0.14  104.89    0.30  1584.96    83.24    31.72     1.46   13.91   12.88  373.51   0.94   9.91
sdb              30.16     0.15  106.93    0.32  1583.10    83.06    31.07     0.34    3.18    2.00  394.60   0.88   9.42
sdd              32.44     0.13  104.43    0.25  1581.00    82.73    31.79     0.63    5.98    4.12  782.19   0.95   9.92
md0               0.00     0.00  413.97    1.07  5854.80   291.66    29.62     0.00    0.00    0.00    0.00   0.00   0.00

avg-cpu:  %user   %nice %system %iowait  %steal   %idle
           0.00    0.00    0.06    1.38    0.00   98.56

Device:         rrqm/s   wrqm/s     r/s     w/s    rkB/s    wkB/s avgrq-sz avgqu-sz   await r_await w_await  svctm  %util
nvme0n1           0.00     0.00    0.00    0.00     0.00     0.00     0.00     0.00    0.00    0.00    0.00   0.00   0.00
sda               0.00     0.00    4.00    0.00   104.00     0.00    52.00     0.00    0.00    0.00    0.00   0.00   0.00
sdc               0.00     0.00  101.00    0.00   404.00     0.00     8.00     4.23   41.86   41.86    0.00   9.71  98.10
sdb               0.00     0.00   97.00    0.00   388.00     0.00     8.00     2.32   21.88   21.88    0.00   9.16  88.90
sdd               0.00     0.00   72.00    0.00   288.00     0.00     8.00     1.40   19.12   19.12    0.00   9.40  67.70
md0               0.00     0.00  278.00    0.00  1112.00     0.00     8.00     0.00    0.00    0.00    0.00   0.00   0.00

avg-cpu:  %user   %nice %system %iowait  %steal   %idle
           0.00    0.00    0.03    0.41    0.00   99.56

Device:         rrqm/s   wrqm/s     r/s     w/s    rkB/s    wkB/s avgrq-sz avgqu-sz   await r_await w_await  svctm  %util
nvme0n1           0.00     0.00    0.00    0.00     0.00     0.00     0.00     0.00    0.00    0.00    0.00   0.00   0.00
sda               0.00     8.00    0.00    2.00     0.00    40.00    40.00     0.00    0.00    0.00    0.00   0.00   0.00
sdc               0.00     0.00  116.00    0.00   464.00     0.00     8.00     2.76   23.78   23.78    0.00   7.87  91.30
sdb               0.00     0.00  110.00    0.00   440.00     0.00     8.00     2.45   23.87   23.87    0.00   7.75  85.30
sdd               0.00     0.00  116.00    0.00   464.00     0.00     8.00     2.78   22.91   22.91    0.00   7.70  89.30
md0               0.00     0.00  342.00    0.00  1368.00     0.00     8.00     0.00    0.00    0.00    0.00   0.00   0.00

avg-cpu:  %user   %nice %system %iowait  %steal   %idle
           0.00    0.00    0.06    0.25    0.00   99.69

Device:         rrqm/s   wrqm/s     r/s     w/s    rkB/s    wkB/s avgrq-sz avgqu-sz   await r_await w_await  svctm  %util
nvme0n1           0.00     0.00    0.00    0.00     0.00     0.00     0.00     0.00    0.00    0.00    0.00   0.00   0.00
sda               0.00     0.00    0.00    0.00     0.00     0.00     0.00     0.00    0.00    0.00    0.00   0.00   0.00
sdc               0.00     0.00  125.00    0.00   500.00     0.00     8.00     2.60   20.70   20.70    0.00   7.43  92.90
sdb               0.00     0.00  119.00    0.00   476.00     0.00     8.00     3.15   26.37   26.37    0.00   7.52  89.50
sdd               0.00     0.00  114.00    0.00   456.00     0.00     8.00     2.15   19.96   19.96    0.00   7.63  87.00
md0               0.00     0.00  357.00    0.00  1428.00     0.00     8.00     0.00    0.00    0.00    0.00   0.00   0.00

avg-cpu:  %user   %nice %system %iowait  %steal   %idle
           0.00    0.00    0.03    0.72    0.00   99.25

Device:         rrqm/s   wrqm/s     r/s     w/s    rkB/s    wkB/s avgrq-sz avgqu-sz   await r_await w_await  svctm  %util
nvme0n1           0.00     0.00    0.00    0.00     0.00     0.00     0.00     0.00    0.00    0.00    0.00   0.00   0.00
sda               0.00     0.00    0.00    0.00     0.00     0.00     0.00     0.00    0.00    0.00    0.00   0.00   0.00
sdc               0.00     0.00  104.00    0.00   416.00     0.00     8.00     2.16   20.80   20.80    0.00   8.16  84.90
sdb               0.00     0.00  116.00    0.00   464.00     0.00     8.00     3.13   26.67   26.67    0.00   7.97  92.50
sdd               0.00     0.00  109.00    0.00   436.00     0.00     8.00     1.85   16.59   16.59    0.00   7.99  87.10
md0               0.00     0.00  330.00    0.00  1320.00     0.00     8.00     0.00    0.00    0.00    0.00   0.00   0.00

avg-cpu:  %user   %nice %system %iowait  %steal   %idle
           0.00    0.00    0.06    0.91    0.00   99.03

Device:         rrqm/s   wrqm/s     r/s     w/s    rkB/s    wkB/s avgrq-sz avgqu-sz   await r_await w_await  svctm  %util
nvme0n1           0.00     0.00    0.00    0.00     0.00     0.00     0.00     0.00    0.00    0.00    0.00   0.00   0.00
sda               0.00     0.00    0.00    0.00     0.00     0.00     0.00     0.00    0.00    0.00    0.00   0.00   0.00
sdc               0.00     0.00  123.00    0.00   492.00     0.00     8.00     3.47   27.95   27.95    0.00   7.57  93.10
sdb               0.00     0.00  116.00    0.00   464.00     0.00     8.00     2.38   20.91   20.91    0.00   8.18  94.90
sdd               0.00     0.00  104.00    0.00   416.00     0.00     8.00     2.13   20.63   20.63    0.00   7.98  83.00
md0               0.00     0.00  343.00    0.00  1372.00     0.00     8.00     0.00    0.00    0.00    0.00   0.00   0.00

avg-cpu:  %user   %nice %system %iowait  %steal   %idle
           0.03    0.00    0.03    0.31    0.00   99.62

Device:         rrqm/s   wrqm/s     r/s     w/s    rkB/s    wkB/s avgrq-sz avgqu-sz   await r_await w_await  svctm  %util
nvme0n1           0.00     0.00    0.00    0.00     0.00     0.00     0.00     0.00    0.00    0.00    0.00   0.00   0.00
sda               0.00     0.00    0.00    0.00     0.00     0.00     0.00     0.00    0.00    0.00    0.00   0.00   0.00
sdc               0.00     0.00  130.00    0.00   520.00     0.00     8.00     4.23   32.40   32.40    0.00   7.41  96.30
sdb               0.00     0.00   95.00    0.00   380.00     0.00     8.00     1.77   18.67   18.67    0.00   8.13  77.20
sdd               0.00     0.00   99.00    0.00   396.00     0.00     8.00     1.98   20.07   20.07    0.00   7.87  77.90
md0               0.00     0.00  323.00    0.00  1292.00     0.00     8.00     0.00    0.00    0.00    0.00   0.00   0.00

avg-cpu:  %user   %nice %system %iowait  %steal   %idle
           0.00    0.00    0.06    0.53    0.00   99.41

Device:         rrqm/s   wrqm/s     r/s     w/s    rkB/s    wkB/s avgrq-sz avgqu-sz   await r_await w_await  svctm  %util
nvme0n1           0.00     0.00    0.00    0.00     0.00     0.00     0.00     0.00    0.00    0.00    0.00   0.00   0.00
sda               0.00     0.99    0.00    1.98     0.00    11.88    12.00     0.00    0.00    0.00    0.00   0.00   0.00
sdc               0.00     0.00  119.80    0.00   479.21     0.00     8.00     3.64   29.81   29.81    0.00   7.50  89.80
sdb               0.00     0.00   95.05    0.00   380.20     0.00     8.00     1.31   13.70   13.70    0.00   7.53  71.58
sdd               0.00     0.00  110.89    0.00   443.56     0.00     8.00     2.13   19.44   19.44    0.00   7.68  85.15
md0               0.00     0.00  326.73    0.00  1306.93     0.00     8.00     0.00    0.00    0.00    0.00   0.00   0.00

avg-cpu:  %user   %nice %system %iowait  %steal   %idle
           0.00    0.00    0.03    0.66    0.00   99.31

Device:         rrqm/s   wrqm/s     r/s     w/s    rkB/s    wkB/s avgrq-sz avgqu-sz   await r_await w_await  svctm  %util
nvme0n1           0.00     0.00    0.00    0.00     0.00     0.00     0.00     0.00    0.00    0.00    0.00   0.00   0.00
sda               0.00     0.00    0.00    0.00     0.00     0.00     0.00     0.00    0.00    0.00    0.00   0.00   0.00
sdc               0.00     0.00  124.00    0.00   496.00     0.00     8.00     3.71   29.83   29.83    0.00   7.70  95.50
sdb               0.00     0.00  121.00    0.00   484.00     0.00     8.00     2.43   20.10   20.10    0.00   7.36  89.00
sdd               0.00     0.00  106.00    0.00   424.00     0.00     8.00     1.84   17.11   17.11    0.00   7.63  80.90
md0               0.00     0.00  351.00    0.00  1404.00     0.00     8.00     0.00    0.00    0.00    0.00   0.00   0.00

avg-cpu:  %user   %nice %system %iowait  %steal   %idle
           0.00    0.00    0.06    0.41    0.00   99.53

Device:         rrqm/s   wrqm/s     r/s     w/s    rkB/s    wkB/s avgrq-sz avgqu-sz   await r_await w_await  svctm  %util
nvme0n1           0.00     0.00    0.00    0.00     0.00     0.00     0.00     0.00    0.00    0.00    0.00   0.00   0.00
sda               0.00     0.00    0.00    0.00     0.00     0.00     0.00     0.00    0.00    0.00    0.00   0.00   0.00
sdc               0.00     0.00  117.00    0.00   468.00     0.00     8.00     2.96   26.03   26.03    0.00   7.93  92.80
sdb               0.00     0.00  114.00    0.00   456.00     0.00     8.00     1.74   15.08   15.08    0.00   7.40  84.40
sdd               0.00     0.00  123.00    0.00   492.00     0.00     8.00     3.17   25.85   25.85    0.00   7.58  93.20
md0               0.00     0.00  353.00    0.00  1412.00     0.00     8.00     0.00    0.00    0.00    0.00   0.00   0.00

avg-cpu:  %user   %nice %system %iowait  %steal   %idle
           0.00    0.00    0.06    0.81    0.00   99.12

Device:         rrqm/s   wrqm/s     r/s     w/s    rkB/s    wkB/s avgrq-sz avgqu-sz   await r_await w_await  svctm  %util
nvme0n1           0.00     0.00    0.00    0.00     0.00     0.00     0.00     0.00    0.00    0.00    0.00   0.00   0.00
sda               0.00     0.00    0.00    0.00     0.00     0.00     0.00     0.00    0.00    0.00    0.00   0.00   0.00
sdc               0.00     0.00  117.00    0.00   468.00     0.00     8.00     2.60   22.56   22.56    0.00   7.52  88.00
sdb               0.00     0.00  107.00    0.00   428.00     0.00     8.00     2.50   23.62   23.62    0.00   8.00  85.60
sdd               0.00     0.00  100.00    0.00   400.00     0.00     8.00     1.82   17.27   17.27    0.00   7.69  76.90
md0               0.00     0.00  325.00    0.00  1300.00     0.00     8.00     0.00    0.00    0.00    0.00   0.00   0.00

avg-cpu:  %user   %nice %system %iowait  %steal   %idle
           0.00    0.00    0.03    0.22    0.00   99.75

Device:         rrqm/s   wrqm/s     r/s     w/s    rkB/s    wkB/s avgrq-sz avgqu-sz   await r_await w_await  svctm  %util
nvme0n1           0.00     0.00    0.00    0.00     0.00     0.00     0.00     0.00    0.00    0.00    0.00   0.00   0.00
sda               0.00     0.00    0.00    0.00     0.00     0.00     0.00     0.00    0.00    0.00    0.00   0.00   0.00
sdc               0.00     0.00  118.00    0.00   472.00     0.00     8.00     3.65   30.89   30.89    0.00   8.03  94.70
sdb               0.00     0.00  110.00    0.00   440.00     0.00     8.00     2.39   21.11   21.11    0.00   7.52  82.70
sdd               0.00     0.00  107.00    0.00   428.00     0.00     8.00     1.93   18.94   18.94    0.00   7.75  82.90
md0               0.00     0.00  335.00    0.00  1340.00     0.00     8.00     0.00    0.00    0.00    0.00   0.00   0.00

avg-cpu:  %user   %nice %system %iowait  %steal   %idle
           0.00    0.00    0.03    0.41    0.00   99.56

Device:         rrqm/s   wrqm/s     r/s     w/s    rkB/s    wkB/s avgrq-sz avgqu-sz   await r_await w_await  svctm  %util
nvme0n1           0.00     0.00    0.00    0.00     0.00     0.00     0.00     0.00    0.00    0.00    0.00   0.00   0.00
sda               0.00     1.00    0.00    2.00     0.00    12.00    12.00     0.00    0.50    0.00    0.50   0.50   0.10
sdc               0.00     0.00  116.00    0.00   464.00     0.00     8.00     1.96   17.14   17.14    0.00   7.37  85.50
sdb               0.00     0.00  118.00    0.00   472.00     0.00     8.00     2.48   21.57   21.57    0.00   8.18  96.50
sdd               0.00     0.00  124.00    0.00   496.00     0.00     8.00     3.50   27.23   27.23    0.00   7.36  91.30
md0               0.00     0.00  357.00    0.00  1428.00     0.00     8.00     0.00    0.00    0.00    0.00   0.00   0.00

avg-cpu:  %user   %nice %system %iowait  %steal   %idle
           0.00    0.00    0.06    0.50    0.00   99.44

Device:         rrqm/s   wrqm/s     r/s     w/s    rkB/s    wkB/s avgrq-sz avgqu-sz   await r_await w_await  svctm  %util
nvme0n1           0.00     0.00    0.00    0.00     0.00     0.00     0.00     0.00    0.00    0.00    0.00   0.00   0.00
sda               0.00     0.00    0.00    0.00     0.00     0.00     0.00     0.00    0.00    0.00    0.00   0.00   0.00
sdc               0.00     0.00  107.00    0.00   428.00     0.00     8.00     1.88   17.21   17.21    0.00   7.37  78.90
sdb               0.00     0.00  112.00    0.00   448.00     0.00     8.00     2.10   18.76   18.76    0.00   7.51  84.10
sdd               0.00     0.00  120.00    0.00   480.00     0.00     8.00     2.65   22.11   22.11    0.00   7.18  86.20
md0               0.00     0.00  340.00    0.00  1360.00     0.00     8.00     0.00    0.00    0.00    0.00   0.00   0.00

avg-cpu:  %user   %nice %system %iowait  %steal   %idle
           0.00    0.00    0.06    0.41    0.00   99.53

Device:         rrqm/s   wrqm/s     r/s     w/s    rkB/s    wkB/s avgrq-sz avgqu-sz   await r_await w_await  svctm  %util
nvme0n1           0.00     0.00    0.00    0.00     0.00     0.00     0.00     0.00    0.00    0.00    0.00   0.00   0.00
sda               0.00     0.00    0.00    0.00     0.00     0.00     0.00     0.00    0.00    0.00    0.00   0.00   0.00
sdc               0.00     0.00  108.00    0.00   432.00     0.00     8.00     2.02   19.13   19.13    0.00   8.10  87.50
sdb               0.00     0.00  118.00    0.00   472.00     0.00     8.00     2.54   21.10   21.10    0.00   7.68  90.60
sdd               0.00     0.00  118.00    0.00   472.00     0.00     8.00     3.42   29.47   29.47    0.00   8.10  95.60
md0               0.00     0.00  344.00    0.00  1376.00     0.00     8.00     0.00    0.00    0.00    0.00   0.00   0.00

avg-cpu:  %user   %nice %system %iowait  %steal   %idle
           0.00    0.00    0.03    0.13    0.00   99.84

Device:         rrqm/s   wrqm/s     r/s     w/s    rkB/s    wkB/s avgrq-sz avgqu-sz   await r_await w_await  svctm  %util
nvme0n1           0.00     0.00    0.00    0.00     0.00     0.00     0.00     0.00    0.00    0.00    0.00   0.00   0.00
sda               0.00     0.00    0.00    0.00     0.00     0.00     0.00     0.00    0.00    0.00    0.00   0.00   0.00
sdc               0.00     0.00  111.00    0.00   444.00     0.00     8.00     2.30   20.72   20.72    0.00   7.49  83.10
sdb               0.00     0.00  131.00    0.00   524.00     0.00     8.00     4.05   30.76   30.76    0.00   7.34  96.10
sdd               0.00     0.00   99.00    0.00   396.00     0.00     8.00     1.48   15.51   15.51    0.00   7.80  77.20
md0               0.00     0.00  340.00    0.00  1360.00     0.00     8.00     0.00    0.00    0.00    0.00   0.00   0.00

avg-cpu:  %user   %nice %system %iowait  %steal   %idle
           0.00    0.00    0.06    0.94    0.00   99.00

Device:         rrqm/s   wrqm/s     r/s     w/s    rkB/s    wkB/s avgrq-sz avgqu-sz   await r_await w_await  svctm  %util
nvme0n1           0.00     0.00    0.00    0.00     0.00     0.00     0.00     0.00    0.00    0.00    0.00   0.00   0.00
sda               0.00     0.00    0.00    0.00     0.00     0.00     0.00     0.00    0.00    0.00    0.00   0.00   0.00
sdc               0.00     0.00  105.00    0.00   420.00     0.00     8.00     2.45   23.36   23.36    0.00   7.47  78.40
sdb               0.00     0.00  114.00    0.00   456.00     0.00     8.00     1.96   17.56   17.56    0.00   7.35  83.80
sdd               0.00     0.00  110.00    0.00   440.00     0.00     8.00     2.70   22.82   22.82    0.00   7.22  79.40
md0               0.00     0.00  330.00    0.00  1320.00     0.00     8.00     0.00    0.00    0.00    0.00   0.00   0.00

avg-cpu:  %user   %nice %system %iowait  %steal   %idle
           0.03    0.00    0.03    0.22    0.00   99.72

Device:         rrqm/s   wrqm/s     r/s     w/s    rkB/s    wkB/s avgrq-sz avgqu-sz   await r_await w_await  svctm  %util
nvme0n1           0.00     0.00    0.00    0.00     0.00     0.00     0.00     0.00    0.00    0.00    0.00   0.00   0.00
sda               0.00     1.00    0.00    2.00     0.00    12.00    12.00     0.00    0.00    0.00    0.00   0.00   0.00
sdc               0.00     0.00  101.00    0.00   404.00     0.00     8.00     1.72   16.88   16.88    0.00   8.29  83.70
sdb               0.00     0.00   97.00    0.00   388.00     0.00     8.00     1.66   17.21   17.21    0.00   7.74  75.10
sdd               0.00     0.00  132.00    0.00   528.00     0.00     8.00     4.59   35.84   35.84    0.00   7.51  99.10
md0               0.00     0.00  330.00    0.00  1320.00     0.00     8.00     0.00    0.00    0.00    0.00   0.00   0.00

avg-cpu:  %user   %nice %system %iowait  %steal   %idle
           0.00    0.00    0.03    0.38    0.00   99.59

Device:         rrqm/s   wrqm/s     r/s     w/s    rkB/s    wkB/s avgrq-sz avgqu-sz   await r_await w_await  svctm  %util
nvme0n1           0.00     0.00    0.00    0.00     0.00     0.00     0.00     0.00    0.00    0.00    0.00   0.00   0.00
sda               0.00     0.00    0.00    0.00     0.00     0.00     0.00     0.00    0.00    0.00    0.00   0.00   0.00
sdc               0.00     0.00  119.00    0.00   476.00     0.00     8.00     2.53   21.37   21.37    0.00   7.55  89.90
sdb               0.00     0.00  112.00    0.00   448.00     0.00     8.00     2.81   25.29   25.29    0.00   7.71  86.30
sdd               0.00     0.00  114.00    0.00   456.00     0.00     8.00     2.49   21.22   21.22    0.00   7.92  90.30
md0               0.00     0.00  344.00    0.00  1376.00     0.00     8.00     0.00    0.00    0.00    0.00   0.00   0.00

avg-cpu:  %user   %nice %system %iowait  %steal   %idle
           0.00    0.00    0.03    0.81    0.00   99.16

Device:         rrqm/s   wrqm/s     r/s     w/s    rkB/s    wkB/s avgrq-sz avgqu-sz   await r_await w_await  svctm  %util
nvme0n1           0.00     0.00    0.00    0.00     0.00     0.00     0.00     0.00    0.00    0.00    0.00   0.00   0.00
sda               0.00     0.00    0.00    0.00     0.00     0.00     0.00     0.00    0.00    0.00    0.00   0.00   0.00
sdc               0.00     0.00  101.00    0.00   404.00     0.00     8.00     2.26   22.37   22.37    0.00   7.81  78.90
sdb               0.00     0.00  114.00    0.00   456.00     0.00     8.00     2.60   22.38   22.38    0.00   7.93  90.40
sdd               0.00     0.00  112.00    0.00   448.00     0.00     8.00     2.03   17.92   17.92    0.00   7.38  82.60
md0               0.00     0.00  328.00    0.00  1312.00     0.00     8.00     0.00    0.00    0.00    0.00   0.00   0.00

avg-cpu:  %user   %nice %system %iowait  %steal   %idle
           0.00    0.00    0.06    0.56    0.00   99.38

Device:         rrqm/s   wrqm/s     r/s     w/s    rkB/s    wkB/s avgrq-sz avgqu-sz   await r_await w_await  svctm  %util
nvme0n1           0.00     0.00    0.00    0.00     0.00     0.00     0.00     0.00    0.00    0.00    0.00   0.00   0.00
sda               0.00     0.00    0.00    0.00     0.00     0.00     0.00     0.00    0.00    0.00    0.00   0.00   0.00
sdc               0.00     0.00  106.00    0.00   424.00     0.00     8.00     1.71   16.10   16.10    0.00   7.89  83.60
sdb               0.00     0.00  120.00    0.00   480.00     0.00     8.00     3.31   27.28   27.28    0.00   7.92  95.00
sdd               0.00     0.00  125.00    0.00   500.00     0.00     8.00     2.96   24.18   24.18    0.00   7.60  95.00
md0               0.00     0.00  351.00    0.00  1404.00     0.00     8.00     0.00    0.00    0.00    0.00   0.00   0.00

avg-cpu:  %user   %nice %system %iowait  %steal   %idle
           0.00    0.00    0.03    1.19    0.00   98.78

Device:         rrqm/s   wrqm/s     r/s     w/s    rkB/s    wkB/s avgrq-sz avgqu-sz   await r_await w_await  svctm  %util
nvme0n1           0.00     0.00    0.00    0.00     0.00     0.00     0.00     0.00    0.00    0.00    0.00   0.00   0.00
sda               0.00     0.00    0.00    0.00     0.00     0.00     0.00     0.00    0.00    0.00    0.00   0.00   0.00
sdc               0.00     0.00   96.00    0.00   384.00     0.00     8.00     1.68   16.98   16.98    0.00   8.10  77.80
sdb               0.00     0.00  122.00    0.00   488.00     0.00     8.00     2.78   22.73   22.73    0.00   7.43  90.60
sdd               0.00     0.00  125.00    0.00   500.00     0.00     8.00     3.51   28.78   28.78    0.00   7.70  96.20
md0               0.00     0.00  343.00    0.00  1372.00     0.00     8.00     0.00    0.00    0.00    0.00   0.00   0.00

