Linux 4.17.2 (bench2) 	08/03/2018 	_x86_64_	(32 CPU)

avg-cpu:  %user   %nice %system %iowait  %steal   %idle
           1.91    0.00    1.57    1.54    0.00   94.98

Device:         rrqm/s   wrqm/s     r/s     w/s    rkB/s    wkB/s avgrq-sz avgqu-sz   await r_await w_await  svctm  %util
nvme0n1         948.32     5.15 19117.80  526.37 106937.00 11871.26    12.10     1.36    0.05    0.03    0.67   0.02  40.02
sda               0.12     0.81   14.15    0.58   163.98     8.51    23.43     0.00    0.33    0.32    0.45   0.07   0.10
sdc              33.09     0.14  111.53    0.30  1683.59    82.39    31.58     1.53   13.64   12.68  373.51   0.93  10.36
sdb              31.03     0.15  113.55    0.32  1681.70    82.21    30.98     0.41    3.61    2.51  394.60   0.86   9.84
sdd              33.28     0.13  111.07    0.25  1679.60    81.88    31.65     0.70    6.24    4.51  782.19   0.93  10.36
md0               0.00     0.00  436.41    1.06  6235.98   288.67    29.83     0.00    0.00    0.00    0.00   0.00   0.00

avg-cpu:  %user   %nice %system %iowait  %steal   %idle
           0.03    0.00    0.09   43.64    0.00   56.24

Device:         rrqm/s   wrqm/s     r/s     w/s    rkB/s    wkB/s avgrq-sz avgqu-sz   await r_await w_await  svctm  %util
nvme0n1           0.00     0.00    0.00    0.00     0.00     0.00     0.00     0.00    0.00    0.00    0.00   0.00   0.00
sda               0.00     0.00    4.00    4.00   104.00    20.00    31.00     0.00    0.00    0.00    0.00   0.00   0.00
sdc               0.00     0.00  160.00    0.00   676.00     0.00     8.45     7.91   42.76   42.76    0.00   6.20  99.20
sdb               0.00     0.00  149.00    0.00   656.00     0.00     8.81     6.15   41.30   41.30    0.00   6.13  91.40
sdd               0.00     0.00  140.00    0.00   584.00     0.00     8.34     1.79   12.74   12.74    0.00   5.65  79.10
md0               0.00     0.00  465.00    0.00  1992.00     0.00     8.57     0.00    0.00    0.00    0.00   0.00   0.00

avg-cpu:  %user   %nice %system %iowait  %steal   %idle
           0.00    0.00    0.06   35.27    0.00   64.67

Device:         rrqm/s   wrqm/s     r/s     w/s    rkB/s    wkB/s avgrq-sz avgqu-sz   await r_await w_await  svctm  %util
nvme0n1           0.00     0.00    0.00    0.00     0.00     0.00     0.00     0.00    0.00    0.00    0.00   0.00   0.00
sda               0.00     0.00    0.00    0.00     0.00     0.00     0.00     0.00    0.00    0.00    0.00   0.00   0.00
sdc               0.00     0.00  162.00    0.00   732.00     0.00     9.04     9.81   67.20   67.20    0.00   6.12  99.10
sdb               0.00     0.00  147.00    0.00   600.00     0.00     8.16     1.76   11.95   11.95    0.00   4.61  67.70
sdd               0.00     0.00  151.00    0.00   640.00     0.00     8.48     1.28    8.50    8.50    0.00   4.17  62.90
md0               0.00     0.00  446.00    0.00  1904.00     0.00     8.54     0.00    0.00    0.00    0.00   0.00   0.00

avg-cpu:  %user   %nice %system %iowait  %steal   %idle
           0.00    0.00    0.06   45.39    0.00   54.55

Device:         rrqm/s   wrqm/s     r/s     w/s    rkB/s    wkB/s avgrq-sz avgqu-sz   await r_await w_await  svctm  %util
nvme0n1           0.00     0.00    0.00    0.00     0.00     0.00     0.00     0.00    0.00    0.00    0.00   0.00   0.00
sda               0.00     0.00    0.00    0.00     0.00     0.00     0.00     0.00    0.00    0.00    0.00   0.00   0.00
sdc               0.00     0.00  179.00    0.00   776.00     0.00     8.67     5.56   30.48   30.48    0.00   5.32  95.20
sdb               0.00     0.00  187.00    0.00   760.00     0.00     8.13     3.41   18.18   18.18    0.00   4.60  86.10
sdd               0.00     0.00  178.00    0.00   748.00     0.00     8.40     6.45   32.45   32.45    0.00   5.48  97.50
md0               0.00     0.00  558.00    0.00  2340.00     0.00     8.39     0.00    0.00    0.00    0.00   0.00   0.00

avg-cpu:  %user   %nice %system %iowait  %steal   %idle
           0.00    0.00    0.06   38.56    0.00   61.38

Device:         rrqm/s   wrqm/s     r/s     w/s    rkB/s    wkB/s avgrq-sz avgqu-sz   await r_await w_await  svctm  %util
nvme0n1           0.00     0.00    0.00    0.00     0.00     0.00     0.00     0.00    0.00    0.00    0.00   0.00   0.00
sda               0.00     8.00    0.00    2.00     0.00    40.00    40.00     0.00    0.00    0.00    0.00   0.00   0.00
sdc               0.00     0.00  163.00    0.00   652.00     0.00     8.00     2.65   15.20   15.20    0.00   4.77  77.70
sdb               0.00     0.00  195.00    0.00   856.00     0.00     8.78     4.93   23.60   23.60    0.00   5.02  97.90
sdd               0.00     0.00  198.00    0.00   912.00     0.00     9.21     5.51   31.19   31.19    0.00   4.56  90.30
md0               0.00     0.00  556.00    0.00  2428.00     0.00     8.73     0.00    0.00    0.00    0.00   0.00   0.00

avg-cpu:  %user   %nice %system %iowait  %steal   %idle
           0.00    0.00    0.06   45.57    0.00   54.36

Device:         rrqm/s   wrqm/s     r/s     w/s    rkB/s    wkB/s avgrq-sz avgqu-sz   await r_await w_await  svctm  %util
nvme0n1           0.00     0.00    0.00    0.00     0.00     0.00     0.00     0.00    0.00    0.00    0.00   0.00   0.00
sda               0.00     0.00    0.00    0.00     0.00     0.00     0.00     0.00    0.00    0.00    0.00   0.00   0.00
sdc               0.00     0.00  202.00    0.00   808.00     0.00     8.00     6.62   34.09   34.09    0.00   4.89  98.80
sdb               0.00     0.00  195.00    0.00   792.00     0.00     8.12     5.48   29.17   29.17    0.00   4.86  94.80
sdd               0.00     0.00  188.00    0.00   800.00     0.00     8.51     3.44   18.27   18.27    0.00   4.90  92.20
md0               0.00     0.00  579.00    0.00  2388.00     0.00     8.25     0.00    0.00    0.00    0.00   0.00   0.00

avg-cpu:  %user   %nice %system %iowait  %steal   %idle
           0.03    0.00    0.09   38.16    0.00   61.72

Device:         rrqm/s   wrqm/s     r/s     w/s    rkB/s    wkB/s avgrq-sz avgqu-sz   await r_await w_await  svctm  %util
nvme0n1           0.00     0.00    0.00    0.00     0.00     0.00     0.00     0.00    0.00    0.00    0.00   0.00   0.00
sda               0.00     1.00    0.00    2.00     0.00    32.00    32.00     0.00    0.00    0.00    0.00   0.00   0.00
sdc               0.00     0.00  193.00    0.00   856.00     0.00     8.87     5.77   29.34   29.34    0.00   5.10  98.50
sdb               0.00     0.00  190.00    0.00   796.00     0.00     8.38     4.04   21.93   21.93    0.00   4.49  85.30
sdd               0.00     0.00  184.00    0.00   772.00     0.00     8.39     3.21   15.24   15.24    0.00   4.51  83.00
md0               0.00     0.00  573.00    0.00  2448.00     0.00     8.54     0.00    0.00    0.00    0.00   0.00   0.00

avg-cpu:  %user   %nice %system %iowait  %steal   %idle
           0.00    0.00    0.03   37.66    0.00   62.31

Device:         rrqm/s   wrqm/s     r/s     w/s    rkB/s    wkB/s avgrq-sz avgqu-sz   await r_await w_await  svctm  %util
nvme0n1           0.00     0.00    0.00    0.00     0.00     0.00     0.00     0.00    0.00    0.00    0.00   0.00   0.00
sda               0.00     0.00    0.00    0.00     0.00     0.00     0.00     0.00    0.00    0.00    0.00   0.00   0.00
sdc               0.00     0.00  189.00    0.00   816.00     0.00     8.63     4.65   23.83   23.83    0.00   4.82  91.10
sdb               0.00     0.00  192.00    0.00   768.00     0.00     8.00     4.66   23.26   23.26    0.00   4.65  89.30
sdd               0.00     0.00  184.00    0.00   828.00     0.00     9.00     3.48   21.01   21.01    0.00   4.93  90.80
md0               0.00     0.00  565.00    0.00  2404.00     0.00     8.51     0.00    0.00    0.00    0.00   0.00   0.00

avg-cpu:  %user   %nice %system %iowait  %steal   %idle
           0.00    0.00    0.06   46.72    0.00   53.22

Device:         rrqm/s   wrqm/s     r/s     w/s    rkB/s    wkB/s avgrq-sz avgqu-sz   await r_await w_await  svctm  %util
nvme0n1           0.00     0.00    0.00    0.00     0.00     0.00     0.00     0.00    0.00    0.00    0.00   0.00   0.00
sda               0.00     0.00    0.00    0.00     0.00     0.00     0.00     0.00    0.00    0.00    0.00   0.00   0.00
sdc               0.00     0.00  221.00    0.00   920.00     0.00     8.33     5.17   24.28   24.28    0.00   4.51  99.60
sdb               0.00     0.00  223.00    0.00   988.00     0.00     8.86     5.49   25.19   25.19    0.00   4.48 100.00
sdd               0.00     0.00  213.00    0.00   912.00     0.00     8.56     5.31   24.61   24.61    0.00   4.68  99.60
md0               0.00     0.00  657.00    0.00  2820.00     0.00     8.58     0.00    0.00    0.00    0.00   0.00   0.00

avg-cpu:  %user   %nice %system %iowait  %steal   %idle
           0.00    0.00    0.09   39.20    0.00   60.71

Device:         rrqm/s   wrqm/s     r/s     w/s    rkB/s    wkB/s avgrq-sz avgqu-sz   await r_await w_await  svctm  %util
nvme0n1           0.00     0.00    0.00    0.00     0.00     0.00     0.00     0.00    0.00    0.00    0.00   0.00   0.00
sda               0.00     3.00    0.00    2.00     0.00    20.00    20.00     0.00    0.00    0.00    0.00   0.00   0.00
sdc               0.00     0.00  189.00    0.00   816.00     0.00     8.63     2.87   14.83   14.83    0.00   4.27  80.70
sdb               0.00     0.00  217.00    0.00   928.00     0.00     8.55     5.18   23.77   23.77    0.00   4.12  89.30
sdd               0.00     0.00  198.00    0.00   908.00     0.00     9.17     5.29   26.23   26.23    0.00   4.93  97.60
md0               0.00     0.00  604.00    0.00  2652.00     0.00     8.78     0.00    0.00    0.00    0.00   0.00   0.00

avg-cpu:  %user   %nice %system %iowait  %steal   %idle
           0.00    0.00    0.06   40.24    0.00   59.69

Device:         rrqm/s   wrqm/s     r/s     w/s    rkB/s    wkB/s avgrq-sz avgqu-sz   await r_await w_await  svctm  %util
nvme0n1           0.00     0.00    0.00    0.00     0.00     0.00     0.00     0.00    0.00    0.00    0.00   0.00   0.00
sda               0.00     0.00    0.00    0.00     0.00     0.00     0.00     0.00    0.00    0.00    0.00   0.00   0.00
sdc               0.00     0.00  164.00    0.00   800.00     0.00     9.76     2.65   16.86   16.86    0.00   4.78  78.40
sdb               0.00     0.00  171.00    0.00   696.00     0.00     8.14     3.45   20.75   20.75    0.00   4.68  80.10
sdd               0.00     0.00  188.00    0.00   764.00     0.00     8.13     7.39   40.07   40.07    0.00   5.32 100.00
md0               0.00     0.00  510.00    0.00  2208.00     0.00     8.66     0.00    0.00    0.00    0.00   0.00   0.00

avg-cpu:  %user   %nice %system %iowait  %steal   %idle
           0.03    0.00    0.06   45.53    0.00   54.38

Device:         rrqm/s   wrqm/s     r/s     w/s    rkB/s    wkB/s avgrq-sz avgqu-sz   await r_await w_await  svctm  %util
nvme0n1           0.00     0.00    0.00    0.00     0.00     0.00     0.00     0.00    0.00    0.00    0.00   0.00   0.00
sda               0.00     0.00    0.00    0.00     0.00     0.00     0.00     0.00    0.00    0.00    0.00   0.00   0.00
sdc               0.00     0.00  167.00    0.00   704.00     0.00     8.43     1.75    9.83    9.83    0.00   4.72  78.80
sdb               0.00     0.00  236.00    0.00   968.00     0.00     8.20     9.48   40.09   40.09    0.00   4.17  98.30
sdd               0.00     0.00  189.00    0.00   780.00     0.00     8.25     4.25   21.40   21.40    0.00   4.74  89.60
md0               0.00     0.00  605.00    0.00  2504.00     0.00     8.28     0.00    0.00    0.00    0.00   0.00   0.00

avg-cpu:  %user   %nice %system %iowait  %steal   %idle
           0.00    0.00    0.03   38.15    0.00   61.82

Device:         rrqm/s   wrqm/s     r/s     w/s    rkB/s    wkB/s avgrq-sz avgqu-sz   await r_await w_await  svctm  %util
nvme0n1           0.00     0.00    0.00    0.00     0.00     0.00     0.00     0.00    0.00    0.00    0.00   0.00   0.00
sda               0.00     0.00    0.00    0.00     0.00     0.00     0.00     0.00    0.00    0.00    0.00   0.00   0.00
sdc               0.00     0.00  183.00    0.00   776.00     0.00     8.48     4.15   23.20   23.20    0.00   5.04  92.30
sdb               0.00     0.00  171.00    0.00   696.00     0.00     8.14     4.75   25.63   25.63    0.00   5.00  85.50
sdd               0.00     0.00  191.00    0.00   836.00     0.00     8.75     4.10   22.51   22.51    0.00   4.77  91.10
md0               0.00     0.00  545.00    0.00  2312.00     0.00     8.48     0.00    0.00    0.00    0.00   0.00   0.00

avg-cpu:  %user   %nice %system %iowait  %steal   %idle
           0.00    0.00    0.06   45.54    0.00   54.39

Device:         rrqm/s   wrqm/s     r/s     w/s    rkB/s    wkB/s avgrq-sz avgqu-sz   await r_await w_await  svctm  %util
nvme0n1           0.00     0.00    0.00    0.00     0.00     0.00     0.00     0.00    0.00    0.00    0.00   0.00   0.00
sda               0.00     0.00    0.00    0.00     0.00     0.00     0.00     0.00    0.00    0.00    0.00   0.00   0.00
sdc               0.00     0.00  209.00    0.00   872.00     0.00     8.34     4.74   22.33   22.33    0.00   4.78  99.80
sdb               0.00     0.00  224.00    0.00  1004.00     0.00     8.96     6.04   28.71   28.71    0.00   4.40  98.50
sdd               0.00     0.00  208.00    0.00   868.00     0.00     8.35     4.82   22.96   22.96    0.00   4.58  95.30
md0               0.00     0.00  636.00    0.00  2724.00     0.00     8.57     0.00    0.00    0.00    0.00   0.00   0.00

avg-cpu:  %user   %nice %system %iowait  %steal   %idle
           0.00    0.00    0.06   41.26    0.00   58.67

Device:         rrqm/s   wrqm/s     r/s     w/s    rkB/s    wkB/s avgrq-sz avgqu-sz   await r_await w_await  svctm  %util
nvme0n1           0.00     0.00    0.00    0.00     0.00     0.00     0.00     0.00    0.00    0.00    0.00   0.00   0.00
sda               0.00     1.00    0.00    2.00     0.00    12.00    12.00     0.00    0.50    0.00    0.50   0.50   0.10
sdc               0.00     0.00  188.00    0.00   776.00     0.00     8.26     5.86   31.03   31.03    0.00   5.00  94.00
sdb               0.00     0.00  172.00    0.00   712.00     0.00     8.28     2.96   16.35   16.35    0.00   4.94  85.00
sdd               0.00     0.00  215.00    0.00  1028.00     0.00     9.56     5.42   25.17   25.17    0.00   4.51  97.00
md0               0.00     0.00  580.00    0.00  2548.00     0.00     8.79     0.00    0.00    0.00    0.00   0.00   0.00

avg-cpu:  %user   %nice %system %iowait  %steal   %idle
           0.00    0.00    0.09   38.43    0.00   61.48

Device:         rrqm/s   wrqm/s     r/s     w/s    rkB/s    wkB/s avgrq-sz avgqu-sz   await r_await w_await  svctm  %util
nvme0n1           0.00     0.00    0.00    0.00     0.00     0.00     0.00     0.00    0.00    0.00    0.00   0.00   0.00
sda               0.00     0.00    0.00    0.00     0.00     0.00     0.00     0.00    0.00    0.00    0.00   0.00   0.00
sdc               0.00     0.00  198.00    0.00   972.00     0.00     9.82     4.55   23.43   23.43    0.00   4.64  91.90
sdb               0.00     0.00  193.00    0.00   784.00     0.00     8.12     4.32   22.63   22.63    0.00   4.75  91.60
sdd               0.00     0.00  200.00    0.00   860.00     0.00     8.60     4.08   18.03   18.03    0.00   4.62  92.50
md0               0.00     0.00  591.00    0.00  2604.00     0.00     8.81     0.00    0.00    0.00    0.00   0.00   0.00

avg-cpu:  %user   %nice %system %iowait  %steal   %idle
           0.00    0.00    0.06   45.59    0.00   54.35

Device:         rrqm/s   wrqm/s     r/s     w/s    rkB/s    wkB/s avgrq-sz avgqu-sz   await r_await w_await  svctm  %util
nvme0n1           0.00     0.00    0.00    0.00     0.00     0.00     0.00     0.00    0.00    0.00    0.00   0.00   0.00
sda               0.00     0.00    0.00    0.00     0.00     0.00     0.00     0.00    0.00    0.00    0.00   0.00   0.00
sdc               0.00     0.00  205.00    0.00   880.00     0.00     8.59     4.77   23.07   23.07    0.00   4.40  90.20
sdb               0.00     0.00  222.00    0.00   948.00     0.00     8.54     5.96   26.99   26.99    0.00   4.42  98.20
sdd               0.00     0.00  193.00    0.00   832.00     0.00     8.62     4.92   28.38   28.38    0.00   4.97  96.00
md0               0.00     0.00  617.00    0.00  2708.00     0.00     8.78     0.00    0.00    0.00    0.00   0.00   0.00

avg-cpu:  %user   %nice %system %iowait  %steal   %idle
           0.03    0.00    0.06   41.15    0.00   58.76

Device:         rrqm/s   wrqm/s     r/s     w/s    rkB/s    wkB/s avgrq-sz avgqu-sz   await r_await w_await  svctm  %util
nvme0n1           0.00     0.00    0.00    0.00     0.00     0.00     0.00     0.00    0.00    0.00    0.00   0.00   0.00
sda               0.00     0.00    0.00    0.00     0.00     0.00     0.00     0.00    0.00    0.00    0.00   0.00   0.00
sdc               0.00     0.00  207.00    0.00   864.00     0.00     8.35     5.10   24.29   24.29    0.00   4.58  94.90
sdb               0.00     0.00  189.00    0.00   840.00     0.00     8.89     4.34   22.54   22.54    0.00   4.88  92.30
sdd               0.00     0.00  211.00    0.00   892.00     0.00     8.45     4.67   22.19   22.19    0.00   4.66  98.30
md0               0.00     0.00  610.00    0.00  2548.00     0.00     8.35     0.00    0.00    0.00    0.00   0.00   0.00

avg-cpu:  %user   %nice %system %iowait  %steal   %idle
           0.00    0.00    0.06   38.42    0.00   61.52

Device:         rrqm/s   wrqm/s     r/s     w/s    rkB/s    wkB/s avgrq-sz avgqu-sz   await r_await w_await  svctm  %util
nvme0n1           0.00     0.00    0.00    0.00     0.00     0.00     0.00     0.00    0.00    0.00    0.00   0.00   0.00
sda               0.00     0.00    0.00    0.00     0.00     0.00     0.00     0.00    0.00    0.00    0.00   0.00   0.00
sdc               0.00     0.00  202.00    0.00   840.00     0.00     8.32     5.66   27.87   27.87    0.00   4.94  99.80
sdb               0.00     0.00  201.00    0.00  1192.00     0.00    11.86     6.13   31.04   31.04    0.00   4.61  92.70
sdd               0.00     0.00  173.00    0.00   740.00     0.00     8.55     1.43    8.23    8.23    0.00   3.82  66.10
md0               0.00     0.00  576.00    0.00  2784.00     0.00     9.67     0.00    0.00    0.00    0.00   0.00   0.00

avg-cpu:  %user   %nice %system %iowait  %steal   %idle
           0.00    0.00    0.06   45.92    0.00   54.02

Device:         rrqm/s   wrqm/s     r/s     w/s    rkB/s    wkB/s avgrq-sz avgqu-sz   await r_await w_await  svctm  %util
nvme0n1           0.00     0.00    0.00    0.00     0.00     0.00     0.00     0.00    0.00    0.00    0.00   0.00   0.00
sda               0.00     1.00    0.00    2.00     0.00    12.00    12.00     0.00    0.00    0.00    0.00   0.00   0.00
sdc               0.00     0.00  198.00    0.00   864.00     0.00     8.73     4.80   25.04   25.04    0.00   4.94  97.90
sdb               0.00     0.00  223.00    0.00   964.00     0.00     8.65     6.53   28.30   28.30    0.00   4.46  99.50
sdd               0.00     0.00  202.00    0.00   868.00     0.00     8.59     4.36   21.53   21.53    0.00   4.76  96.20
md0               0.00     0.00  619.00    0.00  2680.00     0.00     8.66     0.00    0.00    0.00    0.00   0.00   0.00

avg-cpu:  %user   %nice %system %iowait  %steal   %idle
           0.00    0.00    0.09   37.17    0.00   62.74

Device:         rrqm/s   wrqm/s     r/s     w/s    rkB/s    wkB/s avgrq-sz avgqu-sz   await r_await w_await  svctm  %util
nvme0n1           0.00     0.00    0.00    0.00     0.00     0.00     0.00     0.00    0.00    0.00    0.00   0.00   0.00
sda               0.00     0.00    0.00    0.00     0.00     0.00     0.00     0.00    0.00    0.00    0.00   0.00   0.00
sdc               0.00     0.00  166.00    0.00   688.00     0.00     8.29     2.34   13.14   13.14    0.00   4.43  73.60
sdb               0.00     0.00  189.00    0.00   924.00     0.00     9.78     4.85   26.35   26.35    0.00   4.97  93.90
sdd               0.00     0.00  179.00    0.00   812.00     0.00     9.07     5.69   31.72   31.72    0.00   4.50  80.60
md0               0.00     0.00  538.00    0.00  2440.00     0.00     9.07     0.00    0.00    0.00    0.00   0.00   0.00

