Linux 4.17.2 (bench2) 	08/03/2018 	_x86_64_	(32 CPU)

avg-cpu:  %user   %nice %system %iowait  %steal   %idle
           1.93    0.00    1.58    1.50    0.00   95.00

Device:         rrqm/s   wrqm/s     r/s     w/s    rkB/s    wkB/s avgrq-sz avgqu-sz   await r_await w_await  svctm  %util
nvme0n1         960.24     5.22 19357.96  532.98 108280.35 12020.39    12.10     1.38    0.05    0.03    0.67   0.02  40.52
sda               0.11     0.81   14.11    0.57   163.84     8.50    23.48     0.00    0.33    0.32    0.46   0.07   0.10
sdc              32.20     0.14  103.55    0.30  1554.99    83.42    31.55     1.46   14.03   12.99  373.51   0.95   9.82
sdb              30.11     0.15  105.60    0.32  1553.15    83.24    30.90     0.33    3.15    1.95  394.60   0.88   9.33
sdd              32.40     0.13  103.10    0.25  1551.03    82.91    31.62     0.62    5.98    4.09  782.19   0.95   9.82
md0               0.00     0.00  409.85    1.07  5734.11   292.29    29.33     0.00    0.00    0.00    0.00   0.00   0.00

avg-cpu:  %user   %nice %system %iowait  %steal   %idle
           0.00    0.00    0.00    0.03    0.00   99.97

Device:         rrqm/s   wrqm/s     r/s     w/s    rkB/s    wkB/s avgrq-sz avgqu-sz   await r_await w_await  svctm  %util
nvme0n1           0.00     0.00    0.00    0.00     0.00     0.00     0.00     0.00    0.00    0.00    0.00   0.00   0.00
sda               0.00     0.00   18.00    0.00    76.00     0.00     8.44     0.00    0.00    0.00    0.00   0.00   0.00
sdc               0.00     0.00   80.00    0.00   320.00     0.00     8.00     1.40   17.64   17.64    0.00   7.81  62.50
sdb               0.00     0.00   73.00    0.00   292.00     0.00     8.00     1.22   16.86   16.86    0.00   7.90  57.70
sdd               0.00     0.00   79.00    0.00   316.00     0.00     8.00     1.41   17.97   17.97    0.00   7.92  62.60
md0               0.00     0.00  232.00    0.00   928.00     0.00     8.00     0.00    0.00    0.00    0.00   0.00   0.00

avg-cpu:  %user   %nice %system %iowait  %steal   %idle
           0.00    0.00    0.00    0.00    0.00  100.00

Device:         rrqm/s   wrqm/s     r/s     w/s    rkB/s    wkB/s avgrq-sz avgqu-sz   await r_await w_await  svctm  %util
nvme0n1           0.00     0.00    0.00    0.00     0.00     0.00     0.00     0.00    0.00    0.00    0.00   0.00   0.00
sda               0.00     0.00    0.00    0.00     0.00     0.00     0.00     0.00    0.00    0.00    0.00   0.00   0.00
sdc               0.00     0.00   84.00    0.00   336.00     0.00     8.00     1.42   16.96   16.96    0.00   7.87  66.10
sdb               0.00     0.00   87.00    0.00   348.00     0.00     8.00     1.58   17.80   17.80    0.00   8.16  71.00
sdd               0.00     0.00   84.00    0.00   336.00     0.00     8.00     1.36   16.18   16.18    0.00   7.86  66.00
md0               0.00     0.00  248.00    0.00   992.00     0.00     8.00     0.00    0.00    0.00    0.00   0.00   0.00

avg-cpu:  %user   %nice %system %iowait  %steal   %idle
           0.00    0.00    0.03    0.03    0.00   99.94

Device:         rrqm/s   wrqm/s     r/s     w/s    rkB/s    wkB/s avgrq-sz avgqu-sz   await r_await w_await  svctm  %util
nvme0n1           0.00     0.00    0.00    0.00     0.00     0.00     0.00     0.00    0.00    0.00    0.00   0.00   0.00
sda               0.00    15.00    0.00   16.00     0.00   132.00    16.50     0.00    0.00    0.00    0.00   0.00   0.00
sdc               0.00     0.00   67.00    0.00   268.00     0.00     8.00     1.13   16.82   16.82    0.00   7.79  52.20
sdb               0.00     0.00   82.00    0.00   328.00     0.00     8.00     1.54   19.07   19.07    0.00   8.18  67.10
sdd               0.00     0.00   76.00    0.00   304.00     0.00     8.00     1.36   17.78   17.78    0.00   8.17  62.10
md0               0.00     0.00  232.00    0.00   928.00     0.00     8.00     0.00    0.00    0.00    0.00   0.00   0.00

avg-cpu:  %user   %nice %system %iowait  %steal   %idle
           0.00    0.00    0.00    0.00    0.00  100.03

Device:         rrqm/s   wrqm/s     r/s     w/s    rkB/s    wkB/s avgrq-sz avgqu-sz   await r_await w_await  svctm  %util
nvme0n1           0.00     0.00    0.00    0.00     0.00     0.00     0.00     0.00    0.00    0.00    0.00   0.00   0.00
sda               0.00     0.00    0.00    0.00     0.00     0.00     0.00     0.00    0.00    0.00    0.00   0.00   0.00
sdc               0.00     0.00   82.00    0.00   328.00     0.00     8.00     1.44   17.60   17.60    0.00   8.26  67.70
sdb               0.00     0.00   84.00    0.00   336.00     0.00     8.00     1.50   17.94   17.94    0.00   8.49  71.30
sdd               0.00     0.00   82.00    0.00   328.00     0.00     8.00     1.29   15.78   15.78    0.00   7.61  62.40
md0               0.00     0.00  248.00    0.00   992.00     0.00     8.00     0.00    0.00    0.00    0.00   0.00   0.00

avg-cpu:  %user   %nice %system %iowait  %steal   %idle
           0.00    0.00    0.03    0.12    0.00   99.84

Device:         rrqm/s   wrqm/s     r/s     w/s    rkB/s    wkB/s avgrq-sz avgqu-sz   await r_await w_await  svctm  %util
nvme0n1           0.00     0.00    0.00    0.00     0.00     0.00     0.00     0.00    0.00    0.00    0.00   0.00   0.00
sda               0.00     0.00    0.00    0.00     0.00     0.00     0.00     0.00    0.00    0.00    0.00   0.00   0.00
sdc               0.00     0.00   66.00    0.00   264.00     0.00     8.00     1.02   14.86   14.86    0.00   8.02  52.90
sdb               0.00     0.00   84.00    0.00   336.00     0.00     8.00     1.41   16.85   16.85    0.00   7.52  63.20
sdd               0.00     0.00   89.00    0.00   356.00     0.00     8.00     1.59   17.92   17.92    0.00   7.84  69.80
md0               0.00     0.00  232.00    0.00   928.00     0.00     8.00     0.00    0.00    0.00    0.00   0.00   0.00

