Linux 4.17.2 (bench2) 	08/03/2018 	_x86_64_	(32 CPU)

avg-cpu:  %user   %nice %system %iowait  %steal   %idle
           1.92    0.00    1.57    1.53    0.00   94.98

Device:         rrqm/s   wrqm/s     r/s     w/s    rkB/s    wkB/s avgrq-sz avgqu-sz   await r_await w_await  svctm  %util
nvme0n1         950.37     5.16 19159.02  527.51 107167.59 11896.86    12.10     1.36    0.05    0.03    0.67   0.02  40.11
sda               0.11     0.81   14.14    0.57   163.99     8.51    23.44     0.00    0.33    0.32    0.45   0.07   0.10
sdc              33.05     0.14  110.23    0.30  1654.35    82.57    31.43     1.51   13.70   12.73  373.51   0.93  10.26
sdb              30.98     0.15  112.26    0.32  1652.47    82.39    30.82     0.40    3.54    2.43  394.60   0.87   9.75
sdd              33.24     0.13  109.77    0.25  1650.36    82.06    31.49     0.68    6.20    4.44  782.19   0.93  10.26
md0               0.00     0.00  432.38    1.06  6118.32   289.29    29.57     0.00    0.00    0.00    0.00   0.00   0.00

avg-cpu:  %user   %nice %system %iowait  %steal   %idle
           0.03    0.00    0.19    2.25    0.00   97.53

Device:         rrqm/s   wrqm/s     r/s     w/s    rkB/s    wkB/s avgrq-sz avgqu-sz   await r_await w_await  svctm  %util
nvme0n1           0.00     0.00    0.00    0.00     0.00     0.00     0.00     0.00    0.00    0.00    0.00   0.00   0.00
sda               0.00     0.00    4.00    0.00   104.00     0.00    52.00     0.00    0.50    0.50    0.00   0.50   0.20
sdc               1.00     0.00  238.00    0.00  4456.00     0.00    37.45     0.88    3.69    3.69    0.00   1.82  43.20
sdb               0.00     0.00  225.00    0.00  5056.00     0.00    44.94     1.00    4.43    4.43    0.00   2.23  50.10
sdd               1.00     0.00  235.00    0.00  3648.00     0.00    31.05     1.30    5.54    5.54    0.00   2.38  56.00
md0               0.00     0.00  708.00    0.00 14764.00     0.00    41.71     0.00    0.00    0.00    0.00   0.00   0.00

avg-cpu:  %user   %nice %system %iowait  %steal   %idle
           0.03    0.00    0.31    2.81    0.00   96.84

Device:         rrqm/s   wrqm/s     r/s     w/s    rkB/s    wkB/s avgrq-sz avgqu-sz   await r_await w_await  svctm  %util
nvme0n1           0.00     0.00    0.00    0.00     0.00     0.00     0.00     0.00    0.00    0.00    0.00   0.00   0.00
sda               0.00     0.00    0.00    0.00     0.00     0.00     0.00     0.00    0.00    0.00    0.00   0.00   0.00
sdc               0.00     0.00  296.00    0.00  4660.00     0.00    31.49     1.32    4.47    4.47    0.00   1.94  57.50
sdb               0.00     0.00  278.00    0.00  2896.00     0.00    20.83     1.24    4.41    4.41    0.00   2.03  56.40
sdd               0.00     0.00  259.00    0.00  4536.00     0.00    35.03     0.99    3.82    3.82    0.00   1.88  48.80
md0               0.00     0.00  831.00    0.00 13312.00     0.00    32.04     0.00    0.00    0.00    0.00   0.00   0.00

avg-cpu:  %user   %nice %system %iowait  %steal   %idle
           0.00    0.00    0.19    2.56    0.00   97.25

Device:         rrqm/s   wrqm/s     r/s     w/s    rkB/s    wkB/s avgrq-sz avgqu-sz   await r_await w_await  svctm  %util
nvme0n1           0.00     0.00    0.00    0.00     0.00     0.00     0.00     0.00    0.00    0.00    0.00   0.00   0.00
sda               0.00     0.00    0.00    0.00     0.00     0.00     0.00     0.00    0.00    0.00    0.00   0.00   0.00
sdc               0.00     0.00  279.00    0.00  3324.00     0.00    23.83     1.16    4.15    4.15    0.00   1.81  50.60
sdb               0.00     0.00  268.00    0.00  2596.00     0.00    19.37     0.81    3.10    3.10    0.00   1.49  39.90
sdd               0.00     0.00  234.00    0.00  3900.00     0.00    33.33     1.27    5.38    5.38    0.00   2.49  58.30
md0               0.00     0.00  782.00    0.00 10680.00     0.00    27.31     0.00    0.00    0.00    0.00   0.00   0.00

avg-cpu:  %user   %nice %system %iowait  %steal   %idle
           0.00    0.00    0.16    2.97    0.00   96.87

Device:         rrqm/s   wrqm/s     r/s     w/s    rkB/s    wkB/s avgrq-sz avgqu-sz   await r_await w_await  svctm  %util
nvme0n1           0.00     0.00    0.00    0.00     0.00     0.00     0.00     0.00    0.00    0.00    0.00   0.00   0.00
sda               0.00    12.00    0.00    2.00     0.00    56.00    56.00     0.00    0.50    0.00    0.50   0.50   0.10
sdc               2.00     0.00  229.00    0.00  3520.00     0.00    30.74     1.07    4.69    4.69    0.00   2.11  48.40
sdb               0.00     0.00  241.00    0.00  3876.00     0.00    32.17     1.07    4.45    4.45    0.00   2.22  53.50
sdd               1.00     0.00  273.00    0.00  5488.00     0.00    40.21     1.37    5.04    5.04    0.00   2.16  59.10
md0               0.00     0.00  744.00    0.00 15176.00     0.00    40.80     0.00    0.00    0.00    0.00   0.00   0.00

avg-cpu:  %user   %nice %system %iowait  %steal   %idle
           0.03    0.00    0.22    1.94    0.00   97.81

Device:         rrqm/s   wrqm/s     r/s     w/s    rkB/s    wkB/s avgrq-sz avgqu-sz   await r_await w_await  svctm  %util
nvme0n1           0.00     0.00    0.00    0.00     0.00     0.00     0.00     0.00    0.00    0.00    0.00   0.00   0.00
sda               0.00     0.00    0.00    0.00     0.00     0.00     0.00     0.00    0.00    0.00    0.00   0.00   0.00
sdc               0.00     0.00  192.00    0.00  2612.00     0.00    27.21     1.28    6.66    6.66    0.00   3.39  65.00
sdb               0.00     0.00  251.00    0.00  3680.00     0.00    29.32     0.99    3.92    3.92    0.00   1.84  46.20
sdd               0.00     0.00  233.00    0.00  3352.00     0.00    28.77     0.69    3.03    3.03    0.00   1.60  37.20
md0               0.00     0.00  679.00    0.00 11008.00     0.00    32.42     0.00    0.00    0.00    0.00   0.00   0.00

avg-cpu:  %user   %nice %system %iowait  %steal   %idle
           0.03    0.00    0.16    1.41    0.00   98.41

Device:         rrqm/s   wrqm/s     r/s     w/s    rkB/s    wkB/s avgrq-sz avgqu-sz   await r_await w_await  svctm  %util
nvme0n1           0.00     0.00    0.00    0.00     0.00     0.00     0.00     0.00    0.00    0.00    0.00   0.00   0.00
sda               0.00     0.00    0.00    0.00     0.00     0.00     0.00     0.00    0.00    0.00    0.00   0.00   0.00
sdc               0.00     0.00  302.00    0.00  4116.00     0.00    27.26     1.22    4.05    4.05    0.00   1.67  50.40
sdb               0.00     0.00  219.00    0.00  2180.00     0.00    19.91     1.02    4.65    4.65    0.00   2.41  52.80
sdd               0.00     0.00  204.00    0.00  2628.00     0.00    25.76     1.28    6.23    6.23    0.00   3.04  62.00
md0               0.00     0.00  722.00    0.00  9800.00     0.00    27.15     0.00    0.00    0.00    0.00   0.00   0.00

avg-cpu:  %user   %nice %system %iowait  %steal   %idle
           0.00    0.00    0.19    2.38    0.00   97.44

Device:         rrqm/s   wrqm/s     r/s     w/s    rkB/s    wkB/s avgrq-sz avgqu-sz   await r_await w_await  svctm  %util
nvme0n1           0.00     0.00    0.00    0.00     0.00     0.00     0.00     0.00    0.00    0.00    0.00   0.00   0.00
sda               0.00     0.00    0.00    0.00     0.00     0.00     0.00     0.00    0.00    0.00    0.00   0.00   0.00
sdc               2.00     0.00  213.00    0.00  4508.00     0.00    42.33     1.28    4.92    4.92    0.00   2.55  54.40
sdb               1.00     0.00  213.00    0.00  3136.00     0.00    29.45     1.12    5.24    5.24    0.00   2.29  48.70
sdd               1.00     0.00  188.00    0.00  3012.00     0.00    32.04     0.72    3.88    3.88    0.00   1.85  34.80
md0               0.00     0.00  619.00    0.00 13196.00     0.00    42.64     0.00    0.00    0.00    0.00   0.00   0.00

avg-cpu:  %user   %nice %system %iowait  %steal   %idle
           0.06    0.00    0.16    0.34    0.00   99.44

Device:         rrqm/s   wrqm/s     r/s     w/s    rkB/s    wkB/s avgrq-sz avgqu-sz   await r_await w_await  svctm  %util
nvme0n1           0.00     0.00    0.00    0.00     0.00     0.00     0.00     0.00    0.00    0.00    0.00   0.00   0.00
sda               0.00     0.00    0.00    0.00     0.00     0.00     0.00     0.00    0.00    0.00    0.00   0.00   0.00
sdc               1.00     0.00  241.00    0.00  3964.00     0.00    32.90     1.15    5.66    5.66    0.00   2.49  59.90
sdb               1.00     0.00  276.00    0.00  5352.00     0.00    38.78     1.24    4.50    4.50    0.00   1.85  51.10
sdd               0.00     0.00  248.00    0.00  3676.00     0.00    29.65     1.08    4.35    4.35    0.00   2.03  50.40
md0               0.00     0.00  771.00    0.00 15928.00     0.00    41.32     0.00    0.00    0.00    0.00   0.00   0.00

avg-cpu:  %user   %nice %system %iowait  %steal   %idle
           0.00    0.00    0.16    1.22    0.00   98.62

Device:         rrqm/s   wrqm/s     r/s     w/s    rkB/s    wkB/s avgrq-sz avgqu-sz   await r_await w_await  svctm  %util
nvme0n1           0.00     0.00    0.00    0.00     0.00     0.00     0.00     0.00    0.00    0.00    0.00   0.00   0.00
sda               0.00     2.00    0.00    2.00     0.00    16.00    16.00     0.00    0.50    0.00    0.50   0.50   0.10
sdc               1.00     0.00  203.00    0.00  1708.00     0.00    16.83     1.11    5.55    5.55    0.00   3.13  63.60
sdb               0.00     0.00  193.00    0.00  3352.00     0.00    34.74     0.99    5.04    5.04    0.00   2.44  47.10
sdd               0.00     0.00  285.00    0.00  3256.00     0.00    22.85     0.98    3.42    3.42    0.00   1.60  45.60
md0               0.00     0.00  684.00    0.00  9488.00     0.00    27.74     0.00    0.00    0.00    0.00   0.00   0.00

avg-cpu:  %user   %nice %system %iowait  %steal   %idle
           0.03    0.00    0.16    1.56    0.00   98.25

Device:         rrqm/s   wrqm/s     r/s     w/s    rkB/s    wkB/s avgrq-sz avgqu-sz   await r_await w_await  svctm  %util
nvme0n1           0.00     0.00    0.00    0.00     0.00     0.00     0.00     0.00    0.00    0.00    0.00   0.00   0.00
sda               0.00     3.00    0.00    2.00     0.00    36.00    36.00     0.00    0.00    0.00    0.00   0.00   0.00
sdc               0.00     0.00  224.00    0.00  2236.00     0.00    19.96     1.47    6.54    6.54    0.00   2.17  48.50
sdb               0.00     0.00  217.00    0.00  2324.00     0.00    21.42     1.05    4.92    4.92    0.00   2.27  49.20
sdd               0.00     0.00  214.00    0.00  2076.00     0.00    19.40     1.01    4.75    4.75    0.00   2.07  44.20
md0               0.00     0.00  651.00    0.00  7496.00     0.00    23.03     0.00    0.00    0.00    0.00   0.00   0.00

avg-cpu:  %user   %nice %system %iowait  %steal   %idle
           0.00    0.00    0.22    0.94    0.00   98.84

Device:         rrqm/s   wrqm/s     r/s     w/s    rkB/s    wkB/s avgrq-sz avgqu-sz   await r_await w_await  svctm  %util
nvme0n1           0.00     0.00    0.00    0.00     0.00     0.00     0.00     0.00    0.00    0.00    0.00   0.00   0.00
sda               0.00     0.00    0.00    0.00     0.00     0.00     0.00     0.00    0.00    0.00    0.00   0.00   0.00
sdc               0.00     0.00  231.00    0.00  2296.00     0.00    19.88     1.40    5.92    5.92    0.00   2.77  64.10
sdb               0.00     0.00  274.00    0.00  3452.00     0.00    25.20     1.26    4.62    4.62    0.00   1.92  52.50
sdd               0.00     0.00  245.00    0.00  2648.00     0.00    21.62     0.81    3.31    3.31    0.00   1.57  38.50
md0               0.00     0.00  749.00    0.00  9388.00     0.00    25.07     0.00    0.00    0.00    0.00   0.00   0.00

avg-cpu:  %user   %nice %system %iowait  %steal   %idle
           0.03    0.00    0.09    0.00    0.00   99.87

Device:         rrqm/s   wrqm/s     r/s     w/s    rkB/s    wkB/s avgrq-sz avgqu-sz   await r_await w_await  svctm  %util
nvme0n1           0.00     0.00    0.00    0.00     0.00     0.00     0.00     0.00    0.00    0.00    0.00   0.00   0.00
sda               0.00     0.00    0.00    0.00     0.00     0.00     0.00     0.00    0.00    0.00    0.00   0.00   0.00
sdc               1.00     0.00  262.00    0.00  3008.00     0.00    22.96     0.82    3.27    3.27    0.00   1.42  37.20
sdb               0.00     0.00  274.00    0.00  3056.00     0.00    22.31     1.31    4.78    4.78    0.00   2.04  55.90
sdd               0.00     0.00  229.00    0.00  3252.00     0.00    28.40     1.41    6.06    6.06    0.00   2.77  63.50
md0               0.00     0.00  765.00    0.00 10884.00     0.00    28.45     0.00    0.00    0.00    0.00   0.00   0.00

avg-cpu:  %user   %nice %system %iowait  %steal   %idle
           0.00    0.00    0.16    0.09    0.00   99.75

Device:         rrqm/s   wrqm/s     r/s     w/s    rkB/s    wkB/s avgrq-sz avgqu-sz   await r_await w_await  svctm  %util
nvme0n1           0.00     0.00    0.00    0.00     0.00     0.00     0.00     0.00    0.00    0.00    0.00   0.00   0.00
sda               0.00     0.00    0.00    0.00     0.00     0.00     0.00     0.00    0.00    0.00    0.00   0.00   0.00
sdc               1.00     0.00  243.00    0.00  3788.00     0.00    31.18     0.99    4.09    4.09    0.00   1.82  44.30
sdb               1.00     0.00  257.00    0.00  3704.00     0.00    28.82     1.35    5.22    5.22    0.00   2.35  60.50
sdd               0.00     0.00  248.00    0.00  3484.00     0.00    28.10     0.99    4.07    4.07    0.00   1.99  49.30
md0               0.00     0.00  749.00    0.00 13160.00     0.00    35.14     0.00    0.00    0.00    0.00   0.00   0.00

avg-cpu:  %user   %nice %system %iowait  %steal   %idle
           0.03    0.00    0.19    1.50    0.00   98.28

Device:         rrqm/s   wrqm/s     r/s     w/s    rkB/s    wkB/s avgrq-sz avgqu-sz   await r_await w_await  svctm  %util
nvme0n1           0.00     0.00    0.00    0.00     0.00     0.00     0.00     0.00    0.00    0.00    0.00   0.00   0.00
sda               0.00     4.00    0.00    2.00     0.00    24.00    24.00     0.00    0.00    0.00    0.00   0.00   0.00
sdc               1.00     0.00  229.00    0.00  3248.00     0.00    28.37     0.99    4.18    4.18    0.00   2.18  50.00
sdb               0.00     0.00  239.00    0.00  3032.00     0.00    25.37     1.38    5.77    5.77    0.00   2.59  62.00
sdd               0.00     0.00  225.00    0.00  2584.00     0.00    22.97     0.98    4.35    4.35    0.00   2.23  50.10
md0               0.00     0.00  699.00    0.00 10824.00     0.00    30.97     0.00    0.00    0.00    0.00   0.00   0.00

avg-cpu:  %user   %nice %system %iowait  %steal   %idle
           0.03    0.00    0.19    1.19    0.00   98.59

Device:         rrqm/s   wrqm/s     r/s     w/s    rkB/s    wkB/s avgrq-sz avgqu-sz   await r_await w_await  svctm  %util
nvme0n1           0.00     0.00    0.00    0.00     0.00     0.00     0.00     0.00    0.00    0.00    0.00   0.00   0.00
sda               0.00     1.00    1.00   14.00     4.00    84.00    11.73     0.00    0.00    0.00    0.00   0.00   0.00
sdc               0.00     0.00  272.00    0.00  4268.00     0.00    31.38     1.29    4.87    4.87    0.00   2.18  59.40
sdb               0.00     0.00  226.00    0.00  3080.00     0.00    27.26     1.03    4.46    4.46    0.00   2.23  50.40
sdd               0.00     0.00  297.00    0.00  5020.00     0.00    33.80     1.08    3.63    3.63    0.00   1.62  48.20
md0               0.00     0.00  793.00    0.00 14508.00     0.00    36.59     0.00    0.00    0.00    0.00   0.00   0.00

avg-cpu:  %user   %nice %system %iowait  %steal   %idle
           0.03    0.00    0.16    1.31    0.00   98.50

Device:         rrqm/s   wrqm/s     r/s     w/s    rkB/s    wkB/s avgrq-sz avgqu-sz   await r_await w_await  svctm  %util
nvme0n1           0.00     0.00    0.00    0.00     0.00     0.00     0.00     0.00    0.00    0.00    0.00   0.00   0.00
sda               0.00     0.00    0.00    0.00     0.00     0.00     0.00     0.00    0.00    0.00    0.00   0.00   0.00
sdc               1.00     0.00  270.00    0.00  4216.00     0.00    31.23     0.92    3.40    3.40    0.00   1.76  47.40
sdb               0.00     0.00  239.00    0.00  4900.00     0.00    41.00     1.23    5.19    5.19    0.00   2.30  54.90
sdd               0.00     0.00  253.00    0.00  4260.00     0.00    33.68     1.25    4.84    4.84    0.00   1.97  49.90
md0               0.00     0.00  764.00    0.00 15072.00     0.00    39.46     0.00    0.00    0.00    0.00   0.00   0.00

avg-cpu:  %user   %nice %system %iowait  %steal   %idle
           0.03    0.00    0.19    1.25    0.00   98.53

Device:         rrqm/s   wrqm/s     r/s     w/s    rkB/s    wkB/s avgrq-sz avgqu-sz   await r_await w_await  svctm  %util
nvme0n1           0.00     0.00    0.00    0.00     0.00     0.00     0.00     0.00    0.00    0.00    0.00   0.00   0.00
sda               0.00     0.00    0.00    0.00     0.00     0.00     0.00     0.00    0.00    0.00    0.00   0.00   0.00
sdc               3.00     0.00  246.00    0.00  4320.00     0.00    35.12     1.28    5.21    5.21    0.00   2.43  59.80
sdb               3.00     0.00  229.00    0.00  4612.00     0.00    40.28     1.13    4.93    4.93    0.00   2.17  49.80
sdd               3.00     0.00  290.00    0.00  6592.00     0.00    45.46     1.35    4.73    4.73    0.00   1.64  47.70
md0               0.00     0.00  770.00    0.00 18268.00     0.00    47.45     0.00    0.00    0.00    0.00   0.00   0.00

avg-cpu:  %user   %nice %system %iowait  %steal   %idle
           0.00    0.00    0.16    1.41    0.00   98.44

Device:         rrqm/s   wrqm/s     r/s     w/s    rkB/s    wkB/s avgrq-sz avgqu-sz   await r_await w_await  svctm  %util
nvme0n1           0.00     0.00    0.00    0.00     0.00     0.00     0.00     0.00    0.00    0.00    0.00   0.00   0.00
sda               0.00     0.00    0.00    0.00     0.00     0.00     0.00     0.00    0.00    0.00    0.00   0.00   0.00
sdc               0.00     0.00  247.00    0.00  2800.00     0.00    22.67     1.30    5.25    5.25    0.00   2.29  56.50
sdb               0.00     0.00  220.00    0.00  3668.00     0.00    33.35     1.00    4.60    4.60    0.00   2.39  52.60
sdd               0.00     0.00  239.00    0.00  4076.00     0.00    34.11     1.00    4.12    4.12    0.00   2.08  49.60
md0               0.00     0.00  706.00    0.00 12820.00     0.00    36.32     0.00    0.00    0.00    0.00   0.00   0.00

avg-cpu:  %user   %nice %system %iowait  %steal   %idle
           0.03    0.00    0.16    1.22    0.00   98.59

Device:         rrqm/s   wrqm/s     r/s     w/s    rkB/s    wkB/s avgrq-sz avgqu-sz   await r_await w_await  svctm  %util
nvme0n1           0.00     0.00    0.00    0.00     0.00     0.00     0.00     0.00    0.00    0.00    0.00   0.00   0.00
sda               0.00     6.00    0.00    2.00     0.00    32.00    32.00     0.00    0.00    0.00    0.00   0.00   0.00
sdc               1.00     0.00  238.00    0.00  3636.00     0.00    30.55     0.96    4.05    4.05    0.00   1.89  45.00
sdb               1.00     0.00  212.00    0.00  4244.00     0.00    40.04     1.26    5.75    5.75    0.00   2.82  59.80
sdd               1.00     0.00  253.00    0.00  5608.00     0.00    44.33     1.25    4.99    4.99    0.00   2.16  54.60
md0               0.00     0.00  709.00    0.00 16812.00     0.00    47.42     0.00    0.00    0.00    0.00   0.00   0.00

avg-cpu:  %user   %nice %system %iowait  %steal   %idle
           0.03    0.00    0.13    1.13    0.00   98.72

Device:         rrqm/s   wrqm/s     r/s     w/s    rkB/s    wkB/s avgrq-sz avgqu-sz   await r_await w_await  svctm  %util
nvme0n1           0.00     0.00    0.00    0.00     0.00     0.00     0.00     0.00    0.00    0.00    0.00   0.00   0.00
sda               0.00     0.00    0.00    0.00     0.00     0.00     0.00     0.00    0.00    0.00    0.00   0.00   0.00
sdc               0.00     0.00  288.00    0.00  5408.00     0.00    37.56     1.27    4.37    4.37    0.00   2.01  57.80
sdb               0.00     0.00  278.00    0.00  3996.00     0.00    28.75     0.98    3.65    3.65    0.00   1.56  43.30
sdd               0.00     0.00  211.00    0.00  3060.00     0.00    29.00     1.12    5.31    5.31    0.00   2.25  47.50
md0               0.00     0.00  779.00    0.00 13808.00     0.00    35.45     0.00    0.00    0.00    0.00   0.00   0.00

