Linux 4.17.2 (bench2) 	08/03/2018 	_x86_64_	(32 CPU)

avg-cpu:  %user   %nice %system %iowait  %steal   %idle
           1.92    0.00    1.57    1.52    0.00   94.99

Device:         rrqm/s   wrqm/s     r/s     w/s    rkB/s    wkB/s avgrq-sz avgqu-sz   await r_await w_await  svctm  %util
nvme0n1         953.82     5.18 19228.72  529.43 107557.44 11940.14    12.10     1.37    0.05    0.03    0.67   0.02  40.25
sda               0.11     0.81   14.13    0.57   163.93     8.51    23.45     0.00    0.33    0.32    0.45   0.07   0.10
sdc              32.60     0.14  107.75    0.30  1623.15    82.87    31.58     1.49   13.77   12.78  373.51   0.94  10.10
sdb              30.52     0.15  109.79    0.32  1621.27    82.69    30.95     0.37    3.36    2.22  394.60   0.87   9.60
sdd              32.80     0.13  107.30    0.25  1619.20    82.35    31.64     0.65    6.08    4.28  782.19   0.94  10.11
md0               0.00     0.00  423.63    1.07  6000.76   290.34    29.63     0.00    0.00    0.00    0.00   0.00   0.00

avg-cpu:  %user   %nice %system %iowait  %steal   %idle
           0.01    0.00    0.30    0.04    0.00   99.65

Device:         rrqm/s   wrqm/s     r/s     w/s    rkB/s    wkB/s avgrq-sz avgqu-sz   await r_await w_await  svctm  %util
nvme0n1           0.00     0.00    0.00    0.00     0.00     0.00     0.00     0.00    0.00    0.00    0.00   0.00   0.00
sda               0.00     1.05    0.20    0.80     5.20     9.60    29.60     0.00    0.15    0.50    0.06   0.15   0.01
sdc               4.35     0.00  347.60    0.00  1407.80     0.00     8.10    13.91   39.98   39.98    0.00   2.44  84.72
sdb               5.50     0.00  361.65    0.00  1468.60     0.00     8.12    14.60   40.37   40.37    0.00   2.36  85.39
sdd               3.45     0.00  338.05    0.00  1366.00     0.00     8.08    13.25   39.20   39.20    0.00   2.47  83.33
md0               0.00     0.00 1060.85    0.00  4243.40     0.00     8.00     0.00    0.00    0.00    0.00   0.00   0.00

