Linux 4.17.2 (bench2) 	08/03/2018 	_x86_64_	(32 CPU)

avg-cpu:  %user   %nice %system %iowait  %steal   %idle
           1.91    0.00    1.57    1.54    0.00   94.98

Device:         rrqm/s   wrqm/s     r/s     w/s    rkB/s    wkB/s avgrq-sz avgqu-sz   await r_await w_await  svctm  %util
nvme0n1         948.21     5.15 19115.49  526.31 106924.09 11869.83    12.10     1.36    0.05    0.03    0.67   0.02  40.02
sda               0.12     0.81   14.15    0.58   163.98     8.51    23.43     0.00    0.33    0.32    0.45   0.07   0.10
sdc              33.09     0.14  111.54    0.30  1683.63    82.38    31.58     1.53   13.67   12.71  373.51   0.93  10.36
sdb              31.02     0.15  113.56    0.32  1681.74    82.20    30.98     0.41    3.64    2.54  394.60   0.86   9.85
sdd              33.28     0.13  111.08    0.25  1679.64    81.87    31.64     0.70    6.27    4.54  782.19   0.93  10.36
md0               0.00     0.00  436.45    1.06  6236.02   288.63    29.83     0.00    0.00    0.00    0.00   0.00   0.00

avg-cpu:  %user   %nice %system %iowait  %steal   %idle
           0.00    0.00    0.13   41.29    0.00   58.58

Device:         rrqm/s   wrqm/s     r/s     w/s    rkB/s    wkB/s avgrq-sz avgqu-sz   await r_await w_await  svctm  %util
nvme0n1           0.00     0.00    0.00    0.00     0.00     0.00     0.00     0.00    0.00    0.00    0.00   0.00   0.00
sda               0.00     0.00    4.00    0.00   104.00     0.00    52.00     0.00    0.00    0.00    0.00   0.00   0.00
sdc               3.00     0.00  201.00    0.00  3608.00     0.00    35.90    10.57   49.40   49.40    0.00   4.94  99.30
sdb               0.00     0.00  191.00    0.00  3624.00     0.00    37.95     4.02   21.06   21.06    0.00   4.81  91.80
sdd               1.00     0.00  162.00    0.00  3092.00     0.00    38.17     2.17   12.64   12.64    0.00   5.44  88.20
md0               0.00     0.00  575.00    0.00 12736.00     0.00    44.30     0.00    0.00    0.00    0.00   0.00   0.00

avg-cpu:  %user   %nice %system %iowait  %steal   %idle
           0.00    0.00    0.06   36.44    0.00   63.50

Device:         rrqm/s   wrqm/s     r/s     w/s    rkB/s    wkB/s avgrq-sz avgqu-sz   await r_await w_await  svctm  %util
nvme0n1           0.00     0.00    0.00    0.00     0.00     0.00     0.00     0.00    0.00    0.00    0.00   0.00   0.00
sda               0.00     0.00    0.00    0.00     0.00     0.00     0.00     0.00    0.00    0.00    0.00   0.00   0.00
sdc               0.00     0.00  190.00    0.00  2196.00     0.00    23.12     6.97   26.39   26.39    0.00   4.52  85.80
sdb               0.00     0.00  132.00    0.00  1556.00     0.00    23.58     1.55   11.76   11.76    0.00   4.81  63.50
sdd               1.00     0.00  194.00    0.00  2952.00     0.00    30.43     5.50   26.16   26.16    0.00   5.14  99.80
md0               0.00     0.00  517.00    0.00  6560.00     0.00    25.38     0.00    0.00    0.00    0.00   0.00   0.00

avg-cpu:  %user   %nice %system %iowait  %steal   %idle
           0.03    0.00    0.06   35.29    0.00   64.61

Device:         rrqm/s   wrqm/s     r/s     w/s    rkB/s    wkB/s avgrq-sz avgqu-sz   await r_await w_await  svctm  %util
nvme0n1           0.00     0.00    0.00    0.00     0.00     0.00     0.00     0.00    0.00    0.00    0.00   0.00   0.00
sda               0.00     7.00    0.00    2.00     0.00    36.00    36.00     0.00    0.50    0.00    0.50   0.50   0.10
sdc               0.00     0.00  209.00    0.00  2724.00     0.00    26.07     5.68   39.57   39.57    0.00   4.30  89.80
sdb               0.00     0.00  199.00    0.00  3272.00     0.00    32.88     3.18   13.20   13.20    0.00   3.97  79.00
sdd               0.00     0.00  207.00    0.00  3896.00     0.00    37.64     6.57   27.24   27.24    0.00   4.65  96.20
md0               0.00     0.00  615.00    0.00 11480.00     0.00    37.33     0.00    0.00    0.00    0.00   0.00   0.00

avg-cpu:  %user   %nice %system %iowait  %steal   %idle
           0.00    0.00    0.03   33.38    0.00   66.59

Device:         rrqm/s   wrqm/s     r/s     w/s    rkB/s    wkB/s avgrq-sz avgqu-sz   await r_await w_await  svctm  %util
nvme0n1           0.00     0.00    0.00    0.00     0.00     0.00     0.00     0.00    0.00    0.00    0.00   0.00   0.00
sda               0.00     3.00    2.00    6.00     8.00    52.00    15.00     0.00    0.00    0.00    0.00   0.00   0.00
sdc               0.00     0.00  194.00    0.00  2792.00     0.00    28.78     3.22   16.29   16.29    0.00   4.21  81.70
sdb               0.00     0.00  221.00    0.00  3124.00     0.00    28.27     7.91   35.68   35.68    0.00   4.26  94.20
sdd               0.00     0.00  162.00    0.00  2032.00     0.00    25.09     3.10   27.81   27.81    0.00   4.93  79.80
md0               0.00     0.00  580.00    0.00  8720.00     0.00    30.07     0.00    0.00    0.00    0.00   0.00   0.00

avg-cpu:  %user   %nice %system %iowait  %steal   %idle
           0.00    0.00    0.09   33.79    0.00   66.11

Device:         rrqm/s   wrqm/s     r/s     w/s    rkB/s    wkB/s avgrq-sz avgqu-sz   await r_await w_await  svctm  %util
nvme0n1           0.00     0.00    0.00    0.00     0.00     0.00     0.00     0.00    0.00    0.00    0.00   0.00   0.00
sda               0.00     0.00    0.00    0.00     0.00     0.00     0.00     0.00    0.00    0.00    0.00   0.00   0.00
sdc               0.00     0.00  200.00    0.00  2360.00     0.00    23.60     6.10   29.54   29.54    0.00   4.93  98.60
sdb               1.00     0.00  180.00    0.00  2040.00     0.00    22.67     3.60   22.55   22.55    0.00   4.88  87.80
sdd               0.00     0.00  194.00    0.00  3064.00     0.00    31.59     5.74   29.54   29.54    0.00   4.71  91.40
md0               0.00     0.00  575.00    0.00  8316.00     0.00    28.93     0.00    0.00    0.00    0.00   0.00   0.00

avg-cpu:  %user   %nice %system %iowait  %steal   %idle
           0.00    0.00    0.06   37.62    0.00   62.32

Device:         rrqm/s   wrqm/s     r/s     w/s    rkB/s    wkB/s avgrq-sz avgqu-sz   await r_await w_await  svctm  %util
nvme0n1           0.00     0.00    0.00    0.00     0.00     0.00     0.00     0.00    0.00    0.00    0.00   0.00   0.00
sda               0.00     0.00    0.00    0.00     0.00     0.00     0.00     0.00    0.00    0.00    0.00   0.00   0.00
sdc               0.00     0.00  195.00    0.00  2772.00     0.00    28.43     2.71   15.16   15.16    0.00   4.16  81.10
sdb               0.00     0.00  214.00    0.00  3292.00     0.00    30.77     7.90   37.50   37.50    0.00   4.67  99.90
sdd               1.00     0.00  216.00    0.00  3620.00     0.00    33.52     5.43   24.85   24.85    0.00   4.05  87.50
md0               0.00     0.00  615.00    0.00  9896.00     0.00    32.18     0.00    0.00    0.00    0.00   0.00   0.00

avg-cpu:  %user   %nice %system %iowait  %steal   %idle
           0.00    0.00    0.06   38.04    0.00   61.90

Device:         rrqm/s   wrqm/s     r/s     w/s    rkB/s    wkB/s avgrq-sz avgqu-sz   await r_await w_await  svctm  %util
nvme0n1           0.00     0.00    0.00    0.00     0.00     0.00     0.00     0.00    0.00    0.00    0.00   0.00   0.00
sda               0.00     0.00    0.00    0.00     0.00     0.00     0.00     0.00    0.00    0.00    0.00   0.00   0.00
sdc               0.00     0.00  153.00    0.00  1528.00     0.00    19.97     1.91   12.46   12.46    0.00   3.97  60.70
sdb               0.00     0.00  201.00    0.00  2516.00     0.00    25.03     6.06   26.82   26.82    0.00   4.35  87.50
sdd               0.00     0.00  217.00    0.00  2728.00     0.00    25.14     8.17   38.20   38.20    0.00   4.60  99.80
md0               0.00     0.00  580.00    0.00  7156.00     0.00    24.68     0.00    0.00    0.00    0.00   0.00   0.00

avg-cpu:  %user   %nice %system %iowait  %steal   %idle
           0.00    0.00    0.09   34.70    0.00   65.21

Device:         rrqm/s   wrqm/s     r/s     w/s    rkB/s    wkB/s avgrq-sz avgqu-sz   await r_await w_await  svctm  %util
nvme0n1           0.00     0.00    0.00    0.00     0.00     0.00     0.00     0.00    0.00    0.00    0.00   0.00   0.00
sda               0.00     6.00    0.00    2.00     0.00    32.00    32.00     0.00    0.00    0.00    0.00   0.00   0.00
sdc               0.00     0.00  159.00    0.00  2268.00     0.00    28.53     2.06   12.97   12.97    0.00   5.01  79.60
sdb               1.00     0.00  202.00    0.00  3372.00     0.00    33.39     7.01   35.31   35.31    0.00   4.63  93.50
sdd               0.00     0.00  202.00    0.00  2760.00     0.00    27.33     5.41   23.44   23.44    0.00   4.04  81.70
md0               0.00     0.00  564.00    0.00  9588.00     0.00    34.00     0.00    0.00    0.00    0.00   0.00   0.00

avg-cpu:  %user   %nice %system %iowait  %steal   %idle
           0.03    0.00    0.06   34.01    0.00   65.90

Device:         rrqm/s   wrqm/s     r/s     w/s    rkB/s    wkB/s avgrq-sz avgqu-sz   await r_await w_await  svctm  %util
nvme0n1           0.00     0.00    0.00    0.00     0.00     0.00     0.00     0.00    0.00    0.00    0.00   0.00   0.00
sda               0.00     3.00    0.00   21.00     0.00    96.00     9.14     0.00    0.00    0.00    0.00   0.00   0.00
sdc               0.00     0.00  197.00    0.00  2000.00     0.00    20.30     4.58   22.61   22.61    0.00   4.60  90.60
sdb               0.00     0.00  182.00    0.00  2352.00     0.00    25.85     5.65   33.83   33.83    0.00   5.37  97.70
sdd               0.00     0.00  180.00    0.00  1984.00     0.00    22.04     4.46   26.62   26.62    0.00   4.66  83.90
md0               0.00     0.00  558.00    0.00  6820.00     0.00    24.44     0.00    0.00    0.00    0.00   0.00   0.00

avg-cpu:  %user   %nice %system %iowait  %steal   %idle
           0.00    0.00    0.06   33.27    0.00   66.67

Device:         rrqm/s   wrqm/s     r/s     w/s    rkB/s    wkB/s avgrq-sz avgqu-sz   await r_await w_await  svctm  %util
nvme0n1           0.00     0.00    0.00    0.00     0.00     0.00     0.00     0.00    0.00    0.00    0.00   0.00   0.00
sda               0.00     0.00    0.00    0.00     0.00     0.00     0.00     0.00    0.00    0.00    0.00   0.00   0.00
sdc               0.00     0.00  236.00    0.00  3396.00     0.00    28.78     8.09   34.31   34.31    0.00   4.18  98.60
sdb               0.00     0.00  201.00    0.00  2640.00     0.00    26.27     3.92   19.16   19.16    0.00   4.62  92.80
sdd               0.00     0.00  201.00    0.00  2304.00     0.00    22.93     2.79   14.77   14.77    0.00   3.89  78.20
md0               0.00     0.00  645.00    0.00  9764.00     0.00    30.28     0.00    0.00    0.00    0.00   0.00   0.00

avg-cpu:  %user   %nice %system %iowait  %steal   %idle
           0.00    0.00    0.09   35.26    0.00   64.65

Device:         rrqm/s   wrqm/s     r/s     w/s    rkB/s    wkB/s avgrq-sz avgqu-sz   await r_await w_await  svctm  %util
nvme0n1           0.00     0.00    0.00    0.00     0.00     0.00     0.00     0.00    0.00    0.00    0.00   0.00   0.00
sda               0.00     0.00    0.00    0.00     0.00     0.00     0.00     0.00    0.00    0.00    0.00   0.00   0.00
sdc               0.00     0.00  191.00    0.00  2872.00     0.00    30.07     4.97   26.26   26.26    0.00   5.23  99.80
sdb               0.00     0.00  195.00    0.00  2588.00     0.00    26.54     5.41   28.02   28.02    0.00   4.88  95.20
sdd               0.00     0.00  200.00    0.00  2772.00     0.00    27.72     5.38   27.35   27.35    0.00   4.45  89.00
md0               0.00     0.00  582.00    0.00  8588.00     0.00    29.51     0.00    0.00    0.00    0.00   0.00   0.00

avg-cpu:  %user   %nice %system %iowait  %steal   %idle
           0.00    0.00    0.06   40.23    0.00   59.71

Device:         rrqm/s   wrqm/s     r/s     w/s    rkB/s    wkB/s avgrq-sz avgqu-sz   await r_await w_await  svctm  %util
nvme0n1           0.00     0.00    0.00    0.00     0.00     0.00     0.00     0.00    0.00    0.00    0.00   0.00   0.00
sda               0.00     0.00    0.00    0.00     0.00     0.00     0.00     0.00    0.00    0.00    0.00   0.00   0.00
sdc               0.00     0.00  200.00    0.00  3272.00     0.00    32.72     5.16   23.76   23.76    0.00   4.82  96.30
sdb               1.00     0.00  203.00    0.00  2940.00     0.00    28.97     8.65   41.95   41.95    0.00   4.93 100.00
sdd               0.00     0.00  181.00    0.00  2720.00     0.00    30.06     3.30   18.61   18.61    0.00   4.57  82.80
md0               0.00     0.00  582.00    0.00  9852.00     0.00    33.86     0.00    0.00    0.00    0.00   0.00   0.00

avg-cpu:  %user   %nice %system %iowait  %steal   %idle
           0.00    0.00    0.03   36.68    0.00   63.29

Device:         rrqm/s   wrqm/s     r/s     w/s    rkB/s    wkB/s avgrq-sz avgqu-sz   await r_await w_await  svctm  %util
nvme0n1           0.00     0.00    0.00    0.00     0.00     0.00     0.00     0.00    0.00    0.00    0.00   0.00   0.00
sda               0.00     1.00    0.00    2.00     0.00    12.00    12.00     0.00    0.00    0.00    0.00   0.00   0.00
sdc               0.00     0.00  199.00    0.00  4076.00     0.00    40.96     7.22   36.33   36.33    0.00   5.02  99.80
sdb               0.00     0.00  156.00    0.00  1824.00     0.00    23.38     2.05   14.40   14.40    0.00   4.70  73.30
sdd               0.00     0.00  179.00    0.00  2228.00     0.00    24.89     5.30   25.35   25.35    0.00   4.72  84.40
md0               0.00     0.00  534.00    0.00  8180.00     0.00    30.64     0.00    0.00    0.00    0.00   0.00   0.00

avg-cpu:  %user   %nice %system %iowait  %steal   %idle
           0.00    0.00    0.06   34.25    0.00   65.69

Device:         rrqm/s   wrqm/s     r/s     w/s    rkB/s    wkB/s avgrq-sz avgqu-sz   await r_await w_await  svctm  %util
nvme0n1           0.00     0.00    0.00    0.00     0.00     0.00     0.00     0.00    0.00    0.00    0.00   0.00   0.00
sda               0.00     0.00    0.00    0.00     0.00     0.00     0.00     0.00    0.00    0.00    0.00   0.00   0.00
sdc               1.00     0.00  187.00    0.00  2796.00     0.00    29.90     4.26   24.11   24.11    0.00   4.83  90.40
sdb               0.00     0.00  201.00    0.00  3176.00     0.00    31.60     5.30   24.57   24.57    0.00   3.78  76.00
sdd               0.00     0.00  210.00    0.00  3020.00     0.00    28.76     5.45   29.64   29.64    0.00   4.40  92.30
md0               0.00     0.00  601.00    0.00  9916.00     0.00    33.00     0.00    0.00    0.00    0.00   0.00   0.00

avg-cpu:  %user   %nice %system %iowait  %steal   %idle
           0.00    0.00    0.06   33.21    0.00   66.73

Device:         rrqm/s   wrqm/s     r/s     w/s    rkB/s    wkB/s avgrq-sz avgqu-sz   await r_await w_await  svctm  %util
nvme0n1           0.00     0.00    0.00    0.00     0.00     0.00     0.00     0.00    0.00    0.00    0.00   0.00   0.00
sda               0.00     0.00    0.00    0.00     0.00     0.00     0.00     0.00    0.00    0.00    0.00   0.00   0.00
sdc               0.00     0.00  202.00    0.00  2496.00     0.00    24.71     5.22   26.78   26.78    0.00   4.95  99.90
sdb               0.00     0.00  188.00    0.00  2224.00     0.00    23.66     6.40   35.41   35.41    0.00   4.84  90.90
sdd               1.00     0.00  174.00    0.00  2544.00     0.00    29.24     2.58   13.64   13.64    0.00   3.57  62.20
md0               0.00     0.00  565.00    0.00  8492.00     0.00    30.06     0.00    0.00    0.00    0.00   0.00   0.00

avg-cpu:  %user   %nice %system %iowait  %steal   %idle
           0.00    0.00    0.09   34.70    0.00   65.21

Device:         rrqm/s   wrqm/s     r/s     w/s    rkB/s    wkB/s avgrq-sz avgqu-sz   await r_await w_await  svctm  %util
nvme0n1           0.00     0.00    0.00    0.00     0.00     0.00     0.00     0.00    0.00    0.00    0.00   0.00   0.00
sda               0.00     0.00    0.00    0.00     0.00     0.00     0.00     0.00    0.00    0.00    0.00   0.00   0.00
sdc               0.00     0.00  198.00    0.00  2900.00     0.00    29.29     5.66   28.51   28.51    0.00   5.01  99.10
sdb               0.00     0.00  194.00    0.00  2424.00     0.00    24.99     5.41   27.99   27.99    0.00   4.42  85.70
sdd               0.00     0.00  199.00    0.00  2468.00     0.00    24.80     3.57   18.65   18.65    0.00   3.99  79.50
md0               0.00     0.00  592.00    0.00  8616.00     0.00    29.11     0.00    0.00    0.00    0.00   0.00   0.00

avg-cpu:  %user   %nice %system %iowait  %steal   %idle
           0.00    0.00    0.06   37.49    0.00   62.45

Device:         rrqm/s   wrqm/s     r/s     w/s    rkB/s    wkB/s avgrq-sz avgqu-sz   await r_await w_await  svctm  %util
nvme0n1           0.00     0.00    0.00    0.00     0.00     0.00     0.00     0.00    0.00    0.00    0.00   0.00   0.00
sda               0.00     0.00    0.00    0.00     0.00     0.00     0.00     0.00    0.00    0.00    0.00   0.00   0.00
sdc               0.00     0.00  228.00    0.00  2732.00     0.00    23.96     6.91   30.59   30.59    0.00   4.14  94.40
sdb               0.00     0.00  217.00    0.00  3276.00     0.00    30.19     4.70   21.10   21.10    0.00   4.02  87.20
sdd               0.00     0.00  205.00    0.00  3580.00     0.00    34.93     4.41   21.85   21.85    0.00   4.14  84.80
md0               0.00     0.00  637.00    0.00  9628.00     0.00    30.23     0.00    0.00    0.00    0.00   0.00   0.00

avg-cpu:  %user   %nice %system %iowait  %steal   %idle
           0.03    0.00    0.09   37.64    0.00   62.24

Device:         rrqm/s   wrqm/s     r/s     w/s    rkB/s    wkB/s avgrq-sz avgqu-sz   await r_await w_await  svctm  %util
nvme0n1           0.00     0.00    0.00    0.00     0.00     0.00     0.00     0.00    0.00    0.00    0.00   0.00   0.00
sda               0.00     1.00    0.00    2.00     0.00    12.00    12.00     0.00    0.00    0.00    0.00   0.00   0.00
sdc               0.00     0.00  191.00    0.00  2420.00     0.00    25.34     4.98   24.48   24.48    0.00   4.47  85.40
sdb               0.00     0.00  203.00    0.00  2928.00     0.00    28.85     5.86   29.71   29.71    0.00   4.92  99.80
sdd               0.00     0.00  202.00    0.00  3404.00     0.00    33.70     5.31   25.63   25.63    0.00   4.57  92.30
md0               0.00     0.00  606.00    0.00 10516.00     0.00    34.71     0.00    0.00    0.00    0.00   0.00   0.00

avg-cpu:  %user   %nice %system %iowait  %steal   %idle
           0.00    0.00    0.06   36.16    0.00   63.78

Device:         rrqm/s   wrqm/s     r/s     w/s    rkB/s    wkB/s avgrq-sz avgqu-sz   await r_await w_await  svctm  %util
nvme0n1           0.00     0.00    0.00    0.00     0.00     0.00     0.00     0.00    0.00    0.00    0.00   0.00   0.00
sda               0.00     0.00    0.00    0.00     0.00     0.00     0.00     0.00    0.00    0.00    0.00   0.00   0.00
sdc               0.00     0.00  199.00    0.00  2680.00     0.00    26.93     3.13   17.06   17.06    0.00   4.43  88.10
sdb               0.00     0.00  206.00    0.00  3320.00     0.00    32.23     6.09   29.22   29.22    0.00   4.22  87.00
sdd               0.00     0.00  226.00    0.00  3764.00     0.00    33.31     6.06   26.79   26.79    0.00   4.41  99.70
md0               0.00     0.00  633.00    0.00 10472.00     0.00    33.09     0.00    0.00    0.00    0.00   0.00   0.00

avg-cpu:  %user   %nice %system %iowait  %steal   %idle
           0.00    0.00    0.06   35.05    0.00   64.88

Device:         rrqm/s   wrqm/s     r/s     w/s    rkB/s    wkB/s avgrq-sz avgqu-sz   await r_await w_await  svctm  %util
nvme0n1           0.00     0.00    0.00    0.00     0.00     0.00     0.00     0.00    0.00    0.00    0.00   0.00   0.00
sda               0.00     0.00    0.00    2.00     0.00    36.00    36.00     0.00    0.00    0.00    0.00   0.00   0.00
sdc               0.00     0.00  183.00    0.00  2564.00     0.00    28.02     4.71   25.32   25.32    0.00   4.49  82.10
sdb               0.00     0.00  194.00    0.00  2460.00     0.00    25.36     4.98   25.82   25.82    0.00   4.52  87.70
sdd               0.00     0.00  190.00    0.00  2368.00     0.00    24.93     4.87   25.24   25.24    0.00   4.86  92.30
md0               0.00     0.00  566.00    0.00  7488.00     0.00    26.46     0.00    0.00    0.00    0.00   0.00   0.00

