Linux 4.17.2 (bench2) 	08/04/2018 	_x86_64_	(32 CPU)

avg-cpu:  %user   %nice %system %iowait  %steal   %idle
           1.90    0.00    1.54    1.61    0.00   94.95

Device:         rrqm/s   wrqm/s     r/s     w/s    rkB/s    wkB/s avgrq-sz avgqu-sz   await r_await w_await  svctm  %util
nvme0n1         929.37     5.05 18735.73  515.85 104799.87 11634.02    12.10     1.33    0.05    0.03    0.67   0.02  39.22
sda               0.12     0.82   14.18    0.58   164.05     8.56    23.39     0.00    0.33    0.32    0.44   0.07   0.10
sdc              34.69     0.17  124.26    0.31  1863.94    96.82    31.48     0.12    0.94   12.23  381.84   0.90  11.20
sdb              32.67     0.19  126.24    0.33  1861.99    96.65    30.95     0.55    4.30    3.24  413.03   0.84  10.65
sdd              34.89     0.17  123.81    0.26  1860.00    96.32    31.54     0.86    6.92    5.04  909.23   0.90  11.21
md0               0.00     0.00  479.37    1.20  6926.97   349.28    30.28     0.00    0.00    0.00    0.00   0.00   0.00

avg-cpu:  %user   %nice %system %iowait  %steal   %idle
           0.00    0.00    0.03    3.09    0.00   96.88

Device:         rrqm/s   wrqm/s     r/s     w/s    rkB/s    wkB/s avgrq-sz avgqu-sz   await r_await w_await  svctm  %util
nvme0n1           0.00     0.00    0.00    0.00     0.00     0.00     0.00     0.00    0.00    0.00    0.00   0.00   0.00
sda               0.00     0.90    3.15    1.10    27.60     8.80    17.13     0.00    0.06    0.08    0.00   0.04   0.01
sdc               0.00     0.00   53.05    0.00   212.20     0.00     8.00     0.34    6.43    6.43    0.00   6.43  34.10
sdb               0.00     0.00   50.45    0.00   201.80     0.00     8.00     0.33    6.47    6.47    0.00   6.47  32.64
sdd               0.00     0.00   50.65    0.00   202.60     0.00     8.00     0.32    6.41    6.41    0.00   6.41  32.45
md0               0.00     0.00  154.20    0.00   616.80     0.00     8.00     0.00    0.00    0.00    0.00   0.00   0.00

