Linux 4.17.2 (bench2) 	08/04/2018 	_x86_64_	(32 CPU)

avg-cpu:  %user   %nice %system %iowait  %steal   %idle
           1.89    0.00    1.53    1.64    0.00   94.94

Device:         rrqm/s   wrqm/s     r/s     w/s    rkB/s    wkB/s avgrq-sz avgqu-sz   await r_await w_await  svctm  %util
nvme0n1         922.05     5.01 18588.17  511.79 103974.48 11542.39    12.10     1.32    0.05    0.03    0.67   0.02  38.91
sda               0.12     0.82   14.20    0.59   164.14     8.57    23.37     0.00    0.33    0.32    0.43   0.07   0.10
sdc              35.32     0.17  129.21    0.31  1910.15    96.06    30.98     0.18    1.37    0.46  381.84   0.89  11.50
sdb              33.32     0.18  131.17    0.33  1908.26    95.89    30.48     0.60    4.57    3.55  413.03   0.83  10.95
sdd              35.52     0.16  128.76    0.26  1906.29    95.56    31.03     0.92    7.09    5.29  909.23   0.89  11.54
md0               0.00     0.00  496.09    1.19  7090.01   346.53    29.91     0.00    0.00    0.00    0.00   0.00   0.00

avg-cpu:  %user   %nice %system %iowait  %steal   %idle
           0.00    0.00    0.07    3.02    0.00   96.90

Device:         rrqm/s   wrqm/s     r/s     w/s    rkB/s    wkB/s avgrq-sz avgqu-sz   await r_await w_await  svctm  %util
nvme0n1           0.00     0.00    0.00    0.00     0.00     0.00     0.00     0.00    0.00    0.00    0.00   0.00   0.00
sda               0.00     0.90    3.85    0.45    30.40     6.20    17.02     0.00    0.57    0.62    0.11   0.09   0.04
sdc               1.75     0.00  189.15    0.00  3099.40     0.00    32.77     0.33    1.74    1.74    0.00   1.69  31.96
sdb               1.60     0.00  197.85    0.00  3231.60     0.00    32.67     0.32    1.63    1.63    0.00   1.57  30.98
sdd               1.95     0.00  198.90    0.00  3180.20     0.00    31.98     0.40    1.99    1.99    0.00   1.93  38.48
md0               0.00     0.00  591.25    0.00 10673.60     0.00    36.11     0.00    0.00    0.00    0.00   0.00   0.00

