Linux 4.17.2 (bench2) 	08/04/2018 	_x86_64_	(32 CPU)

avg-cpu:  %user   %nice %system %iowait  %steal   %idle
           1.89    0.00    1.53    1.64    0.00   94.94

Device:         rrqm/s   wrqm/s     r/s     w/s    rkB/s    wkB/s avgrq-sz avgqu-sz   await r_await w_await  svctm  %util
nvme0n1         922.39     5.01 18595.01  511.98 104012.71 11546.63    12.10     1.32    0.05    0.03    0.67   0.02  38.93
sda               0.12     0.82   14.20    0.59   164.13     8.57    23.37     0.00    0.33    0.32    0.43   0.07   0.10
sdc              35.33     0.17  129.04    0.31  1907.62    96.09    30.98     0.18    1.37    0.46  381.84   0.89  11.49
sdb              33.33     0.18  131.00    0.33  1905.73    95.92    30.48     0.60    4.57    3.55  413.03   0.83  10.94
sdd              35.53     0.16  128.59    0.26  1903.75    95.60    31.04     0.92    7.10    5.30  909.23   0.89  11.53
md0               0.00     0.00  495.61    1.19  7080.49   346.66    29.90     0.00    0.00    0.00    0.00   0.00   0.00

avg-cpu:  %user   %nice %system %iowait  %steal   %idle
           0.00    0.00    0.06    3.03    0.00   96.90

Device:         rrqm/s   wrqm/s     r/s     w/s    rkB/s    wkB/s avgrq-sz avgqu-sz   await r_await w_await  svctm  %util
nvme0n1           0.00     0.00    0.00    0.00     0.00     0.00     0.00     0.00    0.00    0.00    0.00   0.00   0.00
sda               0.00     0.00    4.00    0.00   104.00     0.00    52.00     0.00    0.25    0.25    0.00   0.25   0.10
sdc               0.00     0.00  175.00    0.00   728.00     0.00     8.32     0.21    1.19    1.19    0.00   1.19  20.80
sdb               0.00     0.00  133.00    0.00   560.00     0.00     8.42     0.29    2.17    2.17    0.00   2.17  28.80
sdd               0.00     0.00  129.00    0.00   576.00     0.00     8.93     0.48    3.69    3.69    0.00   3.72  48.00
md0               0.00     0.00  438.00    0.00  1876.00     0.00     8.57     0.00    0.00    0.00    0.00   0.00   0.00

avg-cpu:  %user   %nice %system %iowait  %steal   %idle
           0.00    0.00    0.06    3.03    0.00   96.91

Device:         rrqm/s   wrqm/s     r/s     w/s    rkB/s    wkB/s avgrq-sz avgqu-sz   await r_await w_await  svctm  %util
nvme0n1           0.00     0.00    0.00    0.00     0.00     0.00     0.00     0.00    0.00    0.00    0.00   0.00   0.00
sda               0.00     2.00    2.00    2.00     8.00    20.00    14.00     0.00    0.00    0.00    0.00   0.00   0.00
sdc               0.00     0.00  147.00    0.00   612.00     0.00     8.33     0.36    2.48    2.48    0.00   2.48  36.40
sdb               0.00     0.00  145.00    0.00   628.00     0.00     8.66     0.25    1.72    1.72    0.00   1.72  25.00
sdd               0.00     0.00  131.00    0.00   616.00     0.00     9.40     0.36    2.81    2.81    0.00   2.77  36.30
md0               0.00     0.00  424.00    0.00  1872.00     0.00     8.83     0.00    0.00    0.00    0.00   0.00   0.00

avg-cpu:  %user   %nice %system %iowait  %steal   %idle
           0.00    0.00    0.03    3.03    0.00   96.93

Device:         rrqm/s   wrqm/s     r/s     w/s    rkB/s    wkB/s avgrq-sz avgqu-sz   await r_await w_await  svctm  %util
nvme0n1           0.00     0.00    0.00    0.00     0.00     0.00     0.00     0.00    0.00    0.00    0.00   0.00   0.00
sda               0.00     0.00    0.00    0.00     0.00     0.00     0.00     0.00    0.00    0.00    0.00   0.00   0.00
sdc               0.00     0.00  158.00    0.00   668.00     0.00     8.46     0.35    2.22    2.22    0.00   2.22  35.10
sdb               0.00     0.00  141.00    0.00   608.00     0.00     8.62     0.21    1.52    1.52    0.00   1.52  21.50
sdd               0.00     0.00  129.00    0.00   552.00     0.00     8.56     0.42    3.19    3.19    0.00   3.22  41.50
md0               0.00     0.00  427.00    0.00  1824.00     0.00     8.54     0.00    0.00    0.00    0.00   0.00   0.00

avg-cpu:  %user   %nice %system %iowait  %steal   %idle
           0.00    0.00    0.06    3.06    0.00   96.88

Device:         rrqm/s   wrqm/s     r/s     w/s    rkB/s    wkB/s avgrq-sz avgqu-sz   await r_await w_await  svctm  %util
nvme0n1           0.00     0.00    0.00    0.00     0.00     0.00     0.00     0.00    0.00    0.00    0.00   0.00   0.00
sda               0.00     0.00    0.00    0.00     0.00     0.00     0.00     0.00    0.00    0.00    0.00   0.00   0.00
sdc               0.00     0.00  161.00    0.00   716.00     0.00     8.89     0.31    1.93    1.93    0.00   1.93  31.10
sdb               0.00     0.00  159.00    0.00   672.00     0.00     8.45     0.24    1.48    1.48    0.00   1.48  23.60
sdd               0.00     0.00  141.00    0.00   584.00     0.00     8.28     0.44    3.07    3.07    0.00   3.10  43.70
md0               0.00     0.00  461.00    0.00  1984.00     0.00     8.61     0.00    0.00    0.00    0.00   0.00   0.00

avg-cpu:  %user   %nice %system %iowait  %steal   %idle
           0.03    0.00    0.03    3.03    0.00   96.91

Device:         rrqm/s   wrqm/s     r/s     w/s    rkB/s    wkB/s avgrq-sz avgqu-sz   await r_await w_await  svctm  %util
nvme0n1           0.00     0.00    0.00    0.00     0.00     0.00     0.00     0.00    0.00    0.00    0.00   0.00   0.00
sda               0.00    12.00    0.00    2.00     0.00    56.00    56.00     0.00    0.00    0.00    0.00   0.00   0.00
sdc               0.00     0.00  147.00    0.00   624.00     0.00     8.49     0.42    2.86    2.86    0.00   2.86  42.00
sdb               0.00     0.00  138.00    0.00   588.00     0.00     8.52     0.21    1.53    1.53    0.00   1.53  21.10
sdd               0.00     0.00  167.00    0.00   728.00     0.00     8.72     0.36    2.21    2.21    0.00   2.16  36.10
md0               0.00     0.00  452.00    0.00  1940.00     0.00     8.58     0.00    0.00    0.00    0.00   0.00   0.00

avg-cpu:  %user   %nice %system %iowait  %steal   %idle
           0.00    0.00    0.06    3.00    0.00   96.93

Device:         rrqm/s   wrqm/s     r/s     w/s    rkB/s    wkB/s avgrq-sz avgqu-sz   await r_await w_await  svctm  %util
nvme0n1           0.00     0.00    0.00    0.00     0.00     0.00     0.00     0.00    0.00    0.00    0.00   0.00   0.00
sda               0.00     0.00    0.00    0.00     0.00     0.00     0.00     0.00    0.00    0.00    0.00   0.00   0.00
sdc               0.00     0.00  170.00    0.00   776.00     0.00     9.13     0.27    1.56    1.56    0.00   1.56  26.60
sdb               0.00     0.00  162.00    0.00   708.00     0.00     8.74     0.32    1.99    1.99    0.00   1.99  32.20
sdd               0.00     0.00  147.00    0.00   660.00     0.00     8.98     0.40    2.69    2.69    0.00   2.69  39.50
md0               0.00     0.00  479.00    0.00  2144.00     0.00     8.95     0.00    0.00    0.00    0.00   0.00   0.00

avg-cpu:  %user   %nice %system %iowait  %steal   %idle
           0.00    0.00    0.06    3.06    0.00   96.88

Device:         rrqm/s   wrqm/s     r/s     w/s    rkB/s    wkB/s avgrq-sz avgqu-sz   await r_await w_await  svctm  %util
nvme0n1           0.00     0.00    0.00    0.00     0.00     0.00     0.00     0.00    0.00    0.00    0.00   0.00   0.00
sda               0.00     0.00    0.00    0.00     0.00     0.00     0.00     0.00    0.00    0.00    0.00   0.00   0.00
sdc               0.00     0.00  124.00    0.00   508.00     0.00     8.19     0.32    2.56    2.56    0.00   2.56  31.70
sdb               0.00     0.00  131.00    0.00   560.00     0.00     8.55     0.48    3.64    3.64    0.00   3.69  48.40
sdd               0.00     0.00  175.00    0.00   772.00     0.00     8.82     0.18    1.05    1.05    0.00   1.04  18.20
md0               0.00     0.00  430.00    0.00  1840.00     0.00     8.56     0.00    0.00    0.00    0.00   0.00   0.00

avg-cpu:  %user   %nice %system %iowait  %steal   %idle
           0.00    0.00    0.03    3.00    0.00   96.96

Device:         rrqm/s   wrqm/s     r/s     w/s    rkB/s    wkB/s avgrq-sz avgqu-sz   await r_await w_await  svctm  %util
nvme0n1           0.00     0.00    0.00    0.00     0.00     0.00     0.00     0.00    0.00    0.00    0.00   0.00   0.00
sda               0.00     0.00    0.00    0.00     0.00     0.00     0.00     0.00    0.00    0.00    0.00   0.00   0.00
sdc               0.00     0.00  147.00    0.00   612.00     0.00     8.33     0.40    2.72    2.72    0.00   2.72  40.00
sdb               0.00     0.00  155.00    0.00   644.00     0.00     8.31     0.26    1.74    1.74    0.00   1.69  26.20
sdd               0.00     0.00  170.00    0.00   704.00     0.00     8.28     0.32    1.85    1.85    0.00   1.87  31.80
md0               0.00     0.00  472.00    0.00  1960.00     0.00     8.31     0.00    0.00    0.00    0.00   0.00   0.00

avg-cpu:  %user   %nice %system %iowait  %steal   %idle
           0.03    0.00    0.09    3.06    0.00   96.81

Device:         rrqm/s   wrqm/s     r/s     w/s    rkB/s    wkB/s avgrq-sz avgqu-sz   await r_await w_await  svctm  %util
nvme0n1           0.00     0.00    0.00    0.00     0.00     0.00     0.00     0.00    0.00    0.00    0.00   0.00   0.00
sda               0.00     0.00    0.00    0.00     0.00     0.00     0.00     0.00    0.00    0.00    0.00   0.00   0.00
sdc               0.00     0.00  147.00    0.00   620.00     0.00     8.44     0.42    2.86    2.86    0.00   2.88  42.30
sdb               0.00     0.00  142.00    0.00   592.00     0.00     8.34     0.42    2.98    2.98    0.00   2.98  42.30
sdd               0.00     0.00  149.00    0.00   692.00     0.00     9.29     0.14    0.94    0.94    0.00   0.92  13.70
md0               0.00     0.00  438.00    0.00  1908.00     0.00     8.71     0.00    0.00    0.00    0.00   0.00   0.00

avg-cpu:  %user   %nice %system %iowait  %steal   %idle
           0.00    0.00    0.03    3.03    0.00   96.93

Device:         rrqm/s   wrqm/s     r/s     w/s    rkB/s    wkB/s avgrq-sz avgqu-sz   await r_await w_await  svctm  %util
nvme0n1           0.00     0.00    0.00    0.00     0.00     0.00     0.00     0.00    0.00    0.00    0.00   0.00   0.00
sda               0.00     1.00    0.00    2.00     0.00    12.00    12.00     0.00    0.00    0.00    0.00   0.00   0.00
sdc               0.00     0.00  155.00    0.00   644.00     0.00     8.31     0.16    1.06    1.06    0.00   1.04  16.10
sdb               0.00     0.00  141.00    0.00   564.00     0.00     8.00     0.39    2.73    2.73    0.00   2.73  38.50
sdd               0.00     0.00  136.00    0.00   568.00     0.00     8.35     0.43    3.17    3.17    0.00   3.17  43.10
md0               0.00     0.00  433.00    0.00  1780.00     0.00     8.22     0.00    0.00    0.00    0.00   0.00   0.00

avg-cpu:  %user   %nice %system %iowait  %steal   %idle
           0.00    0.00    0.03    3.03    0.00   96.94

Device:         rrqm/s   wrqm/s     r/s     w/s    rkB/s    wkB/s avgrq-sz avgqu-sz   await r_await w_await  svctm  %util
nvme0n1           0.00     0.00    0.00    0.00     0.00     0.00     0.00     0.00    0.00    0.00    0.00   0.00   0.00
sda               0.00     0.00    0.00    0.00     0.00     0.00     0.00     0.00    0.00    0.00    0.00   0.00   0.00
sdc               0.00     0.00  151.00    0.00   652.00     0.00     8.64     0.22    1.44    1.44    0.00   1.44  21.70
sdb               0.00     0.00  174.00    0.00   708.00     0.00     8.14     0.35    1.99    1.99    0.00   2.02  35.20
sdd               0.00     0.00  133.00    0.00   600.00     0.00     9.02     0.42    3.14    3.14    0.00   3.14  41.80
md0               0.00     0.00  457.00    0.00  1960.00     0.00     8.58     0.00    0.00    0.00    0.00   0.00   0.00

avg-cpu:  %user   %nice %system %iowait  %steal   %idle
           0.00    0.00    0.06    3.03    0.00   96.91

Device:         rrqm/s   wrqm/s     r/s     w/s    rkB/s    wkB/s avgrq-sz avgqu-sz   await r_await w_await  svctm  %util
nvme0n1           0.00     0.00    0.00    0.00     0.00     0.00     0.00     0.00    0.00    0.00    0.00   0.00   0.00
sda               0.00     2.00    0.00    1.00     0.00    28.00    56.00     0.00    0.00    0.00    0.00   0.00   0.00
sdc               0.00     0.00  149.00    0.00   620.00     0.00     8.32     0.38    2.52    2.52    0.00   2.52  37.50
sdb               0.00     0.00  140.00    0.00   604.00     0.00     8.63     0.29    2.10    2.10    0.00   2.07  29.00
sdd               0.00     0.00  150.00    0.00   620.00     0.00     8.27     0.32    2.11    2.11    0.00   2.11  31.60
md0               0.00     0.00  439.00    0.00  1844.00     0.00     8.40     0.00    0.00    0.00    0.00   0.00   0.00

avg-cpu:  %user   %nice %system %iowait  %steal   %idle
           0.03    0.00    0.06    3.03    0.00   96.87

Device:         rrqm/s   wrqm/s     r/s     w/s    rkB/s    wkB/s avgrq-sz avgqu-sz   await r_await w_await  svctm  %util
nvme0n1           0.00     0.00    0.00    0.00     0.00     0.00     0.00     0.00    0.00    0.00    0.00   0.00   0.00
sda               0.00     0.00    0.00    0.00     0.00     0.00     0.00     0.00    0.00    0.00    0.00   0.00   0.00
sdc               0.00     0.00  159.00    0.00   716.00     0.00     9.01     0.29    1.82    1.82    0.00   1.82  28.90
sdb               0.00     0.00  144.00    0.00   688.00     0.00     9.56     0.20    1.43    1.43    0.00   1.42  20.50
sdd               0.00     0.00  155.00    0.00   652.00     0.00     8.41     0.49    3.14    3.14    0.00   3.15  48.90
md0               0.00     0.00  458.00    0.00  2072.00     0.00     9.05     0.00    0.00    0.00    0.00   0.00   0.00

avg-cpu:  %user   %nice %system %iowait  %steal   %idle
           0.00    0.00    0.06    3.03    0.00   96.91

Device:         rrqm/s   wrqm/s     r/s     w/s    rkB/s    wkB/s avgrq-sz avgqu-sz   await r_await w_await  svctm  %util
nvme0n1           0.00     0.00    0.00    0.00     0.00     0.00     0.00     0.00    0.00    0.00    0.00   0.00   0.00
sda               0.00     0.00    0.00    0.00     0.00     0.00     0.00     0.00    0.00    0.00    0.00   0.00   0.00
sdc               0.00     0.00  143.00    0.00   608.00     0.00     8.50     0.36    2.50    2.50    0.00   2.50  35.70
sdb               0.00     0.00  150.00    0.00   624.00     0.00     8.32     0.36    2.43    2.43    0.00   2.43  36.50
sdd               0.00     0.00  138.00    0.00   612.00     0.00     8.87     0.25    1.87    1.87    0.00   1.85  25.50
md0               0.00     0.00  431.00    0.00  1844.00     0.00     8.56     0.00    0.00    0.00    0.00   0.00   0.00

avg-cpu:  %user   %nice %system %iowait  %steal   %idle
           0.03    0.00    0.03    3.03    0.00   96.91

Device:         rrqm/s   wrqm/s     r/s     w/s    rkB/s    wkB/s avgrq-sz avgqu-sz   await r_await w_await  svctm  %util
nvme0n1           0.00     0.00    0.00    0.00     0.00     0.00     0.00     0.00    0.00    0.00    0.00   0.00   0.00
sda               0.00     3.00    0.00    2.00     0.00    20.00    20.00     0.00    0.00    0.00    0.00   0.00   0.00
sdc               0.00     0.00  166.00    0.00   768.00     0.00     9.25     0.41    2.48    2.48    0.00   2.48  41.10
sdb               0.00     0.00  140.00    0.00   596.00     0.00     8.51     0.23    1.66    1.66    0.00   1.66  23.30
sdd               0.00     0.00  121.00    0.00   508.00     0.00     8.40     0.34    2.71    2.71    0.00   2.77  33.50
md0               0.00     0.00  427.00    0.00  1872.00     0.00     8.77     0.00    0.00    0.00    0.00   0.00   0.00

avg-cpu:  %user   %nice %system %iowait  %steal   %idle
           0.00    0.00    0.03    3.03    0.00   96.93

Device:         rrqm/s   wrqm/s     r/s     w/s    rkB/s    wkB/s avgrq-sz avgqu-sz   await r_await w_await  svctm  %util
nvme0n1           0.00     0.00    0.00    0.00     0.00     0.00     0.00     0.00    0.00    0.00    0.00   0.00   0.00
sda               0.00     0.00    0.00    0.00     0.00     0.00     0.00     0.00    0.00    0.00    0.00   0.00   0.00
sdc               0.00     0.00  149.00    0.00   888.00     0.00    11.92     0.29    1.93    1.93    0.00   1.93  28.70
sdb               0.00     0.00  154.00    0.00   708.00     0.00     9.19     0.27    1.73    1.73    0.00   1.73  26.60
sdd               0.00     0.00  151.00    0.00   640.00     0.00     8.48     0.43    2.88    2.88    0.00   2.83  42.80
md0               0.00     0.00  454.00    0.00  2416.00     0.00    10.64     0.00    0.00    0.00    0.00   0.00   0.00

avg-cpu:  %user   %nice %system %iowait  %steal   %idle
           0.00    0.00    0.06    3.06    0.00   96.88

Device:         rrqm/s   wrqm/s     r/s     w/s    rkB/s    wkB/s avgrq-sz avgqu-sz   await r_await w_await  svctm  %util
nvme0n1           0.00     0.00    0.00    0.00     0.00     0.00     0.00     0.00    0.00    0.00    0.00   0.00   0.00
sda               0.00     0.00    0.00    0.00     0.00     0.00     0.00     0.00    0.00    0.00    0.00   0.00   0.00
sdc               0.00     0.00  138.00    0.00   576.00     0.00     8.35     0.31    2.27    2.27    0.00   2.26  31.20
sdb               0.00     0.00  149.00    0.00   712.00     0.00     9.56     0.30    2.00    2.00    0.00   2.00  29.80
sdd               0.00     0.00  147.00    0.00   636.00     0.00     8.65     0.37    2.52    2.52    0.00   2.52  37.10
md0               0.00     0.00  434.00    0.00  1924.00     0.00     8.87     0.00    0.00    0.00    0.00   0.00   0.00

avg-cpu:  %user   %nice %system %iowait  %steal   %idle
           0.03    0.00    0.03    3.03    0.00   96.91

Device:         rrqm/s   wrqm/s     r/s     w/s    rkB/s    wkB/s avgrq-sz avgqu-sz   await r_await w_await  svctm  %util
nvme0n1           0.00     0.00    0.00    0.00     0.00     0.00     0.00     0.00    0.00    0.00    0.00   0.00   0.00
sda               0.00     0.00    1.00    3.00     4.00    32.00    18.00     0.00    0.00    0.00    0.00   0.00   0.00
sdc               0.00     0.00  144.00    0.00   636.00     0.00     8.83     0.27    1.85    1.85    0.00   1.85  26.70
sdb               0.00     0.00  152.00    0.00   768.00     0.00    10.11     0.29    1.93    1.93    0.00   1.93  29.40
sdd               0.00     0.00  154.00    0.00   616.00     0.00     8.00     0.42    2.74    2.74    0.00   2.74  42.20
md0               0.00     0.00  450.00    0.00  2020.00     0.00     8.98     0.00    0.00    0.00    0.00   0.00   0.00

avg-cpu:  %user   %nice %system %iowait  %steal   %idle
           0.00    0.00    0.06    3.03    0.00   96.90

Device:         rrqm/s   wrqm/s     r/s     w/s    rkB/s    wkB/s avgrq-sz avgqu-sz   await r_await w_await  svctm  %util
nvme0n1           0.00     0.00    0.00    0.00     0.00     0.00     0.00     0.00    0.00    0.00    0.00   0.00   0.00
sda               0.00     0.00    0.00    0.00     0.00     0.00     0.00     0.00    0.00    0.00    0.00   0.00   0.00
sdc               0.00     0.00  140.00    0.00   596.00     0.00     8.51     0.30    2.10    2.10    0.00   2.12  29.70
sdb               0.00     0.00  155.00    0.00   708.00     0.00     9.14     0.51    3.30    3.30    0.00   3.29  51.00
sdd               0.00     0.00  146.00    0.00   728.00     0.00     9.97     0.18    1.22    1.22    0.00   1.21  17.70
md0               0.00     0.00  441.00    0.00  2100.00     0.00     9.52     0.00    0.00    0.00    0.00   0.00   0.00

avg-cpu:  %user   %nice %system %iowait  %steal   %idle
           0.00    0.00    0.09    3.03    0.00   96.88

Device:         rrqm/s   wrqm/s     r/s     w/s    rkB/s    wkB/s avgrq-sz avgqu-sz   await r_await w_await  svctm  %util
nvme0n1           0.00     0.00    0.00    0.00     0.00     0.00     0.00     0.00    0.00    0.00    0.00   0.00   0.00
sda               0.00     5.00    0.00    2.00     0.00    28.00    28.00     0.00    0.00    0.00    0.00   0.00   0.00
sdc               0.00     0.00  155.00    0.00   704.00     0.00     9.08     0.19    1.23    1.23    0.00   1.21  18.70
sdb               0.00     0.00  155.00    0.00   740.00     0.00     9.55     0.36    2.25    2.25    0.00   2.31  35.80
sdd               0.00     0.00  153.00    0.00   648.00     0.00     8.47     0.43    2.84    2.84    0.00   2.84  43.50
md0               0.00     0.00  463.00    0.00  2092.00     0.00     9.04     0.00    0.00    0.00    0.00   0.00   0.00

