Linux 4.17.2 (bench2) 	08/04/2018 	_x86_64_	(32 CPU)

avg-cpu:  %user   %nice %system %iowait  %steal   %idle
           1.89    0.00    1.53    1.65    0.00   94.93

Device:         rrqm/s   wrqm/s     r/s     w/s    rkB/s    wkB/s avgrq-sz avgqu-sz   await r_await w_await  svctm  %util
nvme0n1         919.74     5.00 18541.65  510.51 103714.27 11513.50    12.10     1.32    0.05    0.03    0.67   0.02  38.81
sda               0.12     0.82   14.20    0.59   164.14     8.57    23.36     0.00    0.33    0.32    0.43   0.07   0.10
sdc              35.36     0.17  130.50    0.30  1931.58    95.82    31.00     0.20    1.52    0.64  381.84   0.89  11.61
sdb              33.37     0.18  132.46    0.33  1929.72    95.65    30.51     0.62    4.69    3.68  413.03   0.83  11.06
sdd              35.56     0.16  130.05    0.26  1927.71    95.33    31.05     0.94    7.19    5.41  909.23   0.89  11.66
md0               0.00     0.00  500.10    1.19  7170.46   345.66    29.99     0.00    0.00    0.00    0.00   0.00   0.00

avg-cpu:  %user   %nice %system %iowait  %steal   %idle
           0.03    0.00    0.16    2.69    0.00   97.12

Device:         rrqm/s   wrqm/s     r/s     w/s    rkB/s    wkB/s avgrq-sz avgqu-sz   await r_await w_await  svctm  %util
nvme0n1           0.00     0.00    0.00    0.00     0.00     0.00     0.00     0.00    0.00    0.00    0.00   0.00   0.00
sda               0.00     0.00    1.00    0.00     8.00     0.00    16.00     0.00    0.00    0.00    0.00   0.00   0.00
sdc             850.00     0.00 1765.00    0.00 10644.00     0.00    12.06    52.01   28.99   28.99    0.00   0.43  76.70
sdb             867.00     0.00 1724.00    0.00 10496.00     0.00    12.18    69.93   39.72   39.72    0.00   0.52  90.00
sdd             906.00     0.00 1670.00    0.00 10232.00     0.00    12.25    74.95   42.74   42.74    0.00   0.59  98.00
md0               0.00     0.00 7565.00    0.00 30260.00     0.00     8.00     0.00    0.00    0.00    0.00   0.00   0.00

avg-cpu:  %user   %nice %system %iowait  %steal   %idle
           0.03    0.00    0.09    2.82    0.00   97.06

Device:         rrqm/s   wrqm/s     r/s     w/s    rkB/s    wkB/s avgrq-sz avgqu-sz   await r_await w_await  svctm  %util
nvme0n1           0.00     0.00    0.00    0.00     0.00     0.00     0.00     0.00    0.00    0.00    0.00   0.00   0.00
sda               0.00     0.00    0.00    0.00     0.00     0.00     0.00     0.00    0.00    0.00    0.00   0.00   0.00
sdc             936.00     0.00 1726.00    0.00 10484.00     0.00    12.15    52.28   29.88   29.88    0.00   0.45  77.90
sdb             962.00     0.00 1719.00    0.00 10616.00     0.00    12.35    48.65   28.45   28.45    0.00   0.45  76.90
sdd            1030.00     0.00 1716.00    0.00 10868.00     0.00    12.67    72.83   43.50   43.50    0.00   0.57  97.70
md0               0.00     0.00 8166.00    0.00 32664.00     0.00     8.00     0.00    0.00    0.00    0.00   0.00   0.00

