Linux 4.17.2 (bench2) 	08/04/2018 	_x86_64_	(32 CPU)

avg-cpu:  %user   %nice %system %iowait  %steal   %idle
           1.89    0.00    1.53    1.64    0.00   94.94

Device:         rrqm/s   wrqm/s     r/s     w/s    rkB/s    wkB/s avgrq-sz avgqu-sz   await r_await w_await  svctm  %util
nvme0n1         922.24     5.01 18591.90  511.89 103995.36 11544.71    12.10     1.32    0.05    0.03    0.67   0.02  38.92
sda               0.12     0.82   14.20    0.59   164.14     8.57    23.37     0.00    0.33    0.32    0.43   0.07   0.10
sdc              35.33     0.17  129.13    0.31  1908.93    96.08    30.98     0.18    1.36    0.46  381.84   0.89  11.50
sdb              33.32     0.18  131.09    0.33  1907.04    95.91    30.48     0.60    4.57    3.55  413.03   0.83  10.95
sdd              35.52     0.16  128.68    0.26  1905.07    95.58    31.03     0.92    7.10    5.29  909.23   0.89  11.53
md0               0.00     0.00  495.87    1.19  7085.17   346.60    29.90     0.00    0.00    0.00    0.00   0.00   0.00

avg-cpu:  %user   %nice %system %iowait  %steal   %idle
           0.03    0.00    0.34    0.38    0.00   99.25

Device:         rrqm/s   wrqm/s     r/s     w/s    rkB/s    wkB/s avgrq-sz avgqu-sz   await r_await w_await  svctm  %util
nvme0n1           0.00     0.00    0.00    0.00     0.00     0.00     0.00     0.00    0.00    0.00    0.00   0.00   0.00
sda               0.00     0.00    4.00    0.00   104.00     0.00    52.00     0.00    0.00    0.00    0.00   0.00   0.00
sdc               0.00     0.00 2260.00    0.00  9040.00     0.00     8.00     0.26    0.12    0.12    0.00   0.11  25.80
sdb               0.00     0.00 2216.00    0.00  8864.00     0.00     8.00     0.27    0.12    0.12    0.00   0.12  27.40
sdd               0.00     0.00 2248.00    0.00  8992.00     0.00     8.00     0.41    0.18    0.18    0.00   0.18  41.00
md0               0.00     0.00 6725.00    0.00 26900.00     0.00     8.00     0.00    0.00    0.00    0.00   0.00   0.00

avg-cpu:  %user   %nice %system %iowait  %steal   %idle
           0.03    0.00    0.38    0.31    0.00   99.28

Device:         rrqm/s   wrqm/s     r/s     w/s    rkB/s    wkB/s avgrq-sz avgqu-sz   await r_await w_await  svctm  %util
nvme0n1           0.00     0.00    0.00    0.00     0.00     0.00     0.00     0.00    0.00    0.00    0.00   0.00   0.00
sda               0.00     0.00    0.00    0.00     0.00     0.00     0.00     0.00    0.00    0.00    0.00   0.00   0.00
sdc               0.00     0.00 2304.00    0.00  9216.00     0.00     8.00     0.29    0.13    0.13    0.00   0.13  29.50
sdb               0.00     0.00 2292.00    0.00  9168.00     0.00     8.00     0.27    0.12    0.12    0.00   0.12  27.30
sdd               0.00     0.00 2351.00    0.00  9404.00     0.00     8.00     0.38    0.16    0.16    0.00   0.16  37.60
md0               0.00     0.00 6947.00    0.00 27788.00     0.00     8.00     0.00    0.00    0.00    0.00   0.00   0.00

avg-cpu:  %user   %nice %system %iowait  %steal   %idle
           0.03    0.00    0.28    0.31    0.00   99.37

Device:         rrqm/s   wrqm/s     r/s     w/s    rkB/s    wkB/s avgrq-sz avgqu-sz   await r_await w_await  svctm  %util
nvme0n1           0.00     0.00    0.00    0.00     0.00     0.00     0.00     0.00    0.00    0.00    0.00   0.00   0.00
sda               0.00    12.00    0.00    2.00     0.00    56.00    56.00     0.00    0.50    0.00    0.50   0.50   0.10
sdc               0.00     0.00 2351.00    0.00  9404.00     0.00     8.00     0.27    0.11    0.11    0.00   0.11  26.70
sdb               0.00     0.00 2364.00    0.00  9456.00     0.00     8.00     0.27    0.11    0.11    0.00   0.11  27.10
sdd               0.00     0.00 2208.00    0.00  8832.00     0.00     8.00     0.41    0.19    0.19    0.00   0.19  41.30
md0               0.00     0.00 6923.00    0.00 27692.00     0.00     8.00     0.00    0.00    0.00    0.00   0.00   0.00

avg-cpu:  %user   %nice %system %iowait  %steal   %idle
           0.03    0.00    0.50    0.19    0.00   99.28

Device:         rrqm/s   wrqm/s     r/s     w/s    rkB/s    wkB/s avgrq-sz avgqu-sz   await r_await w_await  svctm  %util
nvme0n1           0.00     0.00    0.00    0.00     0.00     0.00     0.00     0.00    0.00    0.00    0.00   0.00   0.00
sda               0.00     0.00    0.00    0.00     0.00     0.00     0.00     0.00    0.00    0.00    0.00   0.00   0.00
sdc               0.00     0.00 2726.00    0.00 10904.00     0.00     8.00     0.31    0.11    0.11    0.00   0.11  31.20
sdb               0.00     0.00 2742.00    0.00 10968.00     0.00     8.00     0.31    0.11    0.11    0.00   0.11  31.10
sdd               0.00     0.00 2818.00    0.00 11272.00     0.00     8.00     0.32    0.11    0.11    0.00   0.11  31.60
md0               0.00     0.00 8286.00    0.00 33144.00     0.00     8.00     0.00    0.00    0.00    0.00   0.00   0.00

avg-cpu:  %user   %nice %system %iowait  %steal   %idle
           0.03    0.00    0.47    0.16    0.00   99.34

Device:         rrqm/s   wrqm/s     r/s     w/s    rkB/s    wkB/s avgrq-sz avgqu-sz   await r_await w_await  svctm  %util
nvme0n1           0.00     0.00    0.00    0.00     0.00     0.00     0.00     0.00    0.00    0.00    0.00   0.00   0.00
sda               0.00     0.00    0.00    0.00     0.00     0.00     0.00     0.00    0.00    0.00    0.00   0.00   0.00
sdc               0.00     0.00 2699.00    0.00 10796.00     0.00     8.00     0.30    0.11    0.11    0.00   0.11  30.00
sdb               0.00     0.00 2791.00    0.00 11164.00     0.00     8.00     0.32    0.11    0.11    0.00   0.11  31.50
sdd               0.00     0.00 2807.00    0.00 11228.00     0.00     8.00     0.31    0.11    0.11    0.00   0.11  31.40
md0               0.00     0.00 8297.00    0.00 33188.00     0.00     8.00     0.00    0.00    0.00    0.00   0.00   0.00

avg-cpu:  %user   %nice %system %iowait  %steal   %idle
           0.03    0.00    0.41    0.16    0.00   99.40

Device:         rrqm/s   wrqm/s     r/s     w/s    rkB/s    wkB/s avgrq-sz avgqu-sz   await r_await w_await  svctm  %util
nvme0n1           0.00     0.00    0.00    0.00     0.00     0.00     0.00     0.00    0.00    0.00    0.00   0.00   0.00
sda               0.00     0.00    0.00    0.00     0.00     0.00     0.00     0.00    0.00    0.00    0.00   0.00   0.00
sdc               0.00     0.00 2783.00    0.00 11132.00     0.00     8.00     0.32    0.12    0.12    0.00   0.11  32.00
sdb               0.00     0.00 2790.00    0.00 11160.00     0.00     8.00     0.32    0.12    0.12    0.00   0.11  32.00
sdd               0.00     0.00 2722.00    0.00 10888.00     0.00     8.00     0.30    0.11    0.11    0.00   0.11  30.10
md0               0.00     0.00 8295.00    0.00 33180.00     0.00     8.00     0.00    0.00    0.00    0.00   0.00   0.00

avg-cpu:  %user   %nice %system %iowait  %steal   %idle
           0.03    0.00    0.50    0.19    0.00   99.28

Device:         rrqm/s   wrqm/s     r/s     w/s    rkB/s    wkB/s avgrq-sz avgqu-sz   await r_await w_await  svctm  %util
nvme0n1           0.00     0.00    0.00    0.00     0.00     0.00     0.00     0.00    0.00    0.00    0.00   0.00   0.00
sda               0.00     0.00    0.00    0.00     0.00     0.00     0.00     0.00    0.00    0.00    0.00   0.00   0.00
sdc               0.00     0.00 2724.00    0.00 10896.00     0.00     8.00     0.32    0.12    0.12    0.00   0.12  32.00
sdb               0.00     0.00 2715.00    0.00 10860.00     0.00     8.00     0.29    0.11    0.11    0.00   0.11  29.50
sdd               0.00     0.00 2858.00    0.00 11432.00     0.00     8.00     0.33    0.11    0.11    0.00   0.11  32.70
md0               0.00     0.00 8297.00    0.00 33188.00     0.00     8.00     0.00    0.00    0.00    0.00   0.00   0.00

avg-cpu:  %user   %nice %system %iowait  %steal   %idle
           0.03    0.00    0.44    0.16    0.00   99.37

Device:         rrqm/s   wrqm/s     r/s     w/s    rkB/s    wkB/s avgrq-sz avgqu-sz   await r_await w_await  svctm  %util
nvme0n1           0.00     0.00    0.00    0.00     0.00     0.00     0.00     0.00    0.00    0.00    0.00   0.00   0.00
sda               0.00     5.00    0.00    6.00     0.00    60.00    20.00     0.00    0.00    0.00    0.00   0.00   0.00
sdc               0.00     0.00 2759.00    0.00 11036.00     0.00     8.00     0.31    0.11    0.11    0.00   0.11  30.90
sdb               0.00     0.00 2745.00    0.00 10980.00     0.00     8.00     0.30    0.11    0.11    0.00   0.11  30.40
sdd               0.00     0.00 2706.00    0.00 10824.00     0.00     8.00     0.31    0.12    0.12    0.00   0.12  31.30
md0               0.00     0.00 8211.00    0.00 32844.00     0.00     8.00     0.00    0.00    0.00    0.00   0.00   0.00

avg-cpu:  %user   %nice %system %iowait  %steal   %idle
           0.03    0.00    0.47    0.19    0.00   99.31

Device:         rrqm/s   wrqm/s     r/s     w/s    rkB/s    wkB/s avgrq-sz avgqu-sz   await r_await w_await  svctm  %util
nvme0n1           0.00     0.00    0.00    0.00     0.00     0.00     0.00     0.00    0.00    0.00    0.00   0.00   0.00
sda               0.00     0.00    0.00    0.00     0.00     0.00     0.00     0.00    0.00    0.00    0.00   0.00   0.00
sdc               0.00     0.00 2737.00    0.00 10948.00     0.00     8.00     0.29    0.11    0.11    0.00   0.11  29.50
sdb               0.00     0.00 2631.00    0.00 10524.00     0.00     8.00     0.30    0.11    0.11    0.00   0.11  29.90
sdd               0.00     0.00 2736.00    0.00 10944.00     0.00     8.00     0.34    0.12    0.12    0.00   0.12  33.70
md0               0.00     0.00 8104.00    0.00 32416.00     0.00     8.00     0.00    0.00    0.00    0.00   0.00   0.00

avg-cpu:  %user   %nice %system %iowait  %steal   %idle
           0.03    0.00    0.31    0.44    0.00   99.22

Device:         rrqm/s   wrqm/s     r/s     w/s    rkB/s    wkB/s avgrq-sz avgqu-sz   await r_await w_await  svctm  %util
nvme0n1           0.00     0.00    0.00    0.00     0.00     0.00     0.00     0.00    0.00    0.00    0.00   0.00   0.00
sda               0.00     0.00    0.00    0.00     0.00     0.00     0.00     0.00    0.00    0.00    0.00   0.00   0.00
sdc               0.00     0.00 2040.00    0.00  8160.00     0.00     8.00     0.24    0.12    0.12    0.00   0.12  24.40
sdb               0.00     0.00 2079.00    0.00  8320.00     0.00     8.00     0.25    0.12    0.12    0.00   0.12  24.50
sdd               0.00     0.00 2148.00    0.00  8592.00     0.00     8.00     0.44    0.21    0.21    0.00   0.21  44.10
md0               0.00     0.00 6267.00    0.00 25068.00     0.00     8.00     0.00    0.00    0.00    0.00   0.00   0.00

avg-cpu:  %user   %nice %system %iowait  %steal   %idle
           0.03    0.00    0.34    0.41    0.00   99.22

Device:         rrqm/s   wrqm/s     r/s     w/s    rkB/s    wkB/s avgrq-sz avgqu-sz   await r_await w_await  svctm  %util
nvme0n1           0.00     0.00    0.00    0.00     0.00     0.00     0.00     0.00    0.00    0.00    0.00   0.00   0.00
sda               0.00     0.00    0.00    0.00     0.00     0.00     0.00     0.00    0.00    0.00    0.00   0.00   0.00
sdc               0.00     0.00 2087.00    0.00  8348.00     0.00     8.00     0.29    0.14    0.14    0.00   0.14  28.90
sdb               0.00     0.00 1950.00    0.00  7796.00     0.00     8.00     0.22    0.11    0.11    0.00   0.11  21.70
sdd               0.00     0.00 1988.00    0.00  7952.00     0.00     8.00     0.42    0.21    0.21    0.00   0.21  41.80
md0               0.00     0.00 6024.00    0.00 24096.00     0.00     8.00     0.00    0.00    0.00    0.00   0.00   0.00

avg-cpu:  %user   %nice %system %iowait  %steal   %idle
           0.03    0.00    0.41    0.44    0.00   99.12

Device:         rrqm/s   wrqm/s     r/s     w/s    rkB/s    wkB/s avgrq-sz avgqu-sz   await r_await w_await  svctm  %util
nvme0n1           0.00     0.00    0.00    0.00     0.00     0.00     0.00     0.00    0.00    0.00    0.00   0.00   0.00
sda               0.00     0.00    0.00    0.00     0.00     0.00     0.00     0.00    0.00    0.00    0.00   0.00   0.00
sdc               0.00     0.00 1998.00    0.00  7992.00     0.00     8.00     0.22    0.11    0.11    0.00   0.11  21.90
sdb               0.00     0.00 1915.00    0.00  7660.00     0.00     8.00     0.21    0.11    0.11    0.00   0.11  20.60
sdd               0.00     0.00 2010.00    0.00  8040.00     0.00     8.00     0.50    0.25    0.25    0.00   0.25  49.80
md0               0.00     0.00 5923.00    0.00 23692.00     0.00     8.00     0.00    0.00    0.00    0.00   0.00   0.00

avg-cpu:  %user   %nice %system %iowait  %steal   %idle
           0.03    0.00    0.34    0.34    0.00   99.28

Device:         rrqm/s   wrqm/s     r/s     w/s    rkB/s    wkB/s avgrq-sz avgqu-sz   await r_await w_await  svctm  %util
nvme0n1           0.00     0.00    0.00    0.00     0.00     0.00     0.00     0.00    0.00    0.00    0.00   0.00   0.00
sda               0.00     4.00    0.00    2.00     0.00    24.00    24.00     0.00    0.00    0.00    0.00   0.00   0.00
sdc               0.00     0.00 2399.00    0.00  9596.00     0.00     8.00     0.34    0.14    0.14    0.00   0.14  33.60
sdb               0.00     0.00 2305.00    0.00  9220.00     0.00     8.00     0.26    0.11    0.11    0.00   0.11  25.80
sdd               0.00     0.00 2269.00    0.00  9076.00     0.00     8.00     0.34    0.15    0.15    0.00   0.15  34.10
md0               0.00     0.00 6974.00    0.00 27896.00     0.00     8.00     0.00    0.00    0.00    0.00   0.00   0.00

avg-cpu:  %user   %nice %system %iowait  %steal   %idle
           0.00    0.00    0.41    0.31    0.00   99.28

Device:         rrqm/s   wrqm/s     r/s     w/s    rkB/s    wkB/s avgrq-sz avgqu-sz   await r_await w_await  svctm  %util
nvme0n1           0.00     0.00    0.00    0.00     0.00     0.00     0.00     0.00    0.00    0.00    0.00   0.00   0.00
sda               0.00     0.00    0.00    0.00     0.00     0.00     0.00     0.00    0.00    0.00    0.00   0.00   0.00
sdc               0.00     0.00 2367.00    0.00  9468.00     0.00     8.00     0.27    0.11    0.11    0.00   0.11  26.60
sdb               0.00     0.00 2381.00    0.00  9524.00     0.00     8.00     0.27    0.11    0.11    0.00   0.11  27.10
sdd               0.00     0.00 2434.00    0.00  9736.00     0.00     8.00     0.40    0.16    0.16    0.00   0.16  39.90
md0               0.00     0.00 7182.00    0.00 28728.00     0.00     8.00     0.00    0.00    0.00    0.00   0.00   0.00

avg-cpu:  %user   %nice %system %iowait  %steal   %idle
           0.06    0.00    0.34    0.25    0.00   99.34

Device:         rrqm/s   wrqm/s     r/s     w/s    rkB/s    wkB/s avgrq-sz avgqu-sz   await r_await w_await  svctm  %util
nvme0n1           0.00     0.00    0.00    0.00     0.00     0.00     0.00     0.00    0.00    0.00    0.00   0.00   0.00
sda               0.00     0.00    0.00    0.00     0.00     0.00     0.00     0.00    0.00    0.00    0.00   0.00   0.00
sdc               0.00     0.00 2453.00    0.00  9812.00     0.00     8.00     0.28    0.11    0.11    0.00   0.11  28.10
sdb               0.00     0.00 2482.00    0.00  9928.00     0.00     8.00     0.39    0.16    0.16    0.00   0.16  38.50
sdd               0.00     0.00 2487.00    0.00  9948.00     0.00     8.00     0.28    0.11    0.11    0.00   0.11  28.20
md0               0.00     0.00 7421.00    0.00 29684.00     0.00     8.00     0.00    0.00    0.00    0.00   0.00   0.00

avg-cpu:  %user   %nice %system %iowait  %steal   %idle
           0.00    0.00    0.44    0.28    0.00   99.28

Device:         rrqm/s   wrqm/s     r/s     w/s    rkB/s    wkB/s avgrq-sz avgqu-sz   await r_await w_await  svctm  %util
nvme0n1           0.00     0.00    0.00    0.00     0.00     0.00     0.00     0.00    0.00    0.00    0.00   0.00   0.00
sda               0.00     0.00    0.00    0.00     0.00     0.00     0.00     0.00    0.00    0.00    0.00   0.00   0.00
sdc               0.00     0.00 2395.00    0.00  9580.00     0.00     8.00     0.28    0.12    0.12    0.00   0.12  28.50
sdb               0.00     0.00 2468.00    0.00  9872.00     0.00     8.00     0.29    0.12    0.12    0.00   0.12  29.00
sdd               0.00     0.00 2353.00    0.00  9412.00     0.00     8.00     0.36    0.15    0.15    0.00   0.15  36.00
md0               0.00     0.00 7216.00    0.00 28864.00     0.00     8.00     0.00    0.00    0.00    0.00   0.00   0.00

avg-cpu:  %user   %nice %system %iowait  %steal   %idle
           0.03    0.00    0.38    0.34    0.00   99.25

Device:         rrqm/s   wrqm/s     r/s     w/s    rkB/s    wkB/s avgrq-sz avgqu-sz   await r_await w_await  svctm  %util
nvme0n1           0.00     0.00    0.00    0.00     0.00     0.00     0.00     0.00    0.00    0.00    0.00   0.00   0.00
sda               0.00     0.00    0.00    0.00     0.00     0.00     0.00     0.00    0.00    0.00    0.00   0.00   0.00
sdc               0.00     0.00 2401.00    0.00  9604.00     0.00     8.00     0.29    0.12    0.12    0.00   0.12  28.80
sdb               0.00     0.00 2374.00    0.00  9496.00     0.00     8.00     0.26    0.11    0.11    0.00   0.11  26.20
sdd               0.00     0.00 2267.00    0.00  9068.00     0.00     8.00     0.38    0.17    0.17    0.00   0.17  37.80
md0               0.00     0.00 7042.00    0.00 28168.00     0.00     8.00     0.00    0.00    0.00    0.00   0.00   0.00

avg-cpu:  %user   %nice %system %iowait  %steal   %idle
           0.03    0.00    0.34    0.34    0.00   99.28

Device:         rrqm/s   wrqm/s     r/s     w/s    rkB/s    wkB/s avgrq-sz avgqu-sz   await r_await w_await  svctm  %util
nvme0n1           0.00     0.00    0.00    0.00     0.00     0.00     0.00     0.00    0.00    0.00    0.00   0.00   0.00
sda               0.00     1.00    0.00    2.00     0.00    12.00    12.00     0.00    0.00    0.00    0.00   0.00   0.00
sdc               0.00     0.00 2335.00    0.00  9340.00     0.00     8.00     0.27    0.12    0.12    0.00   0.12  27.20
sdb               0.00     0.00 2366.00    0.00  9464.00     0.00     8.00     0.28    0.12    0.12    0.00   0.12  27.50
sdd               0.00     0.00 2299.00    0.00  9196.00     0.00     8.00     0.40    0.17    0.17    0.00   0.18  40.30
md0               0.00     0.00 7000.00    0.00 28000.00     0.00     8.00     0.00    0.00    0.00    0.00   0.00   0.00

avg-cpu:  %user   %nice %system %iowait  %steal   %idle
           0.03    0.00    0.38    0.44    0.00   99.16

Device:         rrqm/s   wrqm/s     r/s     w/s    rkB/s    wkB/s avgrq-sz avgqu-sz   await r_await w_await  svctm  %util
nvme0n1           0.00     0.00    0.00    0.00     0.00     0.00     0.00     0.00    0.00    0.00    0.00   0.00   0.00
sda               0.00     1.00    0.00    1.00     0.00    32.00    64.00     0.00    0.00    0.00    0.00   0.00   0.00
sdc               0.00     0.00 2007.00    0.00  8028.00     0.00     8.00     0.25    0.13    0.13    0.00   0.13  25.20
sdb               0.00     0.00 1958.00    0.00  7832.00     0.00     8.00     0.23    0.12    0.12    0.00   0.12  23.00
sdd               0.00     0.00 1856.00    0.00  7424.00     0.00     8.00     0.44    0.24    0.24    0.00   0.24  44.20
md0               0.00     0.00 5822.00    0.00 23288.00     0.00     8.00     0.00    0.00    0.00    0.00   0.00   0.00

avg-cpu:  %user   %nice %system %iowait  %steal   %idle
           0.06    0.00    0.28    0.41    0.00   99.25

Device:         rrqm/s   wrqm/s     r/s     w/s    rkB/s    wkB/s avgrq-sz avgqu-sz   await r_await w_await  svctm  %util
nvme0n1           0.00     0.00    0.00    0.00     0.00     0.00     0.00     0.00    0.00    0.00    0.00   0.00   0.00
sda               0.00     0.00    0.00    0.00     0.00     0.00     0.00     0.00    0.00    0.00    0.00   0.00   0.00
sdc               0.00     0.00 1827.00    0.00  7308.00     0.00     8.00     0.28    0.15    0.15    0.00   0.15  28.10
sdb               0.00     0.00 1842.00    0.00  7368.00     0.00     8.00     0.20    0.11    0.11    0.00   0.11  20.30
sdd               0.00     0.00 1818.00    0.00  7272.00     0.00     8.00     0.44    0.24    0.24    0.00   0.24  44.40
md0               0.00     0.00 5486.00    0.00 21944.00     0.00     8.00     0.00    0.00    0.00    0.00   0.00   0.00

