Linux 4.17.2 (bench2) 	08/04/2018 	_x86_64_	(32 CPU)

avg-cpu:  %user   %nice %system %iowait  %steal   %idle
           1.89    0.00    1.53    1.64    0.00   94.94

Device:         rrqm/s   wrqm/s     r/s     w/s    rkB/s    wkB/s avgrq-sz avgqu-sz   await r_await w_await  svctm  %util
nvme0n1         921.75     5.01 18582.19  511.62 103941.03 11538.68    12.10     1.32    0.05    0.03    0.67   0.02  38.90
sda               0.12     0.82   14.20    0.59   164.14     8.57    23.37     0.00    0.33    0.32    0.43   0.07   0.10
sdc              35.31     0.17  129.47    0.31  1914.56    96.03    30.99     0.18    1.37    0.47  381.84   0.89  11.51
sdb              33.31     0.18  131.43    0.33  1912.67    95.86    30.49     0.60    4.56    3.55  413.03   0.83  10.96
sdd              35.51     0.16  129.02    0.26  1910.70    95.53    31.04     0.92    7.08    5.28  909.23   0.89  11.55
md0               0.00     0.00  496.86    1.19  7106.85   346.42    29.93     0.00    0.00    0.00    0.00   0.00   0.00

avg-cpu:  %user   %nice %system %iowait  %steal   %idle
           0.00    0.00    0.02    3.09    0.00   96.89

Device:         rrqm/s   wrqm/s     r/s     w/s    rkB/s    wkB/s avgrq-sz avgqu-sz   await r_await w_await  svctm  %util
nvme0n1           0.00     0.00    0.00    0.00     0.00     0.00     0.00     0.00    0.00    0.00    0.00   0.00   0.00
sda               0.00     1.00    0.25    1.70     5.40    11.60    17.44     0.00    0.03    0.20    0.00   0.03   0.01
sdc               0.00     0.00  138.45    0.00   553.80     0.00     8.00     4.43   31.90   31.90    0.00   5.67  78.47
sdb               0.00     0.00  145.25    0.00   581.00     0.00     8.00     4.78   32.91   32.91    0.00   5.63  81.72
sdd               0.00     0.00  141.75    0.00   567.00     0.00     8.00     4.62   32.52   32.52    0.00   5.65  80.09
md0               0.00     0.00  425.95    0.00  1703.80     0.00     8.00     0.00    0.00    0.00    0.00   0.00   0.00

