Linux 4.17.2 (bench2) 	08/04/2018 	_x86_64_	(32 CPU)

avg-cpu:  %user   %nice %system %iowait  %steal   %idle
           1.89    0.00    1.53    1.65    0.00   94.93

Device:         rrqm/s   wrqm/s     r/s     w/s    rkB/s    wkB/s avgrq-sz avgqu-sz   await r_await w_await  svctm  %util
nvme0n1         919.95     5.00 18545.78  510.62 103737.34 11516.06    12.10     1.32    0.05    0.03    0.67   0.02  38.82
sda               0.12     0.82   14.20    0.59   164.14     8.57    23.36     0.00    0.33    0.32    0.43   0.07   0.10
sdc              35.32     0.17  130.37    0.31  1928.84    95.84    30.99     0.20    1.49    0.60  381.84   0.89  11.59
sdb              33.32     0.18  132.33    0.33  1926.96    95.67    30.49     0.62    4.65    3.65  413.03   0.83  11.04
sdd              35.51     0.16  129.92    0.26  1924.98    95.35    31.04     0.93    7.16    5.38  909.23   0.89  11.64
md0               0.00     0.00  499.58    1.19  7160.66   345.74    29.98     0.00    0.00    0.00    0.00   0.00   0.00

avg-cpu:  %user   %nice %system %iowait  %steal   %idle
           0.03    0.00    0.00    3.03    0.00   96.94

Device:         rrqm/s   wrqm/s     r/s     w/s    rkB/s    wkB/s avgrq-sz avgqu-sz   await r_await w_await  svctm  %util
nvme0n1           0.00     0.00    0.00    0.00     0.00     0.00     0.00     0.00    0.00    0.00    0.00   0.00   0.00
sda               0.00     0.00    1.00    0.00     8.00     0.00    16.00     0.00    0.00    0.00    0.00   0.00   0.00
sdc            1402.00     0.00  371.00    0.00  7428.00     0.00    40.04    16.75   44.74   44.74    0.00   2.35  87.10
sdb            1397.00     0.00  371.00    0.00  7656.00     0.00    41.27    16.04   43.47   43.47    0.00   2.09  77.50
sdd            1194.00     0.00  401.00    0.00  7320.00     0.00    36.51    21.53   53.88   53.88    0.00   2.43  97.60
md0               0.00     0.00 4822.00    0.00 19288.00     0.00     8.00     0.00    0.00    0.00    0.00   0.00   0.00

avg-cpu:  %user   %nice %system %iowait  %steal   %idle
           0.00    0.00    0.06    3.03    0.00   96.90

Device:         rrqm/s   wrqm/s     r/s     w/s    rkB/s    wkB/s avgrq-sz avgqu-sz   await r_await w_await  svctm  %util
nvme0n1           0.00     0.00    0.00    0.00     0.00     0.00     0.00     0.00    0.00    0.00    0.00   0.00   0.00
sda               0.00     0.00    0.00    0.00     0.00     0.00     0.00     0.00    0.00    0.00    0.00   0.00   0.00
sdc            1589.00     0.00  379.00    0.00  7552.00     0.00    39.85    20.17   51.47   51.47    0.00   2.48  94.10
sdb            1717.00     0.00  376.00    0.00  7348.00     0.00    39.09    21.23   52.89   52.89    0.00   2.38  89.30
sdd            1129.00     0.00  328.00    0.00  5264.00     0.00    32.10    21.93   61.90   61.90    0.00   2.91  95.60
md0               0.00     0.00 5585.00    0.00 22340.00     0.00     8.00     0.00    0.00    0.00    0.00   0.00   0.00

