Linux 4.17.2 (bench2) 	08/04/2018 	_x86_64_	(32 CPU)

avg-cpu:  %user   %nice %system %iowait  %steal   %idle
           1.89    0.00    1.54    1.63    0.00   94.94

Device:         rrqm/s   wrqm/s     r/s     w/s    rkB/s    wkB/s avgrq-sz avgqu-sz   await r_await w_await  svctm  %util
nvme0n1         925.54     5.03 18658.59  513.73 104368.36 11586.12    12.10     1.33    0.05    0.03    0.67   0.02  39.06
sda               0.12     0.82   14.19    0.58   164.09     8.57    23.38     0.00    0.33    0.32    0.44   0.07   0.10
sdc              34.98     0.17  126.89    0.31  1889.34    96.42    31.22     0.15    1.15    0.23  381.84   0.89  11.35
sdb              32.97     0.18  128.86    0.33  1887.42    96.25    30.71     0.57    4.43    3.39  413.03   0.84  10.80
sdd              35.17     0.16  126.44    0.26  1885.43    95.93    31.28     0.89    6.99    5.15  909.23   0.90  11.38
md0               0.00     0.00  488.12    1.20  7017.37   347.84    30.10     0.00    0.00    0.00    0.00   0.00   0.00

avg-cpu:  %user   %nice %system %iowait  %steal   %idle
           0.00    0.00    0.01    3.09    0.00   96.90

Device:         rrqm/s   wrqm/s     r/s     w/s    rkB/s    wkB/s avgrq-sz avgqu-sz   await r_await w_await  svctm  %util
nvme0n1           0.00     0.00    0.00    0.00     0.00     0.00     0.00     0.00    0.00    0.00    0.00   0.00   0.00
sda               0.00     1.05    0.15    1.45     5.00    10.80    19.75     0.00    0.06    0.33    0.03   0.06   0.01
sdc               0.00     0.00  194.25    0.00   777.00     0.00     8.00    17.91   92.14   92.14    0.00   4.60  89.40
sdb               0.00     0.00  193.80    0.00   775.20     0.00     8.00    17.45   89.89   89.89    0.00   4.55  88.16
sdd               0.00     0.00  191.55    0.00   766.20     0.00     8.00    17.31   90.14   90.14    0.00   4.56  87.44
md0               0.00     0.00  580.20    0.00  2320.80     0.00     8.00     0.00    0.00    0.00    0.00   0.00   0.00

