Linux 4.17.2 (bench2) 	08/04/2018 	_x86_64_	(32 CPU)

avg-cpu:  %user   %nice %system %iowait  %steal   %idle
           1.89    0.00    1.54    1.62    0.00   94.94

Device:         rrqm/s   wrqm/s     r/s     w/s    rkB/s    wkB/s avgrq-sz avgqu-sz   await r_await w_await  svctm  %util
nvme0n1         926.79     5.03 18683.66  514.42 104508.61 11601.68    12.10     1.33    0.05    0.03    0.67   0.02  39.11
sda               0.12     0.82   14.18    0.58   164.09     8.56    23.38     0.00    0.33    0.32    0.44   0.07   0.10
sdc              35.01     0.17  126.05    0.31  1875.86    96.55    31.22     0.14    1.14    0.21  381.84   0.90  11.31
sdb              33.00     0.18  128.02    0.33  1873.93    96.38    30.70     0.57    4.44    3.39  413.03   0.84  10.76
sdd              35.21     0.17  125.59    0.26  1871.93    96.06    31.27     0.88    7.02    5.17  909.23   0.90  11.33
md0               0.00     0.00  485.69    1.20  6965.89   348.31    30.04     0.00    0.00    0.00    0.00   0.00   0.00

avg-cpu:  %user   %nice %system %iowait  %steal   %idle
           3.05    0.00    0.30    2.77    0.00   93.88

Device:         rrqm/s   wrqm/s     r/s     w/s    rkB/s    wkB/s avgrq-sz avgqu-sz   await r_await w_await  svctm  %util
nvme0n1           0.00     0.00    0.00    0.00     0.00     0.00     0.00     0.00    0.00    0.00    0.00   0.00   0.00
sda               0.00     0.80    0.20    1.35     5.20     9.40    18.84     0.00    0.06    0.25    0.04   0.06   0.01
sdc               8.05     0.00 1437.70    0.00 21830.00     0.00    30.37     3.02    2.10    2.10    0.00   0.26  37.45
sdb               8.15     0.00 1447.45    0.00 21907.20     0.00    30.27     2.34    1.61    1.61    0.00   0.22  32.19
sdd               8.75     0.00 1415.70    0.00 21851.80     0.00    30.87     3.49    2.45    2.45    0.00   0.36  50.69
md0               0.00     0.00 4329.70    0.00 73989.60     0.00    34.18     0.00    0.00    0.00    0.00   0.00   0.00

