Linux 4.17.2 (bench2) 	08/04/2018 	_x86_64_	(32 CPU)

avg-cpu:  %user   %nice %system %iowait  %steal   %idle
           1.89    0.00    1.54    1.62    0.00   94.94

Device:         rrqm/s   wrqm/s     r/s     w/s    rkB/s    wkB/s avgrq-sz avgqu-sz   await r_await w_await  svctm  %util
nvme0n1         925.84     5.03 18664.66  513.90 104402.31 11589.88    12.10     1.33    0.05    0.03    0.67   0.02  39.07
sda               0.12     0.82   14.19    0.58   164.09     8.57    23.38     0.00    0.33    0.32    0.44   0.07   0.10
sdc              34.98     0.17  126.53    0.31  1883.80    96.45    31.22     0.15    1.14    0.22  381.84   0.89  11.34
sdb              32.97     0.18  128.50    0.33  1881.89    96.28    30.71     0.57    4.43    3.39  413.03   0.84  10.80
sdd              35.18     0.16  126.08    0.26  1879.90    95.96    31.28     0.89    7.00    5.16  909.23   0.90  11.37
md0               0.00     0.00  487.06    1.20  6996.08   347.95    30.08     0.00    0.00    0.00    0.00   0.00   0.00

avg-cpu:  %user   %nice %system %iowait  %steal   %idle
           3.06    0.00    0.28    2.88    0.00   93.78

Device:         rrqm/s   wrqm/s     r/s     w/s    rkB/s    wkB/s avgrq-sz avgqu-sz   await r_await w_await  svctm  %util
nvme0n1           0.00     0.00    0.00    0.00     0.00     0.00     0.00     0.00    0.00    0.00    0.00   0.00   0.00
sda               0.00     0.00    1.00    0.00     8.00     0.00    16.00     0.00    0.00    0.00    0.00   0.00   0.00
sdc               4.00     0.00 1665.00    0.00 17712.00     0.00    21.28     0.26    0.16    0.16    0.00   0.16  25.90
sdb               6.00     0.00 1664.00    0.00 17288.00     0.00    20.78     0.26    0.16    0.16    0.00   0.15  25.40
sdd               7.00     0.00 1635.00    0.00 20728.00     0.00    25.36     0.48    0.29    0.29    0.00   0.29  47.80
md0               0.00     0.00 4981.00    0.00 65976.00     0.00    26.49     0.00    0.00    0.00    0.00   0.00   0.00

