Linux 4.17.2 (bench2) 	08/04/2018 	_x86_64_	(32 CPU)

avg-cpu:  %user   %nice %system %iowait  %steal   %idle
           1.89    0.00    1.54    1.61    0.00   94.95

Device:         rrqm/s   wrqm/s     r/s     w/s    rkB/s    wkB/s avgrq-sz avgqu-sz   await r_await w_await  svctm  %util
nvme0n1         928.58     5.04 18719.78  515.41 104710.63 11624.11    12.10     1.33    0.05    0.03    0.67   0.02  39.19
sda               0.12     0.82   14.18    0.58   164.05     8.56    23.39     0.00    0.33    0.32    0.44   0.07   0.10
sdc              34.88     0.17  124.53    0.31  1870.91    96.74    31.52     0.14    1.10    0.16  381.84   0.90  11.25
sdb              32.86     0.18  126.50    0.33  1868.98    96.56    30.99     0.56    4.45    3.39  413.03   0.84  10.70
sdd              35.08     0.17  124.07    0.26  1866.97    96.24    31.58     0.88    7.07    5.19  909.23   0.91  11.26
md0               0.00     0.00  480.74    1.20  6953.00   348.98    30.30     0.00    0.00    0.00    0.00   0.00   0.00

avg-cpu:  %user   %nice %system %iowait  %steal   %idle
           3.13    0.00    0.03    3.09    0.00   93.76

Device:         rrqm/s   wrqm/s     r/s     w/s    rkB/s    wkB/s avgrq-sz avgqu-sz   await r_await w_await  svctm  %util
nvme0n1           0.00     0.00    0.00    0.00     0.00     0.00     0.00     0.00    0.00    0.00    0.00   0.00   0.00
sda               0.00     1.30    1.10    0.50     6.40     8.00    18.00     0.00    0.00    0.00    0.00   0.00   0.00
sdc               0.00     0.00   51.75    0.00   207.00     0.00     8.00     0.33    6.34    6.34    0.00   6.34  32.81
sdb               0.00     0.00   50.00    0.00   200.00     0.00     8.00     0.32    6.37    6.37    0.00   6.38  31.91
sdd               0.00     0.00   52.70    0.00   210.80     0.00     8.00     0.34    6.52    6.52    0.00   6.51  34.33
md0               0.00     0.00  154.50    0.00   618.00     0.00     8.00     0.00    0.00    0.00    0.00   0.00   0.00

