Linux 4.17.2 (bench2) 	08/04/2018 	_x86_64_	(32 CPU)

avg-cpu:  %user   %nice %system %iowait  %steal   %idle
           1.90    0.00    1.54    1.61    0.00   94.95

Device:         rrqm/s   wrqm/s     r/s     w/s    rkB/s    wkB/s avgrq-sz avgqu-sz   await r_await w_await  svctm  %util
nvme0n1         930.26     5.05 18753.64  516.35 104900.02 11645.14    12.10     1.33    0.05    0.03    0.67   0.02  39.26
sda               0.12     0.82   14.17    0.58   164.04     8.56    23.40     0.00    0.33    0.32    0.44   0.07   0.10
sdc              34.66     0.17  123.65    0.31  1853.34    96.91    31.47     0.11    0.91   12.26  381.84   0.90  11.16
sdb              32.64     0.19  125.62    0.33  1851.40    96.74    30.93     0.54    4.29    3.22  413.03   0.84  10.61
sdd              34.85     0.17  123.19    0.26  1849.39    96.42    31.52     0.85    6.92    5.02  909.23   0.90  11.17
md0               0.00     0.00  477.44    1.20  6886.07   349.61    30.23     0.00    0.00    0.00    0.00   0.00   0.00

avg-cpu:  %user   %nice %system %iowait  %steal   %idle
           3.00    0.00    0.22    2.88    0.00   93.90

Device:         rrqm/s   wrqm/s     r/s     w/s    rkB/s    wkB/s avgrq-sz avgqu-sz   await r_await w_await  svctm  %util
nvme0n1           0.00     0.00    0.00    0.00     0.00     0.00     0.00     0.00    0.00    0.00    0.00   0.00   0.00
sda               0.00     0.00    4.00    0.00   104.00     0.00    52.00     0.00    0.50    0.50    0.00   0.50   0.20
sdc               2.00     0.00  581.00    0.00 16140.00     0.00    55.56     3.24    5.58    5.58    0.00   0.89  51.90
sdb               2.00     0.00  536.00    0.00 15476.00     0.00    57.75     3.32    6.19    6.19    0.00   0.87  46.70
sdd               4.00     0.00  553.00    0.00 16884.00     0.00    61.06     4.21    7.60    7.60    0.00   1.04  57.30
md0               0.00     0.00 1679.00    0.00 51256.00     0.00    61.06     0.00    0.00    0.00    0.00   0.00   0.00

avg-cpu:  %user   %nice %system %iowait  %steal   %idle
           3.03    0.00    0.22    2.85    0.00   93.90

Device:         rrqm/s   wrqm/s     r/s     w/s    rkB/s    wkB/s avgrq-sz avgqu-sz   await r_await w_await  svctm  %util
nvme0n1           0.00     0.00    0.00    0.00     0.00     0.00     0.00     0.00    0.00    0.00    0.00   0.00   0.00
sda               0.00     0.00    0.00    0.00     0.00     0.00     0.00     0.00    0.00    0.00    0.00   0.00   0.00
sdc               6.00     0.00  678.00    0.00 21880.00     0.00    64.54     6.95   10.25   10.25    0.00   1.08  73.20
sdb               4.00     0.00  636.00    0.00 20988.00     0.00    66.00     3.12    4.91    4.91    0.00   0.62  39.50
sdd               6.00     0.00  730.00    0.00 21948.00     0.00    60.13     8.57   11.74   11.74    0.00   1.01  73.70
md0               0.00     0.00 2060.00    0.00 68700.00     0.00    66.70     0.00    0.00    0.00    0.00   0.00   0.00

avg-cpu:  %user   %nice %system %iowait  %steal   %idle
           3.03    0.00    0.25    2.88    0.00   93.84

Device:         rrqm/s   wrqm/s     r/s     w/s    rkB/s    wkB/s avgrq-sz avgqu-sz   await r_await w_await  svctm  %util
nvme0n1           0.00     0.00    0.00    0.00     0.00     0.00     0.00     0.00    0.00    0.00    0.00   0.00   0.00
sda               0.00     0.00    0.00    0.00     0.00     0.00     0.00     0.00    0.00    0.00    0.00   0.00   0.00
sdc               7.00     0.00  605.00    0.00 19396.00     0.00    64.12     3.17    5.24    5.24    0.00   0.83  50.30
sdb               4.00     0.00  577.00    0.00 16632.00     0.00    57.65     1.92    3.33    3.33    0.00   0.75  43.30
sdd              11.00     0.00  548.00    0.00 20028.00     0.00    73.09     3.46    6.31    6.31    0.00   0.91  50.00
md0               0.00     0.00 1753.00    0.00 64216.00     0.00    73.26     0.00    0.00    0.00    0.00   0.00   0.00

avg-cpu:  %user   %nice %system %iowait  %steal   %idle
           3.03    0.00    0.38    2.78    0.00   93.81

Device:         rrqm/s   wrqm/s     r/s     w/s    rkB/s    wkB/s avgrq-sz avgqu-sz   await r_await w_await  svctm  %util
nvme0n1           0.00     0.00    0.00    0.00     0.00     0.00     0.00     0.00    0.00    0.00    0.00   0.00   0.00
sda               0.00     0.00    0.00    0.00     0.00     0.00     0.00     0.00    0.00    0.00    0.00   0.00   0.00
sdc              48.00     0.00 1152.00    0.00 53756.00     0.00    93.33     0.60    0.52    0.52    0.00   0.37  43.00
sdb              44.00     0.00 1117.00    0.00 52184.00     0.00    93.44     0.73    0.65    0.65    0.00   0.44  49.40
sdd              52.00     0.00 1018.00    0.00 54276.00     0.00   106.63     0.52    0.51    0.51    0.00   0.40  41.00
md0               0.00     0.00 3430.00    0.00 206088.00     0.00   120.17     0.00    0.00    0.00    0.00   0.00   0.00

avg-cpu:  %user   %nice %system %iowait  %steal   %idle
           3.03    0.00    0.31    2.78    0.00   93.87

Device:         rrqm/s   wrqm/s     r/s     w/s    rkB/s    wkB/s avgrq-sz avgqu-sz   await r_await w_await  svctm  %util
nvme0n1           0.00     0.00    0.00    0.00     0.00     0.00     0.00     0.00    0.00    0.00    0.00   0.00   0.00
sda               0.00     0.00    0.00    0.00     0.00     0.00     0.00     0.00    0.00    0.00    0.00   0.00   0.00
sdc              57.00     0.00  996.00    0.00 53780.00     0.00   107.99     0.50    0.50    0.50    0.00   0.40  39.50
sdb              57.00     0.00  987.00    0.00 55368.00     0.00   112.19     0.59    0.60    0.60    0.00   0.47  46.00
sdd              57.00     0.00  961.00    0.00 57088.00     0.00   118.81     0.72    0.75    0.75    0.00   0.52  50.10
md0               0.00     0.00 3115.00    0.00 221872.00     0.00   142.45     0.00    0.00    0.00    0.00   0.00   0.00

avg-cpu:  %user   %nice %system %iowait  %steal   %idle
           3.06    0.00    0.34    2.78    0.00   93.81

Device:         rrqm/s   wrqm/s     r/s     w/s    rkB/s    wkB/s avgrq-sz avgqu-sz   await r_await w_await  svctm  %util
nvme0n1           0.00     0.00    0.00    0.00     0.00     0.00     0.00     0.00    0.00    0.00    0.00   0.00   0.00
sda               0.00     8.00   79.00    5.00   528.00    52.00    13.81     0.05    0.57    0.61    0.00   0.05   0.40
sdc              78.00     0.00  823.00    0.00 58724.00     0.00   142.71     0.53    0.65    0.65    0.00   0.48  39.60
sdb              80.00     0.00  762.00    0.00 60328.00     0.00   158.34     0.74    0.97    0.97    0.00   0.77  58.50
sdd              71.00     0.00  878.00    0.00 59220.00     0.00   134.90     0.70    0.80    0.80    0.00   0.56  49.10
md0               0.00     0.00 2692.00    0.00 252552.00     0.00   187.63     0.00    0.00    0.00    0.00   0.00   0.00

avg-cpu:  %user   %nice %system %iowait  %steal   %idle
           3.03    0.00    0.28    2.78    0.00   93.90

Device:         rrqm/s   wrqm/s     r/s     w/s    rkB/s    wkB/s avgrq-sz avgqu-sz   await r_await w_await  svctm  %util
nvme0n1           0.00     0.00    0.00    0.00     0.00     0.00     0.00     0.00    0.00    0.00    0.00   0.00   0.00
sda               0.00     0.00    0.00    0.00     0.00     0.00     0.00     0.00    0.00    0.00    0.00   0.00   0.00
sdc              72.00     0.00  861.00    0.00 57256.00     0.00   133.00     0.90    1.01    1.01    0.00   0.65  55.70
sdb              72.00     0.00  783.00    0.00 60536.00     0.00   154.63     0.58    0.72    0.72    0.00   0.52  41.10
sdd              77.00     0.00  855.00    0.00 58036.00     0.00   135.76     0.69    0.81    0.81    0.00   0.59  50.40
md0               0.00     0.00 2724.00    0.00 247348.00     0.00   181.61     0.00    0.00    0.00    0.00   0.00   0.00

avg-cpu:  %user   %nice %system %iowait  %steal   %idle
           3.03    0.00    0.28    2.81    0.00   93.87

Device:         rrqm/s   wrqm/s     r/s     w/s    rkB/s    wkB/s avgrq-sz avgqu-sz   await r_await w_await  svctm  %util
nvme0n1           0.00     0.00    0.00    0.00     0.00     0.00     0.00     0.00    0.00    0.00    0.00   0.00   0.00
sda               0.00     0.00    0.00    0.00     0.00     0.00     0.00     0.00    0.00    0.00    0.00   0.00   0.00
sdc              67.00     0.00  852.00    0.00 57152.00     0.00   134.16     0.58    0.73    0.73    0.00   0.49  41.50
sdb              72.00     0.00  849.00    0.00 58096.00     0.00   136.86     0.72    0.87    0.87    0.00   0.60  50.60
sdd              66.00     0.00  834.00    0.00 56916.00     0.00   136.49     0.84    1.01    1.01    0.00   0.67  55.50
md0               0.00     0.00 2739.00    0.00 244488.00     0.00   178.52     0.00    0.00    0.00    0.00   0.00   0.00

avg-cpu:  %user   %nice %system %iowait  %steal   %idle
           3.06    0.00    0.34    2.81    0.00   93.78

Device:         rrqm/s   wrqm/s     r/s     w/s    rkB/s    wkB/s avgrq-sz avgqu-sz   await r_await w_await  svctm  %util
nvme0n1           0.00     0.00    0.00    0.00     0.00     0.00     0.00     0.00    0.00    0.00    0.00   0.00   0.00
sda               0.00     0.00    0.00    0.00     0.00     0.00     0.00     0.00    0.00    0.00    0.00   0.00   0.00
sdc              60.00     0.00  984.00    0.00 52584.00     0.00   106.88     0.56    0.57    0.57    0.00   0.45  44.40
sdb              52.00     0.00  954.00    0.00 53420.00     0.00   111.99     0.46    0.49    0.49    0.00   0.39  37.20
sdd              58.00     0.00  947.00    0.00 54092.00     0.00   114.24     0.69    0.73    0.73    0.00   0.52  49.00
md0               0.00     0.00 3052.00    0.00 210680.00     0.00   138.06     0.00    0.00    0.00    0.00   0.00   0.00

avg-cpu:  %user   %nice %system %iowait  %steal   %idle
           2.91    0.00    0.44    2.72    0.00   93.94

Device:         rrqm/s   wrqm/s     r/s     w/s    rkB/s    wkB/s avgrq-sz avgqu-sz   await r_await w_await  svctm  %util
nvme0n1           0.00     0.00    0.00    0.00     0.00     0.00     0.00     0.00    0.00    0.00    0.00   0.00   0.00
sda               0.00     0.00    0.00    0.00     0.00     0.00     0.00     0.00    0.00    0.00    0.00   0.00   0.00
sdc               1.00     0.00  412.00    0.00  8860.00     0.00    43.01     3.40    8.26    8.26    0.00   1.29  53.00
sdb               3.00     0.00  403.00    0.00  9564.00     0.00    47.46     3.43    8.29    8.29    0.00   1.30  52.20
sdd               2.00     0.00  305.00    0.00  7152.00     0.00    46.90     2.40    7.76    7.76    0.00   1.54  47.00
md0               0.00     0.00 1133.00    0.00 29132.00     0.00    51.42     0.00    0.00    0.00    0.00   0.00   0.00

avg-cpu:  %user   %nice %system %iowait  %steal   %idle
           3.03    0.00    0.25    2.85    0.00   93.87

Device:         rrqm/s   wrqm/s     r/s     w/s    rkB/s    wkB/s avgrq-sz avgqu-sz   await r_await w_await  svctm  %util
nvme0n1           0.00     0.00    0.00    0.00     0.00     0.00     0.00     0.00    0.00    0.00    0.00   0.00   0.00
sda               0.00     7.00    0.00    3.00     0.00    56.00    37.33     0.00    0.00    0.00    0.00   0.00   0.00
sdc               4.00     0.00  657.00    0.00 19620.00     0.00    59.73     4.99    7.60    7.60    0.00   0.85  55.80
sdb               3.00     0.00  684.00    0.00 20508.00     0.00    59.96     6.04    8.97    8.97    0.00   0.89  60.60
sdd               4.00     0.00  623.00    0.00 19236.00     0.00    61.75     5.37    8.67    8.67    0.00   1.13  70.40
md0               0.00     0.00 1968.00    0.00 63504.00     0.00    64.54     0.00    0.00    0.00    0.00   0.00   0.00

avg-cpu:  %user   %nice %system %iowait  %steal   %idle
           3.03    0.00    0.19    2.88    0.00   93.90

Device:         rrqm/s   wrqm/s     r/s     w/s    rkB/s    wkB/s avgrq-sz avgqu-sz   await r_await w_await  svctm  %util
nvme0n1           0.00     0.00    0.00    0.00     0.00     0.00     0.00     0.00    0.00    0.00    0.00   0.00   0.00
sda               0.00     0.00    0.00    0.00     0.00     0.00     0.00     0.00    0.00    0.00    0.00   0.00   0.00
sdc               3.00     0.00  660.00    0.00 20816.00     0.00    63.08     5.40    8.18    8.18    0.00   0.90  59.60
sdb               2.00     0.00  656.00    0.00 20064.00     0.00    61.17     5.26    8.02    8.02    0.00   0.90  59.20
sdd               3.00     0.00  635.00    0.00 19864.00     0.00    62.56     5.11    8.03    8.03    0.00   0.98  62.50
md0               0.00     0.00 1959.00    0.00 64272.00     0.00    65.62     0.00    0.00    0.00    0.00   0.00   0.00

avg-cpu:  %user   %nice %system %iowait  %steal   %idle
           3.03    0.00    0.25    2.88    0.00   93.84

Device:         rrqm/s   wrqm/s     r/s     w/s    rkB/s    wkB/s avgrq-sz avgqu-sz   await r_await w_await  svctm  %util
nvme0n1           0.00     0.00    0.00    0.00     0.00     0.00     0.00     0.00    0.00    0.00    0.00   0.00   0.00
sda               0.00     0.00    0.00    0.00     0.00     0.00     0.00     0.00    0.00    0.00    0.00   0.00   0.00
sdc               4.00     0.00  586.00    0.00 14896.00     0.00    50.84     2.25    3.84    3.84    0.00   0.69  40.50
sdb               1.00     0.00  566.00    0.00 13152.00     0.00    46.47     1.68    2.96    2.96    0.00   0.87  49.30
sdd               1.00     0.00  553.00    0.00 12880.00     0.00    46.58     2.15    3.93    3.93    0.00   0.69  38.40
md0               0.00     0.00 1711.00    0.00 43764.00     0.00    51.16     0.00    0.00    0.00    0.00   0.00   0.00

avg-cpu:  %user   %nice %system %iowait  %steal   %idle
           3.00    0.00    0.22    2.91    0.00   93.87

Device:         rrqm/s   wrqm/s     r/s     w/s    rkB/s    wkB/s avgrq-sz avgqu-sz   await r_await w_await  svctm  %util
nvme0n1           0.00     0.00    0.00    0.00     0.00     0.00     0.00     0.00    0.00    0.00    0.00   0.00   0.00
sda               0.00     0.00    0.00    0.00     0.00     0.00     0.00     0.00    0.00    0.00    0.00   0.00   0.00
sdc               2.00     0.00  589.00    0.00 18384.00     0.00    62.42     5.49    9.14    9.14    0.00   1.06  62.70
sdb               4.00     0.00  456.00    0.00 15168.00     0.00    66.53     3.82    8.28    8.28    0.00   1.16  52.80
sdd               6.00     0.00  575.00    0.00 19024.00     0.00    66.17     4.51    7.85    7.85    0.00   1.00  57.30
md0               0.00     0.00 1642.00    0.00 56300.00     0.00    68.57     0.00    0.00    0.00    0.00   0.00   0.00

avg-cpu:  %user   %nice %system %iowait  %steal   %idle
           3.07    0.00    0.19    2.85    0.00   93.90

Device:         rrqm/s   wrqm/s     r/s     w/s    rkB/s    wkB/s avgrq-sz avgqu-sz   await r_await w_await  svctm  %util
nvme0n1           0.00     0.00    0.00    0.00     0.00     0.00     0.00     0.00    0.00    0.00    0.00   0.00   0.00
sda               0.00     0.00    0.00    0.00     0.00     0.00     0.00     0.00    0.00    0.00    0.00   0.00   0.00
sdc               4.00     0.00  570.00    0.00 17776.00     0.00    62.37     3.96    6.92    6.92    0.00   0.99  56.50
sdb               3.00     0.00  582.00    0.00 18300.00     0.00    62.89     3.28    5.70    5.70    0.00   0.79  45.70
sdd               4.00     0.00  587.00    0.00 17128.00     0.00    58.36     4.08    6.78    6.78    0.00   1.08  63.30
md0               0.00     0.00 1756.00    0.00 56956.00     0.00    64.87     0.00    0.00    0.00    0.00   0.00   0.00

avg-cpu:  %user   %nice %system %iowait  %steal   %idle
           3.03    0.00    0.22    2.91    0.00   93.84

Device:         rrqm/s   wrqm/s     r/s     w/s    rkB/s    wkB/s avgrq-sz avgqu-sz   await r_await w_await  svctm  %util
nvme0n1           0.00     0.00    0.00    0.00     0.00     0.00     0.00     0.00    0.00    0.00    0.00   0.00   0.00
sda               0.00     4.00    0.00   21.00     0.00   100.00     9.52     0.00    0.05    0.00    0.05   0.05   0.10
sdc               8.00     0.00  623.00    0.00 20232.00     0.00    64.95     4.97    8.16    8.16    0.00   0.94  58.60
sdb               6.00     0.00  638.00    0.00 19116.00     0.00    59.92     4.39    6.88    6.88    0.00   0.88  55.90
sdd               3.00     0.00  580.00    0.00 18468.00     0.00    63.68     4.24    7.49    7.49    0.00   1.01  58.80
md0               0.00     0.00 1842.00    0.00 62388.00     0.00    67.74     0.00    0.00    0.00    0.00   0.00   0.00

avg-cpu:  %user   %nice %system %iowait  %steal   %idle
           2.82    0.00    0.59    2.47    0.00   94.12

Device:         rrqm/s   wrqm/s     r/s     w/s    rkB/s    wkB/s avgrq-sz avgqu-sz   await r_await w_await  svctm  %util
nvme0n1           0.00     0.00    0.00    0.00     0.00     0.00     0.00     0.00    0.00    0.00    0.00   0.00   0.00
sda               0.00     0.00    0.00    0.00     0.00     0.00     0.00     0.00    0.00    0.00    0.00   0.00   0.00
sdc               0.00     0.00  349.00    0.00  5660.00     0.00    32.44     3.01    8.62    8.62    0.00   1.51  52.80
sdb               1.00     0.00  347.00    0.00  5936.00     0.00    34.21     3.00    8.66    8.66    0.00   1.32  45.80
sdd               0.00     0.00  352.00    0.00  6036.00     0.00    34.30     3.06    8.68    8.68    0.00   1.31  46.00
md0               0.00     0.00 1049.00    0.00 18012.00     0.00    34.34     0.00    0.00    0.00    0.00   0.00   0.00

avg-cpu:  %user   %nice %system %iowait  %steal   %idle
           3.00    0.00    0.28    2.78    0.00   93.94

Device:         rrqm/s   wrqm/s     r/s     w/s    rkB/s    wkB/s avgrq-sz avgqu-sz   await r_await w_await  svctm  %util
nvme0n1           0.00     0.00    0.00    0.00     0.00     0.00     0.00     0.00    0.00    0.00    0.00   0.00   0.00
sda               0.00     0.00    0.00    0.00     0.00     0.00     0.00     0.00    0.00    0.00    0.00   0.00   0.00
sdc               0.00     0.00  402.00    0.00  7224.00     0.00    35.94     2.46    6.11    6.11    0.00   1.15  46.40
sdb               0.00     0.00  394.00    0.00  7328.00     0.00    37.20     3.37    8.55    8.55    0.00   1.40  55.10
sdd               1.00     0.00  357.00    0.00  6420.00     0.00    35.97     2.54    7.09    7.09    0.00   1.25  44.80
md0               0.00     0.00 1154.00    0.00 21816.00     0.00    37.81     0.00    0.00    0.00    0.00   0.00   0.00

avg-cpu:  %user   %nice %system %iowait  %steal   %idle
           2.91    0.00    0.44    2.69    0.00   93.96

Device:         rrqm/s   wrqm/s     r/s     w/s    rkB/s    wkB/s avgrq-sz avgqu-sz   await r_await w_await  svctm  %util
nvme0n1           0.00     0.00    0.00    0.00     0.00     0.00     0.00     0.00    0.00    0.00    0.00   0.00   0.00
sda               0.00     0.00    0.00    0.00     0.00     0.00     0.00     0.00    0.00    0.00    0.00   0.00   0.00
sdc               2.00     0.00  391.00    0.00  7052.00     0.00    36.07     3.15    8.04    8.04    0.00   1.24  48.60
sdb               1.00     0.00  328.00    0.00  5424.00     0.00    33.07     2.11    6.45    6.45    0.00   1.24  40.80
sdd               0.00     0.00  330.00    0.00  5876.00     0.00    35.61     2.17    6.63    6.63    0.00   1.29  42.70
md0               0.00     0.00 1055.00    0.00 19036.00     0.00    36.09     0.00    0.00    0.00    0.00   0.00   0.00

avg-cpu:  %user   %nice %system %iowait  %steal   %idle
           2.41    0.00    1.22    2.00    0.00   94.37

Device:         rrqm/s   wrqm/s     r/s     w/s    rkB/s    wkB/s avgrq-sz avgqu-sz   await r_await w_await  svctm  %util
nvme0n1           0.00     0.00    0.00    0.00     0.00     0.00     0.00     0.00    0.00    0.00    0.00   0.00   0.00
sda               0.00     1.00    0.00    1.00     0.00    12.00    24.00     0.00    0.00    0.00    0.00   0.00   0.00
sdc               0.00     0.00  222.00    0.00  2896.00     0.00    26.09     1.91    8.56    8.56    0.00   1.58  35.00
sdb               0.00     0.00  233.00    0.00  3284.00     0.00    28.19     1.91    8.20    8.20    0.00   1.43  33.40
sdd               0.00     0.00  222.00    0.00  2912.00     0.00    26.23     1.31    5.89    5.89    0.00   1.64  36.30
md0               0.00     0.00  675.00    0.00  9184.00     0.00    27.21     0.00    0.00    0.00    0.00   0.00   0.00

