Linux 4.17.2 (bench2) 	08/04/2018 	_x86_64_	(32 CPU)

avg-cpu:  %user   %nice %system %iowait  %steal   %idle
           1.89    0.00    1.54    1.62    0.00   94.95

Device:         rrqm/s   wrqm/s     r/s     w/s    rkB/s    wkB/s avgrq-sz avgqu-sz   await r_await w_await  svctm  %util
nvme0n1         928.06     5.04 18709.40  515.13 104652.57 11617.67    12.10     1.33    0.05    0.03    0.67   0.02  39.17
sda               0.12     0.82   14.18    0.58   164.06     8.56    23.39     0.00    0.33    0.32    0.44   0.07   0.10
sdc              34.90     0.17  124.89    0.31  1871.76    96.69    31.45     0.14    1.10    0.16  381.84   0.90  11.26
sdb              32.89     0.18  126.86    0.33  1869.84    96.51    30.92     0.56    4.44    3.38  413.03   0.84  10.71
sdd              35.10     0.17  124.43    0.26  1867.83    96.19    31.50     0.88    7.05    5.18  909.23   0.90  11.28
md0               0.00     0.00  481.90    1.20  6954.83   348.79    30.24     0.00    0.00    0.00    0.00   0.00   0.00

avg-cpu:  %user   %nice %system %iowait  %steal   %idle
           3.12    0.00    0.12    0.94    0.00   95.81

Device:         rrqm/s   wrqm/s     r/s     w/s    rkB/s    wkB/s avgrq-sz avgqu-sz   await r_await w_await  svctm  %util
nvme0n1           0.00     0.00    0.00    0.00     0.00     0.00     0.00     0.00    0.00    0.00    0.00   0.00   0.00
sda               0.00     0.00   22.00    0.00   124.00     0.00    11.27     0.00    0.00    0.00    0.00   0.00   0.00
sdc               0.00     0.00  261.00    0.00  1044.00     0.00     8.00     0.21    0.82    0.82    0.00   0.82  21.40
sdb               0.00     0.00  257.00    0.00  1028.00     0.00     8.00     0.29    1.13    1.13    0.00   1.13  29.00
sdd               0.00     0.00  278.00    0.00  1112.00     0.00     8.00     0.47    1.67    1.67    0.00   1.68  46.70
md0               0.00     0.00  797.00    0.00  3188.00     0.00     8.00     0.00    0.00    0.00    0.00   0.00   0.00

avg-cpu:  %user   %nice %system %iowait  %steal   %idle
           3.10    0.00    0.06    1.03    0.00   95.81

Device:         rrqm/s   wrqm/s     r/s     w/s    rkB/s    wkB/s avgrq-sz avgqu-sz   await r_await w_await  svctm  %util
nvme0n1           0.00     0.00    0.00    0.00     0.00     0.00     0.00     0.00    0.00    0.00    0.00   0.00   0.00
sda               0.00     0.00    0.00    0.00     0.00     0.00     0.00     0.00    0.00    0.00    0.00   0.00   0.00
sdc               0.00     0.00  274.00    0.00  1096.00     0.00     8.00     0.43    1.55    1.55    0.00   1.56  42.70
sdb               0.00     0.00  306.00    0.00  1224.00     0.00     8.00     0.27    0.87    0.87    0.00   0.87  26.60
sdd               0.00     0.00  248.00    0.00   992.00     0.00     8.00     0.28    1.15    1.15    0.00   1.15  28.40
md0               0.00     0.00  828.00    0.00  3312.00     0.00     8.00     0.00    0.00    0.00    0.00   0.00   0.00

avg-cpu:  %user   %nice %system %iowait  %steal   %idle
           3.13    0.00    0.06    1.09    0.00   95.72

Device:         rrqm/s   wrqm/s     r/s     w/s    rkB/s    wkB/s avgrq-sz avgqu-sz   await r_await w_await  svctm  %util
nvme0n1           0.00     0.00    0.00    0.00     0.00     0.00     0.00     0.00    0.00    0.00    0.00   0.00   0.00
sda               0.00     0.00    0.00    0.00     0.00     0.00     0.00     0.00    0.00    0.00    0.00   0.00   0.00
sdc               0.00     0.00  247.00    0.00   988.00     0.00     8.00     0.27    1.09    1.09    0.00   1.09  26.80
sdb               0.00     0.00  279.00    0.00  1116.00     0.00     8.00     0.21    0.75    0.75    0.00   0.75  20.80
sdd               0.00     0.00  275.00    0.00  1100.00     0.00     8.00     0.50    1.81    1.81    0.00   1.82  50.00
md0               0.00     0.00  801.00    0.00  3204.00     0.00     8.00     0.00    0.00    0.00    0.00   0.00   0.00

avg-cpu:  %user   %nice %system %iowait  %steal   %idle
           3.13    0.00    0.06    1.06    0.00   95.75

Device:         rrqm/s   wrqm/s     r/s     w/s    rkB/s    wkB/s avgrq-sz avgqu-sz   await r_await w_await  svctm  %util
nvme0n1           0.00     0.00    0.00    0.00     0.00     0.00     0.00     0.00    0.00    0.00    0.00   0.00   0.00
sda               0.00     0.00    0.00    0.00     0.00     0.00     0.00     0.00    0.00    0.00    0.00   0.00   0.00
sdc               0.00     0.00  235.00    0.00   940.00     0.00     8.00     0.30    1.28    1.28    0.00   1.29  30.30
sdb               0.00     0.00  345.00    0.00  1380.00     0.00     8.00     0.20    0.59    0.59    0.00   0.59  20.20
sdd               0.00     0.00  324.00    0.00  1296.00     0.00     8.00     0.47    1.45    1.45    0.00   1.45  46.90
md0               0.00     0.00  904.00    0.00  3616.00     0.00     8.00     0.00    0.00    0.00    0.00   0.00   0.00

avg-cpu:  %user   %nice %system %iowait  %steal   %idle
           3.13    0.00    0.06    1.00    0.00   95.81

Device:         rrqm/s   wrqm/s     r/s     w/s    rkB/s    wkB/s avgrq-sz avgqu-sz   await r_await w_await  svctm  %util
nvme0n1           0.00     0.00    0.00    0.00     0.00     0.00     0.00     0.00    0.00    0.00    0.00   0.00   0.00
sda               0.00     0.00    0.00    0.00     0.00     0.00     0.00     0.00    0.00    0.00    0.00   0.00   0.00
sdc               0.00     0.00  292.00    0.00  1168.00     0.00     8.00     0.41    1.41    1.41    0.00   1.41  41.30
sdb               0.00     0.00  283.00    0.00  1132.00     0.00     8.00     0.19    0.66    0.66    0.00   0.66  18.70
sdd               0.00     0.00  277.00    0.00  1108.00     0.00     8.00     0.37    1.35    1.35    0.00   1.35  37.40
md0               0.00     0.00  852.00    0.00  3408.00     0.00     8.00     0.00    0.00    0.00    0.00   0.00   0.00

avg-cpu:  %user   %nice %system %iowait  %steal   %idle
           3.13    0.00    0.03    0.97    0.00   95.87

Device:         rrqm/s   wrqm/s     r/s     w/s    rkB/s    wkB/s avgrq-sz avgqu-sz   await r_await w_await  svctm  %util
nvme0n1           0.00     0.00    0.00    0.00     0.00     0.00     0.00     0.00    0.00    0.00    0.00   0.00   0.00
sda               0.00    10.00    0.00    2.00     0.00    48.00    48.00     0.00    0.00    0.00    0.00   0.00   0.00
sdc               0.00     0.00  277.00    0.00  1108.00     0.00     8.00     0.28    1.02    1.02    0.00   1.01  28.00
sdb               0.00     0.00  260.00    0.00  1040.00     0.00     8.00     0.32    1.24    1.24    0.00   1.24  32.20
sdd               0.00     0.00  273.00    0.00  1092.00     0.00     8.00     0.37    1.37    1.37    0.00   1.37  37.40
md0               0.00     0.00  810.00    0.00  3240.00     0.00     8.00     0.00    0.00    0.00    0.00   0.00   0.00

avg-cpu:  %user   %nice %system %iowait  %steal   %idle
           3.09    0.00    0.09    1.03    0.00   95.78

Device:         rrqm/s   wrqm/s     r/s     w/s    rkB/s    wkB/s avgrq-sz avgqu-sz   await r_await w_await  svctm  %util
nvme0n1           0.00     0.00    0.00    0.00     0.00     0.00     0.00     0.00    0.00    0.00    0.00   0.00   0.00
sda               0.00     0.00    0.00    0.00     0.00     0.00     0.00     0.00    0.00    0.00    0.00   0.00   0.00
sdc               0.00     0.00  263.00    0.00  1052.00     0.00     8.00     0.45    1.70    1.70    0.00   1.70  44.80
sdb               0.00     0.00  325.00    0.00  1300.00     0.00     8.00     0.34    1.06    1.06    0.00   1.06  34.40
sdd               0.00     0.00  288.00    0.00  1152.00     0.00     8.00     0.18    0.63    0.63    0.00   0.62  18.00
md0               0.00     0.00  876.00    0.00  3504.00     0.00     8.00     0.00    0.00    0.00    0.00   0.00   0.00

avg-cpu:  %user   %nice %system %iowait  %steal   %idle
           3.13    0.00    0.06    0.91    0.00   95.90

Device:         rrqm/s   wrqm/s     r/s     w/s    rkB/s    wkB/s avgrq-sz avgqu-sz   await r_await w_await  svctm  %util
nvme0n1           0.00     0.00    0.00    0.00     0.00     0.00     0.00     0.00    0.00    0.00    0.00   0.00   0.00
sda               0.00     0.00    0.00    0.00     0.00     0.00     0.00     0.00    0.00    0.00    0.00   0.00   0.00
sdc               0.00     0.00  279.00    0.00  1116.00     0.00     8.00     0.27    0.97    0.97    0.00   0.98  27.30
sdb               0.00     0.00  342.00    0.00  1368.00     0.00     8.00     0.40    1.15    1.15    0.00   1.15  39.50
sdd               0.00     0.00  340.00    0.00  1360.00     0.00     8.00     0.31    0.92    0.92    0.00   0.92  31.40
md0               0.00     0.00  961.00    0.00  3844.00     0.00     8.00     0.00    0.00    0.00    0.00   0.00   0.00

avg-cpu:  %user   %nice %system %iowait  %steal   %idle
           3.13    0.00    0.06    1.06    0.00   95.75

Device:         rrqm/s   wrqm/s     r/s     w/s    rkB/s    wkB/s avgrq-sz avgqu-sz   await r_await w_await  svctm  %util
nvme0n1           0.00     0.00    0.00    0.00     0.00     0.00     0.00     0.00    0.00    0.00    0.00   0.00   0.00
sda               0.00     0.00    0.00    0.00     0.00     0.00     0.00     0.00    0.00    0.00    0.00   0.00   0.00
sdc               0.00     0.00  328.00    0.00  1312.00     0.00     8.00     0.36    1.11    1.11    0.00   1.10  36.10
sdb               0.00     0.00  251.00    0.00  1004.00     0.00     8.00     0.34    1.33    1.33    0.00   1.34  33.60
sdd               0.00     0.00  317.00    0.00  1268.00     0.00     8.00     0.28    0.88    0.88    0.00   0.87  27.70
md0               0.00     0.00  896.00    0.00  3584.00     0.00     8.00     0.00    0.00    0.00    0.00   0.00   0.00

avg-cpu:  %user   %nice %system %iowait  %steal   %idle
           3.13    0.00    0.06    1.09    0.00   95.72

Device:         rrqm/s   wrqm/s     r/s     w/s    rkB/s    wkB/s avgrq-sz avgqu-sz   await r_await w_await  svctm  %util
nvme0n1           0.00     0.00    0.00    0.00     0.00     0.00     0.00     0.00    0.00    0.00    0.00   0.00   0.00
sda               0.00     0.00    0.00    0.00     0.00     0.00     0.00     0.00    0.00    0.00    0.00   0.00   0.00
sdc               0.00     0.00  278.00    0.00  1112.00     0.00     8.00     0.27    0.96    0.96    0.00   0.96  26.70
sdb               0.00     0.00  302.00    0.00  1208.00     0.00     8.00     0.30    1.00    1.00    0.00   1.00  30.20
sdd               0.00     0.00  311.00    0.00  1244.00     0.00     8.00     0.41    1.32    1.32    0.00   1.32  41.10
md0               0.00     0.00  891.00    0.00  3564.00     0.00     8.00     0.00    0.00    0.00    0.00   0.00   0.00

avg-cpu:  %user   %nice %system %iowait  %steal   %idle
           3.13    0.00    0.06    1.00    0.00   95.81

Device:         rrqm/s   wrqm/s     r/s     w/s    rkB/s    wkB/s avgrq-sz avgqu-sz   await r_await w_await  svctm  %util
nvme0n1           0.00     0.00    0.00    0.00     0.00     0.00     0.00     0.00    0.00    0.00    0.00   0.00   0.00
sda               0.00     1.00    0.00    2.00     0.00    12.00    12.00     0.00    0.00    0.00    0.00   0.00   0.00
sdc               0.00     0.00  252.00    0.00  1008.00     0.00     8.00     0.34    1.36    1.36    0.00   1.36  34.20
sdb               0.00     0.00  312.00    0.00  1248.00     0.00     8.00     0.32    0.99    0.99    0.00   1.01  31.50
sdd               0.00     0.00  331.00    0.00  1324.00     0.00     8.00     0.32    0.95    0.95    0.00   0.95  31.50
md0               0.00     0.00  895.00    0.00  3580.00     0.00     8.00     0.00    0.00    0.00    0.00   0.00   0.00

avg-cpu:  %user   %nice %system %iowait  %steal   %idle
           3.10    0.00    0.03    1.03    0.00   95.84

Device:         rrqm/s   wrqm/s     r/s     w/s    rkB/s    wkB/s avgrq-sz avgqu-sz   await r_await w_await  svctm  %util
nvme0n1           0.00     0.00    0.00    0.00     0.00     0.00     0.00     0.00    0.00    0.00    0.00   0.00   0.00
sda               0.00     0.00    0.00    0.00     0.00     0.00     0.00     0.00    0.00    0.00    0.00   0.00   0.00
sdc               0.00     0.00  293.00    0.00  1172.00     0.00     8.00     0.37    1.28    1.28    0.00   1.28  37.40
sdb               0.00     0.00  289.00    0.00  1156.00     0.00     8.00     0.27    0.94    0.94    0.00   0.92  26.50
sdd               0.00     0.00  263.00    0.00  1052.00     0.00     8.00     0.34    1.29    1.29    0.00   1.29  33.80
md0               0.00     0.00  845.00    0.00  3380.00     0.00     8.00     0.00    0.00    0.00    0.00   0.00   0.00

avg-cpu:  %user   %nice %system %iowait  %steal   %idle
           3.13    0.00    0.06    1.13    0.00   95.68

Device:         rrqm/s   wrqm/s     r/s     w/s    rkB/s    wkB/s avgrq-sz avgqu-sz   await r_await w_await  svctm  %util
nvme0n1           0.00     0.00    0.00    0.00     0.00     0.00     0.00     0.00    0.00    0.00    0.00   0.00   0.00
sda               0.00     3.00    0.00   18.00     0.00   100.00    11.11     0.00    0.00    0.00    0.00   0.00   0.00
sdc               0.00     0.00  291.00    0.00  1164.00     0.00     8.00     0.43    1.47    1.47    0.00   1.47  42.80
sdb               0.00     0.00  272.00    0.00  1088.00     0.00     8.00     0.15    0.54    0.54    0.00   0.54  14.80
sdd               0.00     0.00  295.00    0.00  1180.00     0.00     8.00     0.40    1.33    1.33    0.00   1.36  40.00
md0               0.00     0.00  858.00    0.00  3432.00     0.00     8.00     0.00    0.00    0.00    0.00   0.00   0.00

avg-cpu:  %user   %nice %system %iowait  %steal   %idle
           3.10    0.00    0.06    1.16    0.00   95.68

Device:         rrqm/s   wrqm/s     r/s     w/s    rkB/s    wkB/s avgrq-sz avgqu-sz   await r_await w_await  svctm  %util
nvme0n1           0.00     0.00    0.00    0.00     0.00     0.00     0.00     0.00    0.00    0.00    0.00   0.00   0.00
sda               0.00     0.00    0.00    0.00     0.00     0.00     0.00     0.00    0.00    0.00    0.00   0.00   0.00
sdc               0.00     0.00  280.00    0.00  1120.00     0.00     8.00     0.38    1.35    1.35    0.00   1.36  38.00
sdb               0.00     0.00  340.00    0.00  1360.00     0.00     8.00     0.25    0.73    0.73    0.00   0.73  24.70
sdd               0.00     0.00  271.00    0.00  1084.00     0.00     8.00     0.35    1.31    1.31    0.00   1.28  34.80
md0               0.00     0.00  891.00    0.00  3564.00     0.00     8.00     0.00    0.00    0.00    0.00   0.00   0.00

avg-cpu:  %user   %nice %system %iowait  %steal   %idle
           3.10    0.00    0.06    0.94    0.00   95.90

Device:         rrqm/s   wrqm/s     r/s     w/s    rkB/s    wkB/s avgrq-sz avgqu-sz   await r_await w_await  svctm  %util
nvme0n1           0.00     0.00    0.00    0.00     0.00     0.00     0.00     0.00    0.00    0.00    0.00   0.00   0.00
sda               0.00     0.00    0.00    0.00     0.00     0.00     0.00     0.00    0.00    0.00    0.00   0.00   0.00
sdc               0.00     0.00  315.00    0.00  1260.00     0.00     8.00     0.24    0.77    0.77    0.00   0.77  24.10
sdb               0.00     0.00  301.00    0.00  1204.00     0.00     8.00     0.24    0.81    0.81    0.00   0.81  24.40
sdd               0.00     0.00  265.00    0.00  1060.00     0.00     8.00     0.50    1.88    1.88    0.00   1.88  49.80
md0               0.00     0.00  881.00    0.00  3524.00     0.00     8.00     0.00    0.00    0.00    0.00   0.00   0.00

avg-cpu:  %user   %nice %system %iowait  %steal   %idle
           3.13    0.00    0.06    1.03    0.00   95.78

Device:         rrqm/s   wrqm/s     r/s     w/s    rkB/s    wkB/s avgrq-sz avgqu-sz   await r_await w_await  svctm  %util
nvme0n1           0.00     0.00    0.00    0.00     0.00     0.00     0.00     0.00    0.00    0.00    0.00   0.00   0.00
sda               0.00     3.00    0.00    2.00     0.00    20.00    20.00     0.00    0.00    0.00    0.00   0.00   0.00
sdc               0.00     0.00  272.00    0.00  1088.00     0.00     8.00     0.45    1.65    1.65    0.00   1.65  44.80
sdb               0.00     0.00  252.00    0.00  1008.00     0.00     8.00     0.22    0.86    0.86    0.00   0.86  21.60
sdd               0.00     0.00  324.00    0.00  1296.00     0.00     8.00     0.31    0.92    0.92    0.00   0.94  30.60
md0               0.00     0.00  848.00    0.00  3392.00     0.00     8.00     0.00    0.00    0.00    0.00   0.00   0.00

avg-cpu:  %user   %nice %system %iowait  %steal   %idle
           3.13    0.00    0.06    1.06    0.00   95.75

Device:         rrqm/s   wrqm/s     r/s     w/s    rkB/s    wkB/s avgrq-sz avgqu-sz   await r_await w_await  svctm  %util
nvme0n1           0.00     0.00    0.00    0.00     0.00     0.00     0.00     0.00    0.00    0.00    0.00   0.00   0.00
sda               0.00     0.00    0.00    0.00     0.00     0.00     0.00     0.00    0.00    0.00    0.00   0.00   0.00
sdc               0.00     0.00  308.00    0.00  1232.00     0.00     8.00     0.42    1.37    1.37    0.00   1.37  42.10
sdb               0.00     0.00  290.00    0.00  1160.00     0.00     8.00     0.21    0.73    0.73    0.00   0.74  21.40
sdd               0.00     0.00  308.00    0.00  1232.00     0.00     8.00     0.33    1.11    1.11    0.00   1.08  33.40
md0               0.00     0.00  906.00    0.00  3624.00     0.00     8.00     0.00    0.00    0.00    0.00   0.00   0.00

avg-cpu:  %user   %nice %system %iowait  %steal   %idle
           3.10    0.00    0.06    1.00    0.00   95.84

Device:         rrqm/s   wrqm/s     r/s     w/s    rkB/s    wkB/s avgrq-sz avgqu-sz   await r_await w_await  svctm  %util
nvme0n1           0.00     0.00    0.00    0.00     0.00     0.00     0.00     0.00    0.00    0.00    0.00   0.00   0.00
sda               0.00     0.00    0.00    0.00     0.00     0.00     0.00     0.00    0.00    0.00    0.00   0.00   0.00
sdc               0.00     0.00  299.00    0.00  1196.00     0.00     8.00     0.27    0.90    0.90    0.00   0.90  26.90
sdb               0.00     0.00  322.00    0.00  1288.00     0.00     8.00     0.30    0.94    0.94    0.00   0.95  30.50
sdd               0.00     0.00  331.00    0.00  1324.00     0.00     8.00     0.40    1.22    1.22    0.00   1.22  40.30
md0               0.00     0.00  952.00    0.00  3808.00     0.00     8.00     0.00    0.00    0.00    0.00   0.00   0.00

avg-cpu:  %user   %nice %system %iowait  %steal   %idle
           3.13    0.00    0.09    1.03    0.00   95.75

Device:         rrqm/s   wrqm/s     r/s     w/s    rkB/s    wkB/s avgrq-sz avgqu-sz   await r_await w_await  svctm  %util
nvme0n1           0.00     0.00    0.00    0.00     0.00     0.00     0.00     0.00    0.00    0.00    0.00   0.00   0.00
sda               0.00     0.00    0.00    0.00     0.00     0.00     0.00     0.00    0.00    0.00    0.00   0.00   0.00
sdc               0.00     0.00  237.00    0.00   948.00     0.00     8.00     0.28    1.15    1.15    0.00   1.16  27.60
sdb               0.00     0.00  263.00    0.00  1052.00     0.00     8.00     0.27    1.04    1.04    0.00   1.03  27.00
sdd               0.00     0.00  307.00    0.00  1228.00     0.00     8.00     0.43    1.40    1.40    0.00   1.40  43.10
md0               0.00     0.00  807.00    0.00  3228.00     0.00     8.00     0.00    0.00    0.00    0.00   0.00   0.00

avg-cpu:  %user   %nice %system %iowait  %steal   %idle
           3.13    0.00    0.03    1.06    0.00   95.78

Device:         rrqm/s   wrqm/s     r/s     w/s    rkB/s    wkB/s avgrq-sz avgqu-sz   await r_await w_await  svctm  %util
nvme0n1           0.00     0.00    0.00    0.00     0.00     0.00     0.00     0.00    0.00    0.00    0.00   0.00   0.00
sda               0.00     1.00    0.00    2.00     0.00    12.00    12.00     0.00    0.00    0.00    0.00   0.00   0.00
sdc               0.00     0.00  321.00    0.00  1284.00     0.00     8.00     0.19    0.59    0.59    0.00   0.58  18.70
sdb               0.00     0.00  261.00    0.00  1044.00     0.00     8.00     0.33    1.27    1.27    0.00   1.27  33.10
sdd               0.00     0.00  301.00    0.00  1204.00     0.00     8.00     0.46    1.51    1.51    0.00   1.51  45.60
md0               0.00     0.00  883.00    0.00  3532.00     0.00     8.00     0.00    0.00    0.00    0.00   0.00   0.00

