Linux 4.17.2 (bench2) 	08/04/2018 	_x86_64_	(32 CPU)

avg-cpu:  %user   %nice %system %iowait  %steal   %idle
           1.89    0.00    1.53    1.65    0.00   94.93

Device:         rrqm/s   wrqm/s     r/s     w/s    rkB/s    wkB/s avgrq-sz avgqu-sz   await r_await w_await  svctm  %util
nvme0n1         919.92     5.00 18545.17  510.61 103733.97 11515.69    12.10     1.32    0.05    0.03    0.67   0.02  38.82
sda               0.12     0.82   14.20    0.59   164.14     8.57    23.36     0.00    0.33    0.32    0.43   0.07   0.10
sdc              35.34     0.17  130.38    0.31  1929.27    95.84    30.99     0.20    1.49    0.60  381.84   0.89  11.60
sdb              33.34     0.18  132.34    0.33  1927.39    95.66    30.50     0.62    4.66    3.65  413.03   0.83  11.05
sdd              35.53     0.16  129.93    0.26  1925.40    95.34    31.04     0.93    7.16    5.38  909.23   0.89  11.65
md0               0.00     0.00  499.65    1.19  7162.27   345.73    29.98     0.00    0.00    0.00    0.00   0.00   0.00

avg-cpu:  %user   %nice %system %iowait  %steal   %idle
           3.08    0.00    0.13    1.10    0.00   95.68

Device:         rrqm/s   wrqm/s     r/s     w/s    rkB/s    wkB/s avgrq-sz avgqu-sz   await r_await w_await  svctm  %util
nvme0n1           0.00     0.00    0.00    0.00     0.00     0.00     0.00     0.00    0.00    0.00    0.00   0.00   0.00
sda               0.00     1.55    3.05    1.60    27.20    13.40    17.46     0.00    0.08    0.07    0.09   0.06   0.03
sdc              15.10     0.00  237.60    0.00 23297.40     0.00   196.11     0.66    2.79    2.79    0.00   1.96  46.56
sdb              15.00     0.00  240.75    0.00 23854.20     0.00   198.17     0.68    2.82    2.82    0.00   1.99  47.93
sdd              14.85     0.00  244.75    0.00 23579.20     0.00   192.68     0.66    2.71    2.71    0.00   1.85  45.16
md0               0.00     0.00  768.20    0.00 93334.80     0.00   243.00     0.00    0.00    0.00    0.00   0.00   0.00

