Linux 4.17.2 (bench2) 	08/04/2018 	_x86_64_	(32 CPU)

avg-cpu:  %user   %nice %system %iowait  %steal   %idle
           1.89    0.00    1.53    1.64    0.00   94.94

Device:         rrqm/s   wrqm/s     r/s     w/s    rkB/s    wkB/s avgrq-sz avgqu-sz   await r_await w_await  svctm  %util
nvme0n1         921.31     5.00 18573.24  511.38 103890.98 11533.12    12.10     1.32    0.05    0.03    0.67   0.02  38.88
sda               0.12     0.82   14.20    0.59   164.15     8.57    23.36     0.00    0.33    0.32    0.43   0.07   0.10
sdc              35.30     0.17  129.61    0.31  1916.62    95.98    30.98     0.18    1.37    0.48  381.84   0.89  11.53
sdb              33.30     0.18  131.57    0.33  1914.73    95.81    30.49     0.60    4.56    3.55  413.03   0.83  10.98
sdd              35.50     0.16  129.16    0.26  1912.75    95.49    31.04     0.92    7.08    5.28  909.23   0.89  11.57
md0               0.00     0.00  497.22    1.19  7114.30   346.25    29.94     0.00    0.00    0.00    0.00   0.00   0.00

avg-cpu:  %user   %nice %system %iowait  %steal   %idle
           3.07    0.00    0.27    2.60    0.00   94.06

Device:         rrqm/s   wrqm/s     r/s     w/s    rkB/s    wkB/s avgrq-sz avgqu-sz   await r_await w_await  svctm  %util
nvme0n1           0.00     0.00    0.00    0.00     0.00     0.00     0.00     0.00    0.00    0.00    0.00   0.00   0.00
sda               0.00     1.20    4.45    0.55    32.80     7.80    16.24     0.00    0.26    0.28    0.09   0.06   0.03
sdc               6.60     0.00 1451.40    0.00 22226.60     0.00    30.63     3.34    2.30    2.30    0.00   0.27  38.92
sdb               7.05     0.00 1455.05    0.00 22312.80     0.00    30.67     3.00    2.05    2.05    0.00   0.25  36.98
sdd               7.00     0.00 1438.40    0.00 22137.20     0.00    30.78     3.58    2.49    2.49    0.00   0.34  48.97
md0               0.00     0.00 4369.65    0.00 74438.40     0.00    34.07     0.00    0.00    0.00    0.00   0.00   0.00

