Linux 4.17.2 (bench2) 	08/04/2018 	_x86_64_	(32 CPU)

avg-cpu:  %user   %nice %system %iowait  %steal   %idle
           1.89    0.00    1.53    1.64    0.00   94.94

Device:         rrqm/s   wrqm/s     r/s     w/s    rkB/s    wkB/s avgrq-sz avgqu-sz   await r_await w_await  svctm  %util
nvme0n1         922.74     5.01 18602.06  512.17 104052.20 11551.02    12.10     1.32    0.05    0.03    0.67   0.02  38.94
sda               0.12     0.82   14.19    0.59   164.12     8.57    23.37     0.00    0.33    0.32    0.44   0.07   0.10
sdc              35.29     0.17  128.70    0.31  1906.60    96.13    31.05     0.17    1.35    0.44  381.84   0.89  11.48
sdb              33.29     0.18  130.66    0.33  1904.70    95.96    30.55     0.60    4.56    3.54  413.03   0.83  10.93
sdd              35.49     0.16  128.25    0.26  1902.73    95.64    31.10     0.91    7.10    5.29  909.23   0.90  11.51
md0               0.00     0.00  494.49    1.19  7077.94   346.79    29.96     0.00    0.00    0.00    0.00   0.00   0.00

avg-cpu:  %user   %nice %system %iowait  %steal   %idle
           3.12    0.00    0.03    0.69    0.00   96.16

Device:         rrqm/s   wrqm/s     r/s     w/s    rkB/s    wkB/s avgrq-sz avgqu-sz   await r_await w_await  svctm  %util
nvme0n1           0.00     0.00    0.00    0.00     0.00     0.00     0.00     0.00    0.00    0.00    0.00   0.00   0.00
sda               0.00     1.30    1.10    1.25     6.20    12.40    15.83     0.00    0.04    0.09    0.00   0.02   0.01
sdc               0.00     0.00  166.90    0.00   668.80     0.00     8.01     0.33    2.00    2.00    0.00   2.00  33.33
sdb               0.00     0.00  164.95    0.00   659.80     0.00     8.00     0.27    1.63    1.63    0.00   1.63  26.95
sdd               0.00     0.00  159.60    0.00   638.40     0.00     8.00     0.38    2.40    2.40    0.00   2.40  38.27
md0               0.00     0.00  491.50    0.00  1967.20     0.00     8.00     0.00    0.00    0.00    0.00   0.00   0.00

