Linux 4.17.2 (bench2) 	08/04/2018 	_x86_64_	(32 CPU)

avg-cpu:  %user   %nice %system %iowait  %steal   %idle
           1.89    0.00    1.54    1.63    0.00   94.94

Device:         rrqm/s   wrqm/s     r/s     w/s    rkB/s    wkB/s avgrq-sz avgqu-sz   await r_await w_await  svctm  %util
nvme0n1         924.55     5.02 18638.59  513.18 104256.53 11573.70    12.10     1.33    0.05    0.03    0.67   0.02  39.02
sda               0.12     0.82   14.19    0.58   164.09     8.57    23.37     0.00    0.33    0.32    0.44   0.07   0.10
sdc              35.00     0.17  127.33    0.31  1896.25    96.32    31.22     0.16    1.25    0.33  381.84   0.89  11.40
sdb              32.99     0.18  129.30    0.33  1894.34    96.15    30.71     0.58    4.51    3.47  413.03   0.84  10.85
sdd              35.20     0.16  126.88    0.26  1892.36    95.82    31.28     0.90    7.07    5.24  909.23   0.90  11.44
md0               0.00     0.00  489.51    1.19  7043.36   347.47    30.12     0.00    0.00    0.00    0.00   0.00   0.00

avg-cpu:  %user   %nice %system %iowait  %steal   %idle
           3.13    0.00    0.03    1.38    0.00   95.46

Device:         rrqm/s   wrqm/s     r/s     w/s    rkB/s    wkB/s avgrq-sz avgqu-sz   await r_await w_await  svctm  %util
nvme0n1           0.00     0.00    0.00    0.00     0.00     0.00     0.00     0.00    0.00    0.00    0.00   0.00   0.00
sda               0.00     0.00    4.00    0.00   104.00     0.00    52.00     0.00    0.25    0.25    0.00   0.25   0.10
sdc               0.00     0.00  223.00    0.00  3452.00     0.00    30.96     0.34    1.54    1.54    0.00   1.48  32.90
sdb               0.00     0.00  204.00    0.00  3136.00     0.00    30.75     0.37    1.79    1.79    0.00   1.71  34.80
sdd               0.00     0.00  215.00    0.00  3568.00     0.00    33.19     0.37    1.69    1.69    0.00   1.60  34.40
md0               0.00     0.00  643.00    0.00 11392.00     0.00    35.43     0.00    0.00    0.00    0.00   0.00   0.00

avg-cpu:  %user   %nice %system %iowait  %steal   %idle
           3.09    0.00    0.09    3.03    0.00   93.78

Device:         rrqm/s   wrqm/s     r/s     w/s    rkB/s    wkB/s avgrq-sz avgqu-sz   await r_await w_await  svctm  %util
nvme0n1           0.00     0.00    0.00    0.00     0.00     0.00     0.00     0.00    0.00    0.00    0.00   0.00   0.00
sda               0.00     0.00    0.00    0.00     0.00     0.00     0.00     0.00    0.00    0.00    0.00   0.00   0.00
sdc               0.00     0.00  197.00    0.00  2804.00     0.00    28.47     0.46    2.33    2.33    0.00   2.23  43.90
sdb               0.00     0.00  204.00    0.00  3948.00     0.00    38.71     0.36    1.73    1.73    0.00   1.63  33.30
sdd               0.00     0.00  215.00    0.00  4088.00     0.00    38.03     0.26    1.25    1.25    0.00   1.21  26.00
md0               0.00     0.00  616.00    0.00 11852.00     0.00    38.48     0.00    0.00    0.00    0.00   0.00   0.00

avg-cpu:  %user   %nice %system %iowait  %steal   %idle
           3.13    0.00    0.06    3.03    0.00   93.78

Device:         rrqm/s   wrqm/s     r/s     w/s    rkB/s    wkB/s avgrq-sz avgqu-sz   await r_await w_await  svctm  %util
nvme0n1           0.00     0.00    0.00    0.00     0.00     0.00     0.00     0.00    0.00    0.00    0.00   0.00   0.00
sda               0.00     0.00    0.00    0.00     0.00     0.00     0.00     0.00    0.00    0.00    0.00   0.00   0.00
sdc               0.00     0.00  168.00    0.00  2576.00     0.00    30.67     0.21    1.23    1.23    0.00   1.21  20.40
sdb               1.00     0.00  194.00    0.00  2924.00     0.00    30.14     0.30    1.57    1.57    0.00   1.47  28.60
sdd               0.00     0.00  183.00    0.00  3680.00     0.00    40.22     0.60    3.23    3.23    0.00   2.90  53.00
md0               0.00     0.00  546.00    0.00  9992.00     0.00    36.60     0.00    0.00    0.00    0.00   0.00   0.00

avg-cpu:  %user   %nice %system %iowait  %steal   %idle
           3.12    0.00    0.06    3.03    0.00   93.78

Device:         rrqm/s   wrqm/s     r/s     w/s    rkB/s    wkB/s avgrq-sz avgqu-sz   await r_await w_await  svctm  %util
nvme0n1           0.00     0.00    0.00    0.00     0.00     0.00     0.00     0.00    0.00    0.00    0.00   0.00   0.00
sda               0.00     0.00    0.00    0.00     0.00     0.00     0.00     0.00    0.00    0.00    0.00   0.00   0.00
sdc               0.00     0.00  197.00    0.00  3836.00     0.00    38.94     0.24    1.24    1.24    0.00   1.18  23.20
sdb               0.00     0.00  187.00    0.00  2632.00     0.00    28.15     0.27    1.42    1.42    0.00   1.41  26.30
sdd               0.00     0.00  228.00    0.00  4040.00     0.00    35.44     0.55    2.48    2.48    0.00   2.29  52.10
md0               0.00     0.00  612.00    0.00 11408.00     0.00    37.28     0.00    0.00    0.00    0.00   0.00   0.00

avg-cpu:  %user   %nice %system %iowait  %steal   %idle
           3.10    0.00    0.09    3.00    0.00   93.81

Device:         rrqm/s   wrqm/s     r/s     w/s    rkB/s    wkB/s avgrq-sz avgqu-sz   await r_await w_await  svctm  %util
nvme0n1           0.00     0.00    0.00    0.00     0.00     0.00     0.00     0.00    0.00    0.00    0.00   0.00   0.00
sda               0.00     1.00    0.00    1.00     0.00     8.00    16.00     0.00    0.00    0.00    0.00   0.00   0.00
sdc               0.00     0.00  197.00    0.00  2336.00     0.00    23.72     0.31    1.58    1.58    0.00   1.55  30.60
sdb               0.00     0.00  217.00    0.00  3376.00     0.00    31.12     0.30    1.40    1.40    0.00   1.34  29.10
sdd               0.00     0.00  210.00    0.00  3632.00     0.00    34.59     0.43    2.03    2.03    0.00   1.98  41.60
md0               0.00     0.00  624.00    0.00  9920.00     0.00    31.79     0.00    0.00    0.00    0.00   0.00   0.00

avg-cpu:  %user   %nice %system %iowait  %steal   %idle
           3.13    0.00    0.06    3.03    0.00   93.78

Device:         rrqm/s   wrqm/s     r/s     w/s    rkB/s    wkB/s avgrq-sz avgqu-sz   await r_await w_await  svctm  %util
nvme0n1           0.00     0.00    0.00    0.00     0.00     0.00     0.00     0.00    0.00    0.00    0.00   0.00   0.00
sda               0.00     8.00    0.00    2.00     0.00    40.00    40.00     0.00    0.00    0.00    0.00   0.00   0.00
sdc               0.00     0.00  189.00    0.00  2596.00     0.00    27.47     0.21    1.12    1.12    0.00   1.06  20.10
sdb               0.00     0.00  184.00    0.00  2256.00     0.00    24.52     0.32    1.72    1.72    0.00   1.73  31.80
sdd               0.00     0.00  201.00    0.00  3016.00     0.00    30.01     0.48    2.43    2.43    0.00   2.39  48.00
md0               0.00     0.00  574.00    0.00  8312.00     0.00    28.96     0.00    0.00    0.00    0.00   0.00   0.00

avg-cpu:  %user   %nice %system %iowait  %steal   %idle
           3.13    0.00    0.06    3.03    0.00   93.78

Device:         rrqm/s   wrqm/s     r/s     w/s    rkB/s    wkB/s avgrq-sz avgqu-sz   await r_await w_await  svctm  %util
nvme0n1           0.00     0.00    0.00    0.00     0.00     0.00     0.00     0.00    0.00    0.00    0.00   0.00   0.00
sda               0.00     0.00    0.00    0.00     0.00     0.00     0.00     0.00    0.00    0.00    0.00   0.00   0.00
sdc               0.00     0.00  197.00    0.00  3072.00     0.00    31.19     0.24    1.23    1.23    0.00   1.19  23.40
sdb               1.00     0.00  210.00    0.00  3476.00     0.00    33.10     0.41    1.95    1.95    0.00   1.92  40.30
sdd               0.00     0.00  212.00    0.00  3088.00     0.00    29.13     0.38    1.77    1.77    0.00   1.72  36.40
md0               0.00     0.00  620.00    0.00 10996.00     0.00    35.47     0.00    0.00    0.00    0.00   0.00   0.00

avg-cpu:  %user   %nice %system %iowait  %steal   %idle
           3.12    0.00    0.09    3.03    0.00   93.75

Device:         rrqm/s   wrqm/s     r/s     w/s    rkB/s    wkB/s avgrq-sz avgqu-sz   await r_await w_await  svctm  %util
nvme0n1           0.00     0.00    0.00    0.00     0.00     0.00     0.00     0.00    0.00    0.00    0.00   0.00   0.00
sda               0.00     0.00    0.00    0.00     0.00     0.00     0.00     0.00    0.00    0.00    0.00   0.00   0.00
sdc               0.00     0.00  224.00    0.00  3020.00     0.00    26.96     0.25    1.14    1.14    0.00   1.11  24.90
sdb               0.00     0.00  218.00    0.00  2832.00     0.00    25.98     0.36    1.65    1.65    0.00   1.62  35.40
sdd               0.00     0.00  198.00    0.00  2644.00     0.00    26.71     0.42    2.13    2.13    0.00   2.12  41.90
md0               0.00     0.00  640.00    0.00  9228.00     0.00    28.84     0.00    0.00    0.00    0.00   0.00   0.00

avg-cpu:  %user   %nice %system %iowait  %steal   %idle
           3.10    0.00    0.06    3.03    0.00   93.81

Device:         rrqm/s   wrqm/s     r/s     w/s    rkB/s    wkB/s avgrq-sz avgqu-sz   await r_await w_await  svctm  %util
nvme0n1           0.00     0.00    0.00    0.00     0.00     0.00     0.00     0.00    0.00    0.00    0.00   0.00   0.00
sda               0.00     0.00    0.00    0.00     0.00     0.00     0.00     0.00    0.00    0.00    0.00   0.00   0.00
sdc               0.00     0.00  200.00    0.00  2984.00     0.00    29.84     0.37    1.82    1.82    0.00   1.72  34.30
sdb               0.00     0.00  199.00    0.00  2812.00     0.00    28.26     0.22    1.11    1.11    0.00   1.11  22.10
sdd               0.00     0.00  190.00    0.00  2696.00     0.00    28.38     0.45    2.39    2.39    0.00   2.34  44.40
md0               0.00     0.00  589.00    0.00  8964.00     0.00    30.44     0.00    0.00    0.00    0.00   0.00   0.00

avg-cpu:  %user   %nice %system %iowait  %steal   %idle
           3.13    0.00    0.06    3.03    0.00   93.78

Device:         rrqm/s   wrqm/s     r/s     w/s    rkB/s    wkB/s avgrq-sz avgqu-sz   await r_await w_await  svctm  %util
nvme0n1           0.00     0.00    0.00    0.00     0.00     0.00     0.00     0.00    0.00    0.00    0.00   0.00   0.00
sda               0.00     2.00    0.00    1.00     0.00    28.00    56.00     0.00    0.00    0.00    0.00   0.00   0.00
sdc               0.00     0.00  208.00    0.00  2336.00     0.00    22.46     0.42    2.03    2.03    0.00   2.01  41.80
sdb               0.00     0.00  188.00    0.00  2348.00     0.00    24.98     0.25    1.35    1.35    0.00   1.31  24.70
sdd               0.00     0.00  237.00    0.00  2968.00     0.00    25.05     0.34    1.41    1.41    0.00   1.41  33.30
md0               0.00     0.00  633.00    0.00  8184.00     0.00    25.86     0.00    0.00    0.00    0.00   0.00   0.00

avg-cpu:  %user   %nice %system %iowait  %steal   %idle
           3.10    0.00    0.06    3.00    0.00   93.84

Device:         rrqm/s   wrqm/s     r/s     w/s    rkB/s    wkB/s avgrq-sz avgqu-sz   await r_await w_await  svctm  %util
nvme0n1           0.00     0.00    0.00    0.00     0.00     0.00     0.00     0.00    0.00    0.00    0.00   0.00   0.00
sda               0.00     3.00    0.00    2.00     0.00    20.00    20.00     0.00    0.00    0.00    0.00   0.00   0.00
sdc               5.00     0.00  229.00    0.00  6188.00     0.00    54.04     0.47    2.06    2.06    0.00   1.85  42.30
sdb               6.00     0.00  191.00    0.00  5332.00     0.00    55.83     0.25    1.31    1.31    0.00   1.22  23.30
sdd               5.00     0.00  197.00    0.00  5796.00     0.00    58.84     0.49    2.51    2.51    0.00   2.14  42.20
md0               0.00     0.00  633.00    0.00 22652.00     0.00    71.57     0.00    0.00    0.00    0.00   0.00   0.00

avg-cpu:  %user   %nice %system %iowait  %steal   %idle
           3.12    0.00    0.09    3.03    0.00   93.75

Device:         rrqm/s   wrqm/s     r/s     w/s    rkB/s    wkB/s avgrq-sz avgqu-sz   await r_await w_await  svctm  %util
nvme0n1           0.00     0.00    0.00    0.00     0.00     0.00     0.00     0.00    0.00    0.00    0.00   0.00   0.00
sda               0.00     0.00    0.00    0.00     0.00     0.00     0.00     0.00    0.00    0.00    0.00   0.00   0.00
sdc               0.00     0.00  189.00    0.00  3688.00     0.00    39.03     0.41    2.17    2.17    0.00   2.08  39.40
sdb               0.00     0.00  212.00    0.00  3040.00     0.00    28.68     0.21    0.99    0.99    0.00   0.97  20.60
sdd               0.00     0.00  206.00    0.00  3856.00     0.00    37.44     0.42    2.03    2.03    0.00   2.00  41.10
md0               0.00     0.00  607.00    0.00 11684.00     0.00    38.50     0.00    0.00    0.00    0.00   0.00   0.00

avg-cpu:  %user   %nice %system %iowait  %steal   %idle
           3.13    0.00    0.03    3.03    0.00   93.81

Device:         rrqm/s   wrqm/s     r/s     w/s    rkB/s    wkB/s avgrq-sz avgqu-sz   await r_await w_await  svctm  %util
nvme0n1           0.00     0.00    0.00    0.00     0.00     0.00     0.00     0.00    0.00    0.00    0.00   0.00   0.00
sda               0.00     0.00    0.00    0.00     0.00     0.00     0.00     0.00    0.00    0.00    0.00   0.00   0.00
sdc               0.00     0.00  191.00    0.00  3140.00     0.00    32.88     0.35    1.81    1.81    0.00   1.70  32.40
sdb               0.00     0.00  165.00    0.00  2416.00     0.00    29.28     0.23    1.41    1.41    0.00   1.38  22.70
sdd               0.00     0.00  209.00    0.00  2920.00     0.00    27.94     0.48    2.29    2.29    0.00   2.22  46.50
md0               0.00     0.00  565.00    0.00  9268.00     0.00    32.81     0.00    0.00    0.00    0.00   0.00   0.00

avg-cpu:  %user   %nice %system %iowait  %steal   %idle
           3.10    0.00    0.06    3.03    0.00   93.81

Device:         rrqm/s   wrqm/s     r/s     w/s    rkB/s    wkB/s avgrq-sz avgqu-sz   await r_await w_await  svctm  %util
nvme0n1           0.00     0.00    0.00    0.00     0.00     0.00     0.00     0.00    0.00    0.00    0.00   0.00   0.00
sda               0.00     0.00    0.00    0.00     0.00     0.00     0.00     0.00    0.00    0.00    0.00   0.00   0.00
sdc               1.00     0.00  190.00    0.00  3344.00     0.00    35.20     0.56    2.96    2.96    0.00   2.37  45.00
sdb               1.00     0.00  201.00    0.00  3148.00     0.00    31.32     0.26    1.28    1.28    0.00   1.22  24.50
sdd               0.00     0.00  148.00    0.00  2924.00     0.00    39.51     0.35    2.39    2.39    0.00   2.21  32.70
md0               0.00     0.00  541.00    0.00 10696.00     0.00    39.54     0.00    0.00    0.00    0.00   0.00   0.00

avg-cpu:  %user   %nice %system %iowait  %steal   %idle
           3.09    0.00    0.06    3.03    0.00   93.81

Device:         rrqm/s   wrqm/s     r/s     w/s    rkB/s    wkB/s avgrq-sz avgqu-sz   await r_await w_await  svctm  %util
nvme0n1           0.00     0.00    0.00    0.00     0.00     0.00     0.00     0.00    0.00    0.00    0.00   0.00   0.00
sda               0.00     0.00    1.00    2.00     4.00    36.00    26.67     0.00    0.00    0.00    0.00   0.00   0.00
sdc               0.00     0.00  189.00    0.00  2564.00     0.00    27.13     0.39    2.07    2.07    0.00   1.98  37.40
sdb               0.00     0.00  169.00    0.00  2432.00     0.00    28.78     0.24    1.44    1.44    0.00   1.42  24.00
sdd               0.00     0.00  166.00    0.00  2576.00     0.00    31.04     0.44    2.53    2.53    0.00   2.35  39.00
md0               0.00     0.00  526.00    0.00  8556.00     0.00    32.53     0.00    0.00    0.00    0.00   0.00   0.00

avg-cpu:  %user   %nice %system %iowait  %steal   %idle
           3.13    0.00    0.06    3.03    0.00   93.78

Device:         rrqm/s   wrqm/s     r/s     w/s    rkB/s    wkB/s avgrq-sz avgqu-sz   await r_await w_await  svctm  %util
nvme0n1           0.00     0.00    0.00    0.00     0.00     0.00     0.00     0.00    0.00    0.00    0.00   0.00   0.00
sda               0.00     5.00    0.00    2.00     0.00    28.00    28.00     0.00    0.00    0.00    0.00   0.00   0.00
sdc               0.00     0.00  178.00    0.00  2228.00     0.00    25.03     0.39    2.18    2.18    0.00   2.13  37.90
sdb               0.00     0.00  187.00    0.00  2368.00     0.00    25.33     0.33    1.78    1.78    0.00   1.62  30.30
sdd               0.00     0.00  180.00    0.00  2592.00     0.00    28.80     0.36    2.11    2.11    0.00   1.84  33.20
md0               0.00     0.00  543.00    0.00  7420.00     0.00    27.33     0.00    0.00    0.00    0.00   0.00   0.00

avg-cpu:  %user   %nice %system %iowait  %steal   %idle
           3.13    0.00    0.06    3.03    0.00   93.78

Device:         rrqm/s   wrqm/s     r/s     w/s    rkB/s    wkB/s avgrq-sz avgqu-sz   await r_await w_await  svctm  %util
nvme0n1           0.00     0.00    0.00    0.00     0.00     0.00     0.00     0.00    0.00    0.00    0.00   0.00   0.00
sda               0.00     0.00    0.00    0.00     0.00     0.00     0.00     0.00    0.00    0.00    0.00   0.00   0.00
sdc               1.00     0.00  223.00    0.00  4876.00     0.00    43.73     0.35    1.58    1.58    0.00   1.48  32.90
sdb               0.00     0.00  205.00    0.00  3552.00     0.00    34.65     0.31    1.50    1.50    0.00   1.45  29.70
sdd               0.00     0.00  202.00    0.00  3668.00     0.00    36.32     0.43    2.12    2.12    0.00   2.00  40.40
md0               0.00     0.00  631.00    0.00 13360.00     0.00    42.35     0.00    0.00    0.00    0.00   0.00   0.00

avg-cpu:  %user   %nice %system %iowait  %steal   %idle
           3.10    0.00    0.06    3.03    0.00   93.81

Device:         rrqm/s   wrqm/s     r/s     w/s    rkB/s    wkB/s avgrq-sz avgqu-sz   await r_await w_await  svctm  %util
nvme0n1           0.00     0.00    0.00    0.00     0.00     0.00     0.00     0.00    0.00    0.00    0.00   0.00   0.00
sda               0.00     0.00    0.00    0.00     0.00     0.00     0.00     0.00    0.00    0.00    0.00   0.00   0.00
sdc               0.00     0.00  207.00    0.00  2880.00     0.00    27.83     0.25    1.17    1.17    0.00   1.14  23.60
sdb               0.00     0.00  216.00    0.00  3160.00     0.00    29.26     0.34    1.59    1.59    0.00   1.53  33.10
sdd               0.00     0.00  199.00    0.00  2556.00     0.00    25.69     0.47    2.35    2.35    0.00   2.22  44.20
md0               0.00     0.00  622.00    0.00  9160.00     0.00    29.45     0.00    0.00    0.00    0.00   0.00   0.00

avg-cpu:  %user   %nice %system %iowait  %steal   %idle
           3.13    0.00    0.06    3.00    0.00   93.81

Device:         rrqm/s   wrqm/s     r/s     w/s    rkB/s    wkB/s avgrq-sz avgqu-sz   await r_await w_await  svctm  %util
nvme0n1           0.00     0.00    0.00    0.00     0.00     0.00     0.00     0.00    0.00    0.00    0.00   0.00   0.00
sda               0.00     0.00    0.00    0.00     0.00     0.00     0.00     0.00    0.00    0.00    0.00   0.00   0.00
sdc               0.00     0.00  205.00    0.00  3448.00     0.00    33.64     0.42    2.03    2.03    0.00   1.93  39.50
sdb               0.00     0.00  189.00    0.00  2888.00     0.00    30.56     0.35    1.86    1.86    0.00   1.75  33.10
sdd               0.00     0.00  222.00    0.00  3964.00     0.00    35.71     0.30    1.34    1.34    0.00   1.28  28.40
md0               0.00     0.00  616.00    0.00 11856.00     0.00    38.49     0.00    0.00    0.00    0.00   0.00   0.00

avg-cpu:  %user   %nice %system %iowait  %steal   %idle
           3.13    0.00    0.03    3.03    0.00   93.81

Device:         rrqm/s   wrqm/s     r/s     w/s    rkB/s    wkB/s avgrq-sz avgqu-sz   await r_await w_await  svctm  %util
nvme0n1           0.00     0.00    0.00    0.00     0.00     0.00     0.00     0.00    0.00    0.00    0.00   0.00   0.00
sda               0.00     1.00    0.00    2.00     0.00    12.00    12.00     0.00    0.00    0.00    0.00   0.00   0.00
sdc               0.00     0.00  170.00    0.00  2188.00     0.00    25.74     0.30    1.80    1.80    0.00   1.72  29.30
sdb               0.00     0.00  183.00    0.00  3496.00     0.00    38.21     0.22    1.18    1.18    0.00   1.15  21.00
sdd               0.00     0.00  202.00    0.00  2628.00     0.00    26.02     0.51    2.52    2.52    0.00   2.50  50.60
md0               0.00     0.00  556.00    0.00  9384.00     0.00    33.76     0.00    0.00    0.00    0.00   0.00   0.00

