Linux 4.17.2 (bench2) 	08/04/2018 	_x86_64_	(32 CPU)

avg-cpu:  %user   %nice %system %iowait  %steal   %idle
           1.89    0.00    1.54    1.61    0.00   94.95

Device:         rrqm/s   wrqm/s     r/s     w/s    rkB/s    wkB/s avgrq-sz avgqu-sz   await r_await w_await  svctm  %util
nvme0n1         928.67     5.04 18721.70  515.47 104721.41 11625.31    12.10     1.33    0.05    0.03    0.67   0.02  39.19
sda               0.12     0.82   14.18    0.58   164.05     8.56    23.39     0.00    0.33    0.32    0.44   0.07   0.10
sdc              34.78     0.17  124.50    0.31  1868.67    96.75    31.50     0.14    1.09    0.15  381.84   0.90  11.24
sdb              32.77     0.19  126.47    0.33  1866.74    96.57    30.97     0.56    4.45    3.38  413.03   0.84  10.69
sdd              34.98     0.17  124.04    0.26  1864.73    96.25    31.55     0.88    7.07    5.18  909.23   0.91  11.26
md0               0.00     0.00  480.36    1.20  6943.91   349.02    30.29     0.00    0.00    0.00    0.00   0.00   0.00

avg-cpu:  %user   %nice %system %iowait  %steal   %idle
           2.19    0.00    1.57    1.13    0.00   95.11

Device:         rrqm/s   wrqm/s     r/s     w/s    rkB/s    wkB/s avgrq-sz avgqu-sz   await r_await w_await  svctm  %util
nvme0n1           0.00     0.00    0.00    0.00     0.00     0.00     0.00     0.00    0.00    0.00    0.00   0.00   0.00
sda               0.00     0.00    4.00    0.00   104.00     0.00    52.00     0.00    0.25    0.25    0.00   0.25   0.10
sdc              21.00     0.00   63.00    0.00 10564.00     0.00   335.37     0.56    8.40    8.40    0.00   4.86  30.60
sdb              21.00     0.00   69.00    0.00 10992.00     0.00   318.61     0.68    9.39    9.39    0.00   4.23  29.20
sdd              23.00     0.00   58.00    0.00 11084.00     0.00   382.21     0.59    9.64    9.64    0.00   5.14  29.80
md0               0.00     0.00  264.00    0.00 48144.00     0.00   364.73     0.00    0.00    0.00    0.00   0.00   0.00

avg-cpu:  %user   %nice %system %iowait  %steal   %idle
           2.88    0.00    0.47    2.16    0.00   94.49

Device:         rrqm/s   wrqm/s     r/s     w/s    rkB/s    wkB/s avgrq-sz avgqu-sz   await r_await w_await  svctm  %util
nvme0n1           0.00     0.00    0.00    0.00     0.00     0.00     0.00     0.00    0.00    0.00    0.00   0.00   0.00
sda               0.00     0.00    0.00    0.00     0.00     0.00     0.00     0.00    0.00    0.00    0.00   0.00   0.00
sdc             134.00     0.00  192.00    0.00 74008.00     0.00   770.92     1.76    9.31    9.31    0.00   4.19  80.40
sdb             129.00     0.00  182.00    0.00 73360.00     0.00   806.15     1.78    9.84    9.84    0.00   4.23  76.90
sdd             138.00     0.00  181.00    0.00 73200.00     0.00   808.84     1.46    8.15    8.15    0.00   3.91  70.70
md0               0.00     0.00  949.00    0.00 281796.00     0.00   593.88     0.00    0.00    0.00    0.00   0.00   0.00

avg-cpu:  %user   %nice %system %iowait  %steal   %idle
           2.91    0.00    0.47    2.19    0.00   94.44

Device:         rrqm/s   wrqm/s     r/s     w/s    rkB/s    wkB/s avgrq-sz avgqu-sz   await r_await w_await  svctm  %util
nvme0n1           0.00     0.00    0.00    0.00     0.00     0.00     0.00     0.00    0.00    0.00    0.00   0.00   0.00
sda               0.00     0.00    0.00    0.00     0.00     0.00     0.00     0.00    0.00    0.00    0.00   0.00   0.00
sdc             127.00     0.00  151.00    0.00 65428.00     0.00   866.60     1.36    8.72    8.72    0.00   4.37  66.00
sdb             121.00     0.00  162.00    0.00 66300.00     0.00   818.52     1.25    7.69    7.69    0.00   3.89  63.00
sdd             127.00     0.00  153.00    0.00 66912.00     0.00   874.67     1.50    9.84    9.84    0.00   4.49  68.70
md0               0.00     0.00  848.00    0.00 312488.00     0.00   737.00     0.00    0.00    0.00    0.00   0.00   0.00

avg-cpu:  %user   %nice %system %iowait  %steal   %idle
           2.88    0.00    0.38    2.32    0.00   94.43

Device:         rrqm/s   wrqm/s     r/s     w/s    rkB/s    wkB/s avgrq-sz avgqu-sz   await r_await w_await  svctm  %util
nvme0n1           0.00     0.00    0.00    0.00     0.00     0.00     0.00     0.00    0.00    0.00    0.00   0.00   0.00
sda               0.00     7.00    0.00    2.00     0.00    36.00    36.00     0.00    0.50    0.00    0.50   0.50   0.10
sdc             111.00     0.00  207.00    0.00 65692.00     0.00   634.71     1.01    5.06    5.06    0.00   2.83  58.50
sdb             108.00     0.00  204.00    0.00 66008.00     0.00   647.14     1.27    6.27    6.27    0.00   3.01  61.50
sdd             112.00     0.00  190.00    0.00 64828.00     0.00   682.40     1.19    6.14    6.14    0.00   3.45  65.50
md0               0.00     0.00  929.00    0.00 293516.00     0.00   631.90     0.00    0.00    0.00    0.00   0.00   0.00

avg-cpu:  %user   %nice %system %iowait  %steal   %idle
           2.94    0.00    0.44    2.28    0.00   94.34

Device:         rrqm/s   wrqm/s     r/s     w/s    rkB/s    wkB/s avgrq-sz avgqu-sz   await r_await w_await  svctm  %util
nvme0n1           0.00     0.00    0.00    0.00     0.00     0.00     0.00     0.00    0.00    0.00    0.00   0.00   0.00
sda               0.00     0.00    0.00    0.00     0.00     0.00     0.00     0.00    0.00    0.00    0.00   0.00   0.00
sdc             126.00     0.00  165.00    0.00 66424.00     0.00   805.14     1.66   10.01   10.01    0.00   4.79  79.10
sdb             125.00     0.00  159.00    0.00 66432.00     0.00   835.62     1.38    8.84    8.84    0.00   4.12  65.50
sdd             125.00     0.00  171.00    0.00 66704.00     0.00   780.16     1.44    8.32    8.32    0.00   4.01  68.50
md0               0.00     0.00  868.00    0.00 305584.00     0.00   704.11     0.00    0.00    0.00    0.00   0.00   0.00

avg-cpu:  %user   %nice %system %iowait  %steal   %idle
           2.91    0.00    0.41    2.13    0.00   94.56

Device:         rrqm/s   wrqm/s     r/s     w/s    rkB/s    wkB/s avgrq-sz avgqu-sz   await r_await w_await  svctm  %util
nvme0n1           0.00     0.00    0.00    0.00     0.00     0.00     0.00     0.00    0.00    0.00    0.00   0.00   0.00
sda               0.00     0.00    0.00    0.00     0.00     0.00     0.00     0.00    0.00    0.00    0.00   0.00   0.00
sdc             139.00     0.00  149.00    0.00 68952.00     0.00   925.53     1.56   10.30   10.30    0.00   4.91  73.10
sdb             138.00     0.00  158.00    0.00 69816.00     0.00   883.75     1.53    9.70    9.70    0.00   4.44  70.20
sdd             136.00     0.00  147.00    0.00 70036.00     0.00   952.87     1.19    8.35    8.35    0.00   4.07  59.80
md0               0.00     0.00  871.00    0.00 366112.00     0.00   840.67     0.00    0.00    0.00    0.00   0.00   0.00

avg-cpu:  %user   %nice %system %iowait  %steal   %idle
           2.91    0.00    0.47    2.25    0.00   94.37

Device:         rrqm/s   wrqm/s     r/s     w/s    rkB/s    wkB/s avgrq-sz avgqu-sz   await r_await w_await  svctm  %util
nvme0n1           0.00     0.00    0.00    0.00     0.00     0.00     0.00     0.00    0.00    0.00    0.00   0.00   0.00
sda               0.00     0.00    0.00    0.00     0.00     0.00     0.00     0.00    0.00    0.00    0.00   0.00   0.00
sdc             117.00     0.00  190.00    0.00 66084.00     0.00   695.62     1.44    7.72    7.72    0.00   3.67  69.80
sdb             121.00     0.00  171.00    0.00 64196.00     0.00   750.83     1.49    8.57    8.57    0.00   4.37  74.70
sdd             119.00     0.00  165.00    0.00 65176.00     0.00   790.01     1.53    9.05    9.05    0.00   4.38  72.20
md0               0.00     0.00  886.00    0.00 264380.00     0.00   596.79     0.00    0.00    0.00    0.00   0.00   0.00

avg-cpu:  %user   %nice %system %iowait  %steal   %idle
           2.82    0.00    0.50    2.16    0.00   94.52

Device:         rrqm/s   wrqm/s     r/s     w/s    rkB/s    wkB/s avgrq-sz avgqu-sz   await r_await w_await  svctm  %util
nvme0n1           0.00     0.00    0.00    0.00     0.00     0.00     0.00     0.00    0.00    0.00    0.00   0.00   0.00
sda               0.00     0.00    0.00    0.00     0.00     0.00     0.00     0.00    0.00    0.00    0.00   0.00   0.00
sdc             101.00     0.00  143.00    0.00 58736.00     0.00   821.48     1.24    8.83    8.83    0.00   4.22  60.40
sdb             104.00     0.00  152.00    0.00 59364.00     0.00   781.11     1.35    9.07    9.07    0.00   4.62  70.30
sdd             102.00     0.00  151.00    0.00 59020.00     0.00   781.72     1.39    9.52    9.52    0.00   4.28  64.60
md0               0.00     0.00  743.00    0.00 252536.00     0.00   679.77     0.00    0.00    0.00    0.00   0.00   0.00

avg-cpu:  %user   %nice %system %iowait  %steal   %idle
           2.01    0.00    2.07    0.56    0.00   95.36

Device:         rrqm/s   wrqm/s     r/s     w/s    rkB/s    wkB/s avgrq-sz avgqu-sz   await r_await w_await  svctm  %util
nvme0n1           0.00     0.00    0.00    0.00     0.00     0.00     0.00     0.00    0.00    0.00    0.00   0.00   0.00
sda               0.00     5.00    0.00    3.00     0.00    48.00    32.00     0.00    0.00    0.00    0.00   0.00   0.00
sdc               0.00     0.00   27.00    0.00   828.00     0.00    61.33     0.17    6.44    6.44    0.00   3.85  10.40
sdb               0.00     0.00   20.00    0.00   524.00     0.00    52.40     0.14    7.10    7.10    0.00   5.75  11.50
sdd               0.00     0.00   23.00    0.00   488.00     0.00    42.43     0.14    6.13    6.13    0.00   4.30   9.90
md0               0.00     0.00   70.00    0.00  1868.00     0.00    53.37     0.00    0.00    0.00    0.00   0.00   0.00

avg-cpu:  %user   %nice %system %iowait  %steal   %idle
           2.22    0.00    1.69    0.94    0.00   95.15

Device:         rrqm/s   wrqm/s     r/s     w/s    rkB/s    wkB/s avgrq-sz avgqu-sz   await r_await w_await  svctm  %util
nvme0n1           0.00     0.00    0.00    0.00     0.00     0.00     0.00     0.00    0.00    0.00    0.00   0.00   0.00
sda               0.00     0.00    0.00    0.00     0.00     0.00     0.00     0.00    0.00    0.00    0.00   0.00   0.00
sdc               0.00     0.00   62.00    0.00  1836.00     0.00    59.23     0.42    6.82    6.82    0.00   4.10  25.40
sdb               0.00     0.00   55.00    0.00  1724.00     0.00    62.69     0.40    7.25    7.25    0.00   4.24  23.30
sdd               0.00     0.00   42.00    0.00  1300.00     0.00    61.90     0.33    7.76    7.76    0.00   5.10  21.40
md0               0.00     0.00  159.00    0.00  5024.00     0.00    63.19     0.00    0.00    0.00    0.00   0.00   0.00

avg-cpu:  %user   %nice %system %iowait  %steal   %idle
           1.85    0.00    2.23    0.38    0.00   95.55

Device:         rrqm/s   wrqm/s     r/s     w/s    rkB/s    wkB/s avgrq-sz avgqu-sz   await r_await w_await  svctm  %util
nvme0n1           0.00     0.00    0.00    0.00     0.00     0.00     0.00     0.00    0.00    0.00    0.00   0.00   0.00
sda               0.00     0.00    0.00    0.00     0.00     0.00     0.00     0.00    0.00    0.00    0.00   0.00   0.00
sdc               0.00     0.00   20.00    0.00   544.00     0.00    54.40     0.19    9.35    9.35    0.00   4.30   8.60
sdb               0.00     0.00   30.00    0.00   800.00     0.00    53.33     0.18    6.03    6.03    0.00   3.37  10.10
sdd               0.00     0.00   18.00    0.00   628.00     0.00    69.78     0.11    6.17    6.17    0.00   4.39   7.90
md0               0.00     0.00   68.00    0.00  2044.00     0.00    60.12     0.00    0.00    0.00    0.00   0.00   0.00

avg-cpu:  %user   %nice %system %iowait  %steal   %idle
           1.72    0.00    2.54    0.13    0.00   95.61

Device:         rrqm/s   wrqm/s     r/s     w/s    rkB/s    wkB/s avgrq-sz avgqu-sz   await r_await w_await  svctm  %util
nvme0n1           0.00     0.00    0.00    0.00     0.00     0.00     0.00     0.00    0.00    0.00    0.00   0.00   0.00
sda               0.00     0.00    0.00    0.00     0.00     0.00     0.00     0.00    0.00    0.00    0.00   0.00   0.00
sdc               0.00     0.00    4.00    0.00    56.00     0.00    28.00     0.03    6.75    6.75    0.00   5.50   2.20
sdb               0.00     0.00   10.00    0.00    88.00     0.00    17.60     0.05    4.80    4.80    0.00   3.70   3.70
sdd               0.00     0.00    7.00    0.00   128.00     0.00    36.57     0.04    5.86    5.86    0.00   4.57   3.20
md0               0.00     0.00   21.00    0.00   280.00     0.00    26.67     0.00    0.00    0.00    0.00   0.00   0.00

avg-cpu:  %user   %nice %system %iowait  %steal   %idle
           1.73    0.00    2.45    0.19    0.00   95.64

Device:         rrqm/s   wrqm/s     r/s     w/s    rkB/s    wkB/s avgrq-sz avgqu-sz   await r_await w_await  svctm  %util
nvme0n1           0.00     0.00    0.00    0.00     0.00     0.00     0.00     0.00    0.00    0.00    0.00   0.00   0.00
sda               0.00     0.00    0.00    0.00     0.00     0.00     0.00     0.00    0.00    0.00    0.00   0.00   0.00
sdc               0.00     0.00    5.00    0.00    92.00     0.00    36.80     0.03    5.60    5.60    0.00   5.60   2.80
sdb               0.00     0.00    3.00    0.00    32.00     0.00    21.33     0.02    6.00    6.00    0.00   6.00   1.80
sdd               0.00     0.00    5.00    0.00    92.00     0.00    36.80     0.03    5.60    5.60    0.00   5.60   2.80
md0               0.00     0.00   13.00    0.00   256.00     0.00    39.38     0.00    0.00    0.00    0.00   0.00   0.00

avg-cpu:  %user   %nice %system %iowait  %steal   %idle
           1.72    0.00    2.60    0.03    0.00   95.65

Device:         rrqm/s   wrqm/s     r/s     w/s    rkB/s    wkB/s avgrq-sz avgqu-sz   await r_await w_await  svctm  %util
nvme0n1           0.00     0.00    0.00    0.00     0.00     0.00     0.00     0.00    0.00    0.00    0.00   0.00   0.00
sda               0.00     4.00    0.00    2.00     0.00    24.00    24.00     0.00    0.00    0.00    0.00   0.00   0.00
sdc               0.00     0.00    0.00    0.00     0.00     0.00     0.00     0.00    0.00    0.00    0.00   0.00   0.00
sdb               0.00     0.00    3.00    0.00    24.00     0.00    16.00     0.03    8.33    8.33    0.00   8.33   2.50
sdd               0.00     0.00    1.00    0.00    16.00     0.00    32.00     0.01    9.00    9.00    0.00   9.00   0.90
md0               0.00     0.00    4.00    0.00    40.00     0.00    20.00     0.00    0.00    0.00    0.00   0.00   0.00

avg-cpu:  %user   %nice %system %iowait  %steal   %idle
           1.72    0.00    2.54    0.00    0.00   95.74

Device:         rrqm/s   wrqm/s     r/s     w/s    rkB/s    wkB/s avgrq-sz avgqu-sz   await r_await w_await  svctm  %util
nvme0n1           0.00     0.00    0.00    0.00     0.00     0.00     0.00     0.00    0.00    0.00    0.00   0.00   0.00
sda               0.00     0.00    0.00    0.00     0.00     0.00     0.00     0.00    0.00    0.00    0.00   0.00   0.00
sdc               0.00     0.00    0.00    0.00     0.00     0.00     0.00     0.00    0.00    0.00    0.00   0.00   0.00
sdb               0.00     0.00    0.00    0.00     0.00     0.00     0.00     0.00    0.00    0.00    0.00   0.00   0.00
sdd               0.00     0.00    0.00    0.00     0.00     0.00     0.00     0.00    0.00    0.00    0.00   0.00   0.00
md0               0.00     0.00    0.00    0.00     0.00     0.00     0.00     0.00    0.00    0.00    0.00   0.00   0.00

avg-cpu:  %user   %nice %system %iowait  %steal   %idle
           1.66    0.00    2.60    0.00    0.00   95.74

Device:         rrqm/s   wrqm/s     r/s     w/s    rkB/s    wkB/s avgrq-sz avgqu-sz   await r_await w_await  svctm  %util
nvme0n1           0.00     0.00    0.00    0.00     0.00     0.00     0.00     0.00    0.00    0.00    0.00   0.00   0.00
sda               0.00     0.00    0.00    0.00     0.00     0.00     0.00     0.00    0.00    0.00    0.00   0.00   0.00
sdc               0.00     0.00    0.00    0.00     0.00     0.00     0.00     0.00    0.00    0.00    0.00   0.00   0.00
sdb               0.00     0.00    0.00    0.00     0.00     0.00     0.00     0.00    0.00    0.00    0.00   0.00   0.00
sdd               0.00     0.00    1.00    0.00     4.00     0.00     8.00     0.00    1.00    1.00    0.00   1.00   0.10
md0               0.00     0.00    1.00    0.00     4.00     0.00     8.00     0.00    0.00    0.00    0.00   0.00   0.00

avg-cpu:  %user   %nice %system %iowait  %steal   %idle
           1.66    0.00    2.60    0.00    0.00   95.74

Device:         rrqm/s   wrqm/s     r/s     w/s    rkB/s    wkB/s avgrq-sz avgqu-sz   await r_await w_await  svctm  %util
nvme0n1           0.00     0.00    0.00    0.00     0.00     0.00     0.00     0.00    0.00    0.00    0.00   0.00   0.00
sda               0.00     0.00    0.00    0.00     0.00     0.00     0.00     0.00    0.00    0.00    0.00   0.00   0.00
sdc               0.00     0.00    0.00    0.00     0.00     0.00     0.00     0.00    0.00    0.00    0.00   0.00   0.00
sdb               0.00     0.00    0.00    0.00     0.00     0.00     0.00     0.00    0.00    0.00    0.00   0.00   0.00
sdd               0.00     0.00    0.00    0.00     0.00     0.00     0.00     0.00    0.00    0.00    0.00   0.00   0.00
md0               0.00     0.00    0.00    0.00     0.00     0.00     0.00     0.00    0.00    0.00    0.00   0.00   0.00

avg-cpu:  %user   %nice %system %iowait  %steal   %idle
           1.69    0.00    2.66    0.00    0.00   95.64

Device:         rrqm/s   wrqm/s     r/s     w/s    rkB/s    wkB/s avgrq-sz avgqu-sz   await r_await w_await  svctm  %util
nvme0n1           0.00     0.00    0.00    0.00     0.00     0.00     0.00     0.00    0.00    0.00    0.00   0.00   0.00
sda               0.00     0.00    0.00    0.00     0.00     0.00     0.00     0.00    0.00    0.00    0.00   0.00   0.00
sdc               0.00     0.00    0.00    0.00     0.00     0.00     0.00     0.00    0.00    0.00    0.00   0.00   0.00
sdb               0.00     0.00    0.00    0.00     0.00     0.00     0.00     0.00    0.00    0.00    0.00   0.00   0.00
sdd               0.00     0.00    0.00    0.00     0.00     0.00     0.00     0.00    0.00    0.00    0.00   0.00   0.00
md0               0.00     0.00    0.00    0.00     0.00     0.00     0.00     0.00    0.00    0.00    0.00   0.00   0.00

avg-cpu:  %user   %nice %system %iowait  %steal   %idle
           1.69    0.00    2.54    0.00    0.00   95.77

Device:         rrqm/s   wrqm/s     r/s     w/s    rkB/s    wkB/s avgrq-sz avgqu-sz   await r_await w_await  svctm  %util
nvme0n1           0.00     0.00    0.00    0.00     0.00     0.00     0.00     0.00    0.00    0.00    0.00   0.00   0.00
sda               0.00     1.00    0.00    2.00     0.00    12.00    12.00     0.00    0.00    0.00    0.00   0.00   0.00
sdc               0.00     0.00    0.00    0.00     0.00     0.00     0.00     0.00    0.00    0.00    0.00   0.00   0.00
sdb               0.00     0.00    0.00    0.00     0.00     0.00     0.00     0.00    0.00    0.00    0.00   0.00   0.00
sdd               0.00     0.00    0.00    0.00     0.00     0.00     0.00     0.00    0.00    0.00    0.00   0.00   0.00
md0               0.00     0.00    0.00    0.00     0.00     0.00     0.00     0.00    0.00    0.00    0.00   0.00   0.00

avg-cpu:  %user   %nice %system %iowait  %steal   %idle
           1.82    0.00    2.51    0.00    0.00   95.67

Device:         rrqm/s   wrqm/s     r/s     w/s    rkB/s    wkB/s avgrq-sz avgqu-sz   await r_await w_await  svctm  %util
nvme0n1           0.00     0.00    0.00    0.00     0.00     0.00     0.00     0.00    0.00    0.00    0.00   0.00   0.00
sda               0.00     0.00    0.00    0.00     0.00     0.00     0.00     0.00    0.00    0.00    0.00   0.00   0.00
sdc               0.00     0.00    0.00    0.00     0.00     0.00     0.00     0.00    0.00    0.00    0.00   0.00   0.00
sdb               0.00     0.00    0.00    0.00     0.00     0.00     0.00     0.00    0.00    0.00    0.00   0.00   0.00
sdd               0.00     0.00    0.00    0.00     0.00     0.00     0.00     0.00    0.00    0.00    0.00   0.00   0.00
md0               0.00     0.00    0.00    0.00     0.00     0.00     0.00     0.00    0.00    0.00    0.00   0.00   0.00

