Linux 4.17.2 (bench2) 	08/04/2018 	_x86_64_	(32 CPU)

avg-cpu:  %user   %nice %system %iowait  %steal   %idle
           1.89    0.00    1.53    1.64    0.00   94.94

Device:         rrqm/s   wrqm/s     r/s     w/s    rkB/s    wkB/s avgrq-sz avgqu-sz   await r_await w_await  svctm  %util
nvme0n1         923.01     5.01 18607.59  512.32 104083.13 11554.45    12.10     1.32    0.05    0.03    0.67   0.02  38.95
sda               0.12     0.82   14.19    0.59   164.11     8.57    23.37     0.00    0.33    0.32    0.44   0.07   0.10
sdc              35.27     0.17  128.42    0.31  1905.73    96.16    31.10     0.17    1.34    0.43  381.84   0.89  11.47
sdb              33.26     0.18  130.38    0.33  1903.83    95.99    30.60     0.60    4.56    3.54  413.03   0.84  10.92
sdd              35.47     0.16  127.96    0.26  1901.86    95.66    31.16     0.91    7.10    5.29  909.23   0.90  11.50
md0               0.00     0.00  493.56    1.19  7075.73   346.89    30.01     0.00    0.00    0.00    0.00   0.00   0.00

avg-cpu:  %user   %nice %system %iowait  %steal   %idle
           3.10    0.00    0.22    2.92    0.00   93.77

Device:         rrqm/s   wrqm/s     r/s     w/s    rkB/s    wkB/s avgrq-sz avgqu-sz   await r_await w_await  svctm  %util
nvme0n1           0.00     0.00    0.00    0.00     0.00     0.00     0.00     0.00    0.00    0.00    0.00   0.00   0.00
sda               0.00     0.90    1.10    1.15     6.20    10.00    14.40     0.00    0.09    0.14    0.04   0.04   0.01
sdc               0.00     0.00 1521.50    0.00  6086.60     0.00     8.00     0.33    0.22    0.22    0.00   0.22  32.72
sdb               0.00     0.00 1527.05    0.00  6108.20     0.00     8.00     0.32    0.21    0.21    0.00   0.21  32.07
sdd               0.00     0.00 1528.40    0.00  6113.60     0.00     8.00     0.31    0.21    0.21    0.00   0.20  31.30
md0               0.00     0.00 4577.00    0.00 18308.60     0.00     8.00     0.00    0.00    0.00    0.00   0.00   0.00

