Linux 4.17.2 (bench2) 	08/04/2018 	_x86_64_	(32 CPU)

avg-cpu:  %user   %nice %system %iowait  %steal   %idle
           1.89    0.00    1.54    1.62    0.00   94.95

Device:         rrqm/s   wrqm/s     r/s     w/s    rkB/s    wkB/s avgrq-sz avgqu-sz   await r_await w_await  svctm  %util
nvme0n1         927.72     5.04 18702.47  514.94 104613.81 11613.36    12.10     1.33    0.05    0.03    0.67   0.02  39.15
sda               0.12     0.82   14.18    0.58   164.07     8.56    23.39     0.00    0.33    0.32    0.44   0.07   0.10
sdc              34.94     0.17  125.27    0.31  1873.01    96.65    31.37     0.14    1.10    0.17  381.84   0.90  11.27
sdb              32.93     0.18  127.25    0.33  1871.09    96.48    30.85     0.57    4.43    3.38  413.03   0.84  10.72
sdd              35.14     0.17  124.82    0.26  1869.08    96.15    31.42     0.88    7.03    5.16  909.23   0.90  11.29
md0               0.00     0.00  483.17    1.20  6958.08   348.66    30.17     0.00    0.00    0.00    0.00   0.00   0.00

avg-cpu:  %user   %nice %system %iowait  %steal   %idle
           3.13    0.00    0.06    3.03    0.00   93.78

Device:         rrqm/s   wrqm/s     r/s     w/s    rkB/s    wkB/s avgrq-sz avgqu-sz   await r_await w_await  svctm  %util
nvme0n1           0.00     0.00    0.00    0.00     0.00     0.00     0.00     0.00    0.00    0.00    0.00   0.00   0.00
sda               0.00     0.00   20.00    0.00   108.00     0.00    10.80     0.01    0.40    0.40    0.00   0.05   0.10
sdc               0.00     0.00  180.00    0.00   720.00     0.00     8.00     0.33    1.84    1.84    0.00   1.84  33.10
sdb               0.00     0.00  184.00    0.00   736.00     0.00     8.00     0.21    1.15    1.15    0.00   1.15  21.20
sdd               0.00     0.00  162.00    0.00   648.00     0.00     8.00     0.45    2.77    2.77    0.00   2.78  45.00
md0               0.00     0.00  527.00    0.00  2108.00     0.00     8.00     0.00    0.00    0.00    0.00   0.00   0.00

avg-cpu:  %user   %nice %system %iowait  %steal   %idle
           3.10    0.00    0.03    3.06    0.00   93.81

Device:         rrqm/s   wrqm/s     r/s     w/s    rkB/s    wkB/s avgrq-sz avgqu-sz   await r_await w_await  svctm  %util
nvme0n1           0.00     0.00    0.00    0.00     0.00     0.00     0.00     0.00    0.00    0.00    0.00   0.00   0.00
sda               0.00     0.00    0.00    0.00     0.00     0.00     0.00     0.00    0.00    0.00    0.00   0.00   0.00
sdc               0.00     0.00  163.00    0.00   652.00     0.00     8.00     0.43    2.61    2.61    0.00   2.61  42.60
sdb               0.00     0.00  146.00    0.00   584.00     0.00     8.00     0.27    1.85    1.85    0.00   1.85  27.00
sdd               0.00     0.00  175.00    0.00   700.00     0.00     8.00     0.29    1.67    1.67    0.00   1.67  29.30
md0               0.00     0.00  484.00    0.00  1936.00     0.00     8.00     0.00    0.00    0.00    0.00   0.00   0.00

avg-cpu:  %user   %nice %system %iowait  %steal   %idle
           3.13    0.00    0.03    3.03    0.00   93.81

Device:         rrqm/s   wrqm/s     r/s     w/s    rkB/s    wkB/s avgrq-sz avgqu-sz   await r_await w_await  svctm  %util
nvme0n1           0.00     0.00    0.00    0.00     0.00     0.00     0.00     0.00    0.00    0.00    0.00   0.00   0.00
sda               0.00     0.00    0.00    0.00     0.00     0.00     0.00     0.00    0.00    0.00    0.00   0.00   0.00
sdc               0.00     0.00  169.00    0.00   676.00     0.00     8.00     0.21    1.23    1.23    0.00   1.25  21.10
sdb               0.00     0.00  173.00    0.00   692.00     0.00     8.00     0.29    1.65    1.65    0.00   1.65  28.60
sdd               0.00     0.00  168.00    0.00   672.00     0.00     8.00     0.49    2.93    2.93    0.00   2.93  49.20
md0               0.00     0.00  510.00    0.00  2040.00     0.00     8.00     0.00    0.00    0.00    0.00   0.00   0.00

avg-cpu:  %user   %nice %system %iowait  %steal   %idle
           3.13    0.00    0.03    3.06    0.00   93.78

Device:         rrqm/s   wrqm/s     r/s     w/s    rkB/s    wkB/s avgrq-sz avgqu-sz   await r_await w_await  svctm  %util
nvme0n1           0.00     0.00    0.00    0.00     0.00     0.00     0.00     0.00    0.00    0.00    0.00   0.00   0.00
sda               0.00     0.00    0.00    0.00     0.00     0.00     0.00     0.00    0.00    0.00    0.00   0.00   0.00
sdc               0.00     0.00  164.00    0.00   656.00     0.00     8.00     0.31    1.88    1.88    0.00   1.87  30.60
sdb               0.00     0.00  150.00    0.00   600.00     0.00     8.00     0.20    1.31    1.31    0.00   1.31  19.70
sdd               0.00     0.00  163.00    0.00   652.00     0.00     8.00     0.49    2.98    2.98    0.00   2.98  48.60
md0               0.00     0.00  477.00    0.00  1908.00     0.00     8.00     0.00    0.00    0.00    0.00   0.00   0.00

avg-cpu:  %user   %nice %system %iowait  %steal   %idle
           3.13    0.00    0.03    3.03    0.00   93.81

Device:         rrqm/s   wrqm/s     r/s     w/s    rkB/s    wkB/s avgrq-sz avgqu-sz   await r_await w_await  svctm  %util
nvme0n1           0.00     0.00    0.00    0.00     0.00     0.00     0.00     0.00    0.00    0.00    0.00   0.00   0.00
sda               0.00     0.00    0.00    0.00     0.00     0.00     0.00     0.00    0.00    0.00    0.00   0.00   0.00
sdc               0.00     0.00  151.00    0.00   604.00     0.00     8.00     0.26    1.72    1.72    0.00   1.72  26.00
sdb               0.00     0.00  164.00    0.00   656.00     0.00     8.00     0.29    1.78    1.78    0.00   1.78  29.20
sdd               0.00     0.00  188.00    0.00   752.00     0.00     8.00     0.44    2.31    2.31    0.00   2.32  43.60
md0               0.00     0.00  503.00    0.00  2012.00     0.00     8.00     0.00    0.00    0.00    0.00   0.00   0.00

avg-cpu:  %user   %nice %system %iowait  %steal   %idle
           3.13    0.00    0.03    3.06    0.00   93.78

Device:         rrqm/s   wrqm/s     r/s     w/s    rkB/s    wkB/s avgrq-sz avgqu-sz   await r_await w_await  svctm  %util
nvme0n1           0.00     0.00    0.00    0.00     0.00     0.00     0.00     0.00    0.00    0.00    0.00   0.00   0.00
sda               0.00    15.00    0.00    2.00     0.00    68.00    68.00     0.00    0.50    0.00    0.50   0.50   0.10
sdc               0.00     0.00  156.00    0.00   624.00     0.00     8.00     0.24    1.53    1.53    0.00   1.53  23.90
sdb               0.00     0.00  163.00    0.00   652.00     0.00     8.00     0.35    2.12    2.12    0.00   2.15  35.00
sdd               0.00     0.00  148.00    0.00   592.00     0.00     8.00     0.40    2.70    2.70    0.00   2.69  39.80
md0               0.00     0.00  467.00    0.00  1868.00     0.00     8.00     0.00    0.00    0.00    0.00   0.00   0.00

avg-cpu:  %user   %nice %system %iowait  %steal   %idle
           3.13    0.00    0.06    3.03    0.00   93.78

Device:         rrqm/s   wrqm/s     r/s     w/s    rkB/s    wkB/s avgrq-sz avgqu-sz   await r_await w_await  svctm  %util
nvme0n1           0.00     0.00    0.00    0.00     0.00     0.00     0.00     0.00    0.00    0.00    0.00   0.00   0.00
sda               0.00     0.00    0.00    0.00     0.00     0.00     0.00     0.00    0.00    0.00    0.00   0.00   0.00
sdc               0.00     0.00  159.00    0.00   636.00     0.00     8.00     0.26    1.61    1.61    0.00   1.61  25.60
sdb               0.00     0.00  203.00    0.00   812.00     0.00     8.00     0.42    2.08    2.08    0.00   2.06  41.90
sdd               0.00     0.00  161.00    0.00   644.00     0.00     8.00     0.32    1.96    1.96    0.00   1.96  31.50
md0               0.00     0.00  523.00    0.00  2092.00     0.00     8.00     0.00    0.00    0.00    0.00   0.00   0.00

avg-cpu:  %user   %nice %system %iowait  %steal   %idle
           3.09    0.00    0.06    3.06    0.00   93.78

Device:         rrqm/s   wrqm/s     r/s     w/s    rkB/s    wkB/s avgrq-sz avgqu-sz   await r_await w_await  svctm  %util
nvme0n1           0.00     0.00    0.00    0.00     0.00     0.00     0.00     0.00    0.00    0.00    0.00   0.00   0.00
sda               0.00     0.00    0.00    0.00     0.00     0.00     0.00     0.00    0.00    0.00    0.00   0.00   0.00
sdc               0.00     0.00  165.00    0.00   660.00     0.00     8.00     0.23    1.39    1.39    0.00   1.39  23.00
sdb               0.00     0.00  147.00    0.00   588.00     0.00     8.00     0.41    2.75    2.75    0.00   2.76  40.60
sdd               0.00     0.00  163.00    0.00   652.00     0.00     8.00     0.34    2.12    2.12    0.00   2.12  34.50
md0               0.00     0.00  475.00    0.00  1900.00     0.00     8.00     0.00    0.00    0.00    0.00   0.00   0.00

avg-cpu:  %user   %nice %system %iowait  %steal   %idle
           3.12    0.00    0.06    3.06    0.00   93.75

Device:         rrqm/s   wrqm/s     r/s     w/s    rkB/s    wkB/s avgrq-sz avgqu-sz   await r_await w_await  svctm  %util
nvme0n1           0.00     0.00    0.00    0.00     0.00     0.00     0.00     0.00    0.00    0.00    0.00   0.00   0.00
sda               0.00     1.00    0.00   22.00     0.00    92.00     8.36     0.00    0.00    0.00    0.00   0.00   0.00
sdc               0.00     0.00  141.00    0.00   564.00     0.00     8.00     0.36    2.55    2.55    0.00   2.55  36.00
sdb               0.00     0.00  166.00    0.00   664.00     0.00     8.00     0.33    2.03    2.03    0.00   2.01  33.40
sdd               0.00     0.00  157.00    0.00   628.00     0.00     8.00     0.29    1.85    1.85    0.00   1.85  29.10
md0               0.00     0.00  464.00    0.00  1856.00     0.00     8.00     0.00    0.00    0.00    0.00   0.00   0.00

avg-cpu:  %user   %nice %system %iowait  %steal   %idle
           3.13    0.00    0.06    3.03    0.00   93.78

Device:         rrqm/s   wrqm/s     r/s     w/s    rkB/s    wkB/s avgrq-sz avgqu-sz   await r_await w_await  svctm  %util
nvme0n1           0.00     0.00    0.00    0.00     0.00     0.00     0.00     0.00    0.00    0.00    0.00   0.00   0.00
sda               0.00     0.00    0.00    0.00     0.00     0.00     0.00     0.00    0.00    0.00    0.00   0.00   0.00
sdc               0.00     0.00  170.00    0.00   680.00     0.00     8.00     0.34    2.02    2.02    0.00   2.02  34.40
sdb               0.00     0.00  143.00    0.00   572.00     0.00     8.00     0.22    1.52    1.52    0.00   1.52  21.80
sdd               0.00     0.00  148.00    0.00   592.00     0.00     8.00     0.42    2.83    2.83    0.00   2.85  42.20
md0               0.00     0.00  461.00    0.00  1844.00     0.00     8.00     0.00    0.00    0.00    0.00   0.00   0.00

avg-cpu:  %user   %nice %system %iowait  %steal   %idle
           3.12    0.00    0.06    3.06    0.00   93.75

Device:         rrqm/s   wrqm/s     r/s     w/s    rkB/s    wkB/s avgrq-sz avgqu-sz   await r_await w_await  svctm  %util
nvme0n1           0.00     0.00    0.00    0.00     0.00     0.00     0.00     0.00    0.00    0.00    0.00   0.00   0.00
sda               0.00     1.00    0.00    2.00     0.00    12.00    12.00     0.00    0.50    0.00    0.50   0.50   0.10
sdc               0.00     0.00  176.00    0.00   704.00     0.00     8.00     0.37    2.11    2.11    0.00   2.11  37.20
sdb               0.00     0.00  179.00    0.00   716.00     0.00     8.00     0.27    1.50    1.50    0.00   1.50  26.80
sdd               0.00     0.00  163.00    0.00   652.00     0.00     8.00     0.34    2.10    2.10    0.00   2.08  33.90
md0               0.00     0.00  518.00    0.00  2072.00     0.00     8.00     0.00    0.00    0.00    0.00   0.00   0.00

avg-cpu:  %user   %nice %system %iowait  %steal   %idle
           3.13    0.00    0.03    3.03    0.00   93.81

Device:         rrqm/s   wrqm/s     r/s     w/s    rkB/s    wkB/s avgrq-sz avgqu-sz   await r_await w_await  svctm  %util
nvme0n1           0.00     0.00    0.00    0.00     0.00     0.00     0.00     0.00    0.00    0.00    0.00   0.00   0.00
sda               0.00     0.00    0.00    0.00     0.00     0.00     0.00     0.00    0.00    0.00    0.00   0.00   0.00
sdc               0.00     0.00  152.00    0.00   608.00     0.00     8.00     0.35    2.33    2.33    0.00   2.33  35.40
sdb               0.00     0.00  135.00    0.00   540.00     0.00     8.00     0.24    1.79    1.79    0.00   1.79  24.10
sdd               0.00     0.00  180.00    0.00   720.00     0.00     8.00     0.40    2.19    2.19    0.00   2.21  39.70
md0               0.00     0.00  467.00    0.00  1868.00     0.00     8.00     0.00    0.00    0.00    0.00   0.00   0.00

avg-cpu:  %user   %nice %system %iowait  %steal   %idle
           3.13    0.00    0.03    3.06    0.00   93.78

Device:         rrqm/s   wrqm/s     r/s     w/s    rkB/s    wkB/s avgrq-sz avgqu-sz   await r_await w_await  svctm  %util
nvme0n1           0.00     0.00    0.00    0.00     0.00     0.00     0.00     0.00    0.00    0.00    0.00   0.00   0.00
sda               0.00     0.00    0.00    0.00     0.00     0.00     0.00     0.00    0.00    0.00    0.00   0.00   0.00
sdc               0.00     0.00  162.00    0.00   648.00     0.00     8.00     0.28    1.73    1.73    0.00   1.73  28.00
sdb               0.00     0.00  186.00    0.00   744.00     0.00     8.00     0.24    1.30    1.30    0.00   1.30  24.10
sdd               0.00     0.00  161.00    0.00   644.00     0.00     8.00     0.47    2.90    2.90    0.00   2.89  46.60
md0               0.00     0.00  509.00    0.00  2036.00     0.00     8.00     0.00    0.00    0.00    0.00   0.00   0.00

avg-cpu:  %user   %nice %system %iowait  %steal   %idle
           3.13    0.00    0.06    3.03    0.00   93.78

Device:         rrqm/s   wrqm/s     r/s     w/s    rkB/s    wkB/s avgrq-sz avgqu-sz   await r_await w_await  svctm  %util
nvme0n1           0.00     0.00    0.00    0.00     0.00     0.00     0.00     0.00    0.00    0.00    0.00   0.00   0.00
sda               0.00     2.00    2.00    5.00     8.00    44.00    14.86     0.00    0.00    0.00    0.00   0.00   0.00
sdc               0.00     0.00  164.00    0.00   656.00     0.00     8.00     0.27    1.64    1.64    0.00   1.64  26.90
sdb               0.00     0.00  185.00    0.00   740.00     0.00     8.00     0.25    1.38    1.38    0.00   1.38  25.50
sdd               0.00     0.00  147.00    0.00   588.00     0.00     8.00     0.47    3.15    3.15    0.00   3.17  46.60
md0               0.00     0.00  496.00    0.00  1984.00     0.00     8.00     0.00    0.00    0.00    0.00   0.00   0.00

avg-cpu:  %user   %nice %system %iowait  %steal   %idle
           3.13    0.00    0.03    3.06    0.00   93.78

Device:         rrqm/s   wrqm/s     r/s     w/s    rkB/s    wkB/s avgrq-sz avgqu-sz   await r_await w_await  svctm  %util
nvme0n1           0.00     0.00    0.00    0.00     0.00     0.00     0.00     0.00    0.00    0.00    0.00   0.00   0.00
sda               0.00     0.00    0.00    0.00     0.00     0.00     0.00     0.00    0.00    0.00    0.00   0.00   0.00
sdc               0.00     0.00  154.00    0.00   616.00     0.00     8.00     0.30    1.92    1.92    0.00   1.93  29.70
sdb               0.00     0.00  154.00    0.00   616.00     0.00     8.00     0.25    1.60    1.60    0.00   1.60  24.70
sdd               0.00     0.00  156.00    0.00   624.00     0.00     8.00     0.45    2.91    2.91    0.00   2.88  44.90
md0               0.00     0.00  464.00    0.00  1856.00     0.00     8.00     0.00    0.00    0.00    0.00   0.00   0.00

avg-cpu:  %user   %nice %system %iowait  %steal   %idle
           3.13    0.00    0.03    3.06    0.00   93.78

Device:         rrqm/s   wrqm/s     r/s     w/s    rkB/s    wkB/s avgrq-sz avgqu-sz   await r_await w_await  svctm  %util
nvme0n1           0.00     0.00    0.00    0.00     0.00     0.00     0.00     0.00    0.00    0.00    0.00   0.00   0.00
sda               0.00     7.00    0.00    2.00     0.00    36.00    36.00     0.00    0.50    0.00    0.50   0.50   0.10
sdc               0.00     0.00  189.00    0.00   756.00     0.00     8.00     0.34    1.78    1.78    0.00   1.77  33.50
sdb               0.00     0.00  131.00    0.00   524.00     0.00     8.00     0.24    1.80    1.80    0.00   1.82  23.90
sdd               0.00     0.00  165.00    0.00   660.00     0.00     8.00     0.41    2.52    2.52    0.00   2.51  41.40
md0               0.00     0.00  485.00    0.00  1940.00     0.00     8.00     0.00    0.00    0.00    0.00   0.00   0.00

avg-cpu:  %user   %nice %system %iowait  %steal   %idle
           3.13    0.00    0.03    3.03    0.00   93.81

Device:         rrqm/s   wrqm/s     r/s     w/s    rkB/s    wkB/s avgrq-sz avgqu-sz   await r_await w_await  svctm  %util
nvme0n1           0.00     0.00    0.00    0.00     0.00     0.00     0.00     0.00    0.00    0.00    0.00   0.00   0.00
sda               0.00     0.00    0.00    0.00     0.00     0.00     0.00     0.00    0.00    0.00    0.00   0.00   0.00
sdc               0.00     0.00  165.00    0.00   660.00     0.00     8.00     0.32    1.96    1.96    0.00   1.96  32.40
sdb               0.00     0.00  164.00    0.00   656.00     0.00     8.00     0.22    1.39    1.39    0.00   1.36  22.30
sdd               0.00     0.00  165.00    0.00   660.00     0.00     8.00     0.43    2.63    2.63    0.00   2.63  43.40
md0               0.00     0.00  494.00    0.00  1976.00     0.00     8.00     0.00    0.00    0.00    0.00   0.00   0.00

avg-cpu:  %user   %nice %system %iowait  %steal   %idle
           3.09    0.00    0.06    3.06    0.00   93.78

Device:         rrqm/s   wrqm/s     r/s     w/s    rkB/s    wkB/s avgrq-sz avgqu-sz   await r_await w_await  svctm  %util
nvme0n1           0.00     0.00    0.00    0.00     0.00     0.00     0.00     0.00    0.00    0.00    0.00   0.00   0.00
sda               0.00     0.00    0.00    0.00     0.00     0.00     0.00     0.00    0.00    0.00    0.00   0.00   0.00
sdc               0.00     0.00  180.00    0.00   720.00     0.00     8.00     0.27    1.49    1.49    0.00   1.49  26.80
sdb               0.00     0.00  181.00    0.00   724.00     0.00     8.00     0.29    1.61    1.61    0.00   1.61  29.20
sdd               0.00     0.00  145.00    0.00   580.00     0.00     8.00     0.42    2.92    2.92    0.00   2.92  42.40
md0               0.00     0.00  506.00    0.00  2024.00     0.00     8.00     0.00    0.00    0.00    0.00   0.00   0.00

avg-cpu:  %user   %nice %system %iowait  %steal   %idle
           3.13    0.00    0.06    3.03    0.00   93.78

Device:         rrqm/s   wrqm/s     r/s     w/s    rkB/s    wkB/s avgrq-sz avgqu-sz   await r_await w_await  svctm  %util
nvme0n1           0.00     0.00    0.00    0.00     0.00     0.00     0.00     0.00    0.00    0.00    0.00   0.00   0.00
sda               0.00     0.00    0.00    0.00     0.00     0.00     0.00     0.00    0.00    0.00    0.00   0.00   0.00
sdc               0.00     0.00  142.00    0.00   568.00     0.00     8.00     0.29    2.03    2.03    0.00   2.03  28.80
sdb               0.00     0.00  172.00    0.00   688.00     0.00     8.00     0.36    2.07    2.07    0.00   2.07  35.60
sdd               0.00     0.00  160.00    0.00   640.00     0.00     8.00     0.35    2.15    2.15    0.00   2.18  34.90
md0               0.00     0.00  474.00    0.00  1896.00     0.00     8.00     0.00    0.00    0.00    0.00   0.00   0.00

avg-cpu:  %user   %nice %system %iowait  %steal   %idle
           3.13    0.00    0.03    3.06    0.00   93.78

Device:         rrqm/s   wrqm/s     r/s     w/s    rkB/s    wkB/s avgrq-sz avgqu-sz   await r_await w_await  svctm  %util
nvme0n1           0.00     0.00    0.00    0.00     0.00     0.00     0.00     0.00    0.00    0.00    0.00   0.00   0.00
sda               0.00     1.00    0.00    2.00     0.00    12.00    12.00     0.00    0.00    0.00    0.00   0.00   0.00
sdc               0.00     0.00  164.00    0.00   656.00     0.00     8.00     0.29    1.74    1.74    0.00   1.77  29.00
sdb               0.00     0.00  178.00    0.00   712.00     0.00     8.00     0.21    1.17    1.17    0.00   1.17  20.80
sdd               0.00     0.00  154.00    0.00   616.00     0.00     8.00     0.49    3.20    3.20    0.00   3.17  48.80
md0               0.00     0.00  496.00    0.00  1984.00     0.00     8.00     0.00    0.00    0.00    0.00   0.00   0.00

