Linux 4.17.2 (bench2) 	08/04/2018 	_x86_64_	(32 CPU)

avg-cpu:  %user   %nice %system %iowait  %steal   %idle
           1.89    0.00    1.53    1.64    0.00   94.94

Device:         rrqm/s   wrqm/s     r/s     w/s    rkB/s    wkB/s avgrq-sz avgqu-sz   await r_await w_await  svctm  %util
nvme0n1         921.19     5.00 18570.74  511.31 103876.98 11531.57    12.10     1.32    0.05    0.03    0.67   0.02  38.88
sda               0.12     0.82   14.20    0.59   164.15     8.57    23.36     0.00    0.33    0.32    0.43   0.07   0.10
sdc              35.30     0.17  129.75    0.31  1918.51    95.97    30.98     0.18    1.37    0.48  381.84   0.89  11.53
sdb              33.30     0.18  131.71    0.33  1916.62    95.80    30.48     0.60    4.56    3.55  413.03   0.83  10.99
sdd              35.49     0.16  129.30    0.26  1914.63    95.47    31.03     0.92    7.07    5.28  909.23   0.89  11.58
md0               0.00     0.00  497.65    1.19  7120.99   346.20    29.94     0.00    0.00    0.00    0.00   0.00   0.00

avg-cpu:  %user   %nice %system %iowait  %steal   %idle
           3.00    0.00    0.28    1.31    0.00   95.40

Device:         rrqm/s   wrqm/s     r/s     w/s    rkB/s    wkB/s avgrq-sz avgqu-sz   await r_await w_await  svctm  %util
nvme0n1           0.00     0.00    0.00    0.00     0.00     0.00     0.00     0.00    0.00    0.00    0.00   0.00   0.00
sda               0.00     0.00    4.00    0.00   104.00     0.00    52.00     0.00    0.25    0.25    0.00   0.25   0.10
sdc               3.00     0.00  592.00    0.00 15848.00     0.00    53.54     4.05    6.85    6.85    0.00   0.89  52.70
sdb               2.00     0.00  620.00    0.00 18244.00     0.00    58.85     3.45    5.57    5.57    0.00   0.84  52.00
sdd               4.00     0.00  653.00    0.00 17332.00     0.00    53.08     3.55    5.42    5.42    0.00   0.85  55.30
md0               0.00     0.00 1875.00    0.00 54100.00     0.00    57.71     0.00    0.00    0.00    0.00   0.00   0.00

avg-cpu:  %user   %nice %system %iowait  %steal   %idle
           3.03    0.00    0.28    1.19    0.00   95.50

Device:         rrqm/s   wrqm/s     r/s     w/s    rkB/s    wkB/s avgrq-sz avgqu-sz   await r_await w_await  svctm  %util
nvme0n1           0.00     0.00    0.00    0.00     0.00     0.00     0.00     0.00    0.00    0.00    0.00   0.00   0.00
sda               0.00     0.00    0.00    0.00     0.00     0.00     0.00     0.00    0.00    0.00    0.00   0.00   0.00
sdc              11.00     0.00  666.00    0.00 22240.00     0.00    66.79     2.29    3.45    3.45    0.00   0.77  51.20
sdb              13.00     0.00  536.00    0.00 20684.00     0.00    77.18     1.65    3.08    3.08    0.00   0.69  37.00
sdd              13.00     0.00  574.00    0.00 20952.00     0.00    73.00     2.18    3.81    3.81    0.00   0.89  51.20
md0               0.00     0.00 1813.00    0.00 75624.00     0.00    83.42     0.00    0.00    0.00    0.00   0.00   0.00

avg-cpu:  %user   %nice %system %iowait  %steal   %idle
           3.04    0.00    0.28    1.03    0.00   95.65

Device:         rrqm/s   wrqm/s     r/s     w/s    rkB/s    wkB/s avgrq-sz avgqu-sz   await r_await w_await  svctm  %util
nvme0n1           0.00     0.00    0.00    0.00     0.00     0.00     0.00     0.00    0.00    0.00    0.00   0.00   0.00
sda               0.00    12.00    0.00    2.00     0.00    56.00    56.00     0.00    0.00    0.00    0.00   0.00   0.00
sdc              79.00     0.00  727.00    0.00 59768.00     0.00   164.42     0.70    0.93    0.93    0.00   0.63  45.50
sdb              80.00     0.00  819.00    0.00 59232.00     0.00   144.64     0.58    0.69    0.69    0.00   0.48  39.50
sdd              81.00     0.00  832.00    0.00 56256.00     0.00   135.23     1.04    1.19    1.19    0.00   0.75  62.60
md0               0.00     0.00 2623.00    0.00 238488.00     0.00   181.84     0.00    0.00    0.00    0.00   0.00   0.00

avg-cpu:  %user   %nice %system %iowait  %steal   %idle
           3.04    0.00    0.28    0.88    0.00   95.80

Device:         rrqm/s   wrqm/s     r/s     w/s    rkB/s    wkB/s avgrq-sz avgqu-sz   await r_await w_await  svctm  %util
nvme0n1           0.00     0.00    0.00    0.00     0.00     0.00     0.00     0.00    0.00    0.00    0.00   0.00   0.00
sda               0.00     0.00    0.00    0.00     0.00     0.00     0.00     0.00    0.00    0.00    0.00   0.00   0.00
sdc              63.00     0.00  972.00    0.00 53688.00     0.00   110.47     0.60    0.63    0.63    0.00   0.46  44.70
sdb              64.00     0.00  960.00    0.00 55404.00     0.00   115.42     0.64    0.65    0.65    0.00   0.49  47.40
sdd              60.00     0.00  912.00    0.00 55208.00     0.00   121.07     0.68    0.76    0.76    0.00   0.52  47.40
md0               0.00     0.00 3031.00    0.00 223824.00     0.00   147.69     0.00    0.00    0.00    0.00   0.00   0.00

avg-cpu:  %user   %nice %system %iowait  %steal   %idle
           3.03    0.00    0.59    1.00    0.00   95.38

Device:         rrqm/s   wrqm/s     r/s     w/s    rkB/s    wkB/s avgrq-sz avgqu-sz   await r_await w_await  svctm  %util
nvme0n1           0.00     0.00    0.00    0.00     0.00     0.00     0.00     0.00    0.00    0.00    0.00   0.00   0.00
sda               0.00     0.00    0.00    0.00     0.00     0.00     0.00     0.00    0.00    0.00    0.00   0.00   0.00
sdc              66.00     0.00  872.00    0.00 58488.00     0.00   134.15     0.68    0.79    0.79    0.00   0.55  47.90
sdb              71.00     0.00  951.00    0.00 57732.00     0.00   121.41     0.54    0.59    0.59    0.00   0.42  39.90
sdd              65.00     0.00  845.00    0.00 59232.00     0.00   140.19     0.74    0.91    0.91    0.00   0.64  54.30
md0               0.00     0.00 2866.00    0.00 242980.00     0.00   169.56     0.00    0.00    0.00    0.00   0.00   0.00

avg-cpu:  %user   %nice %system %iowait  %steal   %idle
           3.05    0.00    0.75    0.93    0.00   95.27

Device:         rrqm/s   wrqm/s     r/s     w/s    rkB/s    wkB/s avgrq-sz avgqu-sz   await r_await w_await  svctm  %util
nvme0n1           0.00     0.00    0.00    0.00     0.00     0.00     0.00     0.00    0.00    0.00    0.00   0.00   0.00
sda               0.00     0.00    0.00    0.00     0.00     0.00     0.00     0.00    0.00    0.00    0.00   0.00   0.00
sdc              59.00     0.00  974.00    0.00 56360.00     0.00   115.73     0.66    0.68    0.68    0.00   0.49  47.90
sdb              65.00     0.00  964.00    0.00 56068.00     0.00   116.32     0.60    0.62    0.62    0.00   0.47  45.60
sdd              56.00     0.00  962.00    0.00 57620.00     0.00   119.79     0.59    0.61    0.61    0.00   0.49  46.90
md0               0.00     0.00 3079.00    0.00 227944.00     0.00   148.06     0.00    0.00    0.00    0.00   0.00   0.00

avg-cpu:  %user   %nice %system %iowait  %steal   %idle
           3.03    0.00    0.62    1.03    0.00   95.32

Device:         rrqm/s   wrqm/s     r/s     w/s    rkB/s    wkB/s avgrq-sz avgqu-sz   await r_await w_await  svctm  %util
nvme0n1           0.00     0.00    0.00    0.00     0.00     0.00     0.00     0.00    0.00    0.00    0.00   0.00   0.00
sda               0.00     0.00    0.00    0.00     0.00     0.00     0.00     0.00    0.00    0.00    0.00   0.00   0.00
sdc              72.00     0.00  899.00    0.00 58152.00     0.00   129.37     0.76    0.84    0.84    0.00   0.57  51.10
sdb              79.00     0.00  760.00    0.00 62628.00     0.00   164.81     0.55    0.72    0.72    0.00   0.53  40.40
sdd              72.00     0.00  848.00    0.00 59596.00     0.00   140.56     0.89    1.03    1.03    0.00   0.68  57.80
md0               0.00     0.00 2730.00    0.00 248272.00     0.00   181.88     0.00    0.00    0.00    0.00   0.00   0.00

avg-cpu:  %user   %nice %system %iowait  %steal   %idle
           3.03    0.00    0.59    1.06    0.00   95.32

Device:         rrqm/s   wrqm/s     r/s     w/s    rkB/s    wkB/s avgrq-sz avgqu-sz   await r_await w_await  svctm  %util
nvme0n1           0.00     0.00    0.00    0.00     0.00     0.00     0.00     0.00    0.00    0.00    0.00   0.00   0.00
sda               0.00     1.00    0.00    2.00     0.00    12.00    12.00     0.00    0.00    0.00    0.00   0.00   0.00
sdc              49.00     0.00  931.00    0.00 51572.00     0.00   110.79     0.45    0.48    0.48    0.00   0.39  36.60
sdb              58.00     0.00  900.00    0.00 53300.00     0.00   118.44     0.46    0.51    0.51    0.00   0.41  36.70
sdd              55.00     0.00  955.00    0.00 57836.00     0.00   121.12     0.84    0.89    0.89    0.00   0.63  60.50
md0               0.00     0.00 2948.00    0.00 219728.00     0.00   149.07     0.00    0.00    0.00    0.00   0.00   0.00

avg-cpu:  %user   %nice %system %iowait  %steal   %idle
           3.02    0.00    0.81    0.87    0.00   95.30

Device:         rrqm/s   wrqm/s     r/s     w/s    rkB/s    wkB/s avgrq-sz avgqu-sz   await r_await w_await  svctm  %util
nvme0n1           0.00     0.00    0.00    0.00     0.00     0.00     0.00     0.00    0.00    0.00    0.00   0.00   0.00
sda               0.00     3.00    0.00    2.00     0.00    36.00    36.00     0.00    0.00    0.00    0.00   0.00   0.00
sdc              49.00     0.00 1023.00    0.00 50860.00     0.00    99.43     0.60    0.58    0.58    0.00   0.44  45.00
sdb              53.00     0.00 1067.00    0.00 52172.00     0.00    97.79     0.46    0.43    0.43    0.00   0.35  37.20
sdd              52.00     0.00 1004.00    0.00 53168.00     0.00   105.91     0.67    0.66    0.66    0.00   0.50  50.20
md0               0.00     0.00 3248.00    0.00 218272.00     0.00   134.40     0.00    0.00    0.00    0.00   0.00   0.00

avg-cpu:  %user   %nice %system %iowait  %steal   %idle
           2.99    0.00    0.75    1.37    0.00   94.89

Device:         rrqm/s   wrqm/s     r/s     w/s    rkB/s    wkB/s avgrq-sz avgqu-sz   await r_await w_await  svctm  %util
nvme0n1           0.00     0.00    0.00    0.00     0.00     0.00     0.00     0.00    0.00    0.00    0.00   0.00   0.00
sda               0.00     0.00    0.00    0.00     0.00     0.00     0.00     0.00    0.00    0.00    0.00   0.00   0.00
sdc               3.00     0.00  477.00    0.00 10688.00     0.00    44.81     4.42    9.27    9.27    0.00   1.19  56.80
sdb               6.00     0.00  398.00    0.00  8924.00     0.00    44.84     3.65    9.18    9.18    0.00   1.28  51.00
sdd               3.00     0.00  486.00    0.00 10176.00     0.00    41.88     4.42    9.09    9.09    0.00   1.21  58.60
md0               0.00     0.00 1374.00    0.00 31060.00     0.00    45.21     0.00    0.00    0.00    0.00   0.00   0.00

avg-cpu:  %user   %nice %system %iowait  %steal   %idle
           3.03    0.00    0.50    1.28    0.00   95.20

Device:         rrqm/s   wrqm/s     r/s     w/s    rkB/s    wkB/s avgrq-sz avgqu-sz   await r_await w_await  svctm  %util
nvme0n1           0.00     0.00    0.00    0.00     0.00     0.00     0.00     0.00    0.00    0.00    0.00   0.00   0.00
sda               0.00     0.00    0.00    0.00     0.00     0.00     0.00     0.00    0.00    0.00    0.00   0.00   0.00
sdc               2.00     0.00  524.00    0.00 13148.00     0.00    50.18     2.45    4.68    4.68    0.00   0.97  50.80
sdb               1.00     0.00  575.00    0.00 13376.00     0.00    46.53     1.37    2.39    2.39    0.00   0.73  41.80
sdd               2.00     0.00  576.00    0.00 14388.00     0.00    49.96     1.13    1.95    1.95    0.00   0.57  32.90
md0               0.00     0.00 1681.00    0.00 43028.00     0.00    51.19     0.00    0.00    0.00    0.00   0.00   0.00

avg-cpu:  %user   %nice %system %iowait  %steal   %idle
           3.03    0.00    0.53    1.28    0.00   95.17

Device:         rrqm/s   wrqm/s     r/s     w/s    rkB/s    wkB/s avgrq-sz avgqu-sz   await r_await w_await  svctm  %util
nvme0n1           0.00     0.00    0.00    0.00     0.00     0.00     0.00     0.00    0.00    0.00    0.00   0.00   0.00
sda               0.00     0.00    0.00    0.00     0.00     0.00     0.00     0.00    0.00    0.00    0.00   0.00   0.00
sdc               7.00     0.00  634.00    0.00 17456.00     0.00    55.07     4.53    7.15    7.15    0.00   1.03  65.60
sdb               4.00     0.00  596.00    0.00 16268.00     0.00    54.59     2.64    4.42    4.42    0.00   0.79  47.20
sdd               2.00     0.00  614.00    0.00 16884.00     0.00    55.00     2.35    3.83    3.83    0.00   0.63  38.50
md0               0.00     0.00 1859.00    0.00 53668.00     0.00    57.74     0.00    0.00    0.00    0.00   0.00   0.00

avg-cpu:  %user   %nice %system %iowait  %steal   %idle
           3.03    0.00    0.44    1.37    0.00   95.16

Device:         rrqm/s   wrqm/s     r/s     w/s    rkB/s    wkB/s avgrq-sz avgqu-sz   await r_await w_await  svctm  %util
nvme0n1           0.00     0.00    0.00    0.00     0.00     0.00     0.00     0.00    0.00    0.00    0.00   0.00   0.00
sda               0.00     3.00    0.00    2.00     0.00    20.00    20.00     0.00    0.00    0.00    0.00   0.00   0.00
sdc               1.00     0.00  560.00    0.00 16388.00     0.00    58.53     2.10    3.77    3.77    0.00   0.65  36.40
sdb               4.00     0.00  608.00    0.00 16180.00     0.00    53.22     4.15    6.83    6.83    0.00   0.91  55.50
sdd               1.00     0.00  573.00    0.00 15748.00     0.00    54.97     3.63    6.34    6.34    0.00   1.04  59.40
md0               0.00     0.00 1743.00    0.00 51332.00     0.00    58.90     0.00    0.00    0.00    0.00   0.00   0.00

avg-cpu:  %user   %nice %system %iowait  %steal   %idle
           3.02    0.00    0.59    1.18    0.00   95.20

Device:         rrqm/s   wrqm/s     r/s     w/s    rkB/s    wkB/s avgrq-sz avgqu-sz   await r_await w_await  svctm  %util
nvme0n1           0.00     0.00    0.00    0.00     0.00     0.00     0.00     0.00    0.00    0.00    0.00   0.00   0.00
sda               0.00     1.00    0.00   16.00     0.00    92.00    11.50     0.00    0.00    0.00    0.00   0.00   0.00
sdc               0.00     0.00  583.00    0.00 16956.00     0.00    58.17     3.50    5.21    5.21    0.00   0.69  40.30
sdb               0.00     0.00  631.00    0.00 18216.00     0.00    57.74     4.05    6.36    6.36    0.00   1.08  68.30
sdd               1.00     0.00  619.00    0.00 17072.00     0.00    55.16     4.22    6.61    6.61    0.00   0.85  52.40
md0               0.00     0.00 1876.00    0.00 56448.00     0.00    60.18     0.00    0.00    0.00    0.00   0.00   0.00

avg-cpu:  %user   %nice %system %iowait  %steal   %idle
           3.03    0.00    0.53    1.28    0.00   95.17

Device:         rrqm/s   wrqm/s     r/s     w/s    rkB/s    wkB/s avgrq-sz avgqu-sz   await r_await w_await  svctm  %util
nvme0n1           0.00     0.00    0.00    0.00     0.00     0.00     0.00     0.00    0.00    0.00    0.00   0.00   0.00
sda               0.00     0.00    0.00    0.00     0.00     0.00     0.00     0.00    0.00    0.00    0.00   0.00   0.00
sdc               6.00     0.00  632.00    0.00 18116.00     0.00    57.33     6.00   10.22   10.22    0.00   1.01  64.00
sdb               5.00     0.00  525.00    0.00 15712.00     0.00    59.86     2.24    4.35    4.35    0.00   0.86  45.10
sdd               4.00     0.00  532.00    0.00 16240.00     0.00    61.05     2.96    5.80    5.80    0.00   0.86  46.00
md0               0.00     0.00 1661.00    0.00 52328.00     0.00    63.01     0.00    0.00    0.00    0.00   0.00   0.00

avg-cpu:  %user   %nice %system %iowait  %steal   %idle
           3.03    0.00    0.47    1.28    0.00   95.23

Device:         rrqm/s   wrqm/s     r/s     w/s    rkB/s    wkB/s avgrq-sz avgqu-sz   await r_await w_await  svctm  %util
nvme0n1           0.00     0.00    0.00    0.00     0.00     0.00     0.00     0.00    0.00    0.00    0.00   0.00   0.00
sda               0.00     0.00    0.00    0.00     0.00     0.00     0.00     0.00    0.00    0.00    0.00   0.00   0.00
sdc               5.00     0.00  627.00    0.00 19132.00     0.00    61.03     2.88    4.59    4.59    0.00   0.76  47.40
sdb               2.00     0.00  582.00    0.00 17000.00     0.00    58.42     2.68    4.61    4.61    0.00   0.81  46.90
sdd               2.00     0.00  544.00    0.00 13796.00     0.00    50.72     4.21    7.73    7.73    0.00   1.09  59.40
md0               0.00     0.00 1763.00    0.00 52616.00     0.00    59.69     0.00    0.00    0.00    0.00   0.00   0.00

avg-cpu:  %user   %nice %system %iowait  %steal   %idle
           2.91    0.00    0.56    1.28    0.00   95.25

Device:         rrqm/s   wrqm/s     r/s     w/s    rkB/s    wkB/s avgrq-sz avgqu-sz   await r_await w_await  svctm  %util
nvme0n1           0.00     0.00    0.00    0.00     0.00     0.00     0.00     0.00    0.00    0.00    0.00   0.00   0.00
sda               0.00     0.00    0.00    0.00     0.00     0.00     0.00     0.00    0.00    0.00    0.00   0.00   0.00
sdc               3.00     0.00  651.00    0.00 19140.00     0.00    58.80     4.88    7.49    7.49    0.00   0.86  55.70
sdb               2.00     0.00  642.00    0.00 18928.00     0.00    58.97     5.36    8.35    8.35    0.00   0.80  51.50
sdd               3.00     0.00  608.00    0.00 18536.00     0.00    60.97     5.61    9.23    9.23    0.00   1.13  68.50
md0               0.00     0.00 1909.00    0.00 59360.00     0.00    62.19     0.00    0.00    0.00    0.00   0.00   0.00

avg-cpu:  %user   %nice %system %iowait  %steal   %idle
           2.91    0.00    0.38    1.35    0.00   95.37

Device:         rrqm/s   wrqm/s     r/s     w/s    rkB/s    wkB/s avgrq-sz avgqu-sz   await r_await w_await  svctm  %util
nvme0n1           0.00     0.00    0.00    0.00     0.00     0.00     0.00     0.00    0.00    0.00    0.00   0.00   0.00
sda               0.00     5.00    0.00    2.00     0.00    28.00    28.00     0.00    0.50    0.00    0.50   0.50   0.10
sdc               1.00     0.00  414.00    0.00  8348.00     0.00    40.33     3.85    9.30    9.30    0.00   1.30  53.80
sdb               1.00     0.00  439.00    0.00  7792.00     0.00    35.50     5.64   12.82   12.82    0.00   1.35  59.40
sdd               1.00     0.00  455.00    0.00  8308.00     0.00    36.52     5.12   11.24   11.24    0.00   1.35  61.20
md0               0.00     0.00 1323.00    0.00 25452.00     0.00    38.48     0.00    0.00    0.00    0.00   0.00   0.00

avg-cpu:  %user   %nice %system %iowait  %steal   %idle
           2.91    0.00    0.44    1.53    0.00   95.12

Device:         rrqm/s   wrqm/s     r/s     w/s    rkB/s    wkB/s avgrq-sz avgqu-sz   await r_await w_await  svctm  %util
nvme0n1           0.00     0.00    0.00    0.00     0.00     0.00     0.00     0.00    0.00    0.00    0.00   0.00   0.00
sda               0.00     0.00    0.00    0.00     0.00     0.00     0.00     0.00    0.00    0.00    0.00   0.00   0.00
sdc               0.00     0.00  386.00    0.00  6384.00     0.00    33.08     1.92    4.97    4.97    0.00   1.13  43.60
sdb               1.00     0.00  416.00    0.00  6828.00     0.00    32.83     3.55    8.57    8.57    0.00   1.18  49.20
sdd               2.00     0.00  369.00    0.00  6784.00     0.00    36.77     2.80    7.60    7.60    0.00   1.26  46.60
md0               0.00     0.00 1162.00    0.00 20220.00     0.00    34.80     0.00    0.00    0.00    0.00   0.00   0.00

avg-cpu:  %user   %nice %system %iowait  %steal   %idle
           2.91    0.00    0.47    1.44    0.00   95.18

Device:         rrqm/s   wrqm/s     r/s     w/s    rkB/s    wkB/s avgrq-sz avgqu-sz   await r_await w_await  svctm  %util
nvme0n1           0.00     0.00    0.00    0.00     0.00     0.00     0.00     0.00    0.00    0.00    0.00   0.00   0.00
sda               0.00     0.00    0.00    0.00     0.00     0.00     0.00     0.00    0.00    0.00    0.00   0.00   0.00
sdc               2.00     0.00  370.00    0.00  7652.00     0.00    41.36     3.80   10.29   10.29    0.00   1.55  57.40
sdb               1.00     0.00  322.00    0.00  5500.00     0.00    34.16     2.77    8.61    8.61    0.00   1.36  43.70
sdd               0.00     0.00  367.00    0.00  6588.00     0.00    35.90     3.00    8.17    8.17    0.00   1.40  51.40
md0               0.00     0.00 1061.00    0.00 20564.00     0.00    38.76     0.00    0.00    0.00    0.00   0.00   0.00

