Linux 4.17.2 (bench2) 	08/04/2018 	_x86_64_	(32 CPU)

avg-cpu:  %user   %nice %system %iowait  %steal   %idle
           1.90    0.00    1.54    1.61    0.00   94.95

Device:         rrqm/s   wrqm/s     r/s     w/s    rkB/s    wkB/s avgrq-sz avgqu-sz   await r_await w_await  svctm  %util
nvme0n1         929.75     5.05 18743.46  516.07 104843.09 11638.82    12.10     1.33    0.05    0.03    0.67   0.02  39.24
sda               0.12     0.82   14.17    0.58   164.04     8.56    23.39     0.00    0.33    0.32    0.44   0.07   0.10
sdc              34.65     0.17  123.87    0.31  1857.01    96.86    31.47     0.12    0.93   12.26  381.84   0.90  11.19
sdb              32.63     0.19  125.85    0.33  1855.06    96.69    30.94     0.54    4.30    3.24  413.03   0.84  10.64
sdd              34.85     0.17  123.42    0.26  1853.06    96.36    31.53     0.86    6.93    5.03  909.23   0.91  11.20
md0               0.00     0.00  478.08    1.20  6900.66   349.42    30.25     0.00    0.00    0.00    0.00   0.00   0.00

avg-cpu:  %user   %nice %system %iowait  %steal   %idle
           3.13    0.00    0.09    2.97    0.00   93.81

Device:         rrqm/s   wrqm/s     r/s     w/s    rkB/s    wkB/s avgrq-sz avgqu-sz   await r_await w_await  svctm  %util
nvme0n1           0.00     0.00    0.00    0.00     0.00     0.00     0.00     0.00    0.00    0.00    0.00   0.00   0.00
sda               0.00     0.00   19.00    0.00    80.00     0.00     8.42     0.02    0.95    0.95    0.00   0.05   0.10
sdc              41.00     0.00  255.00    0.00 35936.00     0.00   281.85     0.78    3.05    3.05    0.00   2.00  50.90
sdb              42.00     0.00  260.00    0.00 37988.00     0.00   292.22     0.64    2.46    2.46    0.00   1.67  43.50
sdd              38.00     0.00  317.00    0.00 37912.00     0.00   239.19     0.84    2.63    2.63    0.00   1.90  60.20
md0               0.00     0.00  953.00    0.00 162044.00     0.00   340.07     0.00    0.00    0.00    0.00   0.00   0.00

avg-cpu:  %user   %nice %system %iowait  %steal   %idle
           3.10    0.00    0.06    2.97    0.00   93.87

Device:         rrqm/s   wrqm/s     r/s     w/s    rkB/s    wkB/s avgrq-sz avgqu-sz   await r_await w_await  svctm  %util
nvme0n1           0.00     0.00    0.00    0.00     0.00     0.00     0.00     0.00    0.00    0.00    0.00   0.00   0.00
sda               0.00     0.00    0.00    0.00     0.00     0.00     0.00     0.00    0.00    0.00    0.00   0.00   0.00
sdc              19.00     0.00  319.00    0.00 29556.00     0.00   185.30     0.48    1.51    1.51    0.00   1.20  38.20
sdb              19.00     0.00  259.00    0.00 25816.00     0.00   199.35     0.69    2.65    2.65    0.00   2.16  55.90
sdd              19.00     0.00  285.00    0.00 31096.00     0.00   218.22     0.55    1.93    1.93    0.00   1.49  42.40
md0               0.00     0.00  920.00    0.00 122272.00     0.00   265.81     0.00    0.00    0.00    0.00   0.00   0.00

