Linux 4.17.2 (bench2) 	08/04/2018 	_x86_64_	(32 CPU)

avg-cpu:  %user   %nice %system %iowait  %steal   %idle
           1.89    0.00    1.54    1.61    0.00   94.95

Device:         rrqm/s   wrqm/s     r/s     w/s    rkB/s    wkB/s avgrq-sz avgqu-sz   await r_await w_await  svctm  %util
nvme0n1         928.24     5.04 18712.99  515.23 104672.69 11619.90    12.10     1.33    0.05    0.03    0.67   0.02  39.17
sda               0.12     0.82   14.18    0.58   164.05     8.56    23.39     0.00    0.33    0.32    0.44   0.07   0.10
sdc              34.91     0.17  124.82    0.31  1871.76    96.70    31.46     0.14    1.10    0.16  381.84   0.90  11.25
sdb              32.90     0.18  126.80    0.33  1869.84    96.53    30.94     0.56    4.44    3.38  413.03   0.84  10.70
sdd              35.11     0.17  124.37    0.26  1867.83    96.21    31.52     0.88    7.05    5.18  909.23   0.90  11.27
md0               0.00     0.00  481.72    1.20  6955.09   348.86    30.25     0.00    0.00    0.00    0.00   0.00   0.00

avg-cpu:  %user   %nice %system %iowait  %steal   %idle
           3.10    0.00    0.28    2.70    0.00   93.92

Device:         rrqm/s   wrqm/s     r/s     w/s    rkB/s    wkB/s avgrq-sz avgqu-sz   await r_await w_await  svctm  %util
nvme0n1           0.00     0.00    0.00    0.00     0.00     0.00     0.00     0.00    0.00    0.00    0.00   0.00   0.00
sda               0.00     0.00   21.00    0.00   124.00     0.00    11.81     0.00    0.19    0.19    0.00   0.05   0.10
sdc               0.00     0.00 1867.00    0.00  7468.00     0.00     8.00     0.29    0.16    0.16    0.00   0.16  29.50
sdb               0.00     0.00 1857.00    0.00  7428.00     0.00     8.00     0.31    0.17    0.17    0.00   0.17  30.90
sdd               0.00     0.00 1874.00    0.00  7496.00     0.00     8.00     0.32    0.17    0.17    0.00   0.17  32.40
md0               0.00     0.00 5599.00    0.00 22396.00     0.00     8.00     0.00    0.00    0.00    0.00   0.00   0.00

avg-cpu:  %user   %nice %system %iowait  %steal   %idle
           3.10    0.00    0.34    2.73    0.00   93.82

Device:         rrqm/s   wrqm/s     r/s     w/s    rkB/s    wkB/s avgrq-sz avgqu-sz   await r_await w_await  svctm  %util
nvme0n1           0.00     0.00    0.00    0.00     0.00     0.00     0.00     0.00    0.00    0.00    0.00   0.00   0.00
sda               0.00     0.00    0.00    0.00     0.00     0.00     0.00     0.00    0.00    0.00    0.00   0.00   0.00
sdc               0.00     0.00 2203.00    0.00  8812.00     0.00     8.00     0.33    0.15    0.15    0.00   0.15  33.00
sdb               0.00     0.00 2014.00    0.00  8056.00     0.00     8.00     0.29    0.15    0.15    0.00   0.15  29.40
sdd               0.00     0.00 1875.00    0.00  7500.00     0.00     8.00     0.28    0.15    0.15    0.00   0.15  28.30
md0               0.00     0.00 6093.00    0.00 24372.00     0.00     8.00     0.00    0.00    0.00    0.00   0.00   0.00

avg-cpu:  %user   %nice %system %iowait  %steal   %idle
           3.10    0.00    0.31    2.76    0.00   93.82

Device:         rrqm/s   wrqm/s     r/s     w/s    rkB/s    wkB/s avgrq-sz avgqu-sz   await r_await w_await  svctm  %util
nvme0n1           0.00     0.00    0.00    0.00     0.00     0.00     0.00     0.00    0.00    0.00    0.00   0.00   0.00
sda               0.00     0.00    0.00    0.00     0.00     0.00     0.00     0.00    0.00    0.00    0.00   0.00   0.00
sdc               0.00     0.00 1895.00    0.00  7580.00     0.00     8.00     0.35    0.18    0.18    0.00   0.18  35.00
sdb               0.00     0.00 1923.00    0.00  7692.00     0.00     8.00     0.30    0.16    0.16    0.00   0.16  30.00
sdd               0.00     0.00 1865.00    0.00  7460.00     0.00     8.00     0.28    0.15    0.15    0.00   0.15  28.00
md0               0.00     0.00 5682.00    0.00 22728.00     0.00     8.00     0.00    0.00    0.00    0.00   0.00   0.00

avg-cpu:  %user   %nice %system %iowait  %steal   %idle
           3.10    0.00    0.41    2.73    0.00   93.77

Device:         rrqm/s   wrqm/s     r/s     w/s    rkB/s    wkB/s avgrq-sz avgqu-sz   await r_await w_await  svctm  %util
nvme0n1           0.00     0.00    0.00    0.00     0.00     0.00     0.00     0.00    0.00    0.00    0.00   0.00   0.00
sda               0.00     0.00    0.00    0.00     0.00     0.00     0.00     0.00    0.00    0.00    0.00   0.00   0.00
sdc               0.00     0.00 2012.00    0.00  8048.00     0.00     8.00     0.28    0.14    0.14    0.00   0.14  28.50
sdb               0.00     0.00 1866.00    0.00  7464.00     0.00     8.00     0.32    0.17    0.17    0.00   0.17  31.50
sdd               0.00     0.00 2125.00    0.00  8500.00     0.00     8.00     0.31    0.14    0.14    0.00   0.14  30.70
md0               0.00     0.00 6002.00    0.00 24008.00     0.00     8.00     0.00    0.00    0.00    0.00   0.00   0.00

avg-cpu:  %user   %nice %system %iowait  %steal   %idle
           3.10    0.00    0.38    2.73    0.00   93.80

Device:         rrqm/s   wrqm/s     r/s     w/s    rkB/s    wkB/s avgrq-sz avgqu-sz   await r_await w_await  svctm  %util
nvme0n1           0.00     0.00    0.00    0.00     0.00     0.00     0.00     0.00    0.00    0.00    0.00   0.00   0.00
sda               0.00     0.00    0.00    0.00     0.00     0.00     0.00     0.00    0.00    0.00    0.00   0.00   0.00
sdc               0.00     0.00 1969.00    0.00  7876.00     0.00     8.00     0.30    0.15    0.15    0.00   0.15  29.60
sdb               0.00     0.00 1997.00    0.00  7988.00     0.00     8.00     0.32    0.16    0.16    0.00   0.16  31.80
sdd               0.00     0.00 1952.00    0.00  7808.00     0.00     8.00     0.29    0.15    0.15    0.00   0.15  29.10
md0               0.00     0.00 5919.00    0.00 23676.00     0.00     8.00     0.00    0.00    0.00    0.00   0.00   0.00

avg-cpu:  %user   %nice %system %iowait  %steal   %idle
           3.07    0.00    0.38    2.73    0.00   93.82

Device:         rrqm/s   wrqm/s     r/s     w/s    rkB/s    wkB/s avgrq-sz avgqu-sz   await r_await w_await  svctm  %util
nvme0n1           0.00     0.00    0.00    0.00     0.00     0.00     0.00     0.00    0.00    0.00    0.00   0.00   0.00
sda               0.00    10.00    0.00    2.00     0.00    48.00    48.00     0.00    0.00    0.00    0.00   0.00   0.00
sdc               0.00     0.00 2148.00    0.00  8592.00     0.00     8.00     0.30    0.14    0.14    0.00   0.14  29.70
sdb               0.00     0.00 1944.00    0.00  7776.00     0.00     8.00     0.33    0.17    0.17    0.00   0.17  32.60
sdd               0.00     0.00 2050.00    0.00  8200.00     0.00     8.00     0.30    0.15    0.15    0.00   0.15  30.30
md0               0.00     0.00 6142.00    0.00 24568.00     0.00     8.00     0.00    0.00    0.00    0.00   0.00   0.00

avg-cpu:  %user   %nice %system %iowait  %steal   %idle
           3.07    0.00    0.41    2.73    0.00   93.80

Device:         rrqm/s   wrqm/s     r/s     w/s    rkB/s    wkB/s avgrq-sz avgqu-sz   await r_await w_await  svctm  %util
nvme0n1           0.00     0.00    0.00    0.00     0.00     0.00     0.00     0.00    0.00    0.00    0.00   0.00   0.00
sda               0.00     0.00    0.00    0.00     0.00     0.00     0.00     0.00    0.00    0.00    0.00   0.00   0.00
sdc               0.00     0.00 2086.00    0.00  8344.00     0.00     8.00     0.33    0.16    0.16    0.00   0.16  32.50
sdb               0.00     0.00 1974.00    0.00  7896.00     0.00     8.00     0.25    0.13    0.13    0.00   0.13  24.90
sdd               0.00     0.00 2005.00    0.00  8020.00     0.00     8.00     0.33    0.17    0.17    0.00   0.17  33.30
md0               0.00     0.00 6065.00    0.00 24260.00     0.00     8.00     0.00    0.00    0.00    0.00   0.00   0.00

avg-cpu:  %user   %nice %system %iowait  %steal   %idle
           3.07    0.00    0.34    2.76    0.00   93.82

Device:         rrqm/s   wrqm/s     r/s     w/s    rkB/s    wkB/s avgrq-sz avgqu-sz   await r_await w_await  svctm  %util
nvme0n1           0.00     0.00    0.00    0.00     0.00     0.00     0.00     0.00    0.00    0.00    0.00   0.00   0.00
sda               0.00     0.00    0.00    0.00     0.00     0.00     0.00     0.00    0.00    0.00    0.00   0.00   0.00
sdc               0.00     0.00 1808.00    0.00  7232.00     0.00     8.00     0.31    0.17    0.17    0.00   0.17  30.80
sdb               0.00     0.00 1822.00    0.00  7288.00     0.00     8.00     0.31    0.17    0.17    0.00   0.17  31.10
sdd               0.00     0.00 1920.00    0.00  7680.00     0.00     8.00     0.30    0.16    0.16    0.00   0.16  30.00
md0               0.00     0.00 5550.00    0.00 22200.00     0.00     8.00     0.00    0.00    0.00    0.00   0.00   0.00

avg-cpu:  %user   %nice %system %iowait  %steal   %idle
           3.11    0.00    0.28    2.73    0.00   93.88

Device:         rrqm/s   wrqm/s     r/s     w/s    rkB/s    wkB/s avgrq-sz avgqu-sz   await r_await w_await  svctm  %util
nvme0n1           0.00     0.00    0.00    0.00     0.00     0.00     0.00     0.00    0.00    0.00    0.00   0.00   0.00
sda               0.00     0.00    0.00    0.00     0.00     0.00     0.00     0.00    0.00    0.00    0.00   0.00   0.00
sdc               0.00     0.00 1864.00    0.00  7456.00     0.00     8.00     0.32    0.17    0.17    0.00   0.17  31.80
sdb               0.00     0.00 1884.00    0.00  7536.00     0.00     8.00     0.29    0.15    0.15    0.00   0.15  28.70
sdd               0.00     0.00 2020.00    0.00  8080.00     0.00     8.00     0.33    0.16    0.16    0.00   0.16  32.80
md0               0.00     0.00 5769.00    0.00 23076.00     0.00     8.00     0.00    0.00    0.00    0.00   0.00   0.00

avg-cpu:  %user   %nice %system %iowait  %steal   %idle
           3.04    0.00    0.38    2.73    0.00   93.85

Device:         rrqm/s   wrqm/s     r/s     w/s    rkB/s    wkB/s avgrq-sz avgqu-sz   await r_await w_await  svctm  %util
nvme0n1           0.00     0.00    0.00    0.00     0.00     0.00     0.00     0.00    0.00    0.00    0.00   0.00   0.00
sda               0.00     0.00    0.00    0.00     0.00     0.00     0.00     0.00    0.00    0.00    0.00   0.00   0.00
sdc               0.00     0.00 1982.00    0.00  7928.00     0.00     8.00     0.31    0.16    0.16    0.00   0.16  31.40
sdb               0.00     0.00 2026.00    0.00  8104.00     0.00     8.00     0.31    0.15    0.15    0.00   0.15  30.60
sdd               0.00     0.00 2060.00    0.00  8240.00     0.00     8.00     0.31    0.15    0.15    0.00   0.15  30.70
md0               0.00     0.00 6067.00    0.00 24268.00     0.00     8.00     0.00    0.00    0.00    0.00   0.00   0.00

avg-cpu:  %user   %nice %system %iowait  %steal   %idle
           3.13    0.00    0.31    2.76    0.00   93.80

Device:         rrqm/s   wrqm/s     r/s     w/s    rkB/s    wkB/s avgrq-sz avgqu-sz   await r_await w_await  svctm  %util
nvme0n1           0.00     0.00    0.00    0.00     0.00     0.00     0.00     0.00    0.00    0.00    0.00   0.00   0.00
sda               0.00     1.00    0.00    2.00     0.00    12.00    12.00     0.00    0.00    0.00    0.00   0.00   0.00
sdc               0.00     0.00 1724.00    0.00  6896.00     0.00     8.00     0.30    0.17    0.17    0.00   0.17  29.70
sdb               0.00     0.00 1877.00    0.00  7508.00     0.00     8.00     0.30    0.16    0.16    0.00   0.16  30.00
sdd               0.00     0.00 1963.00    0.00  7852.00     0.00     8.00     0.32    0.16    0.16    0.00   0.16  31.70
md0               0.00     0.00 5564.00    0.00 22256.00     0.00     8.00     0.00    0.00    0.00    0.00   0.00   0.00

avg-cpu:  %user   %nice %system %iowait  %steal   %idle
           3.07    0.00    0.31    2.76    0.00   93.85

Device:         rrqm/s   wrqm/s     r/s     w/s    rkB/s    wkB/s avgrq-sz avgqu-sz   await r_await w_await  svctm  %util
nvme0n1           0.00     0.00    0.00    0.00     0.00     0.00     0.00     0.00    0.00    0.00    0.00   0.00   0.00
sda               0.00     0.00    0.00    0.00     0.00     0.00     0.00     0.00    0.00    0.00    0.00   0.00   0.00
sdc               0.00     0.00 1932.00    0.00  7728.00     0.00     8.00     0.29    0.15    0.15    0.00   0.15  29.50
sdb               0.00     0.00 1857.00    0.00  7428.00     0.00     8.00     0.31    0.16    0.16    0.00   0.16  30.60
sdd               0.00     0.00 1940.00    0.00  7760.00     0.00     8.00     0.32    0.17    0.17    0.00   0.17  32.30
md0               0.00     0.00 5730.00    0.00 22920.00     0.00     8.00     0.00    0.00    0.00    0.00   0.00   0.00

avg-cpu:  %user   %nice %system %iowait  %steal   %idle
           3.11    0.00    0.28    2.73    0.00   93.88

Device:         rrqm/s   wrqm/s     r/s     w/s    rkB/s    wkB/s avgrq-sz avgqu-sz   await r_await w_await  svctm  %util
nvme0n1           0.00     0.00    0.00    0.00     0.00     0.00     0.00     0.00    0.00    0.00    0.00   0.00   0.00
sda               0.00     0.00    0.00    0.00     0.00     0.00     0.00     0.00    0.00    0.00    0.00   0.00   0.00
sdc               0.00     0.00 1935.00    0.00  7740.00     0.00     8.00     0.30    0.16    0.16    0.00   0.16  30.10
sdb               0.00     0.00 1935.00    0.00  7740.00     0.00     8.00     0.32    0.16    0.16    0.00   0.16  31.60
sdd               0.00     0.00 1982.00    0.00  7928.00     0.00     8.00     0.31    0.15    0.15    0.00   0.15  30.60
md0               0.00     0.00 5851.00    0.00 23404.00     0.00     8.00     0.00    0.00    0.00    0.00   0.00   0.00

avg-cpu:  %user   %nice %system %iowait  %steal   %idle
           3.07    0.00    0.34    2.73    0.00   93.85

Device:         rrqm/s   wrqm/s     r/s     w/s    rkB/s    wkB/s avgrq-sz avgqu-sz   await r_await w_await  svctm  %util
nvme0n1           0.00     0.00    0.00    0.00     0.00     0.00     0.00     0.00    0.00    0.00    0.00   0.00   0.00
sda               0.00     1.00    0.00    2.00     0.00    28.00    28.00     0.00    0.00    0.00    0.00   0.00   0.00
sdc               0.00     0.00 1995.00    0.00  7980.00     0.00     8.00     0.29    0.15    0.15    0.00   0.15  29.40
sdb               0.00     0.00 1908.00    0.00  7632.00     0.00     8.00     0.29    0.16    0.16    0.00   0.15  29.40
sdd               0.00     0.00 2037.00    0.00  8148.00     0.00     8.00     0.32    0.16    0.16    0.00   0.16  31.80
md0               0.00     0.00 5940.00    0.00 23760.00     0.00     8.00     0.00    0.00    0.00    0.00   0.00   0.00

avg-cpu:  %user   %nice %system %iowait  %steal   %idle
           3.10    0.00    0.34    2.73    0.00   93.82

Device:         rrqm/s   wrqm/s     r/s     w/s    rkB/s    wkB/s avgrq-sz avgqu-sz   await r_await w_await  svctm  %util
nvme0n1           0.00     0.00    0.00    0.00     0.00     0.00     0.00     0.00    0.00    0.00    0.00   0.00   0.00
sda               0.00     0.00    0.00    0.00     0.00     0.00     0.00     0.00    0.00    0.00    0.00   0.00   0.00
sdc               0.00     0.00 2113.00    0.00  8452.00     0.00     8.00     0.33    0.16    0.16    0.00   0.16  33.40
sdb               0.00     0.00 2052.00    0.00  8208.00     0.00     8.00     0.27    0.13    0.13    0.00   0.13  27.20
sdd               0.00     0.00 2119.00    0.00  8476.00     0.00     8.00     0.31    0.15    0.15    0.00   0.15  30.90
md0               0.00     0.00 6284.00    0.00 25136.00     0.00     8.00     0.00    0.00    0.00    0.00   0.00   0.00

avg-cpu:  %user   %nice %system %iowait  %steal   %idle
           3.10    0.00    0.31    2.76    0.00   93.82

Device:         rrqm/s   wrqm/s     r/s     w/s    rkB/s    wkB/s avgrq-sz avgqu-sz   await r_await w_await  svctm  %util
nvme0n1           0.00     0.00    0.00    0.00     0.00     0.00     0.00     0.00    0.00    0.00    0.00   0.00   0.00
sda               0.00     3.00    0.00    2.00     0.00    20.00    20.00     0.00    0.00    0.00    0.00   0.00   0.00
sdc               0.00     0.00 1819.00    0.00  7276.00     0.00     8.00     0.30    0.16    0.16    0.00   0.17  30.30
sdb               0.00     0.00 1971.00    0.00  7884.00     0.00     8.00     0.35    0.18    0.18    0.00   0.18  35.10
sdd               0.00     0.00 1744.00    0.00  6976.00     0.00     8.00     0.27    0.16    0.16    0.00   0.15  27.00
md0               0.00     0.00 5534.00    0.00 22136.00     0.00     8.00     0.00    0.00    0.00    0.00   0.00   0.00

avg-cpu:  %user   %nice %system %iowait  %steal   %idle
           3.14    0.00    0.25    2.76    0.00   93.85

Device:         rrqm/s   wrqm/s     r/s     w/s    rkB/s    wkB/s avgrq-sz avgqu-sz   await r_await w_await  svctm  %util
nvme0n1           0.00     0.00    0.00    0.00     0.00     0.00     0.00     0.00    0.00    0.00    0.00   0.00   0.00
sda               0.00     0.00    0.00    0.00     0.00     0.00     0.00     0.00    0.00    0.00    0.00   0.00   0.00
sdc               0.00     0.00 1723.00    0.00  6892.00     0.00     8.00     0.32    0.19    0.19    0.00   0.18  31.80
sdb               0.00     0.00 1796.00    0.00  7184.00     0.00     8.00     0.32    0.18    0.18    0.00   0.18  31.80
sdd               0.00     0.00 1934.00    0.00  7736.00     0.00     8.00     0.30    0.16    0.16    0.00   0.16  30.30
md0               0.00     0.00 5453.00    0.00 21812.00     0.00     8.00     0.00    0.00    0.00    0.00   0.00   0.00

avg-cpu:  %user   %nice %system %iowait  %steal   %idle
           3.07    0.00    0.38    2.73    0.00   93.82

Device:         rrqm/s   wrqm/s     r/s     w/s    rkB/s    wkB/s avgrq-sz avgqu-sz   await r_await w_await  svctm  %util
nvme0n1           0.00     0.00    0.00    0.00     0.00     0.00     0.00     0.00    0.00    0.00    0.00   0.00   0.00
sda               0.00     0.00    0.00    0.00     0.00     0.00     0.00     0.00    0.00    0.00    0.00   0.00   0.00
sdc               0.00     0.00 2009.00    0.00  8036.00     0.00     8.00     0.35    0.17    0.17    0.00   0.17  35.00
sdb               0.00     0.00 1799.00    0.00  7196.00     0.00     8.00     0.26    0.15    0.15    0.00   0.15  26.20
sdd               0.00     0.00 2016.00    0.00  8064.00     0.00     8.00     0.30    0.15    0.15    0.00   0.15  30.10
md0               0.00     0.00 5825.00    0.00 23300.00     0.00     8.00     0.00    0.00    0.00    0.00   0.00   0.00

avg-cpu:  %user   %nice %system %iowait  %steal   %idle
           3.10    0.00    0.31    2.76    0.00   93.82

Device:         rrqm/s   wrqm/s     r/s     w/s    rkB/s    wkB/s avgrq-sz avgqu-sz   await r_await w_await  svctm  %util
nvme0n1           0.00     0.00    0.00    0.00     0.00     0.00     0.00     0.00    0.00    0.00    0.00   0.00   0.00
sda               0.00     0.00    0.00    0.00     0.00     0.00     0.00     0.00    0.00    0.00    0.00   0.00   0.00
sdc               0.00     0.00 1969.00    0.00  7876.00     0.00     8.00     0.33    0.17    0.17    0.00   0.17  32.50
sdb               0.00     0.00 1804.00    0.00  7216.00     0.00     8.00     0.31    0.17    0.17    0.00   0.17  31.40
sdd               0.00     0.00 1837.00    0.00  7348.00     0.00     8.00     0.30    0.16    0.16    0.00   0.16  29.70
md0               0.00     0.00 5609.00    0.00 22436.00     0.00     8.00     0.00    0.00    0.00    0.00   0.00   0.00

avg-cpu:  %user   %nice %system %iowait  %steal   %idle
           3.07    0.00    0.38    2.76    0.00   93.80

Device:         rrqm/s   wrqm/s     r/s     w/s    rkB/s    wkB/s avgrq-sz avgqu-sz   await r_await w_await  svctm  %util
nvme0n1           0.00     0.00    0.00    0.00     0.00     0.00     0.00     0.00    0.00    0.00    0.00   0.00   0.00
sda               0.00     0.00    0.00    0.00     0.00     0.00     0.00     0.00    0.00    0.00    0.00   0.00   0.00
sdc               0.00     0.00 1935.00    0.00  7740.00     0.00     8.00     0.33    0.17    0.17    0.00   0.17  32.50
sdb               0.00     0.00 1736.00    0.00  6944.00     0.00     8.00     0.28    0.16    0.16    0.00   0.16  28.20
sdd               0.00     0.00 1751.00    0.00  7004.00     0.00     8.00     0.32    0.18    0.18    0.00   0.18  31.50
md0               0.00     0.00 5422.00    0.00 21688.00     0.00     8.00     0.00    0.00    0.00    0.00   0.00   0.00

