Linux 4.17.2 (bench2) 	08/04/2018 	_x86_64_	(32 CPU)

avg-cpu:  %user   %nice %system %iowait  %steal   %idle
           1.89    0.00    1.53    1.65    0.00   94.93

Device:         rrqm/s   wrqm/s     r/s     w/s    rkB/s    wkB/s avgrq-sz avgqu-sz   await r_await w_await  svctm  %util
nvme0n1         919.98     5.00 18546.40  510.64 103740.83 11516.45    12.10     1.32    0.05    0.03    0.67   0.02  38.82
sda               0.12     0.82   14.20    0.59   164.14     8.57    23.36     0.00    0.33    0.32    0.43   0.07   0.10
sdc              35.32     0.17  130.37    0.31  1928.65    95.84    30.99     0.19    1.48    0.59  381.84   0.89  11.59
sdb              33.32     0.18  132.33    0.33  1926.78    95.67    30.49     0.62    4.65    3.65  413.03   0.83  11.04
sdd              35.51     0.16  129.92    0.26  1924.79    95.35    31.04     0.93    7.15    5.38  909.23   0.89  11.64
md0               0.00     0.00  499.57    1.19  7159.96   345.75    29.98     0.00    0.00    0.00    0.00   0.00   0.00

avg-cpu:  %user   %nice %system %iowait  %steal   %idle
           3.10    0.00    0.06    3.06    0.00   93.78

Device:         rrqm/s   wrqm/s     r/s     w/s    rkB/s    wkB/s avgrq-sz avgqu-sz   await r_await w_await  svctm  %util
nvme0n1           0.00     0.00    0.00    0.00     0.00     0.00     0.00     0.00    0.00    0.00    0.00   0.00   0.00
sda               0.00     0.00    1.00    0.00     8.00     0.00    16.00     0.00    0.00    0.00    0.00   0.00   0.00
sdc               0.00     0.00  215.00    0.00  3368.00     0.00    31.33     0.33    1.50    1.50    0.00   1.47  31.60
sdb               0.00     0.00  215.00    0.00  3416.00     0.00    31.78     0.35    1.63    1.63    0.00   1.59  34.10
sdd               0.00     0.00  186.00    0.00  3968.00     0.00    42.67     0.37    2.01    2.01    0.00   1.91  35.60
md0               0.00     0.00  617.00    0.00 11760.00     0.00    38.12     0.00    0.00    0.00    0.00   0.00   0.00

avg-cpu:  %user   %nice %system %iowait  %steal   %idle
           3.12    0.00    0.06    3.06    0.00   93.75

Device:         rrqm/s   wrqm/s     r/s     w/s    rkB/s    wkB/s avgrq-sz avgqu-sz   await r_await w_await  svctm  %util
nvme0n1           0.00     0.00    0.00    0.00     0.00     0.00     0.00     0.00    0.00    0.00    0.00   0.00   0.00
sda               0.00     9.00    0.00    2.00     0.00    44.00    44.00     0.00    0.00    0.00    0.00   0.00   0.00
sdc               3.00     0.00  227.00    0.00  5076.00     0.00    44.72     0.43    1.92    1.92    0.00   1.80  40.80
sdb               3.00     0.00  189.00    0.00  3656.00     0.00    38.69     0.46    2.42    2.42    0.00   2.25  42.50
sdd               4.00     0.00  210.00    0.00  5112.00     0.00    48.69     0.24    1.12    1.12    0.00   1.08  22.60
md0               0.00     0.00  636.00    0.00 18696.00     0.00    58.79     0.00    0.00    0.00    0.00   0.00   0.00

