Linux 4.17.2 (bench2) 	08/04/2018 	_x86_64_	(32 CPU)

avg-cpu:  %user   %nice %system %iowait  %steal   %idle
           1.89    0.00    1.53    1.65    0.00   94.93

Device:         rrqm/s   wrqm/s     r/s     w/s    rkB/s    wkB/s avgrq-sz avgqu-sz   await r_await w_await  svctm  %util
nvme0n1         919.93     5.00 18545.48  510.61 103735.67 11515.88    12.10     1.32    0.05    0.03    0.67   0.02  38.82
sda               0.12     0.82   14.20    0.59   164.14     8.57    23.36     0.00    0.33    0.32    0.43   0.07   0.10
sdc              35.33     0.17  130.37    0.31  1929.04    95.84    30.99     0.20    1.49    0.60  381.84   0.89  11.59
sdb              33.33     0.18  132.33    0.33  1927.17    95.67    30.50     0.62    4.66    3.65  413.03   0.83  11.05
sdd              35.52     0.16  129.92    0.26  1925.19    95.34    31.04     0.93    7.16    5.38  909.23   0.89  11.64
md0               0.00     0.00  499.61    1.19  7161.43   345.73    29.98     0.00    0.00    0.00    0.00   0.00   0.00

avg-cpu:  %user   %nice %system %iowait  %steal   %idle
           0.03    0.00    0.16    2.88    0.00   96.94

Device:         rrqm/s   wrqm/s     r/s     w/s    rkB/s    wkB/s avgrq-sz avgqu-sz   await r_await w_await  svctm  %util
nvme0n1           0.00     0.00    0.00    0.00     0.00     0.00     0.00     0.00    0.00    0.00    0.00   0.00   0.00
sda               0.00     0.00    1.00    0.00     8.00     0.00    16.00     0.00    0.00    0.00    0.00   0.00   0.00
sdc              19.00     0.00  346.00    0.00 35180.00     0.00   203.35     0.34    0.97    0.97    0.00   0.79  27.50
sdb              15.00     0.00  355.00    0.00 33160.00     0.00   186.82     0.57    1.59    1.59    0.00   1.32  46.90
sdd              14.00     0.00  329.00    0.00 31256.00     0.00   190.01     0.75    2.26    2.26    0.00   1.81  59.40
md0               0.00     0.00 1079.00    0.00 136104.00     0.00   252.28     0.00    0.00    0.00    0.00   0.00   0.00

avg-cpu:  %user   %nice %system %iowait  %steal   %idle
           0.00    0.00    0.13    2.94    0.00   96.94

Device:         rrqm/s   wrqm/s     r/s     w/s    rkB/s    wkB/s avgrq-sz avgqu-sz   await r_await w_await  svctm  %util
nvme0n1           0.00     0.00    0.00    0.00     0.00     0.00     0.00     0.00    0.00    0.00    0.00   0.00   0.00
sda               0.00     0.00    0.00    0.00     0.00     0.00     0.00     0.00    0.00    0.00    0.00   0.00   0.00
sdc              24.00     0.00  264.00    0.00 31144.00     0.00   235.94     0.63    2.40    2.40    0.00   1.79  47.30
sdb              24.00     0.00  288.00    0.00 31512.00     0.00   218.83     0.57    2.00    2.00    0.00   1.49  42.90
sdd              24.00     0.00  283.00    0.00 29828.00     0.00   210.80     0.70    2.49    2.49    0.00   1.91  54.00
md0               0.00     0.00  906.00    0.00 126304.00     0.00   278.82     0.00    0.00    0.00    0.00   0.00   0.00

