Linux 4.17.2 (bench2) 	08/04/2018 	_x86_64_	(32 CPU)

avg-cpu:  %user   %nice %system %iowait  %steal   %idle
           1.90    0.00    1.55    1.60    0.00   94.96

Device:         rrqm/s   wrqm/s     r/s     w/s    rkB/s    wkB/s avgrq-sz avgqu-sz   await r_await w_await  svctm  %util
nvme0n1         932.48     5.06 18798.33  517.58 105150.02 11672.89    12.10     1.34    0.05    0.03    0.67   0.02  39.35
sda               0.12     0.82   14.17    0.58   164.02     8.56    23.40     0.00    0.33    0.32    0.44   0.07   0.10
sdc              34.59     0.17  121.99    0.31  1839.43    97.14    31.67     0.10    0.86   12.39  381.84   0.91  11.08
sdb              32.56     0.19  123.97    0.33  1837.48    96.97    31.12     0.53    4.29    3.21  413.03   0.85  10.53
sdd              34.79     0.17  121.53    0.26  1835.48    96.64    31.73     0.85    6.96    5.03  909.23   0.91  11.08
md0               0.00     0.00  472.26    1.20  6837.74   350.45    30.36     0.00    0.00    0.00    0.00   0.00   0.00

avg-cpu:  %user   %nice %system %iowait  %steal   %idle
           0.00    0.00    0.60   12.08    0.00   87.32

Device:         rrqm/s   wrqm/s     r/s     w/s    rkB/s    wkB/s avgrq-sz avgqu-sz   await r_await w_await  svctm  %util
nvme0n1           0.00     0.00    0.00    0.00     0.00     0.00     0.00     0.00    0.00    0.00    0.00   0.00   0.00
sda               0.00     0.00   19.00    0.00    92.00     0.00     9.68     0.01    0.63    0.63    0.00   0.05   0.10
sdc               0.00     0.00 1745.00    0.00  7004.00     0.00     8.03     1.89    1.08    1.08    0.00   0.29  50.80
sdb               0.00     0.00 1770.00    0.00  7080.00     0.00     8.00     1.37    0.78    0.78    0.00   0.20  35.40
sdd               0.00     0.00 1817.00    0.00  7268.00     0.00     8.00     1.91    1.06    1.06    0.00   0.26  47.60
md0               0.00     0.00 5335.00    0.00 21352.00     0.00     8.00     0.00    0.00    0.00    0.00   0.00   0.00

avg-cpu:  %user   %nice %system %iowait  %steal   %idle
           0.06    0.00    0.66   10.19    0.00   89.09

Device:         rrqm/s   wrqm/s     r/s     w/s    rkB/s    wkB/s avgrq-sz avgqu-sz   await r_await w_await  svctm  %util
nvme0n1           0.00     0.00    0.00    0.00     0.00     0.00     0.00     0.00    0.00    0.00    0.00   0.00   0.00
sda               0.00     0.00    0.00    0.00     0.00     0.00     0.00     0.00    0.00    0.00    0.00   0.00   0.00
sdc               0.00     0.00 1597.00    0.00  6388.00     0.00     8.00     1.78    1.12    1.12    0.00   0.27  43.90
sdb               0.00     0.00 1724.00    0.00  6896.00     0.00     8.00     1.87    1.08    1.08    0.00   0.27  46.30
sdd               0.00     0.00 1617.00    0.00  6468.00     0.00     8.00     1.48    0.91    0.91    0.00   0.23  36.70
md0               0.00     0.00 4938.00    0.00 19752.00     0.00     8.00     0.00    0.00    0.00    0.00   0.00   0.00

avg-cpu:  %user   %nice %system %iowait  %steal   %idle
           0.03    0.00    0.60    9.53    0.00   89.84

Device:         rrqm/s   wrqm/s     r/s     w/s    rkB/s    wkB/s avgrq-sz avgqu-sz   await r_await w_await  svctm  %util
nvme0n1           0.00     0.00    0.00    0.00     0.00     0.00     0.00     0.00    0.00    0.00    0.00   0.00   0.00
sda               0.00     0.00    0.00    0.00     0.00     0.00     0.00     0.00    0.00    0.00    0.00   0.00   0.00
sdc               0.00     0.00 1534.00    0.00  6136.00     0.00     8.00     1.98    1.28    1.28    0.00   0.29  44.00
sdb               0.00     0.00 1426.00    0.00  5704.00     0.00     8.00     1.93    1.35    1.35    0.00   0.39  55.50
sdd               0.00     0.00 1423.00    0.00  5692.00     0.00     8.00     0.94    0.66    0.66    0.00   0.18  25.50
md0               0.00     0.00 4384.00    0.00 17536.00     0.00     8.00     0.00    0.00    0.00    0.00   0.00   0.00

avg-cpu:  %user   %nice %system %iowait  %steal   %idle
           0.03    0.00    0.91    8.93    0.00   90.13

Device:         rrqm/s   wrqm/s     r/s     w/s    rkB/s    wkB/s avgrq-sz avgqu-sz   await r_await w_await  svctm  %util
nvme0n1           0.00     0.00    0.00    0.00     0.00     0.00     0.00     0.00    0.00    0.00    0.00   0.00   0.00
sda               0.00     0.00    0.00    0.00     0.00     0.00     0.00     0.00    0.00    0.00    0.00   0.00   0.00
sdc               0.00     0.00 1930.00    0.00  7720.00     0.00     8.00     1.75    0.90    0.90    0.00   0.22  43.10
sdb               0.00     0.00 1838.00    0.00  7352.00     0.00     8.00     1.75    0.95    0.95    0.00   0.24  44.50
sdd               0.00     0.00 1815.00    0.00  7260.00     0.00     8.00     1.58    0.87    0.87    0.00   0.24  43.90
md0               0.00     0.00 5584.00    0.00 22336.00     0.00     8.00     0.00    0.00    0.00    0.00   0.00   0.00

avg-cpu:  %user   %nice %system %iowait  %steal   %idle
           0.00    0.00    0.75    8.10    0.00   91.15

Device:         rrqm/s   wrqm/s     r/s     w/s    rkB/s    wkB/s avgrq-sz avgqu-sz   await r_await w_await  svctm  %util
nvme0n1           0.00     0.00    0.00    0.00     0.00     0.00     0.00     0.00    0.00    0.00    0.00   0.00   0.00
sda               0.00     0.00    0.00    0.00     0.00     0.00     0.00     0.00    0.00    0.00    0.00   0.00   0.00
sdc               0.00     0.00 1808.00    0.00  7232.00     0.00     8.00     1.78    1.00    1.00    0.00   0.27  48.80
sdb               0.00     0.00 1683.00    0.00  6732.00     0.00     8.00     1.55    0.92    0.92    0.00   0.24  41.00
sdd               0.00     0.00 1871.00    0.00  7484.00     0.00     8.00     1.79    0.96    0.96    0.00   0.24  45.10
md0               0.00     0.00 5359.00    0.00 21436.00     0.00     8.00     0.00    0.00    0.00    0.00   0.00   0.00

avg-cpu:  %user   %nice %system %iowait  %steal   %idle
           0.06    0.00    0.72    8.29    0.00   90.93

Device:         rrqm/s   wrqm/s     r/s     w/s    rkB/s    wkB/s avgrq-sz avgqu-sz   await r_await w_await  svctm  %util
nvme0n1           0.00     0.00    0.00    0.00     0.00     0.00     0.00     0.00    0.00    0.00    0.00   0.00   0.00
sda               0.00     9.00    0.00    2.00     0.00    44.00    44.00     0.00    0.50    0.00    0.50   0.50   0.10
sdc               0.00     0.00 1921.00    0.00  7684.00     0.00     8.00     1.93    1.00    1.00    0.00   0.27  51.50
sdb               0.00     0.00 1816.00    0.00  7264.00     0.00     8.00     1.33    0.73    0.73    0.00   0.20  35.80
sdd               0.00     0.00 1830.00    0.00  7320.00     0.00     8.00     1.65    0.90    0.90    0.00   0.24  44.60
md0               0.00     0.00 5567.00    0.00 22268.00     0.00     8.00     0.00    0.00    0.00    0.00   0.00   0.00

avg-cpu:  %user   %nice %system %iowait  %steal   %idle
           0.03    0.00    0.94    8.82    0.00   90.21

Device:         rrqm/s   wrqm/s     r/s     w/s    rkB/s    wkB/s avgrq-sz avgqu-sz   await r_await w_await  svctm  %util
nvme0n1           0.00     0.00    0.00    0.00     0.00     0.00     0.00     0.00    0.00    0.00    0.00   0.00   0.00
sda               0.00     0.00    0.00    0.00     0.00     0.00     0.00     0.00    0.00    0.00    0.00   0.00   0.00
sdc               0.00     0.00 2056.00    0.00  8224.00     0.00     8.00     1.61    0.79    0.79    0.00   0.20  40.70
sdb               0.00     0.00 2235.00    0.00  8940.00     0.00     8.00     2.51    1.13    1.13    0.00   0.26  57.00
sdd               0.00     0.00 2238.00    0.00  8952.00     0.00     8.00     1.39    0.62    0.62    0.00   0.17  37.50
md0               0.00     0.00 6527.00    0.00 26108.00     0.00     8.00     0.00    0.00    0.00    0.00   0.00   0.00

avg-cpu:  %user   %nice %system %iowait  %steal   %idle
           0.06    0.00    0.94    8.83    0.00   90.17

Device:         rrqm/s   wrqm/s     r/s     w/s    rkB/s    wkB/s avgrq-sz avgqu-sz   await r_await w_await  svctm  %util
nvme0n1           0.00     0.00    0.00    0.00     0.00     0.00     0.00     0.00    0.00    0.00    0.00   0.00   0.00
sda               0.00     0.00    0.00    0.00     0.00     0.00     0.00     0.00    0.00    0.00    0.00   0.00   0.00
sdc               0.00     0.00 2438.00    0.00  9752.00     0.00     8.00     1.85    0.76    0.76    0.00   0.19  47.30
sdb               0.00     0.00 2395.00    0.00  9580.00     0.00     8.00     1.68    0.70    0.70    0.00   0.18  43.50
sdd               0.00     0.00 2213.00    0.00  8852.00     0.00     8.00     2.10    0.93    0.93    0.00   0.23  51.40
md0               0.00     0.00 7053.00    0.00 28212.00     0.00     8.00     0.00    0.00    0.00    0.00   0.00   0.00

avg-cpu:  %user   %nice %system %iowait  %steal   %idle
           0.06    0.00    0.85    8.31    0.00   90.78

Device:         rrqm/s   wrqm/s     r/s     w/s    rkB/s    wkB/s avgrq-sz avgqu-sz   await r_await w_await  svctm  %util
nvme0n1           0.00     0.00    0.00    0.00     0.00     0.00     0.00     0.00    0.00    0.00    0.00   0.00   0.00
sda               0.00     0.00    0.00    0.00     0.00     0.00     0.00     0.00    0.00    0.00    0.00   0.00   0.00
sdc               0.00     0.00 1930.00    0.00  7720.00     0.00     8.00     1.68    0.87    0.87    0.00   0.21  41.40
sdb               0.00     0.00 1941.00    0.00  7764.00     0.00     8.00     2.24    1.14    1.14    0.00   0.28  53.70
sdd               0.00     0.00 1779.00    0.00  7116.00     0.00     8.00     1.24    0.73    0.73    0.00   0.19  34.50
md0               0.00     0.00 5647.00    0.00 22588.00     0.00     8.00     0.00    0.00    0.00    0.00   0.00   0.00

avg-cpu:  %user   %nice %system %iowait  %steal   %idle
           0.06    0.00    0.94    8.16    0.00   90.84

Device:         rrqm/s   wrqm/s     r/s     w/s    rkB/s    wkB/s avgrq-sz avgqu-sz   await r_await w_await  svctm  %util
nvme0n1           0.00     0.00    0.00    0.00     0.00     0.00     0.00     0.00    0.00    0.00    0.00   0.00   0.00
sda               0.00     0.00    0.00    0.00     0.00     0.00     0.00     0.00    0.00    0.00    0.00   0.00   0.00
sdc               0.00     0.00 2118.00    0.00  8472.00     0.00     8.00     1.82    0.87    0.87    0.00   0.22  47.00
sdb               0.00     0.00 2116.00    0.00  8464.00     0.00     8.00     1.75    0.85    0.85    0.00   0.21  45.00
sdd               0.00     0.00 2081.00    0.00  8324.00     0.00     8.00     1.71    0.82    0.82    0.00   0.21  42.80
md0               0.00     0.00 6311.00    0.00 25244.00     0.00     8.00     0.00    0.00    0.00    0.00   0.00   0.00

avg-cpu:  %user   %nice %system %iowait  %steal   %idle
           0.06    0.00    1.00    8.42    0.00   90.51

Device:         rrqm/s   wrqm/s     r/s     w/s    rkB/s    wkB/s avgrq-sz avgqu-sz   await r_await w_await  svctm  %util
nvme0n1           0.00     0.00    0.00    0.00     0.00     0.00     0.00     0.00    0.00    0.00    0.00   0.00   0.00
sda               0.00     3.00    0.00    4.00     0.00    44.00    22.00     0.00    0.00    0.00    0.00   0.00   0.00
sdc               0.00     0.00 1832.00    0.00  7328.00     0.00     8.00     1.56    0.86    0.86    0.00   0.22  40.10
sdb               0.00     0.00 1922.00    0.00  7688.00     0.00     8.00     1.48    0.78    0.78    0.00   0.20  39.10
sdd               0.00     0.00 1965.00    0.00  7860.00     0.00     8.00     2.13    1.09    1.09    0.00   0.27  52.80
md0               0.00     0.00 5724.00    0.00 22896.00     0.00     8.00     0.00    0.00    0.00    0.00   0.00   0.00

avg-cpu:  %user   %nice %system %iowait  %steal   %idle
           0.03    0.00    0.78    8.25    0.00   90.93

Device:         rrqm/s   wrqm/s     r/s     w/s    rkB/s    wkB/s avgrq-sz avgqu-sz   await r_await w_await  svctm  %util
nvme0n1           0.00     0.00    0.00    0.00     0.00     0.00     0.00     0.00    0.00    0.00    0.00   0.00   0.00
sda               0.00     0.00    0.00    0.00     0.00     0.00     0.00     0.00    0.00    0.00    0.00   0.00   0.00
sdc               0.00     0.00 1783.00    0.00  7132.00     0.00     8.00     1.89    1.06    1.06    0.00   0.27  47.90
sdb               0.00     0.00 1873.00    0.00  7492.00     0.00     8.00     1.82    0.97    0.97    0.00   0.24  45.50
sdd               0.00     0.00 1800.00    0.00  7200.00     0.00     8.00     1.51    0.84    0.84    0.00   0.20  36.70
md0               0.00     0.00 5458.00    0.00 21832.00     0.00     8.00     0.00    0.00    0.00    0.00   0.00   0.00

avg-cpu:  %user   %nice %system %iowait  %steal   %idle
           0.03    0.00    0.78    8.40    0.00   90.78

Device:         rrqm/s   wrqm/s     r/s     w/s    rkB/s    wkB/s avgrq-sz avgqu-sz   await r_await w_await  svctm  %util
nvme0n1           0.00     0.00    0.00    0.00     0.00     0.00     0.00     0.00    0.00    0.00    0.00   0.00   0.00
sda               0.00     0.00    0.00    0.00     0.00     0.00     0.00     0.00    0.00    0.00    0.00   0.00   0.00
sdc               0.00     0.00 1766.00    0.00  7064.00     0.00     8.00     1.66    0.94    0.94    0.00   0.23  41.50
sdb               0.00     0.00 1734.00    0.00  6936.00     0.00     8.00     1.84    1.07    1.07    0.00   0.26  45.10
sdd               0.00     0.00 1676.00    0.00  6704.00     0.00     8.00     1.79    1.07    1.07    0.00   0.25  41.40
md0               0.00     0.00 5169.00    0.00 20676.00     0.00     8.00     0.00    0.00    0.00    0.00   0.00   0.00

avg-cpu:  %user   %nice %system %iowait  %steal   %idle
           0.03    0.00    0.66    7.90    0.00   91.41

Device:         rrqm/s   wrqm/s     r/s     w/s    rkB/s    wkB/s avgrq-sz avgqu-sz   await r_await w_await  svctm  %util
nvme0n1           0.00     0.00    0.00    0.00     0.00     0.00     0.00     0.00    0.00    0.00    0.00   0.00   0.00
sda               0.00     0.00    0.00    0.00     0.00     0.00     0.00     0.00    0.00    0.00    0.00   0.00   0.00
sdc               0.00     0.00 1623.00    0.00  6492.00     0.00     8.00     1.82    1.12    1.12    0.00   0.29  47.70
sdb               0.00     0.00 1645.00    0.00  6580.00     0.00     8.00     1.49    0.91    0.91    0.00   0.24  39.30
sdd               0.00     0.00 1565.00    0.00  6260.00     0.00     8.00     1.54    0.99    0.99    0.00   0.26  40.10
md0               0.00     0.00 4833.00    0.00 19332.00     0.00     8.00     0.00    0.00    0.00    0.00   0.00   0.00

avg-cpu:  %user   %nice %system %iowait  %steal   %idle
           0.03    0.00    0.50    7.78    0.00   91.68

Device:         rrqm/s   wrqm/s     r/s     w/s    rkB/s    wkB/s avgrq-sz avgqu-sz   await r_await w_await  svctm  %util
nvme0n1           0.00     0.00    0.00    0.00     0.00     0.00     0.00     0.00    0.00    0.00    0.00   0.00   0.00
sda               0.00     0.00    0.00    0.00     0.00     0.00     0.00     0.00    0.00    0.00    0.00   0.00   0.00
sdc               0.00     0.00 1477.00    0.00  5908.00     0.00     8.00     1.61    1.09    1.09    0.00   0.27  40.50
sdb               0.00     0.00 1473.00    0.00  5892.00     0.00     8.00     1.35    0.92    0.92    0.00   0.26  38.80
sdd               0.00     0.00 1476.00    0.00  5904.00     0.00     8.00     1.88    1.26    1.26    0.00   0.32  47.50
md0               0.00     0.00 4432.00    0.00 17728.00     0.00     8.00     0.00    0.00    0.00    0.00   0.00   0.00

avg-cpu:  %user   %nice %system %iowait  %steal   %idle
           0.06    0.00    0.97    8.69    0.00   90.27

Device:         rrqm/s   wrqm/s     r/s     w/s    rkB/s    wkB/s avgrq-sz avgqu-sz   await r_await w_await  svctm  %util
nvme0n1           0.00     0.00    0.00    0.00     0.00     0.00     0.00     0.00    0.00    0.00    0.00   0.00   0.00
sda               0.00     3.00    0.00    2.00     0.00    20.00    20.00     0.00    0.00    0.00    0.00   0.00   0.00
sdc               0.00     0.00 2242.00    0.00  8968.00     0.00     8.00     1.75    0.78    0.78    0.00   0.20  44.90
sdb               0.00     0.00 2102.00    0.00  8408.00     0.00     8.00     1.61    0.77    0.77    0.00   0.21  44.70
sdd               0.00     0.00 2291.00    0.00  9164.00     0.00     8.00     2.01    0.88    0.88    0.00   0.20  46.80
md0               0.00     0.00 6633.00    0.00 26532.00     0.00     8.00     0.00    0.00    0.00    0.00   0.00   0.00

avg-cpu:  %user   %nice %system %iowait  %steal   %idle
           0.06    0.00    0.69    7.72    0.00   91.53

Device:         rrqm/s   wrqm/s     r/s     w/s    rkB/s    wkB/s avgrq-sz avgqu-sz   await r_await w_await  svctm  %util
nvme0n1           0.00     0.00    0.00    0.00     0.00     0.00     0.00     0.00    0.00    0.00    0.00   0.00   0.00
sda               0.00     0.00    0.00    0.00     0.00     0.00     0.00     0.00    0.00    0.00    0.00   0.00   0.00
sdc               0.00     0.00 1820.00    0.00  7280.00     0.00     8.00     1.70    0.94    0.94    0.00   0.23  41.90
sdb               0.00     0.00 1846.00    0.00  7384.00     0.00     8.00     1.68    0.91    0.91    0.00   0.23  42.50
sdd               0.00     0.00 1769.00    0.00  7076.00     0.00     8.00     1.64    0.92    0.92    0.00   0.25  44.20
md0               0.00     0.00 5438.00    0.00 21752.00     0.00     8.00     0.00    0.00    0.00    0.00   0.00   0.00

avg-cpu:  %user   %nice %system %iowait  %steal   %idle
           0.03    0.00    0.85    7.87    0.00   91.25

Device:         rrqm/s   wrqm/s     r/s     w/s    rkB/s    wkB/s avgrq-sz avgqu-sz   await r_await w_await  svctm  %util
nvme0n1           0.00     0.00    0.00    0.00     0.00     0.00     0.00     0.00    0.00    0.00    0.00   0.00   0.00
sda               0.00     0.00    0.00    0.00     0.00     0.00     0.00     0.00    0.00    0.00    0.00   0.00   0.00
sdc               0.00     0.00 1999.00    0.00  7996.00     0.00     8.00     1.82    0.91    0.91    0.00   0.23  46.70
sdb               0.00     0.00 1855.00    0.00  7420.00     0.00     8.00     1.31    0.71    0.71    0.00   0.20  37.50
sdd               0.00     0.00 1888.00    0.00  7552.00     0.00     8.00     1.87    0.99    0.99    0.00   0.27  50.20
md0               0.00     0.00 5735.00    0.00 22940.00     0.00     8.00     0.00    0.00    0.00    0.00   0.00   0.00

avg-cpu:  %user   %nice %system %iowait  %steal   %idle
           0.03    0.00    0.56    7.72    0.00   91.68

Device:         rrqm/s   wrqm/s     r/s     w/s    rkB/s    wkB/s avgrq-sz avgqu-sz   await r_await w_await  svctm  %util
nvme0n1           0.00     0.00    0.00    0.00     0.00     0.00     0.00     0.00    0.00    0.00    0.00   0.00   0.00
sda               0.00     0.00    0.00    0.00     0.00     0.00     0.00     0.00    0.00    0.00    0.00   0.00   0.00
sdc               0.00     0.00 1490.00    0.00  5960.00     0.00     8.00     1.47    0.99    0.99    0.00   0.25  37.70
sdb               0.00     0.00 1605.00    0.00  6420.00     0.00     8.00     2.07    1.29    1.29    0.00   0.36  57.80
sdd               0.00     0.00 1609.00    0.00  6436.00     0.00     8.00     1.29    0.80    0.80    0.00   0.20  32.50
md0               0.00     0.00 4704.00    0.00 18816.00     0.00     8.00     0.00    0.00    0.00    0.00   0.00   0.00

avg-cpu:  %user   %nice %system %iowait  %steal   %idle
           0.03    0.00    0.78    8.54    0.00   90.64

Device:         rrqm/s   wrqm/s     r/s     w/s    rkB/s    wkB/s avgrq-sz avgqu-sz   await r_await w_await  svctm  %util
nvme0n1           0.00     0.00    0.00    0.00     0.00     0.00     0.00     0.00    0.00    0.00    0.00   0.00   0.00
sda               0.00     0.00    0.00    0.00     0.00     0.00     0.00     0.00    0.00    0.00    0.00   0.00   0.00
sdc               0.00     0.00 1908.00    0.00  7632.00     0.00     8.00     1.41    0.74    0.74    0.00   0.20  37.80
sdb               0.00     0.00 1952.00    0.00  7808.00     0.00     8.00     1.86    0.96    0.96    0.00   0.24  46.30
sdd               0.00     0.00 1871.00    0.00  7484.00     0.00     8.00     2.06    1.10    1.10    0.00   0.26  48.80
md0               0.00     0.00 5738.00    0.00 22952.00     0.00     8.00     0.00    0.00    0.00    0.00   0.00   0.00

