Linux 4.17.2 (bench2) 	08/04/2018 	_x86_64_	(32 CPU)

avg-cpu:  %user   %nice %system %iowait  %steal   %idle
           1.90    0.00    1.54    1.61    0.00   94.95

Device:         rrqm/s   wrqm/s     r/s     w/s    rkB/s    wkB/s avgrq-sz avgqu-sz   await r_await w_await  svctm  %util
nvme0n1         930.40     5.05 18756.49  516.42 104915.97 11646.91    12.10     1.34    0.05    0.03    0.67   0.02  39.26
sda               0.12     0.82   14.17    0.58   164.04     8.56    23.40     0.00    0.33    0.32    0.44   0.07   0.10
sdc              34.66     0.17  123.48    0.31  1851.20    96.93    31.48     0.11    0.91   12.28  381.84   0.90  11.16
sdb              32.64     0.19  125.45    0.33  1849.25    96.75    30.94     0.54    4.30    3.22  413.03   0.84  10.61
sdd              34.86     0.17  123.02    0.26  1847.25    96.43    31.53     0.85    6.93    5.03  909.23   0.91  11.16
md0               0.00     0.00  476.93    1.20  6878.51   349.67    30.24     0.00    0.00    0.00    0.00   0.00   0.00

avg-cpu:  %user   %nice %system %iowait  %steal   %idle
           0.00    0.00    0.31    2.72    0.00   96.96

Device:         rrqm/s   wrqm/s     r/s     w/s    rkB/s    wkB/s avgrq-sz avgqu-sz   await r_await w_await  svctm  %util
nvme0n1           0.00     0.00    0.00    0.00     0.00     0.00     0.00     0.00    0.00    0.00    0.00   0.00   0.00
sda               0.00     0.00   18.00    0.00    76.00     0.00     8.44     0.00    0.11    0.11    0.00   0.06   0.10
sdc              15.00     0.00 1496.00    0.00 20644.00     0.00    27.60     0.29    0.19    0.19    0.00   0.18  26.60
sdb              12.00     0.00 1523.00    0.00 20700.00     0.00    27.18     0.30    0.20    0.20    0.00   0.18  26.70
sdd              17.00     0.00 1496.00    0.00 21828.00     0.00    29.18     0.54    0.36    0.36    0.00   0.34  50.20
md0               0.00     0.00 4560.00    0.00 83608.00     0.00    36.67     0.00    0.00    0.00    0.00   0.00   0.00

avg-cpu:  %user   %nice %system %iowait  %steal   %idle
           0.03    0.00    0.38    2.69    0.00   96.90

Device:         rrqm/s   wrqm/s     r/s     w/s    rkB/s    wkB/s avgrq-sz avgqu-sz   await r_await w_await  svctm  %util
nvme0n1           0.00     0.00    0.00    0.00     0.00     0.00     0.00     0.00    0.00    0.00    0.00   0.00   0.00
sda               0.00     9.00    0.00    2.00     0.00    44.00    44.00     0.00    0.00    0.00    0.00   0.00   0.00
sdc              28.00     0.00 1487.00    0.00 28368.00     0.00    38.15     0.46    0.31    0.31    0.00   0.25  37.20
sdb              28.00     0.00 1375.00    0.00 27576.00     0.00    40.11     0.34    0.25    0.25    0.00   0.21  28.80
sdd              29.00     0.00 1445.00    0.00 29304.00     0.00    40.56     0.59    0.41    0.41    0.00   0.33  47.60
md0               0.00     0.00 4391.00    0.00 109304.00     0.00    49.79     0.00    0.00    0.00    0.00   0.00   0.00

avg-cpu:  %user   %nice %system %iowait  %steal   %idle
           0.03    0.00    0.38    2.69    0.00   96.90

Device:         rrqm/s   wrqm/s     r/s     w/s    rkB/s    wkB/s avgrq-sz avgqu-sz   await r_await w_await  svctm  %util
nvme0n1           0.00     0.00    0.00    0.00     0.00     0.00     0.00     0.00    0.00    0.00    0.00   0.00   0.00
sda               0.00     0.00    0.00    0.00     0.00     0.00     0.00     0.00    0.00    0.00    0.00   0.00   0.00
sdc               9.00     0.00 1577.00    0.00 18480.00     0.00    23.44     0.26    0.17    0.17    0.00   0.16  25.40
sdb               4.00     0.00 1659.00    0.00 17984.00     0.00    21.68     0.27    0.16    0.16    0.00   0.16  26.00
sdd               6.00     0.00 1590.00    0.00 18224.00     0.00    22.92     0.48    0.30    0.30    0.00   0.29  46.80
md0               0.00     0.00 4846.00    0.00 63424.00     0.00    26.18     0.00    0.00    0.00    0.00   0.00   0.00

