Linux 4.17.2 (bench2) 	08/04/2018 	_x86_64_	(32 CPU)

avg-cpu:  %user   %nice %system %iowait  %steal   %idle
           1.90    0.00    1.54    1.61    0.00   94.95

Device:         rrqm/s   wrqm/s     r/s     w/s    rkB/s    wkB/s avgrq-sz avgqu-sz   await r_await w_await  svctm  %util
nvme0n1         931.04     5.06 18769.36  516.78 104987.98 11654.90    12.10     1.34    0.05    0.03    0.67   0.02  39.29
sda               0.12     0.82   14.17    0.58   164.04     8.56    23.40     0.00    0.33    0.32    0.44   0.07   0.10
sdc              34.68     0.17  123.12    0.31  1845.64    97.00    31.48     0.11    0.90   12.31  381.84   0.90  11.13
sdb              32.66     0.19  125.10    0.33  1843.69    96.82    30.94     0.54    4.30    3.22  413.03   0.84  10.58
sdd              34.88     0.17  122.67    0.26  1841.70    96.50    31.53     0.85    6.94    5.03  909.23   0.91  11.14
md0               0.00     0.00  475.92    1.20  6857.53   349.91    30.21     0.00    0.00    0.00    0.00   0.00   0.00

avg-cpu:  %user   %nice %system %iowait  %steal   %idle
           0.13    0.00    0.47    6.04    0.00   93.37

Device:         rrqm/s   wrqm/s     r/s     w/s    rkB/s    wkB/s avgrq-sz avgqu-sz   await r_await w_await  svctm  %util
nvme0n1           0.00     0.00    0.00    0.00     0.00     0.00     0.00     0.00    0.00    0.00    0.00   0.00   0.00
sda               0.00     0.00    1.00    0.00     8.00     0.00    16.00     0.00    0.00    0.00    0.00   0.00   0.00
sdc              37.00     0.00  508.00    0.00 37528.00     0.00   147.75     0.96    1.88    1.88    0.00   0.78  39.50
sdb              40.00     0.00  486.00    0.00 36216.00     0.00   149.04     1.16    2.41    2.41    0.00   0.89  43.20
sdd              44.00     0.00  387.00    0.00 36704.00     0.00   189.68     1.91    4.89    4.89    0.00   1.98  76.70
md0               0.00     0.00 1571.00    0.00 156096.00     0.00   198.72     0.00    0.00    0.00    0.00   0.00   0.00

avg-cpu:  %user   %nice %system %iowait  %steal   %idle
           0.03    0.00    0.50    6.26    0.00   93.21

Device:         rrqm/s   wrqm/s     r/s     w/s    rkB/s    wkB/s avgrq-sz avgqu-sz   await r_await w_await  svctm  %util
nvme0n1           0.00     0.00    0.00    0.00     0.00     0.00     0.00     0.00    0.00    0.00    0.00   0.00   0.00
sda               0.00    10.00    0.00    2.00     0.00    48.00    48.00     0.00    0.00    0.00    0.00   0.00   0.00
sdc              23.00     0.00  614.00    0.00 31928.00     0.00   104.00     2.05    3.36    3.36    0.00   0.87  53.60
sdb              30.00     0.00  447.00    0.00 27612.00     0.00   123.54     1.51    3.40    3.40    0.00   1.06  47.20
sdd              23.00     0.00  472.00    0.00 30280.00     0.00   128.31     1.59    3.41    3.41    0.00   1.06  50.00
md0               0.00     0.00 1647.00    0.00 118920.00     0.00   144.41     0.00    0.00    0.00    0.00   0.00   0.00

