Linux 4.17.2 (bench2) 	08/04/2018 	_x86_64_	(32 CPU)

avg-cpu:  %user   %nice %system %iowait  %steal   %idle
           1.90    0.00    1.55    1.60    0.00   94.96

Device:         rrqm/s   wrqm/s     r/s     w/s    rkB/s    wkB/s avgrq-sz avgqu-sz   await r_await w_await  svctm  %util
nvme0n1         932.75     5.07 18803.84  517.73 105180.82 11676.31    12.10     1.34    0.05    0.03    0.67   0.02  39.36
sda               0.12     0.82   14.17    0.58   164.02     8.56    23.40     0.00    0.33    0.32    0.44   0.07   0.10
sdc              34.59     0.17  121.79    0.31  1838.97    97.17    31.71     0.10    0.85   12.41  381.84   0.91  11.07
sdb              32.56     0.19  123.77    0.33  1837.01    97.00    31.17     0.53    4.30    3.21  413.03   0.85  10.52
sdd              34.78     0.17  121.33    0.26  1835.01    96.67    31.77     0.85    6.97    5.04  909.23   0.91  11.07
md0               0.00     0.00  471.65    1.21  6836.73   350.55    30.40     0.00    0.00    0.00    0.00   0.00   0.00

avg-cpu:  %user   %nice %system %iowait  %steal   %idle
           0.00    0.00    0.06   29.80    0.00   70.14

Device:         rrqm/s   wrqm/s     r/s     w/s    rkB/s    wkB/s avgrq-sz avgqu-sz   await r_await w_await  svctm  %util
nvme0n1           0.00     0.00    0.00    0.00     0.00     0.00     0.00     0.00    0.00    0.00    0.00   0.00   0.00
sda               0.00     0.00   19.00    0.00   104.00     0.00    10.95     0.00    0.11    0.11    0.00   0.05   0.10
sdc               0.00     0.00   85.00    0.00   364.00     0.00     8.56     7.54   87.04   87.04    0.00  11.31  96.10
sdb               0.00     0.00   61.00    0.00   248.00     0.00     8.13     3.68   58.38   58.38    0.00  11.66  71.10
sdd               0.00     0.00   51.00    0.00   204.00     0.00     8.00     3.40   65.04   65.04    0.00  12.84  65.50
md0               0.00     0.00  225.00    0.00   912.00     0.00     8.11     0.00    0.00    0.00    0.00   0.00   0.00

avg-cpu:  %user   %nice %system %iowait  %steal   %idle
           0.03    0.00    0.06   25.82    0.00   74.09

Device:         rrqm/s   wrqm/s     r/s     w/s    rkB/s    wkB/s avgrq-sz avgqu-sz   await r_await w_await  svctm  %util
nvme0n1           0.00     0.00    0.00    0.00     0.00     0.00     0.00     0.00    0.00    0.00    0.00   0.00   0.00
sda               0.00     0.00    0.00    0.00     0.00     0.00     0.00     0.00    0.00    0.00    0.00   0.00   0.00
sdc               0.00     0.00  119.00    0.00   476.00     0.00     8.00     4.54   38.08   38.08    0.00   5.96  70.90
sdb               0.00     0.00  115.00    0.00   456.00     0.00     7.93     4.33   38.65   38.65    0.00   6.64  76.40
sdd               0.00     0.00  109.00    0.00   436.00     0.00     8.00     4.19   37.83   37.83    0.00   7.08  77.20
md0               0.00     0.00  320.00    0.00  1280.00     0.00     8.00     0.00    0.00    0.00    0.00   0.00   0.00

avg-cpu:  %user   %nice %system %iowait  %steal   %idle
           0.00    0.00    0.22   26.44    0.00   73.34

Device:         rrqm/s   wrqm/s     r/s     w/s    rkB/s    wkB/s avgrq-sz avgqu-sz   await r_await w_await  svctm  %util
nvme0n1           0.00     0.00    0.00    0.00     0.00     0.00     0.00     0.00    0.00    0.00    0.00   0.00   0.00
sda               0.00     0.00    0.00    0.00     0.00     0.00     0.00     0.00    0.00    0.00    0.00   0.00   0.00
sdc               0.00     0.00  139.00    0.00   556.00     0.00     8.00     5.16   37.19   37.19    0.00   6.28  87.30
sdb               0.00     0.00  137.00    0.00   548.00     0.00     8.00     4.59   32.40   32.40    0.00   5.50  75.30
sdd               0.00     0.00  127.00    0.00   508.00     0.00     8.00     4.20   33.25   33.25    0.00   5.93  75.30
md0               0.00     0.00  416.00    0.00  1664.00     0.00     8.00     0.00    0.00    0.00    0.00   0.00   0.00

avg-cpu:  %user   %nice %system %iowait  %steal   %idle
           0.00    0.00    0.19   21.51    0.00   78.30

Device:         rrqm/s   wrqm/s     r/s     w/s    rkB/s    wkB/s avgrq-sz avgqu-sz   await r_await w_await  svctm  %util
nvme0n1           0.00     0.00    0.00    0.00     0.00     0.00     0.00     0.00    0.00    0.00    0.00   0.00   0.00
sda               0.00     0.00    0.00    0.00     0.00     0.00     0.00     0.00    0.00    0.00    0.00   0.00   0.00
sdc               0.00     0.00  163.00    0.00   652.00     0.00     8.00     5.56   34.91   34.91    0.00   5.47  89.20
sdb               0.00     0.00  142.00    0.00   568.00     0.00     8.00     4.06   29.68   29.68    0.00   5.32  75.60
sdd               0.00     0.00  129.00    0.00   516.00     0.00     8.00     4.00   31.45   31.45    0.00   5.91  76.20
md0               0.00     0.00  416.00    0.00  1664.00     0.00     8.00     0.00    0.00    0.00    0.00   0.00   0.00

avg-cpu:  %user   %nice %system %iowait  %steal   %idle
           0.00    0.00    0.19   22.44    0.00   77.37

Device:         rrqm/s   wrqm/s     r/s     w/s    rkB/s    wkB/s avgrq-sz avgqu-sz   await r_await w_await  svctm  %util
nvme0n1           0.00     0.00    0.00    0.00     0.00     0.00     0.00     0.00    0.00    0.00    0.00   0.00   0.00
sda               0.00     0.00    0.00    0.00     0.00     0.00     0.00     0.00    0.00    0.00    0.00   0.00   0.00
sdc               0.00     0.00  141.00    0.00   564.00     0.00     8.00     4.49   30.92   30.92    0.00   5.42  76.40
sdb               0.00     0.00  138.00    0.00   552.00     0.00     8.00     4.67   32.84   32.84    0.00   5.81  80.20
sdd               0.00     0.00  148.00    0.00   592.00     0.00     8.00     5.17   34.39   34.39    0.00   5.84  86.40
md0               0.00     0.00  448.00    0.00  1792.00     0.00     8.00     0.00    0.00    0.00    0.00   0.00   0.00

avg-cpu:  %user   %nice %system %iowait  %steal   %idle
           0.00    0.00    0.28   23.21    0.00   76.51

Device:         rrqm/s   wrqm/s     r/s     w/s    rkB/s    wkB/s avgrq-sz avgqu-sz   await r_await w_await  svctm  %util
nvme0n1           0.00     0.00    0.00    0.00     0.00     0.00     0.00     0.00    0.00    0.00    0.00   0.00   0.00
sda               0.00    13.00    0.00   11.00     0.00    96.00    17.45     0.00    0.00    0.00    0.00   0.00   0.00
sdc               0.00     0.00  144.00    0.00   576.00     0.00     8.00     4.43   31.05   31.05    0.00   5.62  81.00
sdb               0.00     0.00  131.00    0.00   524.00     0.00     8.00     3.86   28.38   28.38    0.00   5.30  69.40
sdd               0.00     0.00  155.00    0.00   620.00     0.00     8.00     5.24   34.79   34.79    0.00   5.68  88.10
md0               0.00     0.00  416.00    0.00  1664.00     0.00     8.00     0.00    0.00    0.00    0.00   0.00   0.00

avg-cpu:  %user   %nice %system %iowait  %steal   %idle
           0.03    0.00    0.25   19.59    0.00   80.13

Device:         rrqm/s   wrqm/s     r/s     w/s    rkB/s    wkB/s avgrq-sz avgqu-sz   await r_await w_await  svctm  %util
nvme0n1           0.00     0.00    0.00    0.00     0.00     0.00     0.00     0.00    0.00    0.00    0.00   0.00   0.00
sda               0.00     0.00    0.00    0.00     0.00     0.00     0.00     0.00    0.00    0.00    0.00   0.00   0.00
sdc               0.00     0.00  127.00    0.00   508.00     0.00     8.00     3.98   32.11   32.11    0.00   5.67  72.00
sdb               0.00     0.00  119.00    0.00   476.00     0.00     8.00     3.85   33.46   33.46    0.00   6.03  71.80
sdd               0.00     0.00  144.00    0.00   576.00     0.00     8.00     4.78   33.21   33.21    0.00   5.49  79.00
md0               0.00     0.00  384.00    0.00  1536.00     0.00     8.00     0.00    0.00    0.00    0.00   0.00   0.00

avg-cpu:  %user   %nice %system %iowait  %steal   %idle
           0.00    0.00    0.09   24.76    0.00   75.15

Device:         rrqm/s   wrqm/s     r/s     w/s    rkB/s    wkB/s avgrq-sz avgqu-sz   await r_await w_await  svctm  %util
nvme0n1           0.00     0.00    0.00    0.00     0.00     0.00     0.00     0.00    0.00    0.00    0.00   0.00   0.00
sda               0.00     0.00    0.00    0.00     0.00     0.00     0.00     0.00    0.00    0.00    0.00   0.00   0.00
sdc               0.00     0.00  160.00    0.00   640.00     0.00     8.00     5.55   34.15   34.15    0.00   5.51  88.20
sdb               0.00     0.00  140.00    0.00   560.00     0.00     8.00     4.55   31.90   31.90    0.00   5.60  78.40
sdd               0.00     0.00  142.00    0.00   568.00     0.00     8.00     4.13   28.80   28.80    0.00   5.37  76.20
md0               0.00     0.00  448.00    0.00  1792.00     0.00     8.00     0.00    0.00    0.00    0.00   0.00   0.00

avg-cpu:  %user   %nice %system %iowait  %steal   %idle
           0.00    0.00    0.22   24.76    0.00   75.02

Device:         rrqm/s   wrqm/s     r/s     w/s    rkB/s    wkB/s avgrq-sz avgqu-sz   await r_await w_await  svctm  %util
nvme0n1           0.00     0.00    0.00    0.00     0.00     0.00     0.00     0.00    0.00    0.00    0.00   0.00   0.00
sda               0.00     0.00    0.00    0.00     0.00     0.00     0.00     0.00    0.00    0.00    0.00   0.00   0.00
sdc               0.00     0.00  155.00    0.00   620.00     0.00     8.00     5.33   34.17   34.17    0.00   5.43  84.20
sdb               0.00     0.00  140.00    0.00   560.00     0.00     8.00     4.82   33.47   33.47    0.00   5.98  83.70
sdd               0.00     0.00  141.00    0.00   564.00     0.00     8.00     4.30   30.67   30.67    0.00   5.47  77.10
md0               0.00     0.00  448.00    0.00  1792.00     0.00     8.00     0.00    0.00    0.00    0.00   0.00   0.00

avg-cpu:  %user   %nice %system %iowait  %steal   %idle
           0.00    0.00    0.19   22.51    0.00   77.30

Device:         rrqm/s   wrqm/s     r/s     w/s    rkB/s    wkB/s avgrq-sz avgqu-sz   await r_await w_await  svctm  %util
nvme0n1           0.00     0.00    0.00    0.00     0.00     0.00     0.00     0.00    0.00    0.00    0.00   0.00   0.00
sda               0.00     0.00    0.00    0.00     0.00     0.00     0.00     0.00    0.00    0.00    0.00   0.00   0.00
sdc               0.00     0.00  143.00    0.00   572.00     0.00     8.00     4.41   31.44   31.44    0.00   5.50  78.70
sdb               0.00     0.00  158.00    0.00   632.00     0.00     8.00     5.26   35.28   35.28    0.00   5.52  87.20
sdd               0.00     0.00  131.00    0.00   524.00     0.00     8.00     4.21   31.66   31.66    0.00   5.84  76.50
md0               0.00     0.00  416.00    0.00  1664.00     0.00     8.00     0.00    0.00    0.00    0.00   0.00   0.00

avg-cpu:  %user   %nice %system %iowait  %steal   %idle
           0.00    0.00    0.22   23.98    0.00   75.80

Device:         rrqm/s   wrqm/s     r/s     w/s    rkB/s    wkB/s avgrq-sz avgqu-sz   await r_await w_await  svctm  %util
nvme0n1           0.00     0.00    0.00    0.00     0.00     0.00     0.00     0.00    0.00    0.00    0.00   0.00   0.00
sda               0.00     1.00    0.00    2.00     0.00    12.00    12.00     0.00    0.50    0.00    0.50   0.50   0.10
sdc               0.00     0.00  156.00    0.00   624.00     0.00     8.00     5.21   32.88   32.88    0.00   5.42  84.60
sdb               0.00     0.00  128.00    0.00   512.00     0.00     8.00     4.06   31.34   31.34    0.00   6.04  77.30
sdd               0.00     0.00  154.00    0.00   616.00     0.00     8.00     4.89   30.99   30.99    0.00   5.22  80.40
md0               0.00     0.00  448.00    0.00  1792.00     0.00     8.00     0.00    0.00    0.00    0.00   0.00   0.00

avg-cpu:  %user   %nice %system %iowait  %steal   %idle
           0.03    0.00    0.19   24.01    0.00   75.77

Device:         rrqm/s   wrqm/s     r/s     w/s    rkB/s    wkB/s avgrq-sz avgqu-sz   await r_await w_await  svctm  %util
nvme0n1           0.00     0.00    0.00    0.00     0.00     0.00     0.00     0.00    0.00    0.00    0.00   0.00   0.00
sda               0.00     2.00    0.00    3.00     0.00    36.00    24.00     0.00    0.00    0.00    0.00   0.00   0.00
sdc               0.00     0.00  151.00    0.00   604.00     0.00     8.00     5.44   36.27   36.27    0.00   5.84  88.20
sdb               0.00     0.00  137.00    0.00   548.00     0.00     8.00     4.63   33.36   33.36    0.00   5.78  79.20
sdd               0.00     0.00  126.00    0.00   504.00     0.00     8.00     3.61   28.48   28.48    0.00   5.48  69.00
md0               0.00     0.00  416.00    0.00  1664.00     0.00     8.00     0.00    0.00    0.00    0.00   0.00   0.00

avg-cpu:  %user   %nice %system %iowait  %steal   %idle
           0.00    0.00    0.16   23.05    0.00   76.79

Device:         rrqm/s   wrqm/s     r/s     w/s    rkB/s    wkB/s avgrq-sz avgqu-sz   await r_await w_await  svctm  %util
nvme0n1           0.00     0.00    0.00    0.00     0.00     0.00     0.00     0.00    0.00    0.00    0.00   0.00   0.00
sda               0.00     0.00    0.00    0.00     0.00     0.00     0.00     0.00    0.00    0.00    0.00   0.00   0.00
sdc               0.00     0.00  147.00    0.00   588.00     0.00     8.00     5.02   33.37   33.37    0.00   5.76  84.60
sdb               0.00     0.00  138.00    0.00   552.00     0.00     8.00     4.12   29.99   29.99    0.00   5.59  77.10
sdd               0.00     0.00  155.00    0.00   620.00     0.00     8.00     5.00   33.36   33.36    0.00   5.38  83.40
md0               0.00     0.00  448.00    0.00  1792.00     0.00     8.00     0.00    0.00    0.00    0.00   0.00   0.00

avg-cpu:  %user   %nice %system %iowait  %steal   %idle
           0.00    0.00    0.19   22.42    0.00   77.39

Device:         rrqm/s   wrqm/s     r/s     w/s    rkB/s    wkB/s avgrq-sz avgqu-sz   await r_await w_await  svctm  %util
nvme0n1           0.00     0.00    0.00    0.00     0.00     0.00     0.00     0.00    0.00    0.00    0.00   0.00   0.00
sda               0.00     0.00    0.00    0.00     0.00     0.00     0.00     0.00    0.00    0.00    0.00   0.00   0.00
sdc               0.00     0.00  142.00    0.00   568.00     0.00     8.00     5.02   36.49   36.49    0.00   5.82  82.70
sdb               0.00     0.00  128.00    0.00   512.00     0.00     8.00     3.72   29.94   29.94    0.00   5.39  69.00
sdd               0.00     0.00  139.00    0.00   556.00     0.00     8.00     5.13   37.04   37.04    0.00   6.22  86.40
md0               0.00     0.00  416.00    0.00  1664.00     0.00     8.00     0.00    0.00    0.00    0.00   0.00   0.00

avg-cpu:  %user   %nice %system %iowait  %steal   %idle
           0.03    0.00    0.06   22.00    0.00   77.90

Device:         rrqm/s   wrqm/s     r/s     w/s    rkB/s    wkB/s avgrq-sz avgqu-sz   await r_await w_await  svctm  %util
nvme0n1           0.00     0.00    0.00    0.00     0.00     0.00     0.00     0.00    0.00    0.00    0.00   0.00   0.00
sda               0.00     0.00    0.00    0.00     0.00     0.00     0.00     0.00    0.00    0.00    0.00   0.00   0.00
sdc               0.00     0.00  145.00    0.00   580.00     0.00     8.00     4.55   31.74   31.74    0.00   5.77  83.60
sdb               0.00     0.00  150.00    0.00   600.00     0.00     8.00     4.91   32.03   32.03    0.00   5.63  84.50
sdd               0.00     0.00  150.00    0.00   600.00     0.00     8.00     5.17   34.75   34.75    0.00   5.91  88.70
md0               0.00     0.00  416.00    0.00  1664.00     0.00     8.00     0.00    0.00    0.00    0.00   0.00   0.00

avg-cpu:  %user   %nice %system %iowait  %steal   %idle
           0.03    0.00    0.34   24.06    0.00   75.57

Device:         rrqm/s   wrqm/s     r/s     w/s    rkB/s    wkB/s avgrq-sz avgqu-sz   await r_await w_await  svctm  %util
nvme0n1           0.00     0.00    0.00    0.00     0.00     0.00     0.00     0.00    0.00    0.00    0.00   0.00   0.00
sda               0.00     3.00    0.00    2.00     0.00    20.00    20.00     0.00    0.00    0.00    0.00   0.00   0.00
sdc               0.00     0.00  140.00    0.00   560.00     0.00     8.00     4.54   30.87   30.87    0.00   5.41  75.70
sdb               0.00     0.00  130.00    0.00   520.00     0.00     8.00     4.05   31.45   31.45    0.00   5.98  77.80
sdd               0.00     0.00  161.00    0.00   644.00     0.00     8.00     5.82   35.22   35.22    0.00   5.57  89.70
md0               0.00     0.00  448.00    0.00  1792.00     0.00     8.00     0.00    0.00    0.00    0.00   0.00   0.00

avg-cpu:  %user   %nice %system %iowait  %steal   %idle
           0.00    0.00    0.19   21.23    0.00   78.58

Device:         rrqm/s   wrqm/s     r/s     w/s    rkB/s    wkB/s avgrq-sz avgqu-sz   await r_await w_await  svctm  %util
nvme0n1           0.00     0.00    0.00    0.00     0.00     0.00     0.00     0.00    0.00    0.00    0.00   0.00   0.00
sda               0.00     0.00    0.00    2.00     0.00    32.00    32.00     0.00    0.00    0.00    0.00   0.00   0.00
sdc               0.00     0.00  141.00    0.00   564.00     0.00     8.00     5.16   36.70   36.70    0.00   5.93  83.60
sdb               0.00     0.00  129.00    0.00   516.00     0.00     8.00     4.18   33.20   33.20    0.00   5.71  73.60
sdd               0.00     0.00  131.00    0.00   524.00     0.00     8.00     4.32   34.14   34.14    0.00   5.91  77.40
md0               0.00     0.00  384.00    0.00  1536.00     0.00     8.00     0.00    0.00    0.00    0.00   0.00   0.00

avg-cpu:  %user   %nice %system %iowait  %steal   %idle
           0.03    0.00    0.16   23.36    0.00   76.45

Device:         rrqm/s   wrqm/s     r/s     w/s    rkB/s    wkB/s avgrq-sz avgqu-sz   await r_await w_await  svctm  %util
nvme0n1           0.00     0.00    0.00    0.00     0.00     0.00     0.00     0.00    0.00    0.00    0.00   0.00   0.00
sda               0.00     0.00    0.00    0.00     0.00     0.00     0.00     0.00    0.00    0.00    0.00   0.00   0.00
sdc               0.00     0.00  137.00    0.00   548.00     0.00     8.00     4.35   32.45   32.45    0.00   5.77  79.00
sdb               0.00     0.00  136.00    0.00   544.00     0.00     8.00     4.08   28.25   28.25    0.00   5.33  72.50
sdd               0.00     0.00  156.00    0.00   624.00     0.00     8.00     5.60   34.52   34.52    0.00   5.83  90.90
md0               0.00     0.00  448.00    0.00  1792.00     0.00     8.00     0.00    0.00    0.00    0.00   0.00   0.00

avg-cpu:  %user   %nice %system %iowait  %steal   %idle
           0.00    0.00    0.25   23.19    0.00   76.56

Device:         rrqm/s   wrqm/s     r/s     w/s    rkB/s    wkB/s avgrq-sz avgqu-sz   await r_await w_await  svctm  %util
nvme0n1           0.00     0.00    0.00    0.00     0.00     0.00     0.00     0.00    0.00    0.00    0.00   0.00   0.00
sda               0.00     0.00    0.00    0.00     0.00     0.00     0.00     0.00    0.00    0.00    0.00   0.00   0.00
sdc               0.00     0.00  133.00    0.00   532.00     0.00     8.00     4.30   33.18   33.18    0.00   5.99  79.70
sdb               0.00     0.00  154.00    0.00   616.00     0.00     8.00     5.21   34.15   34.15    0.00   5.44  83.70
sdd               0.00     0.00  138.00    0.00   552.00     0.00     8.00     4.29   30.61   30.61    0.00   5.56  76.70
md0               0.00     0.00  416.00    0.00  1664.00     0.00     8.00     0.00    0.00    0.00    0.00   0.00   0.00

avg-cpu:  %user   %nice %system %iowait  %steal   %idle
           0.00    0.00    0.19   21.42    0.00   78.39

Device:         rrqm/s   wrqm/s     r/s     w/s    rkB/s    wkB/s avgrq-sz avgqu-sz   await r_await w_await  svctm  %util
nvme0n1           0.00     0.00    0.00    0.00     0.00     0.00     0.00     0.00    0.00    0.00    0.00   0.00   0.00
sda               0.00     0.00    0.00    0.00     0.00     0.00     0.00     0.00    0.00    0.00    0.00   0.00   0.00
sdc               0.00     0.00  132.67    0.00   530.69     0.00     8.00     4.92   36.91   36.91    0.00   5.90  78.22
sdb               0.00     0.00  131.68    0.00   526.73     0.00     8.00     4.25   33.05   33.05    0.00   5.49  72.28
sdd               0.00     0.00  128.71    0.00   514.85     0.00     8.00     4.12   32.98   32.98    0.00   5.67  72.97
md0               0.00     0.00  411.88    0.00  1647.52     0.00     8.00     0.00    0.00    0.00    0.00   0.00   0.00

