Linux 4.17.2 (bench2) 	08/04/2018 	_x86_64_	(32 CPU)

avg-cpu:  %user   %nice %system %iowait  %steal   %idle
           1.89    0.00    1.54    1.63    0.00   94.94

Device:         rrqm/s   wrqm/s     r/s     w/s    rkB/s    wkB/s avgrq-sz avgqu-sz   await r_await w_await  svctm  %util
nvme0n1         925.66     5.03 18660.96  513.79 104381.62 11587.59    12.10     1.33    0.05    0.03    0.67   0.02  39.06
sda               0.12     0.82   14.19    0.58   164.09     8.57    23.38     0.00    0.33    0.32    0.44   0.07   0.10
sdc              34.98     0.17  126.75    0.31  1886.77    96.43    31.22     0.15    1.15    0.23  381.84   0.89  11.35
sdb              32.97     0.18  128.72    0.33  1884.86    96.26    30.70     0.57    4.43    3.39  413.03   0.84  10.80
sdd              35.17     0.16  126.30    0.26  1882.87    95.94    31.27     0.89    7.00    5.16  909.23   0.90  11.38
md0               0.00     0.00  487.70    1.20  7006.65   347.89    30.09     0.00    0.00    0.00    0.00   0.00   0.00

avg-cpu:  %user   %nice %system %iowait  %steal   %idle
           0.16    0.00    1.79    0.88    0.00   97.17

Device:         rrqm/s   wrqm/s     r/s     w/s    rkB/s    wkB/s avgrq-sz avgqu-sz   await r_await w_await  svctm  %util
nvme0n1           0.00     0.00    0.00    0.00     0.00     0.00     0.00     0.00    0.00    0.00    0.00   0.00   0.00
sda               0.00     0.00    4.00    0.00   104.00     0.00    52.00     0.00    0.00    0.00    0.00   0.00   0.00
sdc               0.00     0.00 1178.00    0.00  4712.00     0.00     8.00     4.42    3.76    3.76    0.00   0.51  60.00
sdb               0.00     0.00 1266.00    0.00  5064.00     0.00     8.00     1.50    1.20    1.20    0.00   0.16  19.80
sdd               0.00     0.00 1188.00    0.00  4752.00     0.00     8.00     3.06    2.58    2.58    0.00   0.32  37.60
md0               0.00     0.00 3637.00    0.00 14548.00     0.00     8.00     0.00    0.00    0.00    0.00   0.00   0.00

avg-cpu:  %user   %nice %system %iowait  %steal   %idle
           0.16    0.00    2.69    0.91    0.00   96.24

Device:         rrqm/s   wrqm/s     r/s     w/s    rkB/s    wkB/s avgrq-sz avgqu-sz   await r_await w_await  svctm  %util
nvme0n1           0.00     0.00    0.00    0.00     0.00     0.00     0.00     0.00    0.00    0.00    0.00   0.00   0.00
sda               0.00     0.00    0.00    0.00     0.00     0.00     0.00     0.00    0.00    0.00    0.00   0.00   0.00
sdc               0.00     0.00 1448.00    0.00  5792.00     0.00     8.00     5.92    4.10    4.10    0.00   0.50  72.80
sdb               0.00     0.00 1445.00    0.00  5780.00     0.00     8.00     1.42    1.01    1.01    0.00   0.14  19.70
sdd               0.00     0.00 1449.00    0.00  5796.00     0.00     8.00     2.09    1.47    1.47    0.00   0.18  26.00
md0               0.00     0.00 4338.00    0.00 17352.00     0.00     8.00     0.00    0.00    0.00    0.00   0.00   0.00

avg-cpu:  %user   %nice %system %iowait  %steal   %idle
           0.09    0.00    1.89    0.82    0.00   97.19

Device:         rrqm/s   wrqm/s     r/s     w/s    rkB/s    wkB/s avgrq-sz avgqu-sz   await r_await w_await  svctm  %util
nvme0n1           0.00     0.00    0.00    0.00     0.00     0.00     0.00     0.00    0.00    0.00    0.00   0.00   0.00
sda               0.00     0.00    0.00    0.00     0.00     0.00     0.00     0.00    0.00    0.00    0.00   0.00   0.00
sdc               0.00     0.00 1365.00    0.00  5460.00     0.00     8.00     5.86    4.28    4.28    0.00   0.47  64.60
sdb               0.00     0.00 1388.00    0.00  5552.00     0.00     8.00     1.49    1.08    1.08    0.00   0.14  19.50
sdd               0.00     0.00 1475.00    0.00  5900.00     0.00     8.00     3.26    2.22    2.22    0.00   0.24  34.70
md0               0.00     0.00 4237.00    0.00 16948.00     0.00     8.00     0.00    0.00    0.00    0.00   0.00   0.00

avg-cpu:  %user   %nice %system %iowait  %steal   %idle
           0.13    0.00    2.17    0.79    0.00   96.91

Device:         rrqm/s   wrqm/s     r/s     w/s    rkB/s    wkB/s avgrq-sz avgqu-sz   await r_await w_await  svctm  %util
nvme0n1           0.00     0.00    0.00    0.00     0.00     0.00     0.00     0.00    0.00    0.00    0.00   0.00   0.00
sda               0.00     1.00    0.00   13.00     0.00    56.00     8.62     0.00    0.00    0.00    0.00   0.00   0.00
sdc               0.00     0.00 1576.00    0.00  6304.00     0.00     8.00     4.86    3.12    3.12    0.00   0.32  50.10
sdb               0.00     0.00 1466.00    0.00  5864.00     0.00     8.00     3.76    2.58    2.58    0.00   0.29  42.10
sdd               0.00     0.00 1561.00    0.00  6244.00     0.00     8.00     2.62    1.70    1.70    0.00   0.18  28.60
md0               0.00     0.00 4600.00    0.00 18400.00     0.00     8.00     0.00    0.00    0.00    0.00   0.00   0.00

avg-cpu:  %user   %nice %system %iowait  %steal   %idle
           0.16    0.00    2.84    0.62    0.00   96.38

Device:         rrqm/s   wrqm/s     r/s     w/s    rkB/s    wkB/s avgrq-sz avgqu-sz   await r_await w_await  svctm  %util
nvme0n1           0.00     0.00    0.00    0.00     0.00     0.00     0.00     0.00    0.00    0.00    0.00   0.00   0.00
sda               0.00     0.00    0.00    0.00     0.00     0.00     0.00     0.00    0.00    0.00    0.00   0.00   0.00
sdc               0.00     0.00 1404.00    0.00  5616.00     0.00     8.00     2.72    1.95    1.95    0.00   0.23  32.80
sdb               0.00     0.00 1472.00    0.00  5888.00     0.00     8.00     3.33    2.27    2.27    0.00   0.26  38.30
sdd               0.00     0.00 1359.00    0.00  5436.00     0.00     8.00     4.24    3.14    3.14    0.00   0.37  50.20
md0               0.00     0.00 4249.00    0.00 16996.00     0.00     8.00     0.00    0.00    0.00    0.00   0.00   0.00

avg-cpu:  %user   %nice %system %iowait  %steal   %idle
           0.09    0.00    1.98    0.76    0.00   97.16

Device:         rrqm/s   wrqm/s     r/s     w/s    rkB/s    wkB/s avgrq-sz avgqu-sz   await r_await w_await  svctm  %util
nvme0n1           0.00     0.00    0.00    0.00     0.00     0.00     0.00     0.00    0.00    0.00    0.00   0.00   0.00
sda               0.00     8.00    0.00    2.00     0.00    40.00    40.00     0.00    0.50    0.00    0.50   0.50   0.10
sdc               0.00     0.00 1405.00    0.00  5640.00     0.00     8.03     3.91    2.80    2.80    0.00   0.32  44.80
sdb               0.00     0.00 1438.00    0.00  5752.00     0.00     8.00     3.82    2.65    2.65    0.00   0.31  44.10
sdd               0.00     0.00 1416.00    0.00  5684.00     0.00     8.03     2.56    1.82    1.82    0.00   0.20  28.50
md0               0.00     0.00 4241.00    0.00 17024.00     0.00     8.03     0.00    0.00    0.00    0.00   0.00   0.00

avg-cpu:  %user   %nice %system %iowait  %steal   %idle
           0.09    0.00    2.29    0.66    0.00   96.95

Device:         rrqm/s   wrqm/s     r/s     w/s    rkB/s    wkB/s avgrq-sz avgqu-sz   await r_await w_await  svctm  %util
nvme0n1           0.00     0.00    0.00    0.00     0.00     0.00     0.00     0.00    0.00    0.00    0.00   0.00   0.00
sda               0.00     0.00    0.00    0.00     0.00     0.00     0.00     0.00    0.00    0.00    0.00   0.00   0.00
sdc               0.00     0.00 1447.00    0.00  5788.00     0.00     8.00     4.29    2.98    2.98    0.00   0.32  45.90
sdb               0.00     0.00 1422.00    0.00  5688.00     0.00     8.00     4.54    3.23    3.23    0.00   0.33  47.60
sdd               0.00     0.00 1411.00    0.00  5644.00     0.00     8.00     2.83    2.02    2.02    0.00   0.23  32.00
md0               0.00     0.00 4284.00    0.00 17136.00     0.00     8.00     0.00    0.00    0.00    0.00   0.00   0.00

avg-cpu:  %user   %nice %system %iowait  %steal   %idle
           0.16    0.00    2.48    0.75    0.00   96.62

Device:         rrqm/s   wrqm/s     r/s     w/s    rkB/s    wkB/s avgrq-sz avgqu-sz   await r_await w_await  svctm  %util
nvme0n1           0.00     0.00    0.00    0.00     0.00     0.00     0.00     0.00    0.00    0.00    0.00   0.00   0.00
sda               0.00     0.00    0.00    0.00     0.00     0.00     0.00     0.00    0.00    0.00    0.00   0.00   0.00
sdc               0.00     0.00 1389.00    0.00  5556.00     0.00     8.00     2.33    1.69    1.69    0.00   0.20  28.20
sdb               0.00     0.00 1487.00    0.00  5948.00     0.00     8.00     1.62    1.11    1.11    0.00   0.12  18.50
sdd               0.00     0.00 1437.00    0.00  5748.00     0.00     8.00     6.63    4.62    4.62    0.00   0.51  74.00
md0               0.00     0.00 4309.00    0.00 17236.00     0.00     8.00     0.00    0.00    0.00    0.00   0.00   0.00

avg-cpu:  %user   %nice %system %iowait  %steal   %idle
           0.13    0.00    2.32    0.85    0.00   96.70

Device:         rrqm/s   wrqm/s     r/s     w/s    rkB/s    wkB/s avgrq-sz avgqu-sz   await r_await w_await  svctm  %util
nvme0n1           0.00     0.00    0.00    0.00     0.00     0.00     0.00     0.00    0.00    0.00    0.00   0.00   0.00
sda               0.00     4.00    0.00    3.00     0.00    44.00    29.33     0.00    0.00    0.00    0.00   0.00   0.00
sdc               0.00     0.00 1366.00    0.00  5464.00     0.00     8.00     3.72    2.72    2.72    0.00   0.31  41.90
sdb               0.00     0.00 1431.00    0.00  5724.00     0.00     8.00     4.37    3.07    3.07    0.00   0.37  52.30
sdd               0.00     0.00 1477.00    0.00  5908.00     0.00     8.00     2.48    1.70    1.70    0.00   0.18  26.70
md0               0.00     0.00 4295.00    0.00 17180.00     0.00     8.00     0.00    0.00    0.00    0.00   0.00   0.00

avg-cpu:  %user   %nice %system %iowait  %steal   %idle
           0.16    0.00    2.23    0.82    0.00   96.80

Device:         rrqm/s   wrqm/s     r/s     w/s    rkB/s    wkB/s avgrq-sz avgqu-sz   await r_await w_await  svctm  %util
nvme0n1           0.00     0.00    0.00    0.00     0.00     0.00     0.00     0.00    0.00    0.00    0.00   0.00   0.00
sda               0.00     0.00    0.00    0.00     0.00     0.00     0.00     0.00    0.00    0.00    0.00   0.00   0.00
sdc               0.00     0.00 1444.00    0.00  5776.00     0.00     8.00     1.94    1.36    1.36    0.00   0.16  23.00
sdb               0.00     0.00 1387.00    0.00  5548.00     0.00     8.00     1.53    1.12    1.12    0.00   0.13  17.80
sdd               0.00     0.00 1442.00    0.00  5768.00     0.00     8.00     7.03    4.88    4.88    0.00   0.54  78.40
md0               0.00     0.00 4258.00    0.00 17032.00     0.00     8.00     0.00    0.00    0.00    0.00   0.00   0.00

avg-cpu:  %user   %nice %system %iowait  %steal   %idle
           0.16    0.00    2.24    0.79    0.00   96.82

Device:         rrqm/s   wrqm/s     r/s     w/s    rkB/s    wkB/s avgrq-sz avgqu-sz   await r_await w_await  svctm  %util
nvme0n1           0.00     0.00    0.00    0.00     0.00     0.00     0.00     0.00    0.00    0.00    0.00   0.00   0.00
sda               0.00     4.00    0.00    2.00     0.00    24.00    24.00     0.00    0.00    0.00    0.00   0.00   0.00
sdc               0.00     0.00 1580.00    0.00  6320.00     0.00     8.00     3.19    2.04    2.04    0.00   0.23  36.40
sdb               0.00     0.00 1517.00    0.00  6068.00     0.00     8.00     2.27    1.51    1.51    0.00   0.18  27.50
sdd               0.00     0.00 1590.00    0.00  6360.00     0.00     8.00     5.58    3.47    3.47    0.00   0.40  64.00
md0               0.00     0.00 4688.00    0.00 18752.00     0.00     8.00     0.00    0.00    0.00    0.00   0.00   0.00

avg-cpu:  %user   %nice %system %iowait  %steal   %idle
           0.13    0.00    2.14    0.82    0.00   96.92

Device:         rrqm/s   wrqm/s     r/s     w/s    rkB/s    wkB/s avgrq-sz avgqu-sz   await r_await w_await  svctm  %util
nvme0n1           0.00     0.00    0.00    0.00     0.00     0.00     0.00     0.00    0.00    0.00    0.00   0.00   0.00
sda               0.00     0.00    0.00    0.00     0.00     0.00     0.00     0.00    0.00    0.00    0.00   0.00   0.00
sdc               0.00     0.00 1409.00    0.00  5636.00     0.00     8.00     2.12    1.50    1.50    0.00   0.17  23.70
sdb               0.00     0.00 1417.00    0.00  5668.00     0.00     8.00     5.08    3.59    3.59    0.00   0.41  58.80
sdd               0.00     0.00 1479.00    0.00  5916.00     0.00     8.00     3.11    2.20    2.20    0.00   0.23  34.20
md0               0.00     0.00 4306.00    0.00 17224.00     0.00     8.00     0.00    0.00    0.00    0.00   0.00   0.00

avg-cpu:  %user   %nice %system %iowait  %steal   %idle
           0.16    0.00    2.64    0.82    0.00   96.39

Device:         rrqm/s   wrqm/s     r/s     w/s    rkB/s    wkB/s avgrq-sz avgqu-sz   await r_await w_await  svctm  %util
nvme0n1           0.00     0.00    0.00    0.00     0.00     0.00     0.00     0.00    0.00    0.00    0.00   0.00   0.00
sda               0.00     0.00    0.00    0.00     0.00     0.00     0.00     0.00    0.00    0.00    0.00   0.00   0.00
sdc               0.00     0.00 1556.00    0.00  6224.00     0.00     8.00     3.72    2.42    2.42    0.00   0.28  43.30
sdb               0.00     0.00 1655.00    0.00  6620.00     0.00     8.00     2.88    1.76    1.76    0.00   0.20  33.00
sdd               0.00     0.00 1608.00    0.00  6432.00     0.00     8.00     3.77    2.36    2.36    0.00   0.27  44.00
md0               0.00     0.00 4813.00    0.00 19252.00     0.00     8.00     0.00    0.00    0.00    0.00   0.00   0.00

avg-cpu:  %user   %nice %system %iowait  %steal   %idle
           0.16    0.00    2.60    0.84    0.00   96.40

Device:         rrqm/s   wrqm/s     r/s     w/s    rkB/s    wkB/s avgrq-sz avgqu-sz   await r_await w_await  svctm  %util
nvme0n1           0.00     0.00    0.00    0.00     0.00     0.00     0.00     0.00    0.00    0.00    0.00   0.00   0.00
sda               0.00     0.00    0.00    0.00     0.00     0.00     0.00     0.00    0.00    0.00    0.00   0.00   0.00
sdc               0.00     0.00 1411.00    0.00  5644.00     0.00     8.00     2.67    1.91    1.91    0.00   0.24  34.20
sdb               0.00     0.00 1376.00    0.00  5504.00     0.00     8.00     1.94    1.43    1.43    0.00   0.16  21.80
sdd               0.00     0.00 1420.00    0.00  5680.00     0.00     8.00     6.09    4.23    4.23    0.00   0.45  63.30
md0               0.00     0.00 4213.00    0.00 16852.00     0.00     8.00     0.00    0.00    0.00    0.00   0.00   0.00

avg-cpu:  %user   %nice %system %iowait  %steal   %idle
           0.13    0.00    2.23    0.85    0.00   96.79

Device:         rrqm/s   wrqm/s     r/s     w/s    rkB/s    wkB/s avgrq-sz avgqu-sz   await r_await w_await  svctm  %util
nvme0n1           0.00     0.00    0.00    0.00     0.00     0.00     0.00     0.00    0.00    0.00    0.00   0.00   0.00
sda               0.00     0.00    0.00    0.00     0.00     0.00     0.00     0.00    0.00    0.00    0.00   0.00   0.00
sdc               0.00     0.00 1438.00    0.00  5752.00     0.00     8.00     3.42    2.39    2.39    0.00   0.27  39.30
sdb               0.00     0.00 1458.00    0.00  5832.00     0.00     8.00     3.80    2.62    2.62    0.00   0.26  38.30
sdd               0.00     0.00 1515.00    0.00  6060.00     0.00     8.00     3.99    2.72    2.72    0.00   0.28  42.70
md0               0.00     0.00 4401.00    0.00 17604.00     0.00     8.00     0.00    0.00    0.00    0.00   0.00   0.00

avg-cpu:  %user   %nice %system %iowait  %steal   %idle
           0.13    0.00    1.89    0.63    0.00   97.35

Device:         rrqm/s   wrqm/s     r/s     w/s    rkB/s    wkB/s avgrq-sz avgqu-sz   await r_await w_await  svctm  %util
nvme0n1           0.00     0.00    0.00    0.00     0.00     0.00     0.00     0.00    0.00    0.00    0.00   0.00   0.00
sda               0.00     1.00    0.00    2.00     0.00    12.00    12.00     0.00    0.00    0.00    0.00   0.00   0.00
sdc               0.00     0.00 1407.00    0.00  5628.00     0.00     8.00     4.14    2.98    2.98    0.00   0.33  46.40
sdb               0.00     0.00 1393.00    0.00  5572.00     0.00     8.00     2.67    1.93    1.93    0.00   0.22  30.30
sdd               0.00     0.00 1428.00    0.00  5712.00     0.00     8.00     4.00    2.76    2.76    0.00   0.31  44.80
md0               0.00     0.00 4238.00    0.00 16952.00     0.00     8.00     0.00    0.00    0.00    0.00   0.00   0.00

avg-cpu:  %user   %nice %system %iowait  %steal   %idle
           0.09    0.00    2.02    0.82    0.00   97.07

Device:         rrqm/s   wrqm/s     r/s     w/s    rkB/s    wkB/s avgrq-sz avgqu-sz   await r_await w_await  svctm  %util
nvme0n1           0.00     0.00    0.00    0.00     0.00     0.00     0.00     0.00    0.00    0.00    0.00   0.00   0.00
sda               0.00     0.00    0.00    0.00     0.00     0.00     0.00     0.00    0.00    0.00    0.00   0.00   0.00
sdc               0.00     0.00 1400.00    0.00  5600.00     0.00     8.00     1.58    1.14    1.14    0.00   0.12  17.30
sdb               0.00     0.00 1354.00    0.00  5416.00     0.00     8.00     1.29    0.97    0.97    0.00   0.12  15.80
sdd               0.00     0.00 1491.00    0.00  5964.00     0.00     8.00     7.95    5.35    5.35    0.00   0.57  85.20
md0               0.00     0.00 4240.00    0.00 16960.00     0.00     8.00     0.00    0.00    0.00    0.00   0.00   0.00

avg-cpu:  %user   %nice %system %iowait  %steal   %idle
           0.13    0.00    2.08    0.72    0.00   97.07

Device:         rrqm/s   wrqm/s     r/s     w/s    rkB/s    wkB/s avgrq-sz avgqu-sz   await r_await w_await  svctm  %util
nvme0n1           0.00     0.00    0.00    0.00     0.00     0.00     0.00     0.00    0.00    0.00    0.00   0.00   0.00
sda               0.00     0.00    0.00    0.00     0.00     0.00     0.00     0.00    0.00    0.00    0.00   0.00   0.00
sdc               0.00     0.00 1300.00    0.00  5200.00     0.00     8.00     1.34    1.04    1.04    0.00   0.13  17.30
sdb               0.00     0.00 1235.00    0.00  4940.00     0.00     8.00     1.05    0.86    0.86    0.00   0.12  15.00
sdd               0.00     0.00 1317.00    0.00  5268.00     0.00     8.00     6.15    4.71    4.71    0.00   0.65  85.40
md0               0.00     0.00 3863.00    0.00 15452.00     0.00     8.00     0.00    0.00    0.00    0.00   0.00   0.00

avg-cpu:  %user   %nice %system %iowait  %steal   %idle
           0.16    0.00    2.30    0.75    0.00   96.79

Device:         rrqm/s   wrqm/s     r/s     w/s    rkB/s    wkB/s avgrq-sz avgqu-sz   await r_await w_await  svctm  %util
nvme0n1           0.00     0.00    0.00    0.00     0.00     0.00     0.00     0.00    0.00    0.00    0.00   0.00   0.00
sda               0.00     0.00    0.00    0.00     0.00     0.00     0.00     0.00    0.00    0.00    0.00   0.00   0.00
sdc               0.00     0.00 1192.00    0.00  4768.00     0.00     8.00     1.16    0.98    0.98    0.00   0.16  18.90
sdb               0.00     0.00 1223.00    0.00  4892.00     0.00     8.00     1.80    1.47    1.47    0.00   0.22  27.00
sdd               0.00     0.00 1328.00    0.00  5312.00     0.00     8.00     5.36    4.08    4.08    0.00   0.55  73.30
md0               0.00     0.00 3744.00    0.00 14976.00     0.00     8.00     0.00    0.00    0.00    0.00   0.00   0.00

avg-cpu:  %user   %nice %system %iowait  %steal   %idle
           0.16    0.00    2.08    0.63    0.00   97.13

Device:         rrqm/s   wrqm/s     r/s     w/s    rkB/s    wkB/s avgrq-sz avgqu-sz   await r_await w_await  svctm  %util
nvme0n1           0.00     0.00    0.00    0.00     0.00     0.00     0.00     0.00    0.00    0.00    0.00   0.00   0.00
sda               0.00     0.00    0.00    0.00     0.00     0.00     0.00     0.00    0.00    0.00    0.00   0.00   0.00
sdc               0.00     0.00 1357.00    0.00  5428.00     0.00     8.00     5.43    4.00    4.00    0.00   0.57  76.70
sdb               0.00     0.00 1383.00    0.00  5532.00     0.00     8.00     1.93    1.41    1.41    0.00   0.18  25.50
sdd               0.00     0.00 1325.00    0.00  5300.00     0.00     8.00     1.55    1.17    1.17    0.00   0.15  19.40
md0               0.00     0.00 4066.00    0.00 16264.00     0.00     8.00     0.00    0.00    0.00    0.00   0.00   0.00

