Linux 4.17.2 (bench2) 	08/04/2018 	_x86_64_	(32 CPU)

avg-cpu:  %user   %nice %system %iowait  %steal   %idle
           1.89    0.00    1.54    1.62    0.00   94.94

Device:         rrqm/s   wrqm/s     r/s     w/s    rkB/s    wkB/s avgrq-sz avgqu-sz   await r_await w_await  svctm  %util
nvme0n1         926.55     5.03 18678.85  514.29 104481.70 11598.70    12.10     1.33    0.05    0.03    0.67   0.02  39.10
sda               0.12     0.82   14.18    0.58   164.09     8.57    23.38     0.00    0.33    0.32    0.44   0.07   0.10
sdc              35.00     0.17  126.17    0.31  1877.67    96.53    31.22     0.14    1.14    0.21  381.84   0.89  11.32
sdb              32.99     0.18  128.14    0.33  1875.74    96.35    30.70     0.57    4.44    3.39  413.03   0.84  10.77
sdd              35.20     0.17  125.71    0.26  1873.74    96.03    31.27     0.88    7.02    5.17  909.23   0.90  11.34
md0               0.00     0.00  486.02    1.20  6972.82   348.22    30.05     0.00    0.00    0.00    0.00   0.00   0.00

avg-cpu:  %user   %nice %system %iowait  %steal   %idle
           0.01    0.00    0.07    3.01    0.00   96.91

Device:         rrqm/s   wrqm/s     r/s     w/s    rkB/s    wkB/s avgrq-sz avgqu-sz   await r_await w_await  svctm  %util
nvme0n1           0.00     0.00    0.00    0.00     0.00     0.00     0.00     0.00    0.00    0.00    0.00   0.00   0.00
sda               0.00     0.95    0.25    0.70     5.40     8.60    29.47     0.00    0.05    0.00    0.07   0.05   0.01
sdc               0.30     0.00  200.65    0.00  3117.60     0.00    31.08     0.36    1.79    1.79    0.00   1.69  33.84
sdb               0.55     0.00  195.95    0.00  3219.20     0.00    32.86     0.33    1.70    1.70    0.00   1.62  31.73
sdd               0.25     0.00  203.15    0.00  3383.00     0.00    33.31     0.37    1.82    1.82    0.00   1.75  35.46
md0               0.00     0.00  600.90    0.00 10830.80     0.00    36.05     0.00    0.00    0.00    0.00   0.00   0.00

