Linux 4.17.2 (bench2) 	08/04/2018 	_x86_64_	(32 CPU)

avg-cpu:  %user   %nice %system %iowait  %steal   %idle
           1.89    0.00    1.54    1.62    0.00   94.94

Device:         rrqm/s   wrqm/s     r/s     w/s    rkB/s    wkB/s avgrq-sz avgqu-sz   await r_await w_await  svctm  %util
nvme0n1         925.93     5.03 18666.44  513.94 104412.29 11590.99    12.10     1.33    0.05    0.03    0.67   0.02  39.08
sda               0.12     0.82   14.19    0.58   164.09     8.57    23.38     0.00    0.33    0.32    0.44   0.07   0.10
sdc              34.99     0.17  126.46    0.31  1882.44    96.46    31.22     0.15    1.14    0.22  381.84   0.89  11.34
sdb              32.97     0.18  128.43    0.33  1880.52    96.29    30.71     0.57    4.43    3.39  413.03   0.84  10.79
sdd              35.18     0.16  126.01    0.26  1878.53    95.97    31.28     0.89    7.01    5.16  909.23   0.90  11.37
md0               0.00     0.00  486.85    1.20  6990.92   347.99    30.07     0.00    0.00    0.00    0.00   0.00   0.00

avg-cpu:  %user   %nice %system %iowait  %steal   %idle
           0.02    0.00    0.16    0.70    0.00   99.12

Device:         rrqm/s   wrqm/s     r/s     w/s    rkB/s    wkB/s avgrq-sz avgqu-sz   await r_await w_await  svctm  %util
nvme0n1           0.00     0.00    0.00    0.00     0.00     0.00     0.00     0.00    0.00    0.00    0.00   0.00   0.00
sda               0.00     1.40    3.05    1.45    27.20    12.20    17.51     0.00    0.56    0.79    0.07   0.09   0.04
sdc               0.00     0.00 1461.60    0.00  5846.40     0.00     8.00     3.33    2.28    2.28    0.00   0.25  36.33
sdb               0.00     0.00 1473.15    0.00  5892.60     0.00     8.00     3.26    2.21    2.21    0.00   0.24  35.70
sdd               0.00     0.00 1529.95    0.00  6119.80     0.00     8.00     5.61    3.67    3.67    0.00   0.41  63.40
md0               0.00     0.00 4464.75    0.00 17859.00     0.00     8.00     0.00    0.00    0.00    0.00   0.00   0.00

