Linux 4.17.2 (bench2) 	08/04/2018 	_x86_64_	(32 CPU)

avg-cpu:  %user   %nice %system %iowait  %steal   %idle
           1.89    0.00    1.54    1.62    0.00   94.94

Device:         rrqm/s   wrqm/s     r/s     w/s    rkB/s    wkB/s avgrq-sz avgqu-sz   await r_await w_await  svctm  %util
nvme0n1         925.73     5.03 18662.31  513.83 104389.17 11588.43    12.10     1.33    0.05    0.03    0.67   0.02  39.07
sda               0.12     0.82   14.19    0.58   164.09     8.57    23.38     0.00    0.33    0.32    0.44   0.07   0.10
sdc              34.98     0.17  126.68    0.31  1885.54    96.44    31.22     0.15    1.15    0.22  381.84   0.89  11.35
sdb              32.97     0.18  128.64    0.33  1883.63    96.27    30.70     0.57    4.43    3.39  413.03   0.84  10.80
sdd              35.18     0.16  126.22    0.26  1881.64    95.95    31.27     0.89    7.00    5.16  909.23   0.90  11.38
md0               0.00     0.00  487.48    1.20  7002.16   347.91    30.08     0.00    0.00    0.00    0.00   0.00   0.00

avg-cpu:  %user   %nice %system %iowait  %steal   %idle
           0.03    0.00    0.28    0.53    0.00   99.16

Device:         rrqm/s   wrqm/s     r/s     w/s    rkB/s    wkB/s avgrq-sz avgqu-sz   await r_await w_await  svctm  %util
nvme0n1           0.00     0.00    0.00    0.00     0.00     0.00     0.00     0.00    0.00    0.00    0.00   0.00   0.00
sda               0.00     0.00   18.00    0.00    76.00     0.00     8.44     0.00    0.00    0.00    0.00   0.00   0.00
sdc               0.00     0.00 2713.00    0.00 10852.00     0.00     8.00     2.40    0.89    0.89    0.00   0.10  26.80
sdb               0.00     0.00 2682.00    0.00 10728.00     0.00     8.00     2.61    0.99    0.99    0.00   0.10  27.50
sdd               0.00     0.00 2682.00    0.00 10728.00     0.00     8.00     5.73    2.14    2.14    0.00   0.26  70.90
md0               0.00     0.00 8069.00    0.00 32276.00     0.00     8.00     0.00    0.00    0.00    0.00   0.00   0.00

avg-cpu:  %user   %nice %system %iowait  %steal   %idle
           0.03    0.00    0.28    0.47    0.00   99.22

Device:         rrqm/s   wrqm/s     r/s     w/s    rkB/s    wkB/s avgrq-sz avgqu-sz   await r_await w_await  svctm  %util
nvme0n1           0.00     0.00    0.00    0.00     0.00     0.00     0.00     0.00    0.00    0.00    0.00   0.00   0.00
sda               0.00     0.00    0.00    0.00     0.00     0.00     0.00     0.00    0.00    0.00    0.00   0.00   0.00
sdc               0.00     0.00 2680.00    0.00 10720.00     0.00     8.00     2.76    1.03    1.03    0.00   0.13  35.40
sdb               0.00     0.00 2812.00    0.00 11248.00     0.00     8.00     2.55    0.91    0.91    0.00   0.09  26.60
sdd               0.00     0.00 2768.00    0.00 11072.00     0.00     8.00     5.10    1.84    1.84    0.00   0.23  65.00
md0               0.00     0.00 8251.00    0.00 33004.00     0.00     8.00     0.00    0.00    0.00    0.00   0.00   0.00

