Linux 4.17.2 (bench2) 	08/04/2018 	_x86_64_	(32 CPU)

avg-cpu:  %user   %nice %system %iowait  %steal   %idle
           1.90    0.00    1.55    1.60    0.00   94.96

Device:         rrqm/s   wrqm/s     r/s     w/s    rkB/s    wkB/s avgrq-sz avgqu-sz   await r_await w_await  svctm  %util
nvme0n1         932.05     5.06 18789.85  517.34 105102.57 11667.62    12.10     1.34    0.05    0.03    0.67   0.02  39.33
sda               0.12     0.82   14.17    0.58   164.03     8.56    23.40     0.00    0.33    0.32    0.44   0.07   0.10
sdc              34.63     0.17  122.38    0.31  1840.62    97.10    31.59     0.11    0.86   12.36  381.84   0.90  11.09
sdb              32.61     0.19  124.36    0.33  1838.66    96.93    31.05     0.54    4.29    3.20  413.03   0.85  10.54
sdd              34.83     0.17  121.93    0.26  1836.67    96.60    31.64     0.85    6.95    5.03  909.23   0.91  11.10
md0               0.00     0.00  473.56    1.20  6840.70   350.29    30.29     0.00    0.00    0.00    0.00   0.00   0.00

avg-cpu:  %user   %nice %system %iowait  %steal   %idle
           0.01    0.00    0.28    1.98    0.00   97.72

Device:         rrqm/s   wrqm/s     r/s     w/s    rkB/s    wkB/s avgrq-sz avgqu-sz   await r_await w_await  svctm  %util
nvme0n1           0.00     0.00    0.00    0.00     0.00     0.00     0.00     0.00    0.00    0.00    0.00   0.00   0.00
sda               0.00     0.85    1.05    0.50     6.00     7.60    17.55     0.00    0.61    0.86    0.10   0.06   0.01
sdc               0.00     0.00 1117.25    0.00  4469.60     0.00     8.00     1.35    1.21    1.21    0.00   0.55  61.60
sdb               0.05     0.00 1128.05    0.00  4512.40     0.00     8.00     1.36    1.20    1.20    0.00   0.55  62.21
sdd               0.00     0.00 1115.00    0.00  4460.00     0.00     8.00     1.30    1.17    1.17    0.00   0.55  61.27
md0               0.00     0.00 3360.70    0.00 13442.80     0.00     8.00     0.00    0.00    0.00    0.00   0.00   0.00

