Linux 4.17.2 (bench2) 	08/04/2018 	_x86_64_	(32 CPU)

avg-cpu:  %user   %nice %system %iowait  %steal   %idle
           1.90    0.00    1.54    1.61    0.00   94.95

Device:         rrqm/s   wrqm/s     r/s     w/s    rkB/s    wkB/s avgrq-sz avgqu-sz   await r_await w_await  svctm  %util
nvme0n1         929.12     5.05 18730.68  515.71 104771.62 11630.88    12.10     1.33    0.05    0.03    0.67   0.02  39.21
sda               0.12     0.82   14.18    0.58   164.05     8.56    23.39     0.00    0.33    0.32    0.44   0.07   0.10
sdc              34.68     0.17  124.27    0.31  1863.61    96.80    31.47     0.13    1.00    0.06  381.84   0.90  11.22
sdb              32.66     0.19  126.25    0.33  1861.66    96.62    30.94     0.55    4.36    3.30  413.03   0.84  10.67
sdd              34.88     0.17  123.81    0.26  1859.67    96.30    31.53     0.87    6.98    5.10  909.23   0.91  11.23
md0               0.00     0.00  479.37    1.20  6925.62   349.19    30.28     0.00    0.00    0.00    0.00   0.00   0.00

avg-cpu:  %user   %nice %system %iowait  %steal   %idle
           0.01    0.00    0.06   10.02    0.00   89.91

Device:         rrqm/s   wrqm/s     r/s     w/s    rkB/s    wkB/s avgrq-sz avgqu-sz   await r_await w_await  svctm  %util
nvme0n1           0.00     0.00    0.00    0.00     0.00     0.00     0.00     0.00    0.00    0.00    0.00   0.00   0.00
sda               0.00     1.25    0.20    0.60     5.20     8.40    34.00     0.00    0.19    0.25    0.17   0.19   0.01
sdc               4.45     0.00  276.00    0.00  1121.20     0.00     8.12    96.61  347.26  347.26    0.00   3.45  95.26
sdb               5.45     0.00  269.70    0.00  1099.40     0.00     8.15    91.82  337.30  337.30    0.00   3.43  92.38
sdd               3.85     0.00  268.55    0.00  1089.40     0.00     8.11    96.66  356.77  356.77    0.00   3.55  95.30
md0               0.00     0.00  849.75    0.00  3399.00     0.00     8.00     0.00    0.00    0.00    0.00   0.00   0.00

