Linux 4.17.2 (bench2) 	08/04/2018 	_x86_64_	(32 CPU)

avg-cpu:  %user   %nice %system %iowait  %steal   %idle
           1.89    0.00    1.53    1.64    0.00   94.94

Device:         rrqm/s   wrqm/s     r/s     w/s    rkB/s    wkB/s avgrq-sz avgqu-sz   await r_await w_await  svctm  %util
nvme0n1         920.66     5.00 18560.16  511.02 103817.80 11525.00    12.10     1.32    0.05    0.03    0.67   0.02  38.85
sda               0.12     0.82   14.20    0.59   164.15     8.57    23.36     0.00    0.33    0.32    0.43   0.07   0.10
sdc              35.29     0.17  129.98    0.31  1922.67    95.91    30.99     0.18    1.39    0.50  381.84   0.89  11.56
sdb              33.29     0.18  131.94    0.33  1920.78    95.74    30.49     0.60    4.57    3.56  413.03   0.83  11.01
sdd              35.48     0.16  129.53    0.26  1918.79    95.42    31.04     0.92    7.08    5.29  909.23   0.89  11.60
md0               0.00     0.00  498.31    1.19  7137.46   346.01    29.96     0.00    0.00    0.00    0.00   0.00   0.00

avg-cpu:  %user   %nice %system %iowait  %steal   %idle
           0.03    0.00    0.28    8.92    0.00   90.77

Device:         rrqm/s   wrqm/s     r/s     w/s    rkB/s    wkB/s avgrq-sz avgqu-sz   await r_await w_await  svctm  %util
nvme0n1           0.00     0.00    0.00    0.00     0.00     0.00     0.00     0.00    0.00    0.00    0.00   0.00   0.00
sda               0.00     0.00    4.00    0.00   104.00     0.00    52.00     0.00    0.50    0.50    0.00   0.50   0.20
sdc               6.00     0.00  350.00    0.00 16604.00     0.00    94.88     3.31    9.26    9.26    0.00   1.88  65.70
sdb               8.00     0.00  380.00    0.00 16532.00     0.00    87.01     3.58    9.43    9.43    0.00   2.04  77.70
sdd              11.00     0.00  244.00    0.00 15492.00     0.00   126.98     2.69   11.02   11.02    0.00   2.59  63.10
md0               0.00     0.00 1052.00    0.00 59888.00     0.00   113.86     0.00    0.00    0.00    0.00   0.00   0.00

avg-cpu:  %user   %nice %system %iowait  %steal   %idle
           0.03    0.00    0.16   15.27    0.00   84.54

Device:         rrqm/s   wrqm/s     r/s     w/s    rkB/s    wkB/s avgrq-sz avgqu-sz   await r_await w_await  svctm  %util
nvme0n1           0.00     0.00    0.00    0.00     0.00     0.00     0.00     0.00    0.00    0.00    0.00   0.00   0.00
sda               0.00     0.00    0.00    0.00     0.00     0.00     0.00     0.00    0.00    0.00    0.00   0.00   0.00
sdc              18.00     0.00  354.00    0.00 22428.00     0.00   126.71     4.11   11.82   11.82    0.00   2.04  72.20
sdb              13.00     0.00  352.00    0.00 20148.00     0.00   114.48     3.48    9.85    9.85    0.00   2.07  72.90
sdd              20.00     0.00  386.00    0.00 17812.00     0.00    92.29     4.00    9.71    9.71    0.00   1.97  75.90
md0               0.00     0.00 1209.00    0.00 78696.00     0.00   130.18     0.00    0.00    0.00    0.00   0.00   0.00

avg-cpu:  %user   %nice %system %iowait  %steal   %idle
           0.00    0.00    0.16   15.61    0.00   84.23

Device:         rrqm/s   wrqm/s     r/s     w/s    rkB/s    wkB/s avgrq-sz avgqu-sz   await r_await w_await  svctm  %util
nvme0n1           0.00     0.00    0.00    0.00     0.00     0.00     0.00     0.00    0.00    0.00    0.00   0.00   0.00
sda               0.00     0.00    0.00    0.00     0.00     0.00     0.00     0.00    0.00    0.00    0.00   0.00   0.00
sdc              18.00     0.00  401.00    0.00 23356.00     0.00   116.49     4.23   10.52   10.52    0.00   1.87  74.90
sdb              29.00     0.00  325.00    0.00 24068.00     0.00   148.11     5.17   15.95   15.95    0.00   2.29  74.30
sdd              18.00     0.00  398.00    0.00 25528.00     0.00   128.28     4.31   11.27   11.27    0.00   2.02  80.50
md0               0.00     0.00 1195.00    0.00 94724.00     0.00   158.53     0.00    0.00    0.00    0.00   0.00   0.00

avg-cpu:  %user   %nice %system %iowait  %steal   %idle
           0.00    0.00    0.19   17.56    0.00   82.25

Device:         rrqm/s   wrqm/s     r/s     w/s    rkB/s    wkB/s avgrq-sz avgqu-sz   await r_await w_await  svctm  %util
nvme0n1           0.00     0.00    0.00    0.00     0.00     0.00     0.00     0.00    0.00    0.00    0.00   0.00   0.00
sda               0.00     0.00    0.00    0.00     0.00     0.00     0.00     0.00    0.00    0.00    0.00   0.00   0.00
sdc              22.00     0.00  476.00    0.00 24992.00     0.00   105.01     5.17   10.79   10.79    0.00   1.44  68.40
sdb              25.00     0.00  403.00    0.00 27536.00     0.00   136.66     4.69   11.62   11.62    0.00   1.94  78.30
sdd              25.00     0.00  472.00    0.00 25444.00     0.00   107.81     5.59   11.80   11.80    0.00   1.59  75.00
md0               0.00     0.00 1420.00    0.00 102088.00     0.00   143.79     0.00    0.00    0.00    0.00   0.00   0.00

avg-cpu:  %user   %nice %system %iowait  %steal   %idle
           0.03    0.00    0.19   16.23    0.00   83.55

Device:         rrqm/s   wrqm/s     r/s     w/s    rkB/s    wkB/s avgrq-sz avgqu-sz   await r_await w_await  svctm  %util
nvme0n1           0.00     0.00    0.00    0.00     0.00     0.00     0.00     0.00    0.00    0.00    0.00   0.00   0.00
sda               0.00     0.00    0.00    0.00     0.00     0.00     0.00     0.00    0.00    0.00    0.00   0.00   0.00
sdc              23.00     0.00  422.00    0.00 24868.00     0.00   117.86     5.21   12.00   12.00    0.00   1.53  64.50
sdb              18.00     0.00  424.00    0.00 22552.00     0.00   106.38     4.79   11.03   11.03    0.00   1.47  62.30
sdd              22.00     0.00  409.00    0.00 25904.00     0.00   126.67     5.33   13.03   13.03    0.00   2.13  87.10
md0               0.00     0.00 1331.00    0.00 98888.00     0.00   148.59     0.00    0.00    0.00    0.00   0.00   0.00

avg-cpu:  %user   %nice %system %iowait  %steal   %idle
           0.03    0.00    0.22   15.86    0.00   83.89

Device:         rrqm/s   wrqm/s     r/s     w/s    rkB/s    wkB/s avgrq-sz avgqu-sz   await r_await w_await  svctm  %util
nvme0n1           0.00     0.00    0.00    0.00     0.00     0.00     0.00     0.00    0.00    0.00    0.00   0.00   0.00
sda               0.00     7.00    0.00    2.00     0.00    36.00    36.00     0.00    0.00    0.00    0.00   0.00   0.00
sdc              17.00     0.00  476.00    0.00 27276.00     0.00   114.61     3.99    8.71    8.71    0.00   1.29  61.50
sdb              21.00     0.00  541.00    0.00 26756.00     0.00    98.91     5.67   10.60   10.60    0.00   1.47  79.40
sdd              19.00     0.00  484.00    0.00 25632.00     0.00   105.92     5.65   11.71   11.71    0.00   1.73  83.50
md0               0.00     0.00 1543.00    0.00 102172.00     0.00   132.43     0.00    0.00    0.00    0.00   0.00   0.00

avg-cpu:  %user   %nice %system %iowait  %steal   %idle
           0.03    0.00    0.19   15.64    0.00   84.14

Device:         rrqm/s   wrqm/s     r/s     w/s    rkB/s    wkB/s avgrq-sz avgqu-sz   await r_await w_await  svctm  %util
nvme0n1           0.00     0.00    0.00    0.00     0.00     0.00     0.00     0.00    0.00    0.00    0.00   0.00   0.00
sda               0.00     5.00    0.00    5.00     0.00    84.00    33.60     0.00    0.00    0.00    0.00   0.00   0.00
sdc              26.00     0.00  563.00    0.00 30036.00     0.00   106.70     7.40   13.04   13.04    0.00   1.61  90.70
sdb              29.00     0.00  555.00    0.00 30572.00     0.00   110.17     5.56   10.11   10.11    0.00   1.12  62.00
sdd              21.00     0.00  367.00    0.00 29068.00     0.00   158.41     3.07    7.92    7.92    0.00   1.62  59.60
md0               0.00     0.00 1567.00    0.00 120300.00     0.00   153.54     0.00    0.00    0.00    0.00   0.00   0.00

avg-cpu:  %user   %nice %system %iowait  %steal   %idle
           0.03    0.00    0.38   13.03    0.00   86.56

Device:         rrqm/s   wrqm/s     r/s     w/s    rkB/s    wkB/s avgrq-sz avgqu-sz   await r_await w_await  svctm  %util
nvme0n1           0.00     0.00    0.00    0.00     0.00     0.00     0.00     0.00    0.00    0.00    0.00   0.00   0.00
sda               0.00     0.00    0.00    0.00     0.00     0.00     0.00     0.00    0.00    0.00    0.00   0.00   0.00
sdc              35.00     0.00  421.00    0.00 32104.00     0.00   152.51     6.02   14.48   14.48    0.00   1.97  83.10
sdb              28.00     0.00  487.00    0.00 31852.00     0.00   130.81     4.87    9.91    9.91    0.00   1.48  71.90
sdd              32.00     0.00  450.00    0.00 29776.00     0.00   132.34     2.19    5.40    5.40    0.00   1.25  56.40
md0               0.00     0.00 1451.00    0.00 122248.00     0.00   168.50     0.00    0.00    0.00    0.00   0.00   0.00

avg-cpu:  %user   %nice %system %iowait  %steal   %idle
           0.03    0.00    0.25   15.48    0.00   84.24

Device:         rrqm/s   wrqm/s     r/s     w/s    rkB/s    wkB/s avgrq-sz avgqu-sz   await r_await w_await  svctm  %util
nvme0n1           0.00     0.00    0.00    0.00     0.00     0.00     0.00     0.00    0.00    0.00    0.00   0.00   0.00
sda               0.00     0.00    0.00    0.00     0.00     0.00     0.00     0.00    0.00    0.00    0.00   0.00   0.00
sdc              25.00     0.00  444.00    0.00 28564.00     0.00   128.67     3.68    8.02    8.02    0.00   1.62  71.90
sdb              22.00     0.00  461.00    0.00 26496.00     0.00   114.95     4.84   10.50   10.50    0.00   1.90  87.40
sdd              25.00     0.00  326.00    0.00 25356.00     0.00   155.56     2.77    8.52    8.52    0.00   1.72  56.10
md0               0.00     0.00 1304.00    0.00 108636.00     0.00   166.62     0.00    0.00    0.00    0.00   0.00   0.00

avg-cpu:  %user   %nice %system %iowait  %steal   %idle
           0.03    0.00    0.22   14.42    0.00   85.33

Device:         rrqm/s   wrqm/s     r/s     w/s    rkB/s    wkB/s avgrq-sz avgqu-sz   await r_await w_await  svctm  %util
nvme0n1           0.00     0.00    0.00    0.00     0.00     0.00     0.00     0.00    0.00    0.00    0.00   0.00   0.00
sda               0.00     0.00    0.00    0.00     0.00     0.00     0.00     0.00    0.00    0.00    0.00   0.00   0.00
sdc              28.00     0.00  398.00    0.00 26704.00     0.00   134.19     3.75    9.44    9.44    0.00   1.90  75.70
sdb              29.00     0.00  448.00    0.00 27280.00     0.00   121.79     2.72    6.15    6.15    0.00   1.31  58.60
sdd              29.00     0.00  518.00    0.00 26816.00     0.00   103.54     4.83    9.32    9.32    0.00   1.52  78.90
md0               0.00     0.00 1449.00    0.00 102324.00     0.00   141.23     0.00    0.00    0.00    0.00   0.00   0.00

avg-cpu:  %user   %nice %system %iowait  %steal   %idle
           0.00    0.00    0.22   15.96    0.00   83.82

Device:         rrqm/s   wrqm/s     r/s     w/s    rkB/s    wkB/s avgrq-sz avgqu-sz   await r_await w_await  svctm  %util
nvme0n1           0.00     0.00    0.00    0.00     0.00     0.00     0.00     0.00    0.00    0.00    0.00   0.00   0.00
sda               0.00     9.00    0.00    2.00     0.00    44.00    44.00     0.00    0.00    0.00    0.00   0.00   0.00
sdc              23.00     0.00  486.00    0.00 25148.00     0.00   103.49     7.04   14.68   14.68    0.00   1.71  82.90
sdb              29.00     0.00  529.00    0.00 26716.00     0.00   101.01     3.56    6.69    6.69    0.00   0.90  47.40
sdd              24.00     0.00  500.00    0.00 27124.00     0.00   108.50     5.11    9.51    9.51    0.00   1.53  76.60
md0               0.00     0.00 1605.00    0.00 108340.00     0.00   135.00     0.00    0.00    0.00    0.00   0.00   0.00

avg-cpu:  %user   %nice %system %iowait  %steal   %idle
           0.00    0.00    0.25   17.62    0.00   82.13

Device:         rrqm/s   wrqm/s     r/s     w/s    rkB/s    wkB/s avgrq-sz avgqu-sz   await r_await w_await  svctm  %util
nvme0n1           0.00     0.00    0.00    0.00     0.00     0.00     0.00     0.00    0.00    0.00    0.00   0.00   0.00
sda               0.00     0.00    0.00    0.00     0.00     0.00     0.00     0.00    0.00    0.00    0.00   0.00   0.00
sdc              22.00     0.00  438.00    0.00 27964.00     0.00   127.69     3.09    7.05    7.05    0.00   1.54  67.30
sdb              25.00     0.00  484.00    0.00 27680.00     0.00   114.38     5.62   11.61   11.61    0.00   1.86  90.20
sdd              21.00     0.00  532.00    0.00 27880.00     0.00   104.81     5.66   10.95   10.95    0.00   1.52  80.80
md0               0.00     0.00 1519.00    0.00 109816.00     0.00   144.59     0.00    0.00    0.00    0.00   0.00   0.00

avg-cpu:  %user   %nice %system %iowait  %steal   %idle
           0.03    0.00    0.19   13.39    0.00   86.39

Device:         rrqm/s   wrqm/s     r/s     w/s    rkB/s    wkB/s avgrq-sz avgqu-sz   await r_await w_await  svctm  %util
nvme0n1           0.00     0.00    0.00    0.00     0.00     0.00     0.00     0.00    0.00    0.00    0.00   0.00   0.00
sda               0.00     0.00    0.00    0.00     0.00     0.00     0.00     0.00    0.00    0.00    0.00   0.00   0.00
sdc              28.00     0.00  502.00    0.00 30132.00     0.00   120.05     4.66    9.23    9.23    0.00   1.25  62.50
sdb              26.00     0.00  430.00    0.00 27124.00     0.00   126.16     3.19    7.38    7.38    0.00   1.50  64.50
sdd              27.00     0.00  502.00    0.00 29864.00     0.00   118.98     6.61   13.51   13.51    0.00   1.67  83.70
md0               0.00     0.00 1517.00    0.00 117400.00     0.00   154.78     0.00    0.00    0.00    0.00   0.00   0.00

avg-cpu:  %user   %nice %system %iowait  %steal   %idle
           0.00    0.00    0.25   15.61    0.00   84.14

Device:         rrqm/s   wrqm/s     r/s     w/s    rkB/s    wkB/s avgrq-sz avgqu-sz   await r_await w_await  svctm  %util
nvme0n1           0.00     0.00    0.00    0.00     0.00     0.00     0.00     0.00    0.00    0.00    0.00   0.00   0.00
sda               0.00     0.00    0.00    0.00     0.00     0.00     0.00     0.00    0.00    0.00    0.00   0.00   0.00
sdc              30.00     0.00  413.00    0.00 28796.00     0.00   139.45     4.72   11.07   11.07    0.00   2.06  85.00
sdb              36.00     0.00  303.00    0.00 28448.00     0.00   187.78     2.83    9.38    9.38    0.00   2.37  71.80
sdd              30.00     0.00  512.00    0.00 29540.00     0.00   115.39     4.55    8.93    8.93    0.00   1.56  79.70
md0               0.00     0.00 1369.00    0.00 121948.00     0.00   178.16     0.00    0.00    0.00    0.00   0.00   0.00

avg-cpu:  %user   %nice %system %iowait  %steal   %idle
           0.03    0.00    0.31   13.82    0.00   85.84

Device:         rrqm/s   wrqm/s     r/s     w/s    rkB/s    wkB/s avgrq-sz avgqu-sz   await r_await w_await  svctm  %util
nvme0n1           0.00     0.00    0.00    0.00     0.00     0.00     0.00     0.00    0.00    0.00    0.00   0.00   0.00
sda               0.00     0.00    0.00    0.00     0.00     0.00     0.00     0.00    0.00    0.00    0.00   0.00   0.00
sdc              29.00     0.00  420.00    0.00 27528.00     0.00   131.09     3.67    9.14    9.14    0.00   1.36  57.20
sdb              32.00     0.00  447.00    0.00 28464.00     0.00   127.36     4.25    9.47    9.47    0.00   1.70  76.00
sdd              25.00     0.00  528.00    0.00 29116.00     0.00   110.29     6.10   11.52   11.52    0.00   1.68  88.50
md0               0.00     0.00 1444.00    0.00 119560.00     0.00   165.60     0.00    0.00    0.00    0.00   0.00   0.00

avg-cpu:  %user   %nice %system %iowait  %steal   %idle
           0.03    0.00    0.31   16.03    0.00   83.62

Device:         rrqm/s   wrqm/s     r/s     w/s    rkB/s    wkB/s avgrq-sz avgqu-sz   await r_await w_await  svctm  %util
nvme0n1           0.00     0.00    0.00    0.00     0.00     0.00     0.00     0.00    0.00    0.00    0.00   0.00   0.00
sda               0.00     1.00    0.00    2.00     0.00    12.00    12.00     0.00    0.50    0.00    0.50   0.00   0.00
sdc              24.00     0.00  414.00    0.00 26868.00     0.00   129.80     4.00    9.41    9.41    0.00   2.04  84.40
sdb              19.00     0.00  463.00    0.00 27304.00     0.00   117.94     4.53    9.86    9.86    0.00   1.74  80.50
sdd              18.00     0.00  427.00    0.00 28116.00     0.00   131.69     4.04    9.44    9.44    0.00   1.83  78.00
md0               0.00     0.00 1358.00    0.00 98184.00     0.00   144.60     0.00    0.00    0.00    0.00   0.00   0.00

avg-cpu:  %user   %nice %system %iowait  %steal   %idle
           0.00    0.00    0.38    8.10    0.00   91.52

Device:         rrqm/s   wrqm/s     r/s     w/s    rkB/s    wkB/s avgrq-sz avgqu-sz   await r_await w_await  svctm  %util
nvme0n1           0.00     0.00    0.00    0.00     0.00     0.00     0.00     0.00    0.00    0.00    0.00   0.00   0.00
sda               0.00     0.00    0.00    0.00     0.00     0.00     0.00     0.00    0.00    0.00    0.00   0.00   0.00
sdc               5.00     0.00  239.00    0.00 14012.00     0.00   117.26     2.86   12.24   12.24    0.00   2.73  65.30
sdb               5.00     0.00  323.00    0.00 15312.00     0.00    94.81     3.44   10.49   10.49    0.00   2.26  73.10
sdd               4.00     0.00  406.00    0.00 16124.00     0.00    79.43     4.44   10.95   10.95    0.00   1.69  68.60
md0               0.00     0.00  985.00    0.00 58880.00     0.00   119.55     0.00    0.00    0.00    0.00   0.00   0.00

avg-cpu:  %user   %nice %system %iowait  %steal   %idle
           0.03    0.00    0.16    9.14    0.00   90.67

Device:         rrqm/s   wrqm/s     r/s     w/s    rkB/s    wkB/s avgrq-sz avgqu-sz   await r_await w_await  svctm  %util
nvme0n1           0.00     0.00    0.00    0.00     0.00     0.00     0.00     0.00    0.00    0.00    0.00   0.00   0.00
sda               0.00     0.00    0.00    0.00     0.00     0.00     0.00     0.00    0.00    0.00    0.00   0.00   0.00
sdc               2.00     0.00  333.00    0.00 16164.00     0.00    97.08     2.85    8.57    8.57    0.00   1.72  57.40
sdb               4.00     0.00  312.00    0.00 15528.00     0.00    99.54     3.16   10.29   10.29    0.00   2.39  74.50
sdd               4.00     0.00  289.00    0.00 14848.00     0.00   102.75     3.71   12.79   12.79    0.00   2.26  65.30
md0               0.00     0.00  952.00    0.00 57044.00     0.00   119.84     0.00    0.00    0.00    0.00   0.00   0.00

avg-cpu:  %user   %nice %system %iowait  %steal   %idle
           0.03    0.00    0.28   10.08    0.00   89.61

Device:         rrqm/s   wrqm/s     r/s     w/s    rkB/s    wkB/s avgrq-sz avgqu-sz   await r_await w_await  svctm  %util
nvme0n1           0.00     0.00    0.00    0.00     0.00     0.00     0.00     0.00    0.00    0.00    0.00   0.00   0.00
sda               0.00     0.00    0.00    0.00     0.00     0.00     0.00     0.00    0.00    0.00    0.00   0.00   0.00
sdc              14.00     0.00  359.00    0.00 20056.00     0.00   111.73     3.57   10.04   10.04    0.00   1.86  66.60
sdb               9.00     0.00  354.00    0.00 19456.00     0.00   109.92     3.72   10.51   10.51    0.00   2.05  72.40
sdd              13.00     0.00  385.00    0.00 21732.00     0.00   112.89     4.28   11.23   11.23    0.00   2.09  80.40
md0               0.00     0.00 1118.00    0.00 76228.00     0.00   136.36     0.00    0.00    0.00    0.00   0.00   0.00

avg-cpu:  %user   %nice %system %iowait  %steal   %idle
           0.03    0.00    0.22   10.64    0.00   89.11

Device:         rrqm/s   wrqm/s     r/s     w/s    rkB/s    wkB/s avgrq-sz avgqu-sz   await r_await w_await  svctm  %util
nvme0n1           0.00     0.00    0.00    0.00     0.00     0.00     0.00     0.00    0.00    0.00    0.00   0.00   0.00
sda               0.00     1.00    0.00    2.00     0.00    12.00    12.00     0.00    0.00    0.00    0.00   0.00   0.00
sdc               9.00     0.00  292.00    0.00 15084.00     0.00   103.32     2.87    9.85    9.85    0.00   2.42  70.60
sdb               3.00     0.00  327.00    0.00 15984.00     0.00    97.76     2.85    8.72    8.72    0.00   1.88  61.40
sdd              12.00     0.00  348.00    0.00 20844.00     0.00   119.79     3.01    8.60    8.60    0.00   2.11  73.30
md0               0.00     0.00  992.00    0.00 64212.00     0.00   129.46     0.00    0.00    0.00    0.00   0.00   0.00

