Linux 4.17.2 (bench2) 	08/04/2018 	_x86_64_	(32 CPU)

avg-cpu:  %user   %nice %system %iowait  %steal   %idle
           1.89    0.00    1.54    1.62    0.00   94.95

Device:         rrqm/s   wrqm/s     r/s     w/s    rkB/s    wkB/s avgrq-sz avgqu-sz   await r_await w_await  svctm  %util
nvme0n1         926.12     5.03 18670.16  514.05 104433.10 11593.30    12.10     1.33    0.05    0.03    0.67   0.02  39.08
sda               0.12     0.82   14.18    0.58   164.09     8.57    23.38     0.00    0.33    0.32    0.44   0.07   0.10
sdc              34.99     0.17  126.43    0.31  1881.90    96.48    31.22     0.14    1.14    0.22  381.84   0.89  11.33
sdb              32.98     0.18  128.40    0.33  1879.98    96.31    30.70     0.57    4.43    3.39  413.03   0.84  10.78
sdd              35.19     0.16  125.98    0.26  1877.99    95.99    31.27     0.88    7.01    5.16  909.23   0.90  11.36
md0               0.00     0.00  486.78    1.20  6988.97   348.06    30.07     0.00    0.00    0.00    0.00   0.00   0.00

avg-cpu:  %user   %nice %system %iowait  %steal   %idle
           0.00    0.00    0.03    0.06    0.00   99.91

Device:         rrqm/s   wrqm/s     r/s     w/s    rkB/s    wkB/s avgrq-sz avgqu-sz   await r_await w_await  svctm  %util
nvme0n1           0.00     0.00    0.00    0.00     0.00     0.00     0.00     0.00    0.00    0.00    0.00   0.00   0.00
sda               0.00     0.00    1.00    0.00     8.00     0.00    16.00     0.00    0.00    0.00    0.00   0.00   0.00
sdc               0.00     0.00  196.00    0.00   784.00     0.00     8.00     4.12   21.10   21.10    0.00   3.80  74.40
sdb               0.00     0.00  227.00    0.00   908.00     0.00     8.00     5.24   23.19   23.19    0.00   3.74  85.00
sdd               0.00     0.00  210.00    0.00   840.00     0.00     8.00     4.44   20.72   20.72    0.00   3.72  78.10
md0               0.00     0.00  606.00    0.00  2424.00     0.00     8.00     0.00    0.00    0.00    0.00   0.00   0.00

avg-cpu:  %user   %nice %system %iowait  %steal   %idle
           0.00    0.00    0.09    0.00    0.00   99.94

Device:         rrqm/s   wrqm/s     r/s     w/s    rkB/s    wkB/s avgrq-sz avgqu-sz   await r_await w_await  svctm  %util
nvme0n1           0.00     0.00    0.00    0.00     0.00     0.00     0.00     0.00    0.00    0.00    0.00   0.00   0.00
sda               0.00     0.00    0.00    0.00     0.00     0.00     0.00     0.00    0.00    0.00    0.00   0.00   0.00
sdc               0.00     0.00  198.00    0.00   792.00     0.00     8.00     4.13   20.68   20.68    0.00   3.54  70.10
sdb               0.00     0.00  191.00    0.00   764.00     0.00     8.00     3.28   16.68   16.68    0.00   3.21  61.40
sdd               0.00     0.00  221.00    0.00   884.00     0.00     8.00     5.79   26.33   26.33    0.00   4.01  88.60
md0               0.00     0.00  633.00    0.00  2532.00     0.00     8.00     0.00    0.00    0.00    0.00   0.00   0.00

