Linux 4.17.2 (bench2) 	08/04/2018 	_x86_64_	(32 CPU)

avg-cpu:  %user   %nice %system %iowait  %steal   %idle
           1.90    0.00    1.54    1.61    0.00   94.95

Device:         rrqm/s   wrqm/s     r/s     w/s    rkB/s    wkB/s avgrq-sz avgqu-sz   await r_await w_await  svctm  %util
nvme0n1         930.60     5.05 18760.54  516.54 104938.63 11649.42    12.10     1.34    0.05    0.03    0.67   0.02  39.27
sda               0.12     0.82   14.17    0.58   164.04     8.56    23.40     0.00    0.33    0.32    0.44   0.07   0.10
sdc              34.67     0.17  123.37    0.31  1849.10    96.95    31.47     0.11    0.90   12.29  381.84   0.90  11.15
sdb              32.65     0.19  125.35    0.33  1847.15    96.78    30.94     0.54    4.30    3.22  413.03   0.84  10.60
sdd              34.86     0.17  122.91    0.26  1845.15    96.45    31.53     0.85    6.93    5.03  909.23   0.91  11.15
md0               0.00     0.00  476.62    1.20  6870.68   349.74    30.22     0.00    0.00    0.00    0.00   0.00   0.00

avg-cpu:  %user   %nice %system %iowait  %steal   %idle
           0.01    0.00    0.03    0.05    0.00   99.91

Device:         rrqm/s   wrqm/s     r/s     w/s    rkB/s    wkB/s avgrq-sz avgqu-sz   await r_await w_await  svctm  %util
nvme0n1           0.00     0.00    0.00    0.00     0.00     0.00     0.00     0.00    0.00    0.00    0.00   0.00   0.00
sda               0.00     1.35    0.20    1.05     5.20    10.40    24.96     0.00    0.04    0.25    0.00   0.04   0.01
sdc               0.00     0.00  303.00    0.00  1212.00     0.00     8.00     3.82   12.61   12.61    0.00   2.41  73.12
sdb               0.00     0.00  291.35    0.00  1165.40     0.00     8.00     3.57   12.25   12.25    0.00   2.39  69.71
sdd               0.00     0.00  297.60    0.00  1190.40     0.00     8.00     4.01   13.45   13.45    0.00   2.58  76.84
md0               0.00     0.00  892.15    0.00  3568.60     0.00     8.00     0.00    0.00    0.00    0.00   0.00   0.00

