Linux 4.17.2 (bench2) 	08/04/2018 	_x86_64_	(32 CPU)

avg-cpu:  %user   %nice %system %iowait  %steal   %idle
           1.89    0.00    1.54    1.62    0.00   94.94

Device:         rrqm/s   wrqm/s     r/s     w/s    rkB/s    wkB/s avgrq-sz avgqu-sz   await r_await w_await  svctm  %util
nvme0n1         926.64     5.03 18680.78  514.34 104492.49 11599.90    12.10     1.33    0.05    0.03    0.67   0.02  39.11
sda               0.12     0.82   14.18    0.58   164.09     8.57    23.38     0.00    0.33    0.32    0.44   0.07   0.10
sdc              35.01     0.17  126.16    0.31  1877.75    96.54    31.22     0.14    1.14    0.21  381.84   0.89  11.31
sdb              32.99     0.18  128.13    0.33  1875.83    96.36    30.71     0.57    4.44    3.39  413.03   0.84  10.76
sdd              35.20     0.17  125.71    0.26  1873.83    96.04    31.28     0.88    7.02    5.17  909.23   0.90  11.33
md0               0.00     0.00  486.02    1.20  6973.20   348.25    30.05     0.00    0.00    0.00    0.00   0.00   0.00

avg-cpu:  %user   %nice %system %iowait  %steal   %idle
           0.00    0.00    0.09    1.78    0.00   98.12

Device:         rrqm/s   wrqm/s     r/s     w/s    rkB/s    wkB/s avgrq-sz avgqu-sz   await r_await w_await  svctm  %util
nvme0n1           0.00     0.00    0.00    0.00     0.00     0.00     0.00     0.00    0.00    0.00    0.00   0.00   0.00
sda               0.00     0.00    4.00    0.00   104.00     0.00    52.00     0.00    0.25    0.25    0.00   0.25   0.10
sdc               0.00     0.00   69.00    0.00   276.00     0.00     8.00     0.99   14.42   14.42    0.00   7.39  51.00
sdb               0.00     0.00   96.00    0.00   384.00     0.00     8.00     1.73   17.71   17.71    0.00   7.51  72.10
sdd               0.00     0.00   73.00    0.00   292.00     0.00     8.00     1.14   15.67   15.67    0.00   7.78  56.80
md0               0.00     0.00  240.00    0.00   960.00     0.00     8.00     0.00    0.00    0.00    0.00   0.00   0.00

avg-cpu:  %user   %nice %system %iowait  %steal   %idle
           0.03    0.00    0.03    1.78    0.00   98.16

Device:         rrqm/s   wrqm/s     r/s     w/s    rkB/s    wkB/s avgrq-sz avgqu-sz   await r_await w_await  svctm  %util
nvme0n1           0.00     0.00    0.00    0.00     0.00     0.00     0.00     0.00    0.00    0.00    0.00   0.00   0.00
sda               0.00    12.00    0.00    2.00     0.00    56.00    56.00     0.00    0.50    0.00    0.50   0.50   0.10
sdc               0.00     0.00  106.00    0.00   424.00     0.00     8.00     1.42   13.16   13.16    0.00   6.45  68.40
sdb               0.00     0.00   90.00    0.00   360.00     0.00     8.00     1.00   11.19   11.19    0.00   5.96  53.60
sdd               0.00     0.00  114.00    0.00   456.00     0.00     8.00     1.57   13.78   13.78    0.00   6.32  72.10
md0               0.00     0.00  312.00    0.00  1248.00     0.00     8.00     0.00    0.00    0.00    0.00   0.00   0.00

avg-cpu:  %user   %nice %system %iowait  %steal   %idle
           0.00    0.00    0.06    1.75    0.00   98.19

Device:         rrqm/s   wrqm/s     r/s     w/s    rkB/s    wkB/s avgrq-sz avgqu-sz   await r_await w_await  svctm  %util
nvme0n1           0.00     0.00    0.00    0.00     0.00     0.00     0.00     0.00    0.00    0.00    0.00   0.00   0.00
sda               0.00     0.00    0.00    0.00     0.00     0.00     0.00     0.00    0.00    0.00    0.00   0.00   0.00
sdc               0.00     0.00  106.00    0.00   424.00     0.00     8.00     1.55   14.87   14.87    0.00   6.56  69.50
sdb               0.00     0.00  108.00    0.00   432.00     0.00     8.00     1.49   14.01   14.01    0.00   6.44  69.50
sdd               0.00     0.00   93.00    0.00   372.00     0.00     8.00     1.18   12.68   12.68    0.00   6.59  61.30
md0               0.00     0.00  311.00    0.00  1244.00     0.00     8.00     0.00    0.00    0.00    0.00   0.00   0.00

avg-cpu:  %user   %nice %system %iowait  %steal   %idle
           0.00    0.00    0.09    1.88    0.00   98.03

Device:         rrqm/s   wrqm/s     r/s     w/s    rkB/s    wkB/s avgrq-sz avgqu-sz   await r_await w_await  svctm  %util
nvme0n1           0.00     0.00    0.00    0.00     0.00     0.00     0.00     0.00    0.00    0.00    0.00   0.00   0.00
sda               0.00     0.00    0.00    0.00     0.00     0.00     0.00     0.00    0.00    0.00    0.00   0.00   0.00
sdc               0.00     0.00   98.00    0.00   392.00     0.00     8.00     1.26   12.83   12.83    0.00   5.80  56.80
sdb               0.00     0.00   96.00    0.00   384.00     0.00     8.00     1.28   13.29   13.29    0.00   6.45  61.90
sdd               0.00     0.00  108.00    0.00   432.00     0.00     8.00     1.64   15.17   15.17    0.00   6.72  72.60
md0               0.00     0.00  302.00    0.00  1208.00     0.00     8.00     0.00    0.00    0.00    0.00   0.00   0.00

avg-cpu:  %user   %nice %system %iowait  %steal   %idle
           0.00    0.00    0.00    1.72    0.00   98.28

Device:         rrqm/s   wrqm/s     r/s     w/s    rkB/s    wkB/s avgrq-sz avgqu-sz   await r_await w_await  svctm  %util
nvme0n1           0.00     0.00    0.00    0.00     0.00     0.00     0.00     0.00    0.00    0.00    0.00   0.00   0.00
sda               0.00     0.00    0.00    0.00     0.00     0.00     0.00     0.00    0.00    0.00    0.00   0.00   0.00
sdc               0.00     0.00  111.00    0.00   444.00     0.00     8.00     1.60   14.51   14.51    0.00   6.74  74.80
sdb               0.00     0.00   91.00    0.00   364.00     0.00     8.00     1.13   12.49   12.49    0.00   6.05  55.10
sdd               0.00     0.00  107.00    0.00   428.00     0.00     8.00     1.33   12.36   12.36    0.00   6.20  66.30
md0               0.00     0.00  302.00    0.00  1208.00     0.00     8.00     0.00    0.00    0.00    0.00   0.00   0.00

avg-cpu:  %user   %nice %system %iowait  %steal   %idle
           0.00    0.00    0.06    1.88    0.00   98.06

Device:         rrqm/s   wrqm/s     r/s     w/s    rkB/s    wkB/s avgrq-sz avgqu-sz   await r_await w_await  svctm  %util
nvme0n1           0.00     0.00    0.00    0.00     0.00     0.00     0.00     0.00    0.00    0.00    0.00   0.00   0.00
sda               0.00     0.00    0.00    0.00     0.00     0.00     0.00     0.00    0.00    0.00    0.00   0.00   0.00
sdc               0.00     0.00  113.00    0.00   452.00     0.00     8.00     1.64   14.40   14.40    0.00   6.55  74.00
sdb               0.00     0.00   94.00    0.00   376.00     0.00     8.00     1.07   11.23   11.23    0.00   5.83  54.80
sdd               0.00     0.00  106.00    0.00   424.00     0.00     8.00     1.43   13.42   13.42    0.00   6.45  68.40
md0               0.00     0.00  318.00    0.00  1272.00     0.00     8.00     0.00    0.00    0.00    0.00   0.00   0.00

avg-cpu:  %user   %nice %system %iowait  %steal   %idle
           0.00    0.00    0.03    1.56    0.00   98.40

Device:         rrqm/s   wrqm/s     r/s     w/s    rkB/s    wkB/s avgrq-sz avgqu-sz   await r_await w_await  svctm  %util
nvme0n1           0.00     0.00    0.00    0.00     0.00     0.00     0.00     0.00    0.00    0.00    0.00   0.00   0.00
sda               0.00     1.00    0.00    2.00     0.00    12.00    12.00     0.00    0.00    0.00    0.00   0.00   0.00
sdc               0.00     0.00  116.00    0.00   464.00     0.00     8.00     1.52   13.03   13.03    0.00   5.90  68.40
sdb               0.00     0.00   98.00    0.00   392.00     0.00     8.00     1.41   14.47   14.47    0.00   6.74  66.10
sdd               0.00     0.00  103.00    0.00   412.00     0.00     8.00     1.23   12.16   12.16    0.00   5.76  59.30
md0               0.00     0.00  319.00    0.00  1276.00     0.00     8.00     0.00    0.00    0.00    0.00   0.00   0.00

avg-cpu:  %user   %nice %system %iowait  %steal   %idle
           0.03    0.00    0.06    2.13    0.00   97.78

Device:         rrqm/s   wrqm/s     r/s     w/s    rkB/s    wkB/s avgrq-sz avgqu-sz   await r_await w_await  svctm  %util
nvme0n1           0.00     0.00    0.00    0.00     0.00     0.00     0.00     0.00    0.00    0.00    0.00   0.00   0.00
sda               0.00     0.00    0.00    0.00     0.00     0.00     0.00     0.00    0.00    0.00    0.00   0.00   0.00
sdc               0.00     0.00   95.00    0.00   380.00     0.00     8.00     1.43   15.01   15.01    0.00   7.19  68.30
sdb               0.00     0.00   96.00    0.00   384.00     0.00     8.00     1.19   12.07   12.07    0.00   5.78  55.50
sdd               0.00     0.00   97.00    0.00   388.00     0.00     8.00     1.33   13.75   13.75    0.00   6.39  62.00
md0               0.00     0.00  286.00    0.00  1144.00     0.00     8.00     0.00    0.00    0.00    0.00   0.00   0.00

avg-cpu:  %user   %nice %system %iowait  %steal   %idle
           0.00    0.00    0.06    1.59    0.00   98.34

Device:         rrqm/s   wrqm/s     r/s     w/s    rkB/s    wkB/s avgrq-sz avgqu-sz   await r_await w_await  svctm  %util
nvme0n1           0.00     0.00    0.00    0.00     0.00     0.00     0.00     0.00    0.00    0.00    0.00   0.00   0.00
sda               0.00     3.00    1.00    4.00     4.00    68.00    28.80     0.00    0.00    0.00    0.00   0.00   0.00
sdc               0.00     0.00  104.00    0.00   416.00     0.00     8.00     1.52   14.70   14.70    0.00   6.58  68.40
sdb               0.00     0.00  105.00    0.00   420.00     0.00     8.00     1.33   12.95   12.95    0.00   6.00  63.00
sdd               0.00     0.00   92.00    0.00   368.00     0.00     8.00     1.11   11.80   11.80    0.00   6.02  55.40
md0               0.00     0.00  303.00    0.00  1212.00     0.00     8.00     0.00    0.00    0.00    0.00   0.00   0.00

avg-cpu:  %user   %nice %system %iowait  %steal   %idle
           0.00    0.00    0.03    2.00    0.00   97.97

Device:         rrqm/s   wrqm/s     r/s     w/s    rkB/s    wkB/s avgrq-sz avgqu-sz   await r_await w_await  svctm  %util
nvme0n1           0.00     0.00    0.00    0.00     0.00     0.00     0.00     0.00    0.00    0.00    0.00   0.00   0.00
sda               0.00     0.00    0.00    0.00     0.00     0.00     0.00     0.00    0.00    0.00    0.00   0.00   0.00
sdc               0.00     0.00   92.00    0.00   368.00     0.00     8.00     1.22   13.34   13.34    0.00   6.00  55.20
sdb               0.00     0.00  112.00    0.00   448.00     0.00     8.00     1.65   14.51   14.51    0.00   6.38  71.40
sdd               0.00     0.00   88.00    0.00   352.00     0.00     8.00     1.12   12.76   12.76    0.00   6.55  57.60
md0               0.00     0.00  287.00    0.00  1148.00     0.00     8.00     0.00    0.00    0.00    0.00   0.00   0.00

avg-cpu:  %user   %nice %system %iowait  %steal   %idle
           0.00    0.00    0.09    1.78    0.00   98.12

Device:         rrqm/s   wrqm/s     r/s     w/s    rkB/s    wkB/s avgrq-sz avgqu-sz   await r_await w_await  svctm  %util
nvme0n1           0.00     0.00    0.00    0.00     0.00     0.00     0.00     0.00    0.00    0.00    0.00   0.00   0.00
sda               0.00     0.00    0.00    0.00     0.00     0.00     0.00     0.00    0.00    0.00    0.00   0.00   0.00
sdc               0.00     0.00   93.00    0.00   372.00     0.00     8.00     1.27   13.35   13.35    0.00   6.30  58.60
sdb               0.00     0.00   99.00    0.00   396.00     0.00     8.00     1.37   13.86   13.86    0.00   6.24  61.80
sdd               0.00     0.00  105.00    0.00   420.00     0.00     8.00     1.45   13.97   13.97    0.00   6.02  63.20
md0               0.00     0.00  301.00    0.00  1204.00     0.00     8.00     0.00    0.00    0.00    0.00   0.00   0.00

avg-cpu:  %user   %nice %system %iowait  %steal   %idle
           0.03    0.00    0.03    1.75    0.00   98.19

Device:         rrqm/s   wrqm/s     r/s     w/s    rkB/s    wkB/s avgrq-sz avgqu-sz   await r_await w_await  svctm  %util
nvme0n1           0.00     0.00    0.00    0.00     0.00     0.00     0.00     0.00    0.00    0.00    0.00   0.00   0.00
sda               0.00     6.93    0.00    1.98     0.00    35.64    36.00     0.00    0.00    0.00    0.00   0.00   0.00
sdc               0.00     0.00   94.06    0.00   376.24     0.00     8.00     1.19   12.54   12.54    0.00   6.23  58.61
sdb               0.00     0.00  103.96    0.00   415.84     0.00     8.00     1.36   13.39   13.39    0.00   6.27  65.15
sdd               0.00     0.00  103.96    0.00   415.84     0.00     8.00     1.33   12.60   12.60    0.00   6.21  64.55
md0               0.00     0.00  298.02    0.00  1192.08     0.00     8.00     0.00    0.00    0.00    0.00   0.00   0.00

avg-cpu:  %user   %nice %system %iowait  %steal   %idle
           0.00    0.00    0.06    1.78    0.00   98.16

Device:         rrqm/s   wrqm/s     r/s     w/s    rkB/s    wkB/s avgrq-sz avgqu-sz   await r_await w_await  svctm  %util
nvme0n1           0.00     0.00    0.00    0.00     0.00     0.00     0.00     0.00    0.00    0.00    0.00   0.00   0.00
sda               0.00     0.00    0.00    0.00     0.00     0.00     0.00     0.00    0.00    0.00    0.00   0.00   0.00
sdc               0.00     0.00  102.00    0.00   408.00     0.00     8.00     1.36   13.42   13.42    0.00   6.20  63.20
sdb               0.00     0.00  100.00    0.00   400.00     0.00     8.00     1.31   13.09   13.09    0.00   6.10  61.00
sdd               0.00     0.00  101.00    0.00   404.00     0.00     8.00     1.31   13.18   13.18    0.00   5.89  59.50
md0               0.00     0.00  301.00    0.00  1204.00     0.00     8.00     0.00    0.00    0.00    0.00   0.00   0.00

avg-cpu:  %user   %nice %system %iowait  %steal   %idle
           0.00    0.00    0.09    2.00    0.00   97.91

Device:         rrqm/s   wrqm/s     r/s     w/s    rkB/s    wkB/s avgrq-sz avgqu-sz   await r_await w_await  svctm  %util
nvme0n1           0.00     0.00    0.00    0.00     0.00     0.00     0.00     0.00    0.00    0.00    0.00   0.00   0.00
sda               0.00     0.00    0.00    0.00     0.00     0.00     0.00     0.00    0.00    0.00    0.00   0.00   0.00
sdc               0.00     0.00   95.00    0.00   380.00     0.00     8.00     1.19   12.59   12.59    0.00   6.01  57.10
sdb               0.00     0.00   92.00    0.00   368.00     0.00     8.00     1.26   13.75   13.75    0.00   6.79  62.50
sdd               0.00     0.00  112.00    0.00   448.00     0.00     8.00     1.67   14.71   14.71    0.00   6.11  68.40
md0               0.00     0.00  301.00    0.00  1204.00     0.00     8.00     0.00    0.00    0.00    0.00   0.00   0.00

avg-cpu:  %user   %nice %system %iowait  %steal   %idle
           0.00    0.00    0.06    1.81    0.00   98.12

Device:         rrqm/s   wrqm/s     r/s     w/s    rkB/s    wkB/s avgrq-sz avgqu-sz   await r_await w_await  svctm  %util
nvme0n1           0.00     0.00    0.00    0.00     0.00     0.00     0.00     0.00    0.00    0.00    0.00   0.00   0.00
sda               0.00     0.00    0.00    0.00     0.00     0.00     0.00     0.00    0.00    0.00    0.00   0.00   0.00
sdc               0.00     0.00  114.00    0.00   456.00     0.00     8.00     1.53   13.53   13.53    0.00   6.00  68.40
sdb               0.00     0.00  100.00    0.00   400.00     0.00     8.00     1.27   12.72   12.72    0.00   6.43  64.30
sdd               0.00     0.00   95.00    0.00   380.00     0.00     8.00     1.20   12.67   12.67    0.00   6.33  60.10
md0               0.00     0.00  307.00    0.00  1228.00     0.00     8.00     0.00    0.00    0.00    0.00   0.00   0.00

avg-cpu:  %user   %nice %system %iowait  %steal   %idle
           0.00    0.00    0.03    1.97    0.00   98.00

Device:         rrqm/s   wrqm/s     r/s     w/s    rkB/s    wkB/s avgrq-sz avgqu-sz   await r_await w_await  svctm  %util
nvme0n1           0.00     0.00    0.00    0.00     0.00     0.00     0.00     0.00    0.00    0.00    0.00   0.00   0.00
sda               0.00     0.00    0.00    0.00     0.00     0.00     0.00     0.00    0.00    0.00    0.00   0.00   0.00
sdc               0.00     0.00   95.00    0.00   380.00     0.00     8.00     1.30   13.27   13.27    0.00   6.32  60.00
sdb               0.00     0.00  106.00    0.00   424.00     0.00     8.00     1.31   12.32   12.32    0.00   6.15  65.20
sdd               0.00     0.00  106.00    0.00   424.00     0.00     8.00     1.48   14.14   14.14    0.00   6.41  67.90
md0               0.00     0.00  308.00    0.00  1232.00     0.00     8.00     0.00    0.00    0.00    0.00   0.00   0.00

avg-cpu:  %user   %nice %system %iowait  %steal   %idle
           0.00    0.00    0.03    1.59    0.00   98.37

Device:         rrqm/s   wrqm/s     r/s     w/s    rkB/s    wkB/s avgrq-sz avgqu-sz   await r_await w_await  svctm  %util
nvme0n1           0.00     0.00    0.00    0.00     0.00     0.00     0.00     0.00    0.00    0.00    0.00   0.00   0.00
sda               0.00     1.00    0.00    2.00     0.00    12.00    12.00     0.00    0.00    0.00    0.00   0.00   0.00
sdc               0.00     0.00  102.00    0.00   408.00     0.00     8.00     1.30   12.94   12.94    0.00   6.21  63.30
sdb               0.00     0.00   94.00    0.00   376.00     0.00     8.00     1.29   13.73   13.73    0.00   6.27  58.90
sdd               0.00     0.00  106.00    0.00   424.00     0.00     8.00     1.48   14.01   14.01    0.00   6.29  66.70
md0               0.00     0.00  301.00    0.00  1204.00     0.00     8.00     0.00    0.00    0.00    0.00   0.00   0.00

avg-cpu:  %user   %nice %system %iowait  %steal   %idle
           0.03    0.00    0.06    2.06    0.00   97.84

Device:         rrqm/s   wrqm/s     r/s     w/s    rkB/s    wkB/s avgrq-sz avgqu-sz   await r_await w_await  svctm  %util
nvme0n1           0.00     0.00    0.00    0.00     0.00     0.00     0.00     0.00    0.00    0.00    0.00   0.00   0.00
sda               0.00     0.00    0.00    0.00     0.00     0.00     0.00     0.00    0.00    0.00    0.00   0.00   0.00
sdc               0.00     0.00  119.00    0.00   476.00     0.00     8.00     1.72   14.52   14.52    0.00   6.32  75.20
sdb               0.00     0.00  101.00    0.00   404.00     0.00     8.00     1.22   11.92   11.92    0.00   6.07  61.30
sdd               0.00     0.00  102.00    0.00   408.00     0.00     8.00     1.34   12.98   12.98    0.00   6.42  65.50
md0               0.00     0.00  327.00    0.00  1308.00     0.00     8.00     0.00    0.00    0.00    0.00   0.00   0.00

avg-cpu:  %user   %nice %system %iowait  %steal   %idle
           0.00    0.00    0.06    1.84    0.00   98.09

Device:         rrqm/s   wrqm/s     r/s     w/s    rkB/s    wkB/s avgrq-sz avgqu-sz   await r_await w_await  svctm  %util
nvme0n1           0.00     0.00    0.00    0.00     0.00     0.00     0.00     0.00    0.00    0.00    0.00   0.00   0.00
sda               0.00     0.00    0.00    0.00     0.00     0.00     0.00     0.00    0.00    0.00    0.00   0.00   0.00
sdc               0.00     0.00   94.00    0.00   376.00     0.00     8.00     1.18   12.45   12.45    0.00   6.50  61.10
sdb               0.00     0.00  110.00    0.00   440.00     0.00     8.00     1.53   14.01   14.01    0.00   6.38  70.20
sdd               0.00     0.00  109.00    0.00   436.00     0.00     8.00     1.38   12.72   12.72    0.00   6.17  67.30
md0               0.00     0.00  308.00    0.00  1232.00     0.00     8.00     0.00    0.00    0.00    0.00   0.00   0.00

avg-cpu:  %user   %nice %system %iowait  %steal   %idle
           0.00    0.00    0.12    1.94    0.00   97.94

Device:         rrqm/s   wrqm/s     r/s     w/s    rkB/s    wkB/s avgrq-sz avgqu-sz   await r_await w_await  svctm  %util
nvme0n1           0.00     0.00    0.00    0.00     0.00     0.00     0.00     0.00    0.00    0.00    0.00   0.00   0.00
sda               0.00     0.00    0.00    0.00     0.00     0.00     0.00     0.00    0.00    0.00    0.00   0.00   0.00
sdc               0.00     0.00  103.00    0.00   412.00     0.00     8.00     1.37   13.48   13.48    0.00   6.29  64.80
sdb               0.00     0.00  102.00    0.00   408.00     0.00     8.00     1.35   13.20   13.20    0.00   6.37  65.00
sdd               0.00     0.00   97.00    0.00   388.00     0.00     8.00     1.26   12.91   12.91    0.00   6.28  60.90
md0               0.00     0.00  307.00    0.00  1228.00     0.00     8.00     0.00    0.00    0.00    0.00   0.00   0.00

