Linux 4.17.2 (bench2) 	08/04/2018 	_x86_64_	(32 CPU)

avg-cpu:  %user   %nice %system %iowait  %steal   %idle
           1.89    0.00    1.54    1.62    0.00   94.94

Device:         rrqm/s   wrqm/s     r/s     w/s    rkB/s    wkB/s avgrq-sz avgqu-sz   await r_await w_await  svctm  %util
nvme0n1         925.77     5.03 18663.18  513.85 104394.03 11588.97    12.10     1.33    0.05    0.03    0.67   0.02  39.07
sda               0.12     0.82   14.19    0.58   164.09     8.57    23.38     0.00    0.33    0.32    0.44   0.07   0.10
sdc              34.98     0.17  126.63    0.31  1884.73    96.45    31.22     0.15    1.15    0.22  381.84   0.89  11.35
sdb              32.97     0.18  128.60    0.33  1882.82    96.27    30.70     0.57    4.43    3.39  413.03   0.84  10.80
sdd              35.18     0.16  126.17    0.26  1880.83    95.95    31.27     0.89    7.00    5.16  909.23   0.90  11.37
md0               0.00     0.00  487.34    1.20  6999.13   347.93    30.08     0.00    0.00    0.00    0.00   0.00   0.00

avg-cpu:  %user   %nice %system %iowait  %steal   %idle
           0.13    0.00    1.23   15.72    0.00   82.92

Device:         rrqm/s   wrqm/s     r/s     w/s    rkB/s    wkB/s avgrq-sz avgqu-sz   await r_await w_await  svctm  %util
nvme0n1           0.00     0.00    0.00    0.00     0.00     0.00     0.00     0.00    0.00    0.00    0.00   0.00   0.00
sda               0.00     0.00    4.00    0.00   104.00     0.00    52.00     0.00    0.25    0.25    0.00   0.25   0.10
sdc               0.00     0.00 1173.00    0.00  6968.00     0.00    11.88     4.52    3.86    3.86    0.00   0.50  58.20
sdb               2.00     0.00 1093.00    0.00  6032.00     0.00    11.04     1.36    1.25    1.25    0.00   0.19  20.50
sdd               1.00     0.00 1128.00    0.00  6908.00     0.00    12.25     4.95    4.34    4.34    0.00   0.57  64.00
md0               0.00     0.00 3406.00    0.00 20288.00     0.00    11.91     0.00    0.00    0.00    0.00   0.00   0.00

avg-cpu:  %user   %nice %system %iowait  %steal   %idle
           0.13    0.00    1.85   14.36    0.00   83.66

Device:         rrqm/s   wrqm/s     r/s     w/s    rkB/s    wkB/s avgrq-sz avgqu-sz   await r_await w_await  svctm  %util
nvme0n1           0.00     0.00    0.00    0.00     0.00     0.00     0.00     0.00    0.00    0.00    0.00   0.00   0.00
sda               0.00     0.00    0.00    0.00     0.00     0.00     0.00     0.00    0.00    0.00    0.00   0.00   0.00
sdc               0.00     0.00 1204.00    0.00  5984.00     0.00     9.94     5.25    4.36    4.36    0.00   0.65  78.10
sdb               0.00     0.00 1197.00    0.00  5596.00     0.00     9.35     2.67    2.23    2.23    0.00   0.31  36.60
sdd               0.00     0.00 1164.00    0.00  5764.00     0.00     9.90     1.81    1.63    1.63    0.00   0.23  26.40
md0               0.00     0.00 3574.00    0.00 17544.00     0.00     9.82     0.00    0.00    0.00    0.00   0.00   0.00

avg-cpu:  %user   %nice %system %iowait  %steal   %idle
           0.09    0.00    2.81   16.25    0.00   80.85

Device:         rrqm/s   wrqm/s     r/s     w/s    rkB/s    wkB/s avgrq-sz avgqu-sz   await r_await w_await  svctm  %util
nvme0n1           0.00     0.00    0.00    0.00     0.00     0.00     0.00     0.00    0.00    0.00    0.00   0.00   0.00
sda               0.00     0.00   83.00    0.00   544.00     0.00    13.11     0.02    0.19    0.19    0.00   0.04   0.30
sdc               0.00     0.00 1262.00    0.00  6268.00     0.00     9.93     2.52    2.02    2.02    0.00   0.28  35.60
sdb               1.00     0.00 1314.00    0.00  6740.00     0.00    10.26     1.67    1.30    1.30    0.00   0.19  25.10
sdd               1.00     0.00 1315.00    0.00  6496.00     0.00     9.88     6.00    4.56    4.56    0.00   0.60  78.80
md0               0.00     0.00 3902.00    0.00 19776.00     0.00    10.14     0.00    0.00    0.00    0.00   0.00   0.00

avg-cpu:  %user   %nice %system %iowait  %steal   %idle
           0.09    0.00    2.04   17.44    0.00   80.43

Device:         rrqm/s   wrqm/s     r/s     w/s    rkB/s    wkB/s avgrq-sz avgqu-sz   await r_await w_await  svctm  %util
nvme0n1           0.00     0.00    0.00    0.00     0.00     0.00     0.00     0.00    0.00    0.00    0.00   0.00   0.00
sda               0.00     0.00    0.00    0.00     0.00     0.00     0.00     0.00    0.00    0.00    0.00   0.00   0.00
sdc               0.00     0.00 1336.00    0.00  5464.00     0.00     8.18     3.58    2.71    2.71    0.00   0.37  49.10
sdb               0.00     0.00 1230.00    0.00  5152.00     0.00     8.38     3.71    3.02    3.02    0.00   0.39  47.40
sdd               0.00     0.00 1291.00    0.00  5736.00     0.00     8.89     3.46    2.72    2.72    0.00   0.36  46.10
md0               0.00     0.00 3857.00    0.00 16400.00     0.00     8.50     0.00    0.00    0.00    0.00   0.00   0.00

avg-cpu:  %user   %nice %system %iowait  %steal   %idle
           0.09    0.00    1.92   16.19    0.00   81.79

Device:         rrqm/s   wrqm/s     r/s     w/s    rkB/s    wkB/s avgrq-sz avgqu-sz   await r_await w_await  svctm  %util
nvme0n1           0.00     0.00    0.00    0.00     0.00     0.00     0.00     0.00    0.00    0.00    0.00   0.00   0.00
sda               0.00     9.00    0.00    2.00     0.00    44.00    44.00     0.00    0.00    0.00    0.00   0.00   0.00
sdc               0.00     0.00 1269.00    0.00  5316.00     0.00     8.38     1.48    1.18    1.18    0.00   0.17  22.20
sdb               0.00     0.00 1310.00    0.00  5412.00     0.00     8.26     4.66    3.58    3.58    0.00   0.49  64.10
sdd               0.00     0.00 1334.00    0.00  5384.00     0.00     8.07     4.06    3.04    3.04    0.00   0.42  55.80
md0               0.00     0.00 3904.00    0.00 16076.00     0.00     8.24     0.00    0.00    0.00    0.00   0.00   0.00

avg-cpu:  %user   %nice %system %iowait  %steal   %idle
           0.09    0.00    2.44   16.48    0.00   80.98

Device:         rrqm/s   wrqm/s     r/s     w/s    rkB/s    wkB/s avgrq-sz avgqu-sz   await r_await w_await  svctm  %util
nvme0n1           0.00     0.00    0.00    0.00     0.00     0.00     0.00     0.00    0.00    0.00    0.00   0.00   0.00
sda               0.00     0.00    0.00    0.00     0.00     0.00     0.00     0.00    0.00    0.00    0.00   0.00   0.00
sdc               6.00     0.00 1329.00    0.00  6992.00     0.00    10.52     6.19    4.67    4.67    0.00   0.62  82.00
sdb               3.00     0.00 1259.00    0.00  6568.00     0.00    10.43     1.24    0.99    0.99    0.00   0.14  17.80
sdd               3.00     0.00 1264.00    0.00  6604.00     0.00    10.45     3.11    2.48    2.48    0.00   0.38  47.50
md0               0.00     0.00 3888.00    0.00 22740.00     0.00    11.70     0.00    0.00    0.00    0.00   0.00   0.00

avg-cpu:  %user   %nice %system %iowait  %steal   %idle
           0.09    0.00    2.13   16.07    0.00   81.71

Device:         rrqm/s   wrqm/s     r/s     w/s    rkB/s    wkB/s avgrq-sz avgqu-sz   await r_await w_await  svctm  %util
nvme0n1           0.00     0.00    0.00    0.00     0.00     0.00     0.00     0.00    0.00    0.00    0.00   0.00   0.00
sda               0.00     0.00    0.00    0.00     0.00     0.00     0.00     0.00    0.00    0.00    0.00   0.00   0.00
sdc               0.00     0.00 1327.00    0.00  5424.00     0.00     8.17     3.76    2.86    2.86    0.00   0.41  54.50
sdb               0.00     0.00 1297.00    0.00  5252.00     0.00     8.10     3.17    2.46    2.46    0.00   0.33  43.10
sdd               0.00     0.00 1202.00    0.00  5052.00     0.00     8.41     3.04    2.50    2.50    0.00   0.33  40.20
md0               0.00     0.00 3830.00    0.00 15760.00     0.00     8.23     0.00    0.00    0.00    0.00   0.00   0.00

avg-cpu:  %user   %nice %system %iowait  %steal   %idle
           0.06    0.00    1.51   16.97    0.00   81.46

Device:         rrqm/s   wrqm/s     r/s     w/s    rkB/s    wkB/s avgrq-sz avgqu-sz   await r_await w_await  svctm  %util
nvme0n1           0.00     0.00    0.00    0.00     0.00     0.00     0.00     0.00    0.00    0.00    0.00   0.00   0.00
sda               0.00     0.00    0.00    0.00     0.00     0.00     0.00     0.00    0.00    0.00    0.00   0.00   0.00
sdc               0.00     0.00 1206.00    0.00  4932.00     0.00     8.18     2.48    2.05    2.05    0.00   0.29  35.40
sdb               0.00     0.00 1213.00    0.00  5168.00     0.00     8.52     4.47    3.68    3.68    0.00   0.51  62.30
sdd               0.00     0.00 1241.00    0.00  5056.00     0.00     8.15     3.23    2.66    2.66    0.00   0.36  44.10
md0               0.00     0.00 3669.00    0.00 15188.00     0.00     8.28     0.00    0.00    0.00    0.00   0.00   0.00

avg-cpu:  %user   %nice %system %iowait  %steal   %idle
           0.13    0.00    2.01   15.12    0.00   82.74

Device:         rrqm/s   wrqm/s     r/s     w/s    rkB/s    wkB/s avgrq-sz avgqu-sz   await r_await w_await  svctm  %util
nvme0n1           0.00     0.00    0.00    0.00     0.00     0.00     0.00     0.00    0.00    0.00    0.00   0.00   0.00
sda               0.00     4.00    0.00    2.00     0.00    40.00    40.00     0.00    0.00    0.00    0.00   0.00   0.00
sdc               0.00     0.00 1300.00    0.00  5380.00     0.00     8.28     1.36    1.08    1.08    0.00   0.16  20.70
sdb               0.00     0.00 1338.00    0.00  5844.00     0.00     8.74     6.29    4.69    4.69    0.00   0.66  88.40
sdd               0.00     0.00 1338.00    0.00  5424.00     0.00     8.11     1.75    1.31    1.31    0.00   0.17  22.50
md0               0.00     0.00 3975.00    0.00 16944.00     0.00     8.53     0.00    0.00    0.00    0.00   0.00   0.00

avg-cpu:  %user   %nice %system %iowait  %steal   %idle
           0.19    0.00    1.76   14.97    0.00   83.08

Device:         rrqm/s   wrqm/s     r/s     w/s    rkB/s    wkB/s avgrq-sz avgqu-sz   await r_await w_await  svctm  %util
nvme0n1           0.00     0.00    0.00    0.00     0.00     0.00     0.00     0.00    0.00    0.00    0.00   0.00   0.00
sda               0.00     4.00    0.00    2.00     0.00    24.00    24.00     0.00    0.00    0.00    0.00   0.00   0.00
sdc               5.00     0.00 1266.00    0.00  7788.00     0.00    12.30     1.63    1.28    1.28    0.00   0.18  22.20
sdb               4.00     0.00 1286.00    0.00  8184.00     0.00    12.73     6.82    5.31    5.31    0.00   0.70  89.40
sdd               4.00     0.00 1247.00    0.00  7744.00     0.00    12.42     1.39    1.11    1.11    0.00   0.15  19.30
md0               0.00     0.00 3802.00    0.00 27500.00     0.00    14.47     0.00    0.00    0.00    0.00   0.00   0.00

avg-cpu:  %user   %nice %system %iowait  %steal   %idle
           0.19    0.00    2.07   16.20    0.00   81.54

Device:         rrqm/s   wrqm/s     r/s     w/s    rkB/s    wkB/s avgrq-sz avgqu-sz   await r_await w_await  svctm  %util
nvme0n1           0.00     0.00    0.00    0.00     0.00     0.00     0.00     0.00    0.00    0.00    0.00   0.00   0.00
sda               0.00     0.00    0.00    0.00     0.00     0.00     0.00     0.00    0.00    0.00    0.00   0.00   0.00
sdc               0.00     0.00 1297.00    0.00  5488.00     0.00     8.46     2.11    1.63    1.63    0.00   0.24  31.40
sdb               0.00     0.00 1323.00    0.00  5584.00     0.00     8.44     5.21    3.98    3.98    0.00   0.54  71.30
sdd               0.00     0.00 1338.00    0.00  5528.00     0.00     8.26     3.10    2.33    2.33    0.00   0.34  45.20
md0               0.00     0.00 3975.00    0.00 16676.00     0.00     8.39     0.00    0.00    0.00    0.00   0.00   0.00

avg-cpu:  %user   %nice %system %iowait  %steal   %idle
           0.09    0.00    2.10   16.73    0.00   81.07

Device:         rrqm/s   wrqm/s     r/s     w/s    rkB/s    wkB/s avgrq-sz avgqu-sz   await r_await w_await  svctm  %util
nvme0n1           0.00     0.00    0.00    0.00     0.00     0.00     0.00     0.00    0.00    0.00    0.00   0.00   0.00
sda               0.00     0.00    0.00    0.00     0.00     0.00     0.00     0.00    0.00    0.00    0.00   0.00   0.00
sdc               1.00     0.00 1315.00    0.00  6384.00     0.00     9.71     3.69    2.83    2.83    0.00   0.37  48.00
sdb               0.00     0.00 1260.00    0.00  5896.00     0.00     9.36     1.74    1.40    1.40    0.00   0.18  22.80
sdd               2.00     0.00 1269.00    0.00  6228.00     0.00     9.82     5.40    4.26    4.26    0.00   0.56  71.30
md0               0.00     0.00 3830.00    0.00 19036.00     0.00     9.94     0.00    0.00    0.00    0.00   0.00   0.00

avg-cpu:  %user   %nice %system %iowait  %steal   %idle
           0.19    0.00    1.85   15.81    0.00   82.14

Device:         rrqm/s   wrqm/s     r/s     w/s    rkB/s    wkB/s avgrq-sz avgqu-sz   await r_await w_await  svctm  %util
nvme0n1           0.00     0.00    0.00    0.00     0.00     0.00     0.00     0.00    0.00    0.00    0.00   0.00   0.00
sda               0.00     0.00    0.00    0.00     0.00     0.00     0.00     0.00    0.00    0.00    0.00   0.00   0.00
sdc               0.00     0.00 1272.00    0.00  6168.00     0.00     9.70     1.53    1.22    1.22    0.00   0.16  20.60
sdb               1.00     0.00 1315.00    0.00  6040.00     0.00     9.19     4.27    3.26    3.26    0.00   0.45  59.70
sdd               0.00     0.00 1246.00    0.00  5676.00     0.00     9.11     4.25    3.45    3.45    0.00   0.47  58.40
md0               0.00     0.00 3836.00    0.00 18684.00     0.00     9.74     0.00    0.00    0.00    0.00   0.00   0.00

avg-cpu:  %user   %nice %system %iowait  %steal   %idle
           0.06    0.00    1.36   15.41    0.00   83.16

Device:         rrqm/s   wrqm/s     r/s     w/s    rkB/s    wkB/s avgrq-sz avgqu-sz   await r_await w_await  svctm  %util
nvme0n1           0.00     0.00    0.00    0.00     0.00     0.00     0.00     0.00    0.00    0.00    0.00   0.00   0.00
sda               0.00     0.00    0.00    0.00     0.00     0.00     0.00     0.00    0.00    0.00    0.00   0.00   0.00
sdc               0.00     0.00 1158.00    0.00  5060.00     0.00     8.74     3.87    3.36    3.36    0.00   0.47  53.90
sdb               0.00     0.00 1237.00    0.00  5500.00     0.00     8.89     1.71    1.37    1.37    0.00   0.20  25.00
sdd               0.00     0.00 1185.00    0.00  5080.00     0.00     8.57     4.59    3.86    3.86    0.00   0.54  64.00
md0               0.00     0.00 3582.00    0.00 15740.00     0.00     8.79     0.00    0.00    0.00    0.00   0.00   0.00

avg-cpu:  %user   %nice %system %iowait  %steal   %idle
           0.13    0.00    1.78   10.60    0.00   87.49

Device:         rrqm/s   wrqm/s     r/s     w/s    rkB/s    wkB/s avgrq-sz avgqu-sz   await r_await w_await  svctm  %util
nvme0n1           0.00     0.00    0.00    0.00     0.00     0.00     0.00     0.00    0.00    0.00    0.00   0.00   0.00
sda               0.00     1.00    0.00    2.00     0.00    12.00    12.00     0.00    0.00    0.00    0.00   0.00   0.00
sdc               2.00     0.00 1282.00    0.00 11052.00     0.00    17.24     7.05    5.52    5.52    0.00   0.36  45.90
sdb               3.00     0.00 1251.00    0.00 10960.00     0.00    17.52     6.16    4.92    4.92    0.00   0.45  56.50
sdd               1.00     0.00 1171.00    0.00 10524.00     0.00    17.97     6.25    5.37    5.37    0.00   0.45  52.20
md0               0.00     0.00 3699.00    0.00 33100.00     0.00    17.90     0.00    0.00    0.00    0.00   0.00   0.00

avg-cpu:  %user   %nice %system %iowait  %steal   %idle
           0.09    0.00    1.63   13.14    0.00   85.13

Device:         rrqm/s   wrqm/s     r/s     w/s    rkB/s    wkB/s avgrq-sz avgqu-sz   await r_await w_await  svctm  %util
nvme0n1           0.00     0.00    0.00    0.00     0.00     0.00     0.00     0.00    0.00    0.00    0.00   0.00   0.00
sda               0.00     0.00    0.00    0.00     0.00     0.00     0.00     0.00    0.00    0.00    0.00   0.00   0.00
sdc               0.00     0.00  994.00    0.00  5308.00     0.00    10.68     2.33    2.25    2.25    0.00   0.36  35.30
sdb               0.00     0.00 1128.00    0.00  6476.00     0.00    11.48     3.65    3.24    3.24    0.00   0.46  52.10
sdd               1.00     0.00 1114.00    0.00  6036.00     0.00    10.84     3.81    3.43    3.43    0.00   0.46  50.90
md0               0.00     0.00 3250.00    0.00 18076.00     0.00    11.12     0.00    0.00    0.00    0.00   0.00   0.00

avg-cpu:  %user   %nice %system %iowait  %steal   %idle
           0.13    0.00    1.94   12.80    0.00   85.13

Device:         rrqm/s   wrqm/s     r/s     w/s    rkB/s    wkB/s avgrq-sz avgqu-sz   await r_await w_await  svctm  %util
nvme0n1           0.00     0.00    0.00    0.00     0.00     0.00     0.00     0.00    0.00    0.00    0.00   0.00   0.00
sda               0.00     0.00    0.00    0.00     0.00     0.00     0.00     0.00    0.00    0.00    0.00   0.00   0.00
sdc               3.00     0.00 1227.00    0.00 10308.00     0.00    16.80     6.18    5.11    5.11    0.00   0.43  53.10
sdb               4.00     0.00 1339.00    0.00 10900.00     0.00    16.28     6.01    4.50    4.50    0.00   0.38  50.40
sdd               3.00     0.00 1253.00    0.00  9652.00     0.00    15.41     6.53    5.23    5.23    0.00   0.42  52.30
md0               0.00     0.00 3818.00    0.00 31892.00     0.00    16.71     0.00    0.00    0.00    0.00   0.00   0.00

avg-cpu:  %user   %nice %system %iowait  %steal   %idle
           0.09    0.00    1.67   14.58    0.00   83.66

Device:         rrqm/s   wrqm/s     r/s     w/s    rkB/s    wkB/s avgrq-sz avgqu-sz   await r_await w_await  svctm  %util
nvme0n1           0.00     0.00    0.00    0.00     0.00     0.00     0.00     0.00    0.00    0.00    0.00   0.00   0.00
sda               0.00     0.00    0.00    0.00     0.00     0.00     0.00     0.00    0.00    0.00    0.00   0.00   0.00
sdc               0.00     0.00 1132.00    0.00  5864.00     0.00    10.36     4.08    3.64    3.64    0.00   0.49  56.00
sdb               0.00     0.00 1175.00    0.00  5744.00     0.00     9.78     3.61    3.08    3.08    0.00   0.44  51.70
sdd               0.00     0.00 1105.00    0.00  5720.00     0.00    10.35     2.11    1.93    1.93    0.00   0.29  32.10
md0               0.00     0.00 3410.00    0.00 17492.00     0.00    10.26     0.00    0.00    0.00    0.00   0.00   0.00

avg-cpu:  %user   %nice %system %iowait  %steal   %idle
           0.09    0.00    1.51   15.01    0.00   83.38

Device:         rrqm/s   wrqm/s     r/s     w/s    rkB/s    wkB/s avgrq-sz avgqu-sz   await r_await w_await  svctm  %util
nvme0n1           0.00     0.00    0.00    0.00     0.00     0.00     0.00     0.00    0.00    0.00    0.00   0.00   0.00
sda               0.00     0.00    0.00    0.00     0.00     0.00     0.00     0.00    0.00    0.00    0.00   0.00   0.00
sdc               0.00     0.00 1212.00    0.00  5812.00     0.00     9.59     1.59    1.26    1.26    0.00   0.19  22.60
sdb               0.00     0.00 1200.00    0.00  5584.00     0.00     9.31     4.38    3.65    3.65    0.00   0.53  64.00
sdd               0.00     0.00 1234.00    0.00  5656.00     0.00     9.17     3.60    2.93    2.93    0.00   0.45  55.80
md0               0.00     0.00 3652.00    0.00 17296.00     0.00     9.47     0.00    0.00    0.00    0.00   0.00   0.00

avg-cpu:  %user   %nice %system %iowait  %steal   %idle
           0.03    0.00    1.91   13.62    0.00   84.44

Device:         rrqm/s   wrqm/s     r/s     w/s    rkB/s    wkB/s avgrq-sz avgqu-sz   await r_await w_await  svctm  %util
nvme0n1           0.00     0.00    0.00    0.00     0.00     0.00     0.00     0.00    0.00    0.00    0.00   0.00   0.00
sda               0.00     1.00    0.00    2.00     0.00    12.00    12.00     0.00    0.00    0.00    0.00   0.00   0.00
sdc               1.00     0.00 1190.00    0.00  6072.00     0.00    10.21     4.68    4.01    4.01    0.00   0.55  65.80
sdb               0.00     0.00 1158.00    0.00  6392.00     0.00    11.04     2.05    1.78    1.78    0.00   0.21  24.00
sdd               0.00     0.00 1137.00    0.00  6132.00     0.00    10.79     3.58    3.16    3.16    0.00   0.41  47.10
md0               0.00     0.00 3480.00    0.00 18828.00     0.00    10.82     0.00    0.00    0.00    0.00   0.00   0.00

