Linux 4.17.2 (bench2) 	08/04/2018 	_x86_64_	(32 CPU)

avg-cpu:  %user   %nice %system %iowait  %steal   %idle
           1.90    0.00    1.54    1.61    0.00   94.95

Device:         rrqm/s   wrqm/s     r/s     w/s    rkB/s    wkB/s avgrq-sz avgqu-sz   await r_await w_await  svctm  %util
nvme0n1         931.00     5.06 18768.62  516.76 104983.85 11654.44    12.10     1.34    0.05    0.03    0.67   0.02  39.29
sda               0.12     0.82   14.17    0.58   164.04     8.56    23.40     0.00    0.33    0.32    0.44   0.07   0.10
sdc              34.68     0.17  123.16    0.31  1846.19    96.99    31.48     0.11    0.90   12.30  381.84   0.90  11.13
sdb              32.66     0.19  125.14    0.33  1844.24    96.82    30.94     0.54    4.30    3.22  413.03   0.84  10.58
sdd              34.87     0.17  122.71    0.26  1842.25    96.49    31.53     0.85    6.94    5.03  909.23   0.91  11.14
md0               0.00     0.00  476.04    1.20  6859.49   349.89    30.21     0.00    0.00    0.00    0.00   0.00   0.00

avg-cpu:  %user   %nice %system %iowait  %steal   %idle
           0.03    0.00    0.38    2.66    0.00   96.93

Device:         rrqm/s   wrqm/s     r/s     w/s    rkB/s    wkB/s avgrq-sz avgqu-sz   await r_await w_await  svctm  %util
nvme0n1           0.00     0.00    0.00    0.00     0.00     0.00     0.00     0.00    0.00    0.00    0.00   0.00   0.00
sda               0.00     0.00    1.00    0.00     8.00     0.00    16.00     0.00    0.00    0.00    0.00   0.00   0.00
sdc              30.00     0.00 1353.00    0.00 27768.00     0.00    41.05     0.35    0.26    0.26    0.00   0.22  29.40
sdb              26.00     0.00 1475.00    0.00 26956.00     0.00    36.55     0.35    0.24    0.24    0.00   0.20  29.30
sdd              25.00     0.00 1389.00    0.00 25628.00     0.00    36.90     0.59    0.43    0.43    0.00   0.36  49.60
md0               0.00     0.00 4299.00    0.00 102092.00     0.00    47.50     0.00    0.00    0.00    0.00   0.00   0.00

avg-cpu:  %user   %nice %system %iowait  %steal   %idle
           0.06    0.00    0.53    2.59    0.00   96.81

Device:         rrqm/s   wrqm/s     r/s     w/s    rkB/s    wkB/s avgrq-sz avgqu-sz   await r_await w_await  svctm  %util
nvme0n1           0.00     0.00    0.00    0.00     0.00     0.00     0.00     0.00    0.00    0.00    0.00   0.00   0.00
sda               0.00    13.00    0.00    2.00     0.00    60.00    60.00     0.00    0.00    0.00    0.00   0.00   0.00
sdc               7.00     0.00 1606.00    0.00 22132.00     0.00    27.56     0.34    0.21    0.21    0.00   0.20  32.40
sdb               7.00     0.00 1629.00    0.00 17924.00     0.00    22.01     0.26    0.16    0.16    0.00   0.15  25.10
sdd              11.00     0.00 1618.00    0.00 20744.00     0.00    25.64     0.37    0.23    0.23    0.00   0.22  36.20
md0               0.00     0.00 4877.00    0.00 73180.00     0.00    30.01     0.00    0.00    0.00    0.00   0.00   0.00

