Linux 4.17.2 (bench2) 	08/04/2018 	_x86_64_	(32 CPU)

avg-cpu:  %user   %nice %system %iowait  %steal   %idle
           1.89    0.00    1.53    1.65    0.00   94.93

Device:         rrqm/s   wrqm/s     r/s     w/s    rkB/s    wkB/s avgrq-sz avgqu-sz   await r_await w_await  svctm  %util
nvme0n1         920.01     5.00 18547.01  510.66 103744.27 11516.83    12.10     1.32    0.05    0.03    0.67   0.02  38.83
sda               0.12     0.82   14.20    0.59   164.14     8.57    23.36     0.00    0.33    0.32    0.43   0.07   0.10
sdc              35.32     0.17  130.37    0.31  1928.64    95.85    30.99     0.19    1.48    0.59  381.84   0.89  11.59
sdb              33.32     0.18  132.33    0.33  1926.77    95.67    30.49     0.62    4.64    3.64  413.03   0.83  11.04
sdd              35.51     0.16  129.92    0.26  1924.78    95.35    31.04     0.93    7.15    5.37  909.23   0.89  11.64
md0               0.00     0.00  499.56    1.19  7159.96   345.76    29.98     0.00    0.00    0.00    0.00   0.00   0.00

avg-cpu:  %user   %nice %system %iowait  %steal   %idle
           0.00    0.00    0.00    4.13    0.00   95.87

Device:         rrqm/s   wrqm/s     r/s     w/s    rkB/s    wkB/s avgrq-sz avgqu-sz   await r_await w_await  svctm  %util
nvme0n1           0.00     0.00    0.00    0.00     0.00     0.00     0.00     0.00    0.00    0.00    0.00   0.00   0.00
sda               0.00     0.00    1.00    0.00     8.00     0.00    16.00     0.00    0.00    0.00    0.00   0.00   0.00
sdc             115.00     0.00  257.00    0.00  1504.00     0.00    11.70    93.87  255.99  255.99    0.00   3.89  99.90
sdb              74.00     0.00  274.00    0.00  1592.00     0.00    11.62    93.67  254.86  254.86    0.00   3.58  98.00
sdd              84.00     0.00  261.00    0.00  1516.00     0.00    11.62    93.35  261.46  261.46    0.00   3.75  98.00
md0               0.00     0.00  840.00    0.00  3360.00     0.00     8.00     0.00    0.00    0.00    0.00   0.00   0.00

avg-cpu:  %user   %nice %system %iowait  %steal   %idle
           0.00    0.00    0.06    2.78    0.00   97.15

Device:         rrqm/s   wrqm/s     r/s     w/s    rkB/s    wkB/s avgrq-sz avgqu-sz   await r_await w_await  svctm  %util
nvme0n1           0.00     0.00    0.00    0.00     0.00     0.00     0.00     0.00    0.00    0.00    0.00   0.00   0.00
sda               0.00     0.00    0.00    0.00     0.00     0.00     0.00     0.00    0.00    0.00    0.00   0.00   0.00
sdc             138.00     0.00  274.00    0.00  1592.00     0.00    11.62    62.78  315.49  315.49    0.00   3.30  90.40
sdb             129.00     0.00  265.00    0.00  1504.00     0.00    11.35    64.43  313.51  313.51    0.00   3.31  87.70
sdd             131.00     0.00  284.00    0.00  1584.00     0.00    11.15    71.88  324.72  324.72    0.00   3.45  98.00
md0               0.00     0.00 1374.00    0.00  5496.00     0.00     8.00     0.00    0.00    0.00    0.00   0.00   0.00

