Linux 4.17.2 (bench2) 	08/04/2018 	_x86_64_	(32 CPU)

avg-cpu:  %user   %nice %system %iowait  %steal   %idle
           1.89    0.00    1.54    1.62    0.00   94.95

Device:         rrqm/s   wrqm/s     r/s     w/s    rkB/s    wkB/s avgrq-sz avgqu-sz   await r_await w_await  svctm  %util
nvme0n1         928.01     5.04 18708.34  515.10 104646.63 11617.01    12.10     1.33    0.05    0.03    0.67   0.02  39.16
sda               0.12     0.82   14.18    0.58   164.06     8.56    23.39     0.00    0.33    0.32    0.44   0.07   0.10
sdc              34.91     0.17  124.92    0.31  1871.82    96.68    31.44     0.14    1.10    0.16  381.84   0.90  11.26
sdb              32.90     0.18  126.89    0.33  1869.90    96.51    30.91     0.56    4.44    3.38  413.03   0.84  10.71
sdd              35.11     0.17  124.46    0.26  1867.90    96.18    31.50     0.88    7.05    5.17  909.23   0.90  11.28
md0               0.00     0.00  482.00    1.20  6954.94   348.77    30.23     0.00    0.00    0.00    0.00   0.00   0.00

avg-cpu:  %user   %nice %system %iowait  %steal   %idle
           0.02    0.00    0.30    5.12    0.00   94.56

Device:         rrqm/s   wrqm/s     r/s     w/s    rkB/s    wkB/s avgrq-sz avgqu-sz   await r_await w_await  svctm  %util
nvme0n1           0.00     0.00    0.00    0.00     0.00     0.00     0.00     0.00    0.00    0.00    0.00   0.00   0.00
sda               0.00     1.00    3.75    1.20    27.60     9.60    15.03     0.00    0.08    0.08    0.08   0.04   0.02
sdc               0.00     0.00  739.65    0.00  2958.60     0.00     8.00     1.31    1.77    1.77    0.00   0.58  43.15
sdb               0.05     0.00  762.70    0.00  3051.00     0.00     8.00     1.34    1.75    1.75    0.00   0.57  43.17
sdd               0.10     0.00  754.95    0.00  3020.20     0.00     8.00     1.40    1.85    1.85    0.00   0.61  46.07
md0               0.00     0.00 2257.50    0.00  9030.00     0.00     8.00     0.00    0.00    0.00    0.00   0.00   0.00

