Linux 4.17.2 (bench2) 	08/04/2018 	_x86_64_	(32 CPU)

avg-cpu:  %user   %nice %system %iowait  %steal   %idle
           1.89    0.00    1.54    1.62    0.00   94.94

Device:         rrqm/s   wrqm/s     r/s     w/s    rkB/s    wkB/s avgrq-sz avgqu-sz   await r_await w_await  svctm  %util
nvme0n1         925.57     5.03 18659.05  513.74 104370.93 11586.40    12.10     1.33    0.05    0.03    0.67   0.02  39.06
sda               0.12     0.82   14.19    0.58   164.09     8.57    23.38     0.00    0.33    0.32    0.44   0.07   0.10
sdc              34.98     0.17  126.87    0.31  1889.05    96.42    31.22     0.15    1.15    0.23  381.84   0.89  11.35
sdb              32.97     0.18  128.84    0.33  1887.14    96.25    30.71     0.57    4.43    3.39  413.03   0.84  10.80
sdd              35.18     0.16  126.42    0.26  1885.15    95.93    31.28     0.89    6.99    5.15  909.23   0.90  11.38
md0               0.00     0.00  488.06    1.20  7016.20   347.85    30.10     0.00    0.00    0.00    0.00   0.00   0.00

avg-cpu:  %user   %nice %system %iowait  %steal   %idle
           0.31    0.00    3.89   10.94    0.00   84.85

Device:         rrqm/s   wrqm/s     r/s     w/s    rkB/s    wkB/s avgrq-sz avgqu-sz   await r_await w_await  svctm  %util
nvme0n1           0.00     0.00    0.00    0.00     0.00     0.00     0.00     0.00    0.00    0.00    0.00   0.00   0.00
sda               0.00     0.00    1.00    0.00     8.00     0.00    16.00     0.00    0.00    0.00    0.00   0.00   0.00
sdc             105.00     0.00  708.00    0.00 56740.00     0.00   160.28     3.85    5.32    5.32    0.00   0.96  67.80
sdb             103.00     0.00  705.00    0.00 56128.00     0.00   159.23     4.67    6.59    6.59    0.00   1.06  74.70
sdd              95.00     0.00  471.00    0.00 55512.00     0.00   235.72     2.22    4.62    4.62    0.00   1.28  60.50
md0               0.00     0.00 2278.00    0.00 234632.00     0.00   206.00     0.00    0.00    0.00    0.00   0.00   0.00

avg-cpu:  %user   %nice %system %iowait  %steal   %idle
           0.25    0.00    3.19    9.25    0.00   87.31

Device:         rrqm/s   wrqm/s     r/s     w/s    rkB/s    wkB/s avgrq-sz avgqu-sz   await r_await w_await  svctm  %util
nvme0n1           0.00     0.00    0.00    0.00     0.00     0.00     0.00     0.00    0.00    0.00    0.00   0.00   0.00
sda               0.00     0.00    0.00    0.00     0.00     0.00     0.00     0.00    0.00    0.00    0.00   0.00   0.00
sdc              86.00     0.00  422.00    0.00 51868.00     0.00   245.82     2.12    5.16    5.16    0.00   1.65  69.60
sdb              88.00     0.00  542.00    0.00 52664.00     0.00   194.33     4.58    8.41    8.41    0.00   1.19  64.30
sdd              85.00     0.00  509.00    0.00 52436.00     0.00   206.04     4.98    9.81    9.81    0.00   1.63  83.00
md0               0.00     0.00 1790.00    0.00 245856.00     0.00   274.70     0.00    0.00    0.00    0.00   0.00   0.00

