Linux 4.17.2 (bench2) 	08/04/2018 	_x86_64_	(32 CPU)

avg-cpu:  %user   %nice %system %iowait  %steal   %idle
           1.90    0.00    1.54    1.61    0.00   94.95

Device:         rrqm/s   wrqm/s     r/s     w/s    rkB/s    wkB/s avgrq-sz avgqu-sz   await r_await w_await  svctm  %util
nvme0n1         928.95     5.05 18727.31  515.62 104752.78 11628.79    12.10     1.33    0.05    0.03    0.67   0.02  39.20
sda               0.12     0.82   14.18    0.58   164.05     8.56    23.39     0.00    0.33    0.32    0.44   0.07   0.10
sdc              34.70     0.17  124.29    0.31  1864.56    96.78    31.48     0.13    1.04    0.09  381.84   0.90  11.23
sdb              32.68     0.19  126.27    0.33  1862.62    96.60    30.95     0.56    4.39    3.33  413.03   0.84  10.68
sdd              34.89     0.17  123.84    0.26  1860.62    96.28    31.54     0.87    7.01    5.13  909.23   0.91  11.24
md0               0.00     0.00  479.49    1.20  6929.11   349.12    30.28     0.00    0.00    0.00    0.00   0.00   0.00

avg-cpu:  %user   %nice %system %iowait  %steal   %idle
           0.00    0.00    0.19    0.13    0.00   99.69

Device:         rrqm/s   wrqm/s     r/s     w/s    rkB/s    wkB/s avgrq-sz avgqu-sz   await r_await w_await  svctm  %util
nvme0n1           0.00     0.00    0.00    0.00     0.00     0.00     0.00     0.00    0.00    0.00    0.00   0.00   0.00
sda               0.00     0.00   19.00    0.00    80.00     0.00     8.42     0.01    0.63    0.63    0.00   0.05   0.10
sdc            1117.00     0.00  395.00    0.00  6716.00     0.00    34.01    27.50   65.72   65.72    0.00   2.44  96.50
sdb            1241.00     0.00  388.00    0.00  6740.00     0.00    34.74    24.32   58.43   58.43    0.00   2.05  79.70
sdd            1246.00     0.00  393.00    0.00  6264.00     0.00    31.88    23.69   55.96   55.96    0.00   2.20  86.60
md0               0.00     0.00 4670.00    0.00 18680.00     0.00     8.00     0.00    0.00    0.00    0.00   0.00   0.00

avg-cpu:  %user   %nice %system %iowait  %steal   %idle
           0.00    0.00    0.09    0.06    0.00   99.84

Device:         rrqm/s   wrqm/s     r/s     w/s    rkB/s    wkB/s avgrq-sz avgqu-sz   await r_await w_await  svctm  %util
nvme0n1           0.00     0.00    0.00    0.00     0.00     0.00     0.00     0.00    0.00    0.00    0.00   0.00   0.00
sda               0.00    10.00    0.00    2.00     0.00    48.00    48.00     0.00    0.00    0.00    0.00   0.00   0.00
sdc            1185.00     0.00  405.00    0.00  6644.00     0.00    32.81    25.92   66.60   66.60    0.00   2.29  92.80
sdb            1238.00     0.00  367.00    0.00  6992.00     0.00    38.10    22.42   62.30   62.30    0.00   2.29  84.00
sdd            1156.00     0.00  381.00    0.00  6968.00     0.00    36.58    19.76   54.01   54.01    0.00   2.08  79.20
md0               0.00     0.00 4664.00    0.00 18656.00     0.00     8.00     0.00    0.00    0.00    0.00   0.00   0.00

