Linux 4.17.2 (bench2) 	08/04/2018 	_x86_64_	(32 CPU)

avg-cpu:  %user   %nice %system %iowait  %steal   %idle
           1.90    0.00    1.54    1.61    0.00   94.95

Device:         rrqm/s   wrqm/s     r/s     w/s    rkB/s    wkB/s avgrq-sz avgqu-sz   await r_await w_await  svctm  %util
nvme0n1         929.04     5.05 18729.12  515.67 104762.90 11629.91    12.10     1.33    0.05    0.03    0.67   0.02  39.21
sda               0.12     0.82   14.18    0.58   164.05     8.56    23.39     0.00    0.33    0.32    0.44   0.07   0.10
sdc              34.68     0.17  124.28    0.31  1863.66    96.79    31.47     0.13    1.02    0.08  381.84   0.90  11.22
sdb              32.66     0.19  126.25    0.33  1861.72    96.61    30.94     0.56    4.38    3.32  413.03   0.84  10.67
sdd              34.88     0.17  123.82    0.26  1859.72    96.29    31.53     0.87    7.00    5.12  909.23   0.91  11.23
md0               0.00     0.00  479.39    1.20  6925.72   349.16    30.27     0.00    0.00    0.00    0.00   0.00   0.00

avg-cpu:  %user   %nice %system %iowait  %steal   %idle
           0.00    0.00    0.08   35.94    0.00   63.98

Device:         rrqm/s   wrqm/s     r/s     w/s    rkB/s    wkB/s avgrq-sz avgqu-sz   await r_await w_await  svctm  %util
nvme0n1           0.00     0.00    0.00    0.00     0.00     0.00     0.00     0.00    0.00    0.00    0.00   0.00   0.00
sda               0.00     1.30    0.20    1.45     5.20    13.20    22.30     0.00    0.06    0.00    0.07   0.06   0.01
sdc               0.05     0.00  199.40    0.00  2893.00     0.00    29.02     5.75   28.83   28.83    0.00   4.64  92.47
sdb               0.20     0.00  203.05    0.00  2846.60     0.00    28.04     5.46   26.87   26.87    0.00   4.49  91.10
sdd               0.10     0.00  196.40    0.00  2804.60     0.00    28.56     4.34   22.01   22.01    0.00   4.45  87.46
md0               0.00     0.00  600.25    0.00  9244.40     0.00    30.80     0.00    0.00    0.00    0.00   0.00   0.00

