Linux 4.17.2 (bench2) 	08/04/2018 	_x86_64_	(32 CPU)

avg-cpu:  %user   %nice %system %iowait  %steal   %idle
           1.90    0.00    1.55    1.60    0.00   94.96

Device:         rrqm/s   wrqm/s     r/s     w/s    rkB/s    wkB/s avgrq-sz avgqu-sz   await r_await w_await  svctm  %util
nvme0n1         932.54     5.06 18799.54  517.61 105156.78 11673.64    12.10     1.34    0.05    0.03    0.67   0.02  39.35
sda               0.12     0.82   14.17    0.58   164.02     8.56    23.40     0.00    0.33    0.32    0.44   0.07   0.10
sdc              34.59     0.17  121.90    0.31  1839.13    97.15    31.69     0.10    0.86   12.40  381.84   0.91  11.08
sdb              32.56     0.19  123.88    0.33  1837.18    96.98    31.14     0.53    4.30    3.21  413.03   0.85  10.53
sdd              34.78     0.17  121.44    0.26  1835.19    96.65    31.75     0.85    6.97    5.04  909.23   0.91  11.08
md0               0.00     0.00  471.98    1.20  6836.94   350.47    30.38     0.00    0.00    0.00    0.00   0.00   0.00

avg-cpu:  %user   %nice %system %iowait  %steal   %idle
           0.03    0.00    0.34    8.15    0.00   91.48

Device:         rrqm/s   wrqm/s     r/s     w/s    rkB/s    wkB/s avgrq-sz avgqu-sz   await r_await w_await  svctm  %util
nvme0n1           0.00     0.00    0.00    0.00     0.00     0.00     0.00     0.00    0.00    0.00    0.00   0.00   0.00
sda               0.00     0.00   22.00    0.00   124.00     0.00    11.27     0.01    0.36    0.36    0.00   0.05   0.10
sdc               0.00     0.00  983.00    0.00  3932.00     0.00     8.00     1.19    1.21    1.21    0.00   0.44  43.50
sdb               0.00     0.00 1004.00    0.00  4016.00     0.00     8.00     1.92    1.87    1.87    0.00   0.64  64.70
sdd               0.00     0.00  949.00    0.00  3796.00     0.00     8.00     1.03    1.09    1.09    0.00   0.37  35.40
md0               0.00     0.00 2939.00    0.00 11756.00     0.00     8.00     0.00    0.00    0.00    0.00   0.00   0.00

avg-cpu:  %user   %nice %system %iowait  %steal   %idle
           0.03    0.00    0.34    8.65    0.00   90.98

Device:         rrqm/s   wrqm/s     r/s     w/s    rkB/s    wkB/s avgrq-sz avgqu-sz   await r_await w_await  svctm  %util
nvme0n1           0.00     0.00    0.00    0.00     0.00     0.00     0.00     0.00    0.00    0.00    0.00   0.00   0.00
sda               0.00     0.00    0.00    0.00     0.00     0.00     0.00     0.00    0.00    0.00    0.00   0.00   0.00
sdc               0.00     0.00  951.00    0.00  3804.00     0.00     8.00     1.37    1.44    1.44    0.00   0.50  47.50
sdb               0.00     0.00  997.00    0.00  3988.00     0.00     8.00     1.81    1.86    1.86    0.00   0.64  64.00
sdd               0.00     0.00 1052.00    0.00  4208.00     0.00     8.00     1.26    1.19    1.19    0.00   0.39  40.70
md0               0.00     0.00 3003.00    0.00 12012.00     0.00     8.00     0.00    0.00    0.00    0.00   0.00   0.00

avg-cpu:  %user   %nice %system %iowait  %steal   %idle
           0.03    0.00    0.38    7.73    0.00   91.86

Device:         rrqm/s   wrqm/s     r/s     w/s    rkB/s    wkB/s avgrq-sz avgqu-sz   await r_await w_await  svctm  %util
nvme0n1           0.00     0.00    0.00    0.00     0.00     0.00     0.00     0.00    0.00    0.00    0.00   0.00   0.00
sda               0.00     0.00    0.00    0.00     0.00     0.00     0.00     0.00    0.00    0.00    0.00   0.00   0.00
sdc               0.00     0.00  965.00    0.00  3860.00     0.00     8.00     1.20    1.25    1.25    0.00   0.45  43.50
sdb               0.00     0.00  978.00    0.00  3912.00     0.00     8.00     1.83    1.87    1.87    0.00   0.69  67.30
sdd               0.00     0.00  950.00    0.00  3800.00     0.00     8.00     0.93    0.97    0.97    0.00   0.35  33.10
md0               0.00     0.00 2888.00    0.00 11552.00     0.00     8.00     0.00    0.00    0.00    0.00   0.00   0.00

avg-cpu:  %user   %nice %system %iowait  %steal   %idle
           0.03    0.00    0.25    6.83    0.00   92.89

Device:         rrqm/s   wrqm/s     r/s     w/s    rkB/s    wkB/s avgrq-sz avgqu-sz   await r_await w_await  svctm  %util
nvme0n1           0.00     0.00    0.00    0.00     0.00     0.00     0.00     0.00    0.00    0.00    0.00   0.00   0.00
sda               0.00     0.00    0.00    0.00     0.00     0.00     0.00     0.00    0.00    0.00    0.00   0.00   0.00
sdc               0.00     0.00  817.00    0.00  3268.00     0.00     8.00     1.47    1.80    1.80    0.00   0.69  56.70
sdb               0.00     0.00  817.00    0.00  3268.00     0.00     8.00     1.01    1.24    1.24    0.00   0.52  42.40
sdd               0.00     0.00  863.00    0.00  3452.00     0.00     8.00     1.12    1.30    1.30    0.00   0.47  40.70
md0               0.00     0.00 2497.00    0.00  9988.00     0.00     8.00     0.00    0.00    0.00    0.00   0.00   0.00

avg-cpu:  %user   %nice %system %iowait  %steal   %idle
           0.00    0.00    0.22    6.89    0.00   92.89

Device:         rrqm/s   wrqm/s     r/s     w/s    rkB/s    wkB/s avgrq-sz avgqu-sz   await r_await w_await  svctm  %util
nvme0n1           0.00     0.00    0.00    0.00     0.00     0.00     0.00     0.00    0.00    0.00    0.00   0.00   0.00
sda               0.00     0.00    0.00    0.00     0.00     0.00     0.00     0.00    0.00    0.00    0.00   0.00   0.00
sdc               0.00     0.00  740.00    0.00  2960.00     0.00     8.00     1.16    1.56    1.56    0.00   0.71  52.30
sdb               0.00     0.00  713.00    0.00  2852.00     0.00     8.00     1.06    1.49    1.49    0.00   0.69  49.30
sdd               0.00     0.00  722.00    0.00  2888.00     0.00     8.00     1.17    1.62    1.62    0.00   0.58  42.10
md0               0.00     0.00 2175.00    0.00  8700.00     0.00     8.00     0.00    0.00    0.00    0.00   0.00   0.00

avg-cpu:  %user   %nice %system %iowait  %steal   %idle
           0.03    0.00    0.19    6.61    0.00   93.17

Device:         rrqm/s   wrqm/s     r/s     w/s    rkB/s    wkB/s avgrq-sz avgqu-sz   await r_await w_await  svctm  %util
nvme0n1           0.00     0.00    0.00    0.00     0.00     0.00     0.00     0.00    0.00    0.00    0.00   0.00   0.00
sda               0.00     9.00    0.00    2.00     0.00    44.00    44.00     0.00    0.50    0.00    0.50   0.50   0.10
sdc               0.00     0.00  714.00    0.00  2856.00     0.00     8.00     1.10    1.55    1.55    0.00   0.67  47.60
sdb               0.00     0.00  808.00    0.00  3232.00     0.00     8.00     1.08    1.34    1.34    0.00   0.60  48.70
sdd               0.00     0.00  742.00    0.00  2968.00     0.00     8.00     1.28    1.69    1.69    0.00   0.72  53.20
md0               0.00     0.00 2266.00    0.00  9064.00     0.00     8.00     0.00    0.00    0.00    0.00   0.00   0.00

avg-cpu:  %user   %nice %system %iowait  %steal   %idle
           0.00    0.00    0.19    6.92    0.00   92.90

Device:         rrqm/s   wrqm/s     r/s     w/s    rkB/s    wkB/s avgrq-sz avgqu-sz   await r_await w_await  svctm  %util
nvme0n1           0.00     0.00    0.00    0.00     0.00     0.00     0.00     0.00    0.00    0.00    0.00   0.00   0.00
sda               0.00     0.00    0.00    0.00     0.00     0.00     0.00     0.00    0.00    0.00    0.00   0.00   0.00
sdc               0.00     0.00  598.00    0.00  2392.00     0.00     8.00     1.29    2.13    2.13    0.00   0.94  56.50
sdb               0.00     0.00  612.00    0.00  2448.00     0.00     8.00     1.00    1.64    1.64    0.00   0.67  41.30
sdd               0.00     0.00  555.00    0.00  2220.00     0.00     8.00     1.10    2.05    2.05    0.00   0.90  50.20
md0               0.00     0.00 1764.00    0.00  7056.00     0.00     8.00     0.00    0.00    0.00    0.00   0.00   0.00

avg-cpu:  %user   %nice %system %iowait  %steal   %idle
           0.03    0.00    0.25    6.89    0.00   92.83

Device:         rrqm/s   wrqm/s     r/s     w/s    rkB/s    wkB/s avgrq-sz avgqu-sz   await r_await w_await  svctm  %util
nvme0n1           0.00     0.00    0.00    0.00     0.00     0.00     0.00     0.00    0.00    0.00    0.00   0.00   0.00
sda               0.00     0.00    0.00    0.00     0.00     0.00     0.00     0.00    0.00    0.00    0.00   0.00   0.00
sdc               0.00     0.00  701.00    0.00  2804.00     0.00     8.00     1.36    1.96    1.96    0.00   0.88  61.50
sdb               0.00     0.00  687.00    0.00  2748.00     0.00     8.00     0.58    0.84    0.84    0.00   0.31  21.60
sdd               0.00     0.00  758.00    0.00  3032.00     0.00     8.00     1.56    2.06    2.06    0.00   0.83  62.80
md0               0.00     0.00 2145.00    0.00  8580.00     0.00     8.00     0.00    0.00    0.00    0.00   0.00   0.00

avg-cpu:  %user   %nice %system %iowait  %steal   %idle
           0.03    0.00    0.22    6.48    0.00   93.27

Device:         rrqm/s   wrqm/s     r/s     w/s    rkB/s    wkB/s avgrq-sz avgqu-sz   await r_await w_await  svctm  %util
nvme0n1           0.00     0.00    0.00    0.00     0.00     0.00     0.00     0.00    0.00    0.00    0.00   0.00   0.00
sda               0.00     0.00    0.00    0.00     0.00     0.00     0.00     0.00    0.00    0.00    0.00   0.00   0.00
sdc               0.00     0.00  778.00    0.00  3112.00     0.00     8.00     1.54    1.99    1.99    0.00   0.94  73.40
sdb               0.00     0.00  727.00    0.00  2908.00     0.00     8.00     0.63    0.86    0.86    0.00   0.30  21.80
sdd               0.00     0.00  687.00    0.00  2748.00     0.00     8.00     1.00    1.44    1.44    0.00   0.69  47.60
md0               0.00     0.00 2196.00    0.00  8784.00     0.00     8.00     0.00    0.00    0.00    0.00   0.00   0.00

avg-cpu:  %user   %nice %system %iowait  %steal   %idle
           0.00    0.00    0.22    6.58    0.00   93.20

Device:         rrqm/s   wrqm/s     r/s     w/s    rkB/s    wkB/s avgrq-sz avgqu-sz   await r_await w_await  svctm  %util
nvme0n1           0.00     0.00    0.00    0.00     0.00     0.00     0.00     0.00    0.00    0.00    0.00   0.00   0.00
sda               0.00     0.00    0.00    0.00     0.00     0.00     0.00     0.00    0.00    0.00    0.00   0.00   0.00
sdc               0.00     0.00  769.00    0.00  3076.00     0.00     8.00     1.60    2.07    2.07    0.00   0.92  71.00
sdb               0.00     0.00  756.00    0.00  3024.00     0.00     8.00     0.47    0.63    0.63    0.00   0.26  19.90
sdd               0.00     0.00  784.00    0.00  3136.00     0.00     8.00     1.26    1.62    1.62    0.00   0.58  45.10
md0               0.00     0.00 2308.00    0.00  9232.00     0.00     8.00     0.00    0.00    0.00    0.00   0.00   0.00

avg-cpu:  %user   %nice %system %iowait  %steal   %idle
           0.03    0.00    0.25    5.95    0.00   93.77

Device:         rrqm/s   wrqm/s     r/s     w/s    rkB/s    wkB/s avgrq-sz avgqu-sz   await r_await w_await  svctm  %util
nvme0n1           0.00     0.00    0.00    0.00     0.00     0.00     0.00     0.00    0.00    0.00    0.00   0.00   0.00
sda               0.00     1.00    0.00    2.00     0.00    12.00    12.00     0.00    0.00    0.00    0.00   0.00   0.00
sdc               0.00     0.00  766.00    0.00  3064.00     0.00     8.00     1.54    2.01    2.01    0.00   0.93  71.50
sdb               0.00     0.00  806.00    0.00  3224.00     0.00     8.00     0.97    1.20    1.20    0.00   0.41  33.20
sdd               0.00     0.00  810.00    0.00  3240.00     0.00     8.00     0.98    1.22    1.22    0.00   0.55  44.70
md0               0.00     0.00 2379.00    0.00  9516.00     0.00     8.00     0.00    0.00    0.00    0.00   0.00   0.00

avg-cpu:  %user   %nice %system %iowait  %steal   %idle
           0.06    0.00    0.28    5.79    0.00   93.86

Device:         rrqm/s   wrqm/s     r/s     w/s    rkB/s    wkB/s avgrq-sz avgqu-sz   await r_await w_await  svctm  %util
nvme0n1           0.00     0.00    0.00    0.00     0.00     0.00     0.00     0.00    0.00    0.00    0.00   0.00   0.00
sda               0.00     0.00    0.00    0.00     0.00     0.00     0.00     0.00    0.00    0.00    0.00   0.00   0.00
sdc               0.00     0.00  874.00    0.00  3496.00     0.00     8.00     1.74    1.99    1.99    0.00   0.81  70.60
sdb               0.00     0.00  950.00    0.00  3800.00     0.00     8.00     1.11    1.17    1.17    0.00   0.37  35.30
sdd               0.00     0.00  847.00    0.00  3388.00     0.00     8.00     0.81    0.94    0.94    0.00   0.37  31.70
md0               0.00     0.00 2675.00    0.00 10700.00     0.00     8.00     0.00    0.00    0.00    0.00   0.00   0.00

avg-cpu:  %user   %nice %system %iowait  %steal   %idle
           0.03    0.00    0.50    6.39    0.00   93.08

Device:         rrqm/s   wrqm/s     r/s     w/s    rkB/s    wkB/s avgrq-sz avgqu-sz   await r_await w_await  svctm  %util
nvme0n1           0.00     0.00    0.00    0.00     0.00     0.00     0.00     0.00    0.00    0.00    0.00   0.00   0.00
sda               0.00     2.00    0.00    3.00     0.00    36.00    24.00     0.00    0.00    0.00    0.00   0.00   0.00
sdc               0.00     0.00 1238.00    0.00  4952.00     0.00     8.00     1.33    1.07    1.07    0.00   0.35  43.50
sdb               0.00     0.00 1222.00    0.00  4888.00     0.00     8.00     1.71    1.40    1.40    0.00   0.45  55.30
sdd               0.00     0.00 1205.00    0.00  4820.00     0.00     8.00     1.68    1.41    1.41    0.00   0.45  54.20
md0               0.00     0.00 3661.00    0.00 14644.00     0.00     8.00     0.00    0.00    0.00    0.00   0.00   0.00

avg-cpu:  %user   %nice %system %iowait  %steal   %idle
           0.06    0.00    0.47    5.48    0.00   93.98

Device:         rrqm/s   wrqm/s     r/s     w/s    rkB/s    wkB/s avgrq-sz avgqu-sz   await r_await w_await  svctm  %util
nvme0n1           0.00     0.00    0.00    0.00     0.00     0.00     0.00     0.00    0.00    0.00    0.00   0.00   0.00
sda               0.00     0.00    0.00    0.00     0.00     0.00     0.00     0.00    0.00    0.00    0.00   0.00   0.00
sdc               0.00     0.00 1216.00    0.00  4864.00     0.00     8.00     1.45    1.20    1.20    0.00   0.37  44.50
sdb               0.00     0.00 1204.00    0.00  4816.00     0.00     8.00     1.24    1.03    1.03    0.00   0.35  41.70
sdd               0.00     0.00 1191.00    0.00  4764.00     0.00     8.00     1.69    1.41    1.41    0.00   0.48  57.50
md0               0.00     0.00 3613.00    0.00 14452.00     0.00     8.00     0.00    0.00    0.00    0.00   0.00   0.00

avg-cpu:  %user   %nice %system %iowait  %steal   %idle
           0.00    0.00    0.50    5.63    0.00   93.87

Device:         rrqm/s   wrqm/s     r/s     w/s    rkB/s    wkB/s avgrq-sz avgqu-sz   await r_await w_await  svctm  %util
nvme0n1           0.00     0.00    0.00    0.00     0.00     0.00     0.00     0.00    0.00    0.00    0.00   0.00   0.00
sda               0.00     0.00    0.00    0.00     0.00     0.00     0.00     0.00    0.00    0.00    0.00   0.00   0.00
sdc               0.00     0.00 1185.00    0.00  4740.00     0.00     8.00     1.28    1.07    1.07    0.00   0.36  42.30
sdb               0.00     0.00 1055.00    0.00  4220.00     0.00     8.00     1.35    1.28    1.28    0.00   0.48  50.30
sdd               0.00     0.00 1052.00    0.00  4208.00     0.00     8.00     1.76    1.68    1.68    0.00   0.56  58.60
md0               0.00     0.00 3293.00    0.00 13172.00     0.00     8.00     0.00    0.00    0.00    0.00   0.00   0.00

avg-cpu:  %user   %nice %system %iowait  %steal   %idle
           0.03    0.00    0.44    4.75    0.00   94.78

Device:         rrqm/s   wrqm/s     r/s     w/s    rkB/s    wkB/s avgrq-sz avgqu-sz   await r_await w_await  svctm  %util
nvme0n1           0.00     0.00    0.00    0.00     0.00     0.00     0.00     0.00    0.00    0.00    0.00   0.00   0.00
sda               0.00     3.00    0.00    2.00     0.00    20.00    20.00     0.00    0.00    0.00    0.00   0.00   0.00
sdc               0.00     0.00  899.00    0.00  3596.00     0.00     8.00     0.73    0.84    0.84    0.00   0.32  28.80
sdb               0.00     0.00  912.00    0.00  3648.00     0.00     8.00     1.24    1.35    1.35    0.00   0.51  46.70
sdd               0.00     0.00  859.00    0.00  3436.00     0.00     8.00     1.72    1.98    1.98    0.00   0.76  64.90
md0               0.00     0.00 2674.00    0.00 10696.00     0.00     8.00     0.00    0.00    0.00    0.00   0.00   0.00

avg-cpu:  %user   %nice %system %iowait  %steal   %idle
           0.00    0.00    0.31    2.79    0.00   96.90

Device:         rrqm/s   wrqm/s     r/s     w/s    rkB/s    wkB/s avgrq-sz avgqu-sz   await r_await w_await  svctm  %util
nvme0n1           0.00     0.00    0.00    0.00     0.00     0.00     0.00     0.00    0.00    0.00    0.00   0.00   0.00
sda               0.00     0.00    0.00    0.00     0.00     0.00     0.00     0.00    0.00    0.00    0.00   0.00   0.00
sdc               0.00     0.00  926.00    0.00  3704.00     0.00     8.00     1.30    1.41    1.41    0.00   0.50  46.40
sdb               0.00     0.00  924.00    0.00  3696.00     0.00     8.00     1.37    1.49    1.49    0.00   0.59  54.30
sdd               0.00     0.00  922.00    0.00  3688.00     0.00     8.00     1.00    1.10    1.10    0.00   0.41  37.90
md0               0.00     0.00 2768.00    0.00 11072.00     0.00     8.00     0.00    0.00    0.00    0.00   0.00   0.00

avg-cpu:  %user   %nice %system %iowait  %steal   %idle
           0.03    0.00    0.31    2.88    0.00   96.78

Device:         rrqm/s   wrqm/s     r/s     w/s    rkB/s    wkB/s avgrq-sz avgqu-sz   await r_await w_await  svctm  %util
nvme0n1           0.00     0.00    0.00    0.00     0.00     0.00     0.00     0.00    0.00    0.00    0.00   0.00   0.00
sda               0.00     0.00    0.00    0.00     0.00     0.00     0.00     0.00    0.00    0.00    0.00   0.00   0.00
sdc               0.00     0.00  747.00    0.00  2988.00     0.00     8.00     1.02    1.37    1.37    0.00   0.58  43.60
sdb               0.00     0.00  841.00    0.00  3364.00     0.00     8.00     1.07    1.27    1.27    0.00   0.59  49.60
sdd               0.00     0.00  771.00    0.00  3084.00     0.00     8.00     1.28    1.68    1.68    0.00   0.72  55.40
md0               0.00     0.00 2362.00    0.00  9448.00     0.00     8.00     0.00    0.00    0.00    0.00   0.00   0.00

avg-cpu:  %user   %nice %system %iowait  %steal   %idle
           0.03    0.00    0.31    3.10    0.00   96.56

Device:         rrqm/s   wrqm/s     r/s     w/s    rkB/s    wkB/s avgrq-sz avgqu-sz   await r_await w_await  svctm  %util
nvme0n1           0.00     0.00    0.00    0.00     0.00     0.00     0.00     0.00    0.00    0.00    0.00   0.00   0.00
sda               0.00     0.00    0.00    0.00     0.00     0.00     0.00     0.00    0.00    0.00    0.00   0.00   0.00
sdc               0.00     0.00  823.00    0.00  3292.00     0.00     8.00     0.84    1.02    1.02    0.00   0.38  31.30
sdb               0.00     0.00  840.00    0.00  3360.00     0.00     8.00     1.45    1.73    1.73    0.00   0.64  54.10
sdd               0.00     0.00  881.00    0.00  3524.00     0.00     8.00     1.55    1.76    1.76    0.00   0.61  53.90
md0               0.00     0.00 2538.00    0.00 10152.00     0.00     8.00     0.00    0.00    0.00    0.00   0.00   0.00

avg-cpu:  %user   %nice %system %iowait  %steal   %idle
           0.03    0.00    0.28    3.00    0.00   96.68

Device:         rrqm/s   wrqm/s     r/s     w/s    rkB/s    wkB/s avgrq-sz avgqu-sz   await r_await w_await  svctm  %util
nvme0n1           0.00     0.00    0.00    0.00     0.00     0.00     0.00     0.00    0.00    0.00    0.00   0.00   0.00
sda               0.00     0.00    0.00    0.00     0.00     0.00     0.00     0.00    0.00    0.00    0.00   0.00   0.00
sdc               0.00     0.00  691.00    0.00  2764.00     0.00     8.00     0.64    0.93    0.93    0.00   0.32  22.30
sdb               0.00     0.00  676.00    0.00  2704.00     0.00     8.00     1.47    2.13    2.13    0.00   0.92  62.00
sdd               1.00     0.00  696.00    0.00  2788.00     0.00     8.01     1.33    1.91    1.91    0.00   0.76  52.80
md0               0.00     0.00 2068.00    0.00  8272.00     0.00     8.00     0.00    0.00    0.00    0.00   0.00   0.00

