Linux 4.17.2 (bench2) 	08/04/2018 	_x86_64_	(32 CPU)

avg-cpu:  %user   %nice %system %iowait  %steal   %idle
           1.89    0.00    1.54    1.63    0.00   94.94

Device:         rrqm/s   wrqm/s     r/s     w/s    rkB/s    wkB/s avgrq-sz avgqu-sz   await r_await w_await  svctm  %util
nvme0n1         923.32     5.01 18613.67  512.49 104117.10 11558.22    12.10     1.32    0.05    0.03    0.67   0.02  38.97
sda               0.12     0.82   14.19    0.59   164.10     8.57    23.37     0.00    0.33    0.32    0.44   0.07   0.10
sdc              35.27     0.17  128.21    0.31  1905.33    96.19    31.15     0.17    1.33    0.42  381.84   0.89  11.45
sdb              33.26     0.18  130.18    0.33  1903.43    96.02    30.64     0.60    4.56    3.54  413.03   0.84  10.90
sdd              35.46     0.16  127.76    0.26  1901.46    95.70    31.20     0.91    7.11    5.29  909.23   0.90  11.49
md0               0.00     0.00  492.96    1.19  7074.98   347.00    30.04     0.00    0.00    0.00    0.00   0.00   0.00

avg-cpu:  %user   %nice %system %iowait  %steal   %idle
           0.02    0.00    0.31    2.78    0.00   96.89

Device:         rrqm/s   wrqm/s     r/s     w/s    rkB/s    wkB/s avgrq-sz avgqu-sz   await r_await w_await  svctm  %util
nvme0n1           0.00     0.00    0.00    0.00     0.00     0.00     0.00     0.00    0.00    0.00    0.00   0.00   0.00
sda               0.00     1.20    5.55    0.40    35.40     7.20    14.32     0.00    0.24    0.24    0.12   0.05   0.03
sdc               0.00     0.00 1963.95    0.00  7855.80     0.00     8.00     0.30    0.16    0.16    0.00   0.16  30.48
sdb               0.00     0.00 1984.55    0.00  7938.20     0.00     8.00     0.31    0.16    0.16    0.00   0.16  31.20
sdd               0.00     0.00 1977.55    0.00  7910.20     0.00     8.00     0.31    0.16    0.16    0.00   0.16  31.27
md0               0.00     0.00 5926.15    0.00 23704.60     0.00     8.00     0.00    0.00    0.00    0.00   0.00   0.00

