Linux 4.17.2 (bench2) 	08/04/2018 	_x86_64_	(32 CPU)

avg-cpu:  %user   %nice %system %iowait  %steal   %idle
           1.89    0.00    1.54    1.63    0.00   94.94

Device:         rrqm/s   wrqm/s     r/s     w/s    rkB/s    wkB/s avgrq-sz avgqu-sz   await r_await w_await  svctm  %util
nvme0n1         925.24     5.03 18652.55  513.56 104334.61 11582.37    12.10     1.33    0.05    0.03    0.67   0.02  39.05
sda               0.12     0.82   14.19    0.58   164.10     8.57    23.38     0.00    0.33    0.32    0.44   0.07   0.10
sdc              34.97     0.17  126.91    0.31  1889.14    96.39    31.21     0.15    1.16    0.24  381.84   0.89  11.37
sdb              32.96     0.18  128.88    0.33  1887.22    96.22    30.70     0.57    4.44    3.40  413.03   0.84  10.82
sdd              35.16     0.16  126.46    0.26  1885.24    95.90    31.27     0.89    7.00    5.17  909.23   0.90  11.40
md0               0.00     0.00  488.15    1.20  7016.42   347.73    30.10     0.00    0.00    0.00    0.00   0.00   0.00

avg-cpu:  %user   %nice %system %iowait  %steal   %idle
           0.01    0.00    0.22    0.94    0.00   98.82

Device:         rrqm/s   wrqm/s     r/s     w/s    rkB/s    wkB/s avgrq-sz avgqu-sz   await r_await w_await  svctm  %util
nvme0n1           0.00     0.00    0.00    0.00     0.00     0.00     0.00     0.00    0.00    0.00    0.00   0.00   0.00
sda               0.00     1.35    4.35    1.35    32.40    11.60    15.44     0.00    0.43    0.55    0.04   0.07   0.04
sdc               5.05     0.00  358.00    0.00  1452.20     0.00     8.11    14.09   39.35   39.35    0.00   2.44  87.18
sdb               6.00     0.00  352.65    0.00  1434.80     0.00     8.14    13.14   37.17   37.17    0.00   2.36  83.12
sdd               4.95     0.00  359.25    0.00  1456.80     0.00     8.11    13.55   37.70   37.70    0.00   2.35  84.48
md0               0.00     0.00 1086.70    0.00  4346.80     0.00     8.00     0.00    0.00    0.00    0.00   0.00   0.00

