Linux 4.17.2 (bench2) 	08/04/2018 	_x86_64_	(32 CPU)

avg-cpu:  %user   %nice %system %iowait  %steal   %idle
           1.89    0.00    1.54    1.63    0.00   94.94

Device:         rrqm/s   wrqm/s     r/s     w/s    rkB/s    wkB/s avgrq-sz avgqu-sz   await r_await w_await  svctm  %util
nvme0n1         925.40     5.03 18655.67  513.65 104352.05 11584.31    12.10     1.33    0.05    0.03    0.67   0.02  39.05
sda               0.12     0.82   14.19    0.58   164.09     8.57    23.38     0.00    0.33    0.32    0.44   0.07   0.10
sdc              34.97     0.17  126.89    0.31  1889.13    96.41    31.22     0.15    1.16    0.24  381.84   0.89  11.36
sdb              32.96     0.18  128.86    0.33  1887.22    96.23    30.71     0.57    4.43    3.40  413.03   0.84  10.81
sdd              35.17     0.16  126.44    0.26  1885.23    95.91    31.27     0.89    7.00    5.16  909.23   0.90  11.39
md0               0.00     0.00  488.11    1.20  7016.56   347.79    30.10     0.00    0.00    0.00    0.00   0.00   0.00

avg-cpu:  %user   %nice %system %iowait  %steal   %idle
           0.03    0.00    0.09    3.50    0.00   96.37

Device:         rrqm/s   wrqm/s     r/s     w/s    rkB/s    wkB/s avgrq-sz avgqu-sz   await r_await w_await  svctm  %util
nvme0n1           0.00     0.00    0.00    0.00     0.00     0.00     0.00     0.00    0.00    0.00    0.00   0.00   0.00
sda               0.00     0.00  127.00    0.00   808.00     0.00    12.72     0.03    0.24    0.24    0.00   0.04   0.50
sdc               0.00     0.00  179.00    0.00   740.00     0.00     8.27     3.68   20.56   20.56    0.00   5.37  96.20
sdb               0.00     0.00  134.00    0.00   560.00     0.00     8.36     1.48   11.03   11.03    0.00   5.24  70.20
sdd               0.00     0.00  132.00    0.00   536.00     0.00     8.12     1.19    8.41    8.41    0.00   4.24  56.00
md0               0.00     0.00  447.00    0.00  1856.00     0.00     8.30     0.00    0.00    0.00    0.00   0.00   0.00

avg-cpu:  %user   %nice %system %iowait  %steal   %idle
           0.00    0.00    0.06    3.25    0.00   96.69

Device:         rrqm/s   wrqm/s     r/s     w/s    rkB/s    wkB/s avgrq-sz avgqu-sz   await r_await w_await  svctm  %util
nvme0n1           0.00     0.00    0.00    0.00     0.00     0.00     0.00     0.00    0.00    0.00    0.00   0.00   0.00
sda               0.00     0.00    0.00    0.00     0.00     0.00     0.00     0.00    0.00    0.00    0.00   0.00   0.00
sdc               0.00     0.00  166.00    0.00   688.00     0.00     8.29     2.67   15.68   15.68    0.00   5.08  84.30
sdb               0.00     0.00  155.00    0.00   656.00     0.00     8.46     1.67   10.75   10.75    0.00   4.23  65.50
sdd               0.00     0.00  156.00    0.00   636.00     0.00     8.15     1.82   12.14   12.14    0.00   4.38  68.40
md0               0.00     0.00  478.00    0.00  1984.00     0.00     8.30     0.00    0.00    0.00    0.00   0.00   0.00

avg-cpu:  %user   %nice %system %iowait  %steal   %idle
           0.00    0.00    0.03    3.03    0.00   96.93

Device:         rrqm/s   wrqm/s     r/s     w/s    rkB/s    wkB/s avgrq-sz avgqu-sz   await r_await w_await  svctm  %util
nvme0n1           0.00     0.00    0.00    0.00     0.00     0.00     0.00     0.00    0.00    0.00    0.00   0.00   0.00
sda               0.00     0.00    0.00    0.00     0.00     0.00     0.00     0.00    0.00    0.00    0.00   0.00   0.00
sdc               0.00     0.00  184.00    0.00   808.00     0.00     8.78     3.55   19.42   19.42    0.00   5.14  94.60
sdb               0.00     0.00  157.00    0.00   640.00     0.00     8.15     1.31    8.29    8.29    0.00   3.96  62.10
sdd               0.00     0.00  153.00    0.00   680.00     0.00     8.89     1.82   11.76   11.76    0.00   4.68  71.60
md0               0.00     0.00  499.00    0.00  2172.00     0.00     8.71     0.00    0.00    0.00    0.00   0.00   0.00

avg-cpu:  %user   %nice %system %iowait  %steal   %idle
           0.03    0.00    0.12    2.87    0.00   96.97

Device:         rrqm/s   wrqm/s     r/s     w/s    rkB/s    wkB/s avgrq-sz avgqu-sz   await r_await w_await  svctm  %util
nvme0n1           0.00     0.00    0.00    0.00     0.00     0.00     0.00     0.00    0.00    0.00    0.00   0.00   0.00
sda               0.00     0.00    0.00    0.00     0.00     0.00     0.00     0.00    0.00    0.00    0.00   0.00   0.00
sdc               0.00     0.00  184.00    0.00   760.00     0.00     8.26     2.29   12.65   12.65    0.00   4.46  82.00
sdb               0.00     0.00  187.00    0.00   784.00     0.00     8.39     2.57   13.70   13.70    0.00   4.62  86.40
sdd               0.00     0.00  163.00    0.00   712.00     0.00     8.74     1.86   11.52   11.52    0.00   4.31  70.30
md0               0.00     0.00  528.00    0.00  2232.00     0.00     8.45     0.00    0.00    0.00    0.00   0.00   0.00

avg-cpu:  %user   %nice %system %iowait  %steal   %idle
           0.00    0.00    0.06    3.25    0.00   96.69

Device:         rrqm/s   wrqm/s     r/s     w/s    rkB/s    wkB/s avgrq-sz avgqu-sz   await r_await w_await  svctm  %util
nvme0n1           0.00     0.00    0.00    0.00     0.00     0.00     0.00     0.00    0.00    0.00    0.00   0.00   0.00
sda               0.00     0.00    0.00    0.00     0.00     0.00     0.00     0.00    0.00    0.00    0.00   0.00   0.00
sdc               0.00     0.00  194.00    0.00   812.00     0.00     8.37     3.18   15.89   15.89    0.00   4.67  90.60
sdb               0.00     0.00  172.00    0.00   712.00     0.00     8.28     1.99   11.70   11.70    0.00   4.39  75.50
sdd               0.00     0.00  163.00    0.00   712.00     0.00     8.74     1.49    9.10    9.10    0.00   3.94  64.30
md0               0.00     0.00  535.00    0.00  2260.00     0.00     8.45     0.00    0.00    0.00    0.00   0.00   0.00

avg-cpu:  %user   %nice %system %iowait  %steal   %idle
           0.00    0.00    0.09    3.09    0.00   96.81

Device:         rrqm/s   wrqm/s     r/s     w/s    rkB/s    wkB/s avgrq-sz avgqu-sz   await r_await w_await  svctm  %util
nvme0n1           0.00     0.00    0.00    0.00     0.00     0.00     0.00     0.00    0.00    0.00    0.00   0.00   0.00
sda               0.00    10.00    0.00    2.00     0.00    48.00    48.00     0.00    0.00    0.00    0.00   0.00   0.00
sdc               0.00     0.00  186.00    0.00   844.00     0.00     9.08     2.49   13.80   13.80    0.00   4.17  77.50
sdb               0.00     0.00  172.00    0.00   712.00     0.00     8.28     2.04   11.87   11.87    0.00   4.16  71.50
sdd               0.00     0.00  158.00    0.00   720.00     0.00     9.11     1.74   10.99   10.99    0.00   4.44  70.20
md0               0.00     0.00  517.00    0.00  2348.00     0.00     9.08     0.00    0.00    0.00    0.00   0.00   0.00

avg-cpu:  %user   %nice %system %iowait  %steal   %idle
           0.00    0.00    0.03    3.41    0.00   96.56

Device:         rrqm/s   wrqm/s     r/s     w/s    rkB/s    wkB/s avgrq-sz avgqu-sz   await r_await w_await  svctm  %util
nvme0n1           0.00     0.00    0.00    0.00     0.00     0.00     0.00     0.00    0.00    0.00    0.00   0.00   0.00
sda               0.00     0.00    0.00    0.00     0.00     0.00     0.00     0.00    0.00    0.00    0.00   0.00   0.00
sdc               0.00     0.00  167.33    0.00   728.71     0.00     8.71     3.02   17.98   17.98    0.00   4.99  83.56
sdb               0.00     0.00  157.43    0.00   724.75     0.00     9.21     1.84   11.44   11.44    0.00   4.16  65.54
sdd               0.00     0.00  146.53    0.00   605.94     0.00     8.27     1.49   10.26   10.26    0.00   4.22  61.78
md0               0.00     0.00  470.30    0.00  1996.04     0.00     8.49     0.00    0.00    0.00    0.00   0.00   0.00

avg-cpu:  %user   %nice %system %iowait  %steal   %idle
           0.00    0.00    0.03    3.22    0.00   96.75

Device:         rrqm/s   wrqm/s     r/s     w/s    rkB/s    wkB/s avgrq-sz avgqu-sz   await r_await w_await  svctm  %util
nvme0n1           0.00     0.00    0.00    0.00     0.00     0.00     0.00     0.00    0.00    0.00    0.00   0.00   0.00
sda               0.00     0.00    0.00    0.00     0.00     0.00     0.00     0.00    0.00    0.00    0.00   0.00   0.00
sdc               0.00     0.00  183.00    0.00   780.00     0.00     8.52     3.30   17.69   17.69    0.00   4.81  88.10
sdb               0.00     0.00  160.00    0.00   688.00     0.00     8.60     1.77   11.16   11.16    0.00   4.27  68.30
sdd               0.00     0.00  157.00    0.00   736.00     0.00     9.38     1.65   10.50   10.50    0.00   4.84  76.00
md0               0.00     0.00  500.00    0.00  2204.00     0.00     8.82     0.00    0.00    0.00    0.00   0.00   0.00

avg-cpu:  %user   %nice %system %iowait  %steal   %idle
           0.00    0.00    0.06    3.22    0.00   96.72

Device:         rrqm/s   wrqm/s     r/s     w/s    rkB/s    wkB/s avgrq-sz avgqu-sz   await r_await w_await  svctm  %util
nvme0n1           0.00     0.00    0.00    0.00     0.00     0.00     0.00     0.00    0.00    0.00    0.00   0.00   0.00
sda               0.00     4.00    0.00    2.00     0.00    40.00    40.00     0.00    0.00    0.00    0.00   0.00   0.00
sdc               0.00     0.00  192.00    0.00   840.00     0.00     8.75     3.40   18.21   18.21    0.00   4.84  92.90
sdb               0.00     0.00  169.00    0.00   712.00     0.00     8.43     1.54    9.21    9.21    0.00   3.92  66.30
sdd               0.00     0.00  160.00    0.00   640.00     0.00     8.00     1.74   10.93   10.93    0.00   4.53  72.50
md0               0.00     0.00  514.00    0.00  2164.00     0.00     8.42     0.00    0.00    0.00    0.00   0.00   0.00

avg-cpu:  %user   %nice %system %iowait  %steal   %idle
           0.00    0.00    0.06    3.97    0.00   95.97

Device:         rrqm/s   wrqm/s     r/s     w/s    rkB/s    wkB/s avgrq-sz avgqu-sz   await r_await w_await  svctm  %util
nvme0n1           0.00     0.00    0.00    0.00     0.00     0.00     0.00     0.00    0.00    0.00    0.00   0.00   0.00
sda               0.00     0.00    0.00    0.00     0.00     0.00     0.00     0.00    0.00    0.00    0.00   0.00   0.00
sdc               0.00     0.00  173.00    0.00   744.00     0.00     8.60     2.67   15.42   15.42    0.00   4.91  85.00
sdb               0.00     0.00  162.00    0.00   724.00     0.00     8.94     1.71   10.51   10.51    0.00   4.28  69.40
sdd               0.00     0.00  163.00    0.00   772.00     0.00     9.47     2.19   12.60   12.60    0.00   4.47  72.90
md0               0.00     0.00  505.00    0.00  2276.00     0.00     9.01     0.00    0.00    0.00    0.00   0.00   0.00

avg-cpu:  %user   %nice %system %iowait  %steal   %idle
           0.00    0.00    0.06    2.16    0.00   97.78

Device:         rrqm/s   wrqm/s     r/s     w/s    rkB/s    wkB/s avgrq-sz avgqu-sz   await r_await w_await  svctm  %util
nvme0n1           0.00     0.00    0.00    0.00     0.00     0.00     0.00     0.00    0.00    0.00    0.00   0.00   0.00
sda               0.00     4.00    0.00    2.00     0.00    24.00    24.00     0.00    0.00    0.00    0.00   0.00   0.00
sdc               0.00     0.00  142.00    0.00   592.00     0.00     8.34     2.36   16.39   16.39    0.00   5.44  77.20
sdb               0.00     0.00  125.00    0.00   548.00     0.00     8.77     1.26   10.12   10.12    0.00   4.45  55.60
sdd               0.00     0.00  140.00    0.00   656.00     0.00     9.37     2.64   19.84   19.84    0.00   5.78  80.90
md0               0.00     0.00  402.00    0.00  1776.00     0.00     8.84     0.00    0.00    0.00    0.00   0.00   0.00

avg-cpu:  %user   %nice %system %iowait  %steal   %idle
           0.00    0.00    0.09    3.72    0.00   96.19

Device:         rrqm/s   wrqm/s     r/s     w/s    rkB/s    wkB/s avgrq-sz avgqu-sz   await r_await w_await  svctm  %util
nvme0n1           0.00     0.00    0.00    0.00     0.00     0.00     0.00     0.00    0.00    0.00    0.00   0.00   0.00
sda               0.00     0.00    0.00    0.00     0.00     0.00     0.00     0.00    0.00    0.00    0.00   0.00   0.00
sdc               0.00     0.00  201.00    0.00   840.00     0.00     8.36     2.63   13.00   13.00    0.00   3.97  79.80
sdb               0.00     0.00  169.00    0.00   724.00     0.00     8.57     1.83   10.85   10.85    0.00   4.28  72.40
sdd               0.00     0.00  176.00    0.00   752.00     0.00     8.55     2.29   12.97   12.97    0.00   4.24  74.70
md0               0.00     0.00  549.00    0.00  2328.00     0.00     8.48     0.00    0.00    0.00    0.00   0.00   0.00

avg-cpu:  %user   %nice %system %iowait  %steal   %idle
           0.00    0.00    0.06    2.44    0.00   97.50

Device:         rrqm/s   wrqm/s     r/s     w/s    rkB/s    wkB/s avgrq-sz avgqu-sz   await r_await w_await  svctm  %util
nvme0n1           0.00     0.00    0.00    0.00     0.00     0.00     0.00     0.00    0.00    0.00    0.00   0.00   0.00
sda               0.00     0.00    0.00    0.00     0.00     0.00     0.00     0.00    0.00    0.00    0.00   0.00   0.00
sdc               0.00     0.00  178.00    0.00   748.00     0.00     8.40     2.40   13.24   13.24    0.00   4.25  75.70
sdb               0.00     0.00  168.00    0.00   696.00     0.00     8.29     1.94   11.52   11.52    0.00   4.70  79.00
sdd               0.00     0.00  162.00    0.00   744.00     0.00     9.19     2.06   12.69   12.69    0.00   4.73  76.60
md0               0.00     0.00  510.00    0.00  2216.00     0.00     8.69     0.00    0.00    0.00    0.00   0.00   0.00

avg-cpu:  %user   %nice %system %iowait  %steal   %idle
           0.03    0.00    0.06    2.97    0.00   96.94

Device:         rrqm/s   wrqm/s     r/s     w/s    rkB/s    wkB/s avgrq-sz avgqu-sz   await r_await w_await  svctm  %util
nvme0n1           0.00     0.00    0.00    0.00     0.00     0.00     0.00     0.00    0.00    0.00    0.00   0.00   0.00
sda               0.00     0.00    0.00    0.00     0.00     0.00     0.00     0.00    0.00    0.00    0.00   0.00   0.00
sdc               0.00     0.00  184.00    0.00   764.00     0.00     8.30     3.27   18.14   18.14    0.00   5.14  94.50
sdb               0.00     0.00  175.00    0.00   712.00     0.00     8.14     2.02   11.23   11.23    0.00   4.58  80.20
sdd               0.00     0.00  151.00    0.00   640.00     0.00     8.48     1.43    9.47    9.47    0.00   4.33  65.40
md0               0.00     0.00  510.00    0.00  2116.00     0.00     8.30     0.00    0.00    0.00    0.00   0.00   0.00

avg-cpu:  %user   %nice %system %iowait  %steal   %idle
           0.00    0.00    0.09    2.69    0.00   97.22

Device:         rrqm/s   wrqm/s     r/s     w/s    rkB/s    wkB/s avgrq-sz avgqu-sz   await r_await w_await  svctm  %util
nvme0n1           0.00     0.00    0.00    0.00     0.00     0.00     0.00     0.00    0.00    0.00    0.00   0.00   0.00
sda               0.00     0.00    0.00    0.00     0.00     0.00     0.00     0.00    0.00    0.00    0.00   0.00   0.00
sdc               0.00     0.00  178.00    0.00   740.00     0.00     8.31     2.46   13.86   13.86    0.00   4.94  87.90
sdb               0.00     0.00  166.00    0.00   708.00     0.00     8.53     2.80   17.17   17.17    0.00   5.14  85.40
sdd               0.00     0.00  165.00    0.00   696.00     0.00     8.44     1.30    7.89    7.89    0.00   3.91  64.50
md0               0.00     0.00  504.00    0.00  2132.00     0.00     8.46     0.00    0.00    0.00    0.00   0.00   0.00

avg-cpu:  %user   %nice %system %iowait  %steal   %idle
           0.00    0.00    0.06    3.34    0.00   96.59

Device:         rrqm/s   wrqm/s     r/s     w/s    rkB/s    wkB/s avgrq-sz avgqu-sz   await r_await w_await  svctm  %util
nvme0n1           0.00     0.00    0.00    0.00     0.00     0.00     0.00     0.00    0.00    0.00    0.00   0.00   0.00
sda               0.00     2.00    0.00    2.00     0.00    16.00    16.00     0.00    0.50    0.00    0.50   0.50   0.10
sdc               0.00     0.00  166.00    0.00   676.00     0.00     8.14     2.35   14.36   14.36    0.00   5.03  83.50
sdb               0.00     0.00  162.00    0.00   708.00     0.00     8.74     2.34   13.58   13.58    0.00   5.04  81.60
sdd               0.00     0.00  187.00    0.00   824.00     0.00     8.81     2.34   12.48   12.48    0.00   4.52  84.50
md0               0.00     0.00  520.00    0.00  2240.00     0.00     8.62     0.00    0.00    0.00    0.00   0.00   0.00

avg-cpu:  %user   %nice %system %iowait  %steal   %idle
           0.00    0.00    0.09    2.78    0.00   97.12

Device:         rrqm/s   wrqm/s     r/s     w/s    rkB/s    wkB/s avgrq-sz avgqu-sz   await r_await w_await  svctm  %util
nvme0n1           0.00     0.00    0.00    0.00     0.00     0.00     0.00     0.00    0.00    0.00    0.00   0.00   0.00
sda               0.00     0.00    0.00    0.00     0.00     0.00     0.00     0.00    0.00    0.00    0.00   0.00   0.00
sdc               0.00     0.00  176.00    0.00   728.00     0.00     8.27     2.92   16.61   16.61    0.00   4.80  84.40
sdb               0.00     0.00  159.00    0.00   744.00     0.00     9.36     1.98   12.99   12.99    0.00   4.35  69.10
sdd               0.00     0.00  162.00    0.00   648.00     0.00     8.00     1.84   11.38   11.38    0.00   4.95  80.20
md0               0.00     0.00  493.00    0.00  2092.00     0.00     8.49     0.00    0.00    0.00    0.00   0.00   0.00

avg-cpu:  %user   %nice %system %iowait  %steal   %idle
           0.00    0.00    0.09    3.53    0.00   96.38

Device:         rrqm/s   wrqm/s     r/s     w/s    rkB/s    wkB/s avgrq-sz avgqu-sz   await r_await w_await  svctm  %util
nvme0n1           0.00     0.00    0.00    0.00     0.00     0.00     0.00     0.00    0.00    0.00    0.00   0.00   0.00
sda               0.00     0.00    0.00    0.00     0.00     0.00     0.00     0.00    0.00    0.00    0.00   0.00   0.00
sdc               0.00     0.00  184.00    0.00   760.00     0.00     8.26     2.32   12.62   12.62    0.00   4.23  77.90
sdb               0.00     0.00  181.00    0.00   760.00     0.00     8.40     2.36   13.31   13.31    0.00   4.72  85.40
sdd               0.00     0.00  154.00    0.00   628.00     0.00     8.16     2.06   12.52   12.52    0.00   4.88  75.10
md0               0.00     0.00  523.00    0.00  2164.00     0.00     8.28     0.00    0.00    0.00    0.00   0.00   0.00

avg-cpu:  %user   %nice %system %iowait  %steal   %idle
           0.03    0.00    0.06    2.59    0.00   97.31

Device:         rrqm/s   wrqm/s     r/s     w/s    rkB/s    wkB/s avgrq-sz avgqu-sz   await r_await w_await  svctm  %util
nvme0n1           0.00     0.00    0.00    0.00     0.00     0.00     0.00     0.00    0.00    0.00    0.00   0.00   0.00
sda               0.00     0.00    0.00    0.00     0.00     0.00     0.00     0.00    0.00    0.00    0.00   0.00   0.00
sdc               0.00     0.00  181.00    0.00   752.00     0.00     8.31     2.51   13.77   13.77    0.00   3.98  72.10
sdb               0.00     0.00  177.00    0.00   744.00     0.00     8.41     1.95   11.04   11.04    0.00   4.28  75.70
sdd               0.00     0.00  168.00    0.00   684.00     0.00     8.14     1.87   11.92   11.92    0.00   4.18  70.20
md0               0.00     0.00  519.00    0.00  2152.00     0.00     8.29     0.00    0.00    0.00    0.00   0.00   0.00

avg-cpu:  %user   %nice %system %iowait  %steal   %idle
           0.00    0.00    0.09    3.22    0.00   96.69

Device:         rrqm/s   wrqm/s     r/s     w/s    rkB/s    wkB/s avgrq-sz avgqu-sz   await r_await w_await  svctm  %util
nvme0n1           0.00     0.00    0.00    0.00     0.00     0.00     0.00     0.00    0.00    0.00    0.00   0.00   0.00
sda               0.00     2.00    0.00    2.00     0.00    16.00    16.00     0.00    0.00    0.00    0.00   0.00   0.00
sdc               0.00     0.00  153.00    0.00   676.00     0.00     8.84     1.98   13.01   13.01    0.00   4.13  63.20
sdb               0.00     0.00  168.00    0.00   672.00     0.00     8.00     1.95   11.50   11.50    0.00   4.61  77.50
sdd               0.00     0.00  172.00    0.00   784.00     0.00     9.12     2.71   15.04   15.04    0.00   4.84  83.30
md0               0.00     0.00  500.00    0.00  2160.00     0.00     8.64     0.00    0.00    0.00    0.00   0.00   0.00

