Linux 4.17.2 (bench2) 	08/04/2018 	_x86_64_	(32 CPU)

avg-cpu:  %user   %nice %system %iowait  %steal   %idle
           1.90    0.00    1.54    1.61    0.00   94.95

Device:         rrqm/s   wrqm/s     r/s     w/s    rkB/s    wkB/s avgrq-sz avgqu-sz   await r_await w_await  svctm  %util
nvme0n1         931.31     5.06 18774.79  516.93 105018.35 11658.27    12.10     1.34    0.05    0.03    0.67   0.02  39.30
sda               0.12     0.82   14.17    0.58   164.04     8.56    23.40     0.00    0.33    0.32    0.44   0.07   0.10
sdc              34.69     0.17  123.04    0.31  1844.14    97.02    31.48     0.11    0.90   12.32  381.84   0.90  11.12
sdb              32.66     0.19  125.02    0.33  1842.18    96.85    30.94     0.54    4.30    3.22  413.03   0.84  10.57
sdd              34.88     0.17  122.58    0.26  1840.19    96.52    31.53     0.85    6.94    5.03  909.23   0.91  11.13
md0               0.00     0.00  475.69    1.20  6851.61   350.01    30.20     0.00    0.00    0.00    0.00   0.00   0.00

avg-cpu:  %user   %nice %system %iowait  %steal   %idle
           0.13    0.00    0.50    0.28    0.00   99.09

Device:         rrqm/s   wrqm/s     r/s     w/s    rkB/s    wkB/s avgrq-sz avgqu-sz   await r_await w_await  svctm  %util
nvme0n1           0.00     0.00    0.00    0.00     0.00     0.00     0.00     0.00    0.00    0.00    0.00   0.00   0.00
sda               0.00     0.00    3.00    0.00   100.00     0.00    66.67     0.00    0.33    0.33    0.00   0.33   0.10
sdc               0.00     0.00 2240.00    0.00  8960.00     0.00     8.00     0.25    0.11    0.11    0.00   0.11  24.70
sdb               0.00     0.00 2283.00    0.00  9132.00     0.00     8.00     0.27    0.12    0.12    0.00   0.12  26.70
sdd               0.00     0.00 2223.00    0.00  8892.00     0.00     8.00     0.36    0.16    0.16    0.00   0.16  35.90
md0               0.00     0.00 6747.00    0.00 26988.00     0.00     8.00     0.00    0.00    0.00    0.00   0.00   0.00

avg-cpu:  %user   %nice %system %iowait  %steal   %idle
           0.09    0.00    0.56    0.28    0.00   99.06

Device:         rrqm/s   wrqm/s     r/s     w/s    rkB/s    wkB/s avgrq-sz avgqu-sz   await r_await w_await  svctm  %util
nvme0n1           0.00     0.00    0.00    0.00     0.00     0.00     0.00     0.00    0.00    0.00    0.00   0.00   0.00
sda               0.00    13.00    0.00    2.00     0.00    60.00    60.00     0.00    0.50    0.00    0.50   0.50   0.10
sdc               0.00     0.00 2539.00    0.00 10156.00     0.00     8.00     0.32    0.13    0.13    0.00   0.12  31.60
sdb               0.00     0.00 2367.00    0.00  9468.00     0.00     8.00     0.27    0.11    0.11    0.00   0.11  26.60
sdd               0.00     0.00 2274.00    0.00  9096.00     0.00     8.00     0.31    0.14    0.14    0.00   0.14  30.90
md0               0.00     0.00 7181.00    0.00 28724.00     0.00     8.00     0.00    0.00    0.00    0.00   0.00   0.00

avg-cpu:  %user   %nice %system %iowait  %steal   %idle
           0.13    0.00    0.50    0.16    0.00   99.22

Device:         rrqm/s   wrqm/s     r/s     w/s    rkB/s    wkB/s avgrq-sz avgqu-sz   await r_await w_await  svctm  %util
nvme0n1           0.00     0.00    0.00    0.00     0.00     0.00     0.00     0.00    0.00    0.00    0.00   0.00   0.00
sda               0.00     0.00    0.00    0.00     0.00     0.00     0.00     0.00    0.00    0.00    0.00   0.00   0.00
sdc               0.00     0.00 2674.00    0.00 10696.00     0.00     8.00     0.29    0.11    0.11    0.00   0.11  29.40
sdb               0.00     0.00 2714.00    0.00 10856.00     0.00     8.00     0.30    0.11    0.11    0.00   0.11  29.70
sdd               0.00     0.00 2756.00    0.00 11024.00     0.00     8.00     0.30    0.11    0.11    0.00   0.11  30.40
md0               0.00     0.00 8144.00    0.00 32576.00     0.00     8.00     0.00    0.00    0.00    0.00   0.00   0.00

avg-cpu:  %user   %nice %system %iowait  %steal   %idle
           0.09    0.00    0.53    0.13    0.00   99.25

Device:         rrqm/s   wrqm/s     r/s     w/s    rkB/s    wkB/s avgrq-sz avgqu-sz   await r_await w_await  svctm  %util
nvme0n1           0.00     0.00    0.00    0.00     0.00     0.00     0.00     0.00    0.00    0.00    0.00   0.00   0.00
sda               0.00     0.00    0.00    0.00     0.00     0.00     0.00     0.00    0.00    0.00    0.00   0.00   0.00
sdc               0.00     0.00 2679.00    0.00 10716.00     0.00     8.00     0.30    0.11    0.11    0.00   0.11  29.80
sdb               0.00     0.00 2702.00    0.00 10808.00     0.00     8.00     0.30    0.11    0.11    0.00   0.11  29.90
sdd               0.00     0.00 2702.00    0.00 10808.00     0.00     8.00     0.29    0.11    0.11    0.00   0.11  28.60
md0               0.00     0.00 8082.00    0.00 32328.00     0.00     8.00     0.00    0.00    0.00    0.00   0.00   0.00

avg-cpu:  %user   %nice %system %iowait  %steal   %idle
           0.13    0.00    0.69    0.16    0.00   99.03

Device:         rrqm/s   wrqm/s     r/s     w/s    rkB/s    wkB/s avgrq-sz avgqu-sz   await r_await w_await  svctm  %util
nvme0n1           0.00     0.00    0.00    0.00     0.00     0.00     0.00     0.00    0.00    0.00    0.00   0.00   0.00
sda               0.00     0.00    0.00    0.00     0.00     0.00     0.00     0.00    0.00    0.00    0.00   0.00   0.00
sdc               0.00     0.00 2837.00    0.00 11348.00     0.00     8.00     0.30    0.11    0.11    0.00   0.11  30.50
sdb               0.00     0.00 2648.00    0.00 10592.00     0.00     8.00     0.28    0.11    0.11    0.00   0.11  28.00
sdd               0.00     0.00 2669.00    0.00 10676.00     0.00     8.00     0.29    0.11    0.11    0.00   0.11  28.70
md0               0.00     0.00 8154.00    0.00 32616.00     0.00     8.00     0.00    0.00    0.00    0.00   0.00   0.00

avg-cpu:  %user   %nice %system %iowait  %steal   %idle
           0.09    0.00    0.56    0.16    0.00   99.19

Device:         rrqm/s   wrqm/s     r/s     w/s    rkB/s    wkB/s avgrq-sz avgqu-sz   await r_await w_await  svctm  %util
nvme0n1           0.00     0.00    0.00    0.00     0.00     0.00     0.00     0.00    0.00    0.00    0.00   0.00   0.00
sda               0.00     0.00    0.00    0.00     0.00     0.00     0.00     0.00    0.00    0.00    0.00   0.00   0.00
sdc               0.00     0.00 2712.00    0.00 10848.00     0.00     8.00     0.30    0.11    0.11    0.00   0.11  29.60
sdb               0.00     0.00 2677.00    0.00 10708.00     0.00     8.00     0.28    0.11    0.11    0.00   0.11  28.50
sdd               0.00     0.00 2789.00    0.00 11156.00     0.00     8.00     0.30    0.11    0.11    0.00   0.11  29.80
md0               0.00     0.00 8178.00    0.00 32712.00     0.00     8.00     0.00    0.00    0.00    0.00   0.00   0.00

avg-cpu:  %user   %nice %system %iowait  %steal   %idle
           0.09    0.00    0.69    0.13    0.00   99.09

Device:         rrqm/s   wrqm/s     r/s     w/s    rkB/s    wkB/s avgrq-sz avgqu-sz   await r_await w_await  svctm  %util
nvme0n1           0.00     0.00    0.00    0.00     0.00     0.00     0.00     0.00    0.00    0.00    0.00   0.00   0.00
sda               0.00     1.00    0.00    2.00     0.00    12.00    12.00     0.00    0.00    0.00    0.00   0.00   0.00
sdc               0.00     0.00 2807.00    0.00 11228.00     0.00     8.00     0.30    0.11    0.11    0.00   0.11  30.20
sdb               0.00     0.00 2608.00    0.00 10432.00     0.00     8.00     0.28    0.11    0.11    0.00   0.11  28.00
sdd               0.00     0.00 2708.00    0.00 10832.00     0.00     8.00     0.30    0.11    0.11    0.00   0.11  29.70
md0               0.00     0.00 8123.00    0.00 32492.00     0.00     8.00     0.00    0.00    0.00    0.00   0.00   0.00

avg-cpu:  %user   %nice %system %iowait  %steal   %idle
           0.09    0.00    0.53    0.16    0.00   99.22

Device:         rrqm/s   wrqm/s     r/s     w/s    rkB/s    wkB/s avgrq-sz avgqu-sz   await r_await w_await  svctm  %util
nvme0n1           0.00     0.00    0.00    0.00     0.00     0.00     0.00     0.00    0.00    0.00    0.00   0.00   0.00
sda               0.00     1.00   64.00    3.00   468.00    16.00    14.45     0.01    0.07    0.08    0.00   0.06   0.40
sdc               0.00     0.00 2652.00    0.00 10608.00     0.00     8.00     0.30    0.11    0.11    0.00   0.11  29.70
sdb               0.00     0.00 2698.00    0.00 10792.00     0.00     8.00     0.29    0.11    0.11    0.00   0.11  28.60
sdd               0.00     0.00 2775.00    0.00 11100.00     0.00     8.00     0.32    0.11    0.11    0.00   0.11  31.60
md0               0.00     0.00 8126.00    0.00 32504.00     0.00     8.00     0.00    0.00    0.00    0.00   0.00   0.00

avg-cpu:  %user   %nice %system %iowait  %steal   %idle
           0.09    0.00    0.63    0.19    0.00   99.09

Device:         rrqm/s   wrqm/s     r/s     w/s    rkB/s    wkB/s avgrq-sz avgqu-sz   await r_await w_await  svctm  %util
nvme0n1           0.00     0.00    0.00    0.00     0.00     0.00     0.00     0.00    0.00    0.00    0.00   0.00   0.00
sda               0.00     0.00    0.00    0.00     0.00     0.00     0.00     0.00    0.00    0.00    0.00   0.00   0.00
sdc               0.00     0.00 2646.00    0.00 10584.00     0.00     8.00     0.28    0.11    0.11    0.00   0.11  28.50
sdb               0.00     0.00 2730.00    0.00 10920.00     0.00     8.00     0.29    0.11    0.11    0.00   0.11  29.50
sdd               0.00     0.00 2663.00    0.00 10652.00     0.00     8.00     0.30    0.11    0.11    0.00   0.11  30.00
md0               0.00     0.00 8039.00    0.00 32156.00     0.00     8.00     0.00    0.00    0.00    0.00   0.00   0.00

avg-cpu:  %user   %nice %system %iowait  %steal   %idle
           0.13    0.00    0.50    0.34    0.00   99.03

Device:         rrqm/s   wrqm/s     r/s     w/s    rkB/s    wkB/s avgrq-sz avgqu-sz   await r_await w_await  svctm  %util
nvme0n1           0.00     0.00    0.00    0.00     0.00     0.00     0.00     0.00    0.00    0.00    0.00   0.00   0.00
sda               0.00     0.00    0.00    0.00     0.00     0.00     0.00     0.00    0.00    0.00    0.00   0.00   0.00
sdc               0.00     0.00 2183.00    0.00  8732.00     0.00     8.00     0.25    0.11    0.11    0.00   0.11  25.10
sdb               0.00     0.00 2189.00    0.00  8756.00     0.00     8.00     0.26    0.12    0.12    0.00   0.12  26.40
sdd               0.00     0.00 2330.00    0.00  9320.00     0.00     8.00     0.37    0.16    0.16    0.00   0.16  37.00
md0               0.00     0.00 6701.00    0.00 26804.00     0.00     8.00     0.00    0.00    0.00    0.00   0.00   0.00

avg-cpu:  %user   %nice %system %iowait  %steal   %idle
           0.09    0.00    0.53    0.38    0.00   99.00

Device:         rrqm/s   wrqm/s     r/s     w/s    rkB/s    wkB/s avgrq-sz avgqu-sz   await r_await w_await  svctm  %util
nvme0n1           0.00     0.00    0.00    0.00     0.00     0.00     0.00     0.00    0.00    0.00    0.00   0.00   0.00
sda               0.00     0.00    0.00    0.00     0.00     0.00     0.00     0.00    0.00    0.00    0.00   0.00   0.00
sdc               0.00     0.00 2146.00    0.00  8584.00     0.00     8.00     0.27    0.13    0.13    0.00   0.13  26.90
sdb               0.00     0.00 2099.00    0.00  8396.00     0.00     8.00     0.23    0.11    0.11    0.00   0.11  23.00
sdd               0.00     0.00 2103.00    0.00  8412.00     0.00     8.00     0.36    0.17    0.17    0.00   0.17  36.40
md0               0.00     0.00 6348.00    0.00 25392.00     0.00     8.00     0.00    0.00    0.00    0.00   0.00   0.00

avg-cpu:  %user   %nice %system %iowait  %steal   %idle
           0.09    0.00    0.50    0.31    0.00   99.09

Device:         rrqm/s   wrqm/s     r/s     w/s    rkB/s    wkB/s avgrq-sz avgqu-sz   await r_await w_await  svctm  %util
nvme0n1           0.00     0.00    0.00    0.00     0.00     0.00     0.00     0.00    0.00    0.00    0.00   0.00   0.00
sda               0.00     6.00    0.00    2.00     0.00    32.00    32.00     0.00    0.00    0.00    0.00   0.00   0.00
sdc               0.00     0.00 2242.00    0.00  8968.00     0.00     8.00     0.26    0.11    0.11    0.00   0.11  25.70
sdb               0.00     0.00 2292.00    0.00  9168.00     0.00     8.00     0.25    0.11    0.11    0.00   0.11  24.80
sdd               0.00     0.00 2160.00    0.00  8640.00     0.00     8.00     0.37    0.17    0.17    0.00   0.17  37.20
md0               0.00     0.00 6694.00    0.00 26776.00     0.00     8.00     0.00    0.00    0.00    0.00   0.00   0.00

avg-cpu:  %user   %nice %system %iowait  %steal   %idle
           0.09    0.00    0.63    0.22    0.00   99.06

Device:         rrqm/s   wrqm/s     r/s     w/s    rkB/s    wkB/s avgrq-sz avgqu-sz   await r_await w_await  svctm  %util
nvme0n1           0.00     0.00    0.00    0.00     0.00     0.00     0.00     0.00    0.00    0.00    0.00   0.00   0.00
sda               0.00     2.00    0.00    1.00     0.00    28.00    56.00     0.00    0.00    0.00    0.00   0.00   0.00
sdc               0.00     0.00 2329.00    0.00  9316.00     0.00     8.00     0.27    0.12    0.12    0.00   0.12  27.40
sdb               0.00     0.00 2449.00    0.00  9796.00     0.00     8.00     0.26    0.11    0.11    0.00   0.11  26.20
sdd               0.00     0.00 2441.00    0.00  9764.00     0.00     8.00     0.32    0.13    0.13    0.00   0.13  31.80
md0               0.00     0.00 7219.00    0.00 28876.00     0.00     8.00     0.00    0.00    0.00    0.00   0.00   0.00

avg-cpu:  %user   %nice %system %iowait  %steal   %idle
           0.13    0.00    0.56    0.28    0.00   99.03

Device:         rrqm/s   wrqm/s     r/s     w/s    rkB/s    wkB/s avgrq-sz avgqu-sz   await r_await w_await  svctm  %util
nvme0n1           0.00     0.00    0.00    0.00     0.00     0.00     0.00     0.00    0.00    0.00    0.00   0.00   0.00
sda               0.00     0.00    0.00    0.00     0.00     0.00     0.00     0.00    0.00    0.00    0.00   0.00   0.00
sdc               0.00     0.00 2280.00    0.00  9120.00     0.00     8.00     0.26    0.11    0.11    0.00   0.11  25.90
sdb               0.00     0.00 2330.00    0.00  9320.00     0.00     8.00     0.24    0.10    0.10    0.00   0.10  24.20
sdd               0.00     0.00 2275.00    0.00  9100.00     0.00     8.00     0.35    0.16    0.16    0.00   0.16  35.50
md0               0.00     0.00 6886.00    0.00 27544.00     0.00     8.00     0.00    0.00    0.00    0.00   0.00   0.00

avg-cpu:  %user   %nice %system %iowait  %steal   %idle
           0.09    0.00    0.66    0.19    0.00   99.06

Device:         rrqm/s   wrqm/s     r/s     w/s    rkB/s    wkB/s avgrq-sz avgqu-sz   await r_await w_await  svctm  %util
nvme0n1           0.00     0.00    0.00    0.00     0.00     0.00     0.00     0.00    0.00    0.00    0.00   0.00   0.00
sda               0.00     0.00    0.00    0.00     0.00     0.00     0.00     0.00    0.00    0.00    0.00   0.00   0.00
sdc               0.00     0.00 2425.00    0.00  9700.00     0.00     8.00     0.26    0.11    0.11    0.00   0.11  25.60
sdb               0.00     0.00 2419.00    0.00  9676.00     0.00     8.00     0.33    0.14    0.14    0.00   0.13  32.60
sdd               0.00     0.00 2418.00    0.00  9672.00     0.00     8.00     0.27    0.11    0.11    0.00   0.11  27.30
md0               0.00     0.00 7261.00    0.00 29044.00     0.00     8.00     0.00    0.00    0.00    0.00   0.00   0.00

avg-cpu:  %user   %nice %system %iowait  %steal   %idle
           0.09    0.00    0.63    0.25    0.00   99.03

Device:         rrqm/s   wrqm/s     r/s     w/s    rkB/s    wkB/s avgrq-sz avgqu-sz   await r_await w_await  svctm  %util
nvme0n1           0.00     0.00    0.00    0.00     0.00     0.00     0.00     0.00    0.00    0.00    0.00   0.00   0.00
sda               0.00     0.00    0.00    0.00     0.00     0.00     0.00     0.00    0.00    0.00    0.00   0.00   0.00
sdc               0.00     0.00 2328.00    0.00  9312.00     0.00     8.00     0.25    0.11    0.11    0.00   0.11  25.10
sdb               0.00     0.00 2354.00    0.00  9416.00     0.00     8.00     0.27    0.11    0.11    0.00   0.11  26.90
sdd               0.00     0.00 2436.00    0.00  9744.00     0.00     8.00     0.33    0.14    0.14    0.00   0.14  33.30
md0               0.00     0.00 7118.00    0.00 28472.00     0.00     8.00     0.00    0.00    0.00    0.00   0.00   0.00

avg-cpu:  %user   %nice %system %iowait  %steal   %idle
           0.06    0.00    0.53    0.28    0.00   99.12

Device:         rrqm/s   wrqm/s     r/s     w/s    rkB/s    wkB/s avgrq-sz avgqu-sz   await r_await w_await  svctm  %util
nvme0n1           0.00     0.00    0.00    0.00     0.00     0.00     0.00     0.00    0.00    0.00    0.00   0.00   0.00
sda               0.00     4.00    0.00    2.00     0.00    24.00    24.00     0.00    0.00    0.00    0.00   0.00   0.00
sdc               0.00     0.00 2415.00    0.00  9660.00     0.00     8.00     0.31    0.13    0.13    0.00   0.13  31.20
sdb               0.00     0.00 2297.00    0.00  9188.00     0.00     8.00     0.27    0.12    0.12    0.00   0.12  26.50
sdd               0.00     0.00 2302.00    0.00  9208.00     0.00     8.00     0.31    0.14    0.14    0.00   0.14  31.30
md0               0.00     0.00 7014.00    0.00 28056.00     0.00     8.00     0.00    0.00    0.00    0.00   0.00   0.00

avg-cpu:  %user   %nice %system %iowait  %steal   %idle
           0.13    0.00    0.60    0.25    0.00   99.03

Device:         rrqm/s   wrqm/s     r/s     w/s    rkB/s    wkB/s avgrq-sz avgqu-sz   await r_await w_await  svctm  %util
nvme0n1           0.00     0.00    0.00    0.00     0.00     0.00     0.00     0.00    0.00    0.00    0.00   0.00   0.00
sda               0.00     0.00    0.00    0.00     0.00     0.00     0.00     0.00    0.00    0.00    0.00   0.00   0.00
sdc               0.00     0.00 2341.00    0.00  9364.00     0.00     8.00     0.24    0.11    0.11    0.00   0.10  24.40
sdb               0.00     0.00 2322.00    0.00  9288.00     0.00     8.00     0.26    0.11    0.11    0.00   0.11  26.00
sdd               0.00     0.00 2509.00    0.00 10036.00     0.00     8.00     0.35    0.14    0.14    0.00   0.14  35.50
md0               0.00     0.00 7173.00    0.00 28692.00     0.00     8.00     0.00    0.00    0.00    0.00   0.00   0.00

avg-cpu:  %user   %nice %system %iowait  %steal   %idle
           0.06    0.00    0.60    0.44    0.00   98.90

Device:         rrqm/s   wrqm/s     r/s     w/s    rkB/s    wkB/s avgrq-sz avgqu-sz   await r_await w_await  svctm  %util
nvme0n1           0.00     0.00    0.00    0.00     0.00     0.00     0.00     0.00    0.00    0.00    0.00   0.00   0.00
sda               0.00     0.00    0.00    0.00     0.00     0.00     0.00     0.00    0.00    0.00    0.00   0.00   0.00
sdc               0.00     0.00 1996.00    0.00  7984.00     0.00     8.00     0.25    0.13    0.13    0.00   0.13  25.50
sdb               0.00     0.00 1958.00    0.00  7832.00     0.00     8.00     0.24    0.12    0.12    0.00   0.12  24.10
sdd               0.00     0.00 1904.00    0.00  7616.00     0.00     8.00     0.37    0.19    0.19    0.00   0.19  37.00
md0               0.00     0.00 5858.00    0.00 23432.00     0.00     8.00     0.00    0.00    0.00    0.00   0.00   0.00

avg-cpu:  %user   %nice %system %iowait  %steal   %idle
           0.09    0.00    0.56    0.47    0.00   98.87

Device:         rrqm/s   wrqm/s     r/s     w/s    rkB/s    wkB/s avgrq-sz avgqu-sz   await r_await w_await  svctm  %util
nvme0n1           0.00     0.00    0.00    0.00     0.00     0.00     0.00     0.00    0.00    0.00    0.00   0.00   0.00
sda               0.00     0.00    0.00    0.00     0.00     0.00     0.00     0.00    0.00    0.00    0.00   0.00   0.00
sdc               0.00     0.00 1827.00    0.00  7308.00     0.00     8.00     0.27    0.15    0.15    0.00   0.15  26.50
sdb               0.00     0.00 1671.00    0.00  6684.00     0.00     8.00     0.19    0.11    0.11    0.00   0.11  19.10
sdd               0.00     0.00 1834.00    0.00  7336.00     0.00     8.00     0.38    0.21    0.21    0.00   0.21  38.10
md0               0.00     0.00 5331.00    0.00 21324.00     0.00     8.00     0.00    0.00    0.00    0.00   0.00   0.00

