Linux 4.17.2 (bench2) 	08/04/2018 	_x86_64_	(32 CPU)

avg-cpu:  %user   %nice %system %iowait  %steal   %idle
           1.89    0.00    1.54    1.63    0.00   94.94

Device:         rrqm/s   wrqm/s     r/s     w/s    rkB/s    wkB/s avgrq-sz avgqu-sz   await r_await w_await  svctm  %util
nvme0n1         924.90     5.02 18645.57  513.37 104295.56 11578.03    12.10     1.33    0.05    0.03    0.67   0.02  39.03
sda               0.12     0.82   14.19    0.58   164.10     8.57    23.38     0.00    0.33    0.32    0.44   0.07   0.10
sdc              34.98     0.17  127.23    0.31  1894.78    96.36    31.22     0.15    1.18    0.26  381.84   0.89  11.39
sdb              32.98     0.18  129.20    0.33  1892.87    96.18    30.71     0.58    4.44    3.41  413.03   0.84  10.84
sdd              35.18     0.16  126.78    0.26  1890.89    95.86    31.28     0.89    7.00    5.17  909.23   0.90  11.42
md0               0.00     0.00  489.15    1.20  7037.34   347.60    30.12     0.00    0.00    0.00    0.00   0.00   0.00

avg-cpu:  %user   %nice %system %iowait  %steal   %idle
           0.09    0.00    0.44    0.53    0.00   98.94

Device:         rrqm/s   wrqm/s     r/s     w/s    rkB/s    wkB/s avgrq-sz avgqu-sz   await r_await w_await  svctm  %util
nvme0n1           0.00     0.00    0.00    0.00     0.00     0.00     0.00     0.00    0.00    0.00    0.00   0.00   0.00
sda               0.00     0.00    3.00    0.00   100.00     0.00    66.67     0.00    0.33    0.33    0.00   0.33   0.10
sdc             404.00     0.00 4422.00    0.00 19272.00     0.00     8.72     7.22    1.62    1.62    0.00   0.09  41.50
sdb             341.00     0.00 4419.00    0.00 19040.00     0.00     8.62     7.16    1.62    1.62    0.00   0.09  41.80
sdd             529.00     0.00 4420.00    0.00 19796.00     0.00     8.96    11.02    2.49    2.49    0.00   0.17  74.80
md0               0.00     0.00 14566.00    0.00 58264.00     0.00     8.00     0.00    0.00    0.00    0.00   0.00   0.00

avg-cpu:  %user   %nice %system %iowait  %steal   %idle
           0.03    0.00    0.50    0.50    0.00   98.97

Device:         rrqm/s   wrqm/s     r/s     w/s    rkB/s    wkB/s avgrq-sz avgqu-sz   await r_await w_await  svctm  %util
nvme0n1           0.00     0.00    0.00    0.00     0.00     0.00     0.00     0.00    0.00    0.00    0.00   0.00   0.00
sda               0.00     0.00    0.00    0.00     0.00     0.00     0.00     0.00    0.00    0.00    0.00   0.00   0.00
sdc             410.00     0.00 4364.00    0.00 19128.00     0.00     8.77     7.54    1.74    1.74    0.00   0.11  49.00
sdb             396.00     0.00 4399.00    0.00 19136.00     0.00     8.70     6.59    1.50    1.50    0.00   0.09  40.00
sdd             333.00     0.00 4349.00    0.00 18728.00     0.00     8.61    10.22    2.35    2.35    0.00   0.16  71.10
md0               0.00     0.00 14223.00    0.00 56892.00     0.00     8.00     0.00    0.00    0.00    0.00   0.00   0.00

avg-cpu:  %user   %nice %system %iowait  %steal   %idle
           0.06    0.00    0.66    0.47    0.00   98.81

Device:         rrqm/s   wrqm/s     r/s     w/s    rkB/s    wkB/s avgrq-sz avgqu-sz   await r_await w_await  svctm  %util
nvme0n1           0.00     0.00    0.00    0.00     0.00     0.00     0.00     0.00    0.00    0.00    0.00   0.00   0.00
sda               0.00     0.00    0.00    0.00     0.00     0.00     0.00     0.00    0.00    0.00    0.00   0.00   0.00
sdc            3216.00     0.00 6331.00    0.00 38152.00     0.00    12.05    11.87    1.87    1.87    0.00   0.10  61.00
sdb            2642.00     0.00 6477.00    0.00 36520.00     0.00    11.28    11.62    1.80    1.80    0.00   0.09  61.20
sdd            3167.00     0.00 6328.00    0.00 37824.00     0.00    11.95    12.35    1.94    1.94    0.00   0.10  66.20
md0               0.00     0.00 28203.00    0.00 112812.00     0.00     8.00     0.00    0.00    0.00    0.00   0.00   0.00

avg-cpu:  %user   %nice %system %iowait  %steal   %idle
           0.03    0.00    0.66    0.47    0.00   98.84

Device:         rrqm/s   wrqm/s     r/s     w/s    rkB/s    wkB/s avgrq-sz avgqu-sz   await r_await w_await  svctm  %util
nvme0n1           0.00     0.00    0.00    0.00     0.00     0.00     0.00     0.00    0.00    0.00    0.00   0.00   0.00
sda               0.00    13.00    0.00    2.00     0.00    60.00    60.00     0.00    0.00    0.00    0.00   0.00   0.00
sdc            3018.00     0.00 6679.00    0.00 38824.00     0.00    11.63    12.08    1.82    1.82    0.00   0.09  63.10
sdb            3290.00     0.00 6393.00    0.00 38732.00     0.00    12.12    11.62    1.82    1.82    0.00   0.10  62.30
sdd            3148.00     0.00 6511.00    0.00 38792.00     0.00    11.92    12.27    1.90    1.90    0.00   0.10  65.10
md0               0.00     0.00 29003.00    0.00 116012.00     0.00     8.00     0.00    0.00    0.00    0.00   0.00   0.00

avg-cpu:  %user   %nice %system %iowait  %steal   %idle
           0.03    0.00    0.56    0.41    0.00   99.00

Device:         rrqm/s   wrqm/s     r/s     w/s    rkB/s    wkB/s avgrq-sz avgqu-sz   await r_await w_await  svctm  %util
nvme0n1           0.00     0.00    0.00    0.00     0.00     0.00     0.00     0.00    0.00    0.00    0.00   0.00   0.00
sda               0.00     0.00    0.00    0.00     0.00     0.00     0.00     0.00    0.00    0.00    0.00   0.00   0.00
sdc            3142.00     0.00 6301.00    0.00 37732.00     0.00    11.98    11.79    1.87    1.87    0.00   0.10  62.40
sdb            3101.00     0.00 6585.00    0.00 38744.00     0.00    11.77    12.39    1.88    1.88    0.00   0.10  66.00
sdd            2996.00     0.00 6575.00    0.00 38256.00     0.00    11.64    12.43    1.89    1.89    0.00   0.10  64.40
md0               0.00     0.00 28780.00    0.00 115120.00     0.00     8.00     0.00    0.00    0.00    0.00   0.00   0.00

avg-cpu:  %user   %nice %system %iowait  %steal   %idle
           0.06    0.00    0.69    0.41    0.00   98.84

Device:         rrqm/s   wrqm/s     r/s     w/s    rkB/s    wkB/s avgrq-sz avgqu-sz   await r_await w_await  svctm  %util
nvme0n1           0.00     0.00    0.00    0.00     0.00     0.00     0.00     0.00    0.00    0.00    0.00   0.00   0.00
sda               0.00     0.00    0.00    0.00     0.00     0.00     0.00     0.00    0.00    0.00    0.00   0.00   0.00
sdc            2936.00     0.00 6395.00    0.00 37244.00     0.00    11.65    12.11    1.90    1.90    0.00   0.10  62.80
sdb            3038.00     0.00 6581.00    0.00 38476.00     0.00    11.69    12.89    1.96    1.96    0.00   0.10  68.50
sdd            2908.00     0.00 6479.00    0.00 37524.00     0.00    11.58    12.25    1.89    1.89    0.00   0.10  62.80
md0               0.00     0.00 28310.00    0.00 113240.00     0.00     8.00     0.00    0.00    0.00    0.00   0.00   0.00

avg-cpu:  %user   %nice %system %iowait  %steal   %idle
           0.03    0.00    0.63    0.41    0.00   98.93

Device:         rrqm/s   wrqm/s     r/s     w/s    rkB/s    wkB/s avgrq-sz avgqu-sz   await r_await w_await  svctm  %util
nvme0n1           0.00     0.00    0.00    0.00     0.00     0.00     0.00     0.00    0.00    0.00    0.00   0.00   0.00
sda               0.00     0.00    0.00    0.00     0.00     0.00     0.00     0.00    0.00    0.00    0.00   0.00   0.00
sdc            3190.00     0.00 6541.00    0.00 39044.00     0.00    11.94    11.83    1.81    1.81    0.00   0.10  64.10
sdb            3162.00     0.00 6592.00    0.00 39016.00     0.00    11.84    12.14    1.84    1.84    0.00   0.10  63.30
sdd            3146.00     0.00 6507.00    0.00 38476.00     0.00    11.83    11.90    1.83    1.83    0.00   0.10  64.20
md0               0.00     0.00 29127.00    0.00 116508.00     0.00     8.00     0.00    0.00    0.00    0.00   0.00   0.00

avg-cpu:  %user   %nice %system %iowait  %steal   %idle
           0.09    0.00    0.56    0.47    0.00   98.87

Device:         rrqm/s   wrqm/s     r/s     w/s    rkB/s    wkB/s avgrq-sz avgqu-sz   await r_await w_await  svctm  %util
nvme0n1           0.00     0.00    0.00    0.00     0.00     0.00     0.00     0.00    0.00    0.00    0.00   0.00   0.00
sda               0.00     1.00    0.00    1.00     0.00     8.00    16.00     0.00    0.00    0.00    0.00   0.00   0.00
sdc            3021.00     0.00 6472.00    0.00 37944.00     0.00    11.73    11.84    1.83    1.83    0.00   0.10  61.80
sdb            3047.00     0.00 6408.00    0.00 37732.00     0.00    11.78    11.67    1.82    1.82    0.00   0.10  61.60
sdd            2890.00     0.00 6670.00    0.00 38428.00     0.00    11.52    12.78    1.92    1.92    0.00   0.10  69.00
md0               0.00     0.00 28539.00    0.00 114156.00     0.00     8.00     0.00    0.00    0.00    0.00   0.00   0.00

avg-cpu:  %user   %nice %system %iowait  %steal   %idle
           0.03    0.00    0.72    0.44    0.00   98.81

Device:         rrqm/s   wrqm/s     r/s     w/s    rkB/s    wkB/s avgrq-sz avgqu-sz   await r_await w_await  svctm  %util
nvme0n1           0.00     0.00    0.00    0.00     0.00     0.00     0.00     0.00    0.00    0.00    0.00   0.00   0.00
sda               0.00     4.00    0.00    2.00     0.00    24.00    24.00     0.00    0.00    0.00    0.00   0.00   0.00
sdc            2697.00     0.00 6487.00    0.00 36764.00     0.00    11.33    11.94    1.84    1.84    0.00   0.09  60.90
sdb            2906.00     0.00 6676.00    0.00 38416.00     0.00    11.51    12.25    1.84    1.84    0.00   0.10  64.80
sdd            3325.00     0.00 6447.00    0.00 39088.00     0.00    12.13    12.60    1.96    1.96    0.00   0.10  66.40
md0               0.00     0.00 28474.00    0.00 113896.00     0.00     8.00     0.00    0.00    0.00    0.00   0.00   0.00

avg-cpu:  %user   %nice %system %iowait  %steal   %idle
           0.03    0.00    0.47    0.44    0.00   99.06

Device:         rrqm/s   wrqm/s     r/s     w/s    rkB/s    wkB/s avgrq-sz avgqu-sz   await r_await w_await  svctm  %util
nvme0n1           0.00     0.00    0.00    0.00     0.00     0.00     0.00     0.00    0.00    0.00    0.00   0.00   0.00
sda               0.00     0.00    0.00    0.00     0.00     0.00     0.00     0.00    0.00    0.00    0.00   0.00   0.00
sdc             491.00     0.00 3210.00    0.00 14804.00     0.00     9.22     4.54    1.41    1.41    0.00   0.10  31.60
sdb             625.00     0.00 2986.00    0.00 14444.00     0.00     9.67     4.18    1.40    1.40    0.00   0.10  30.90
sdd             619.00     0.00 3168.00    0.00 15148.00     0.00     9.56     8.71    2.75    2.75    0.00   0.26  80.80
md0               0.00     0.00 11116.00    0.00 44464.00     0.00     8.00     0.00    0.00    0.00    0.00   0.00   0.00

avg-cpu:  %user   %nice %system %iowait  %steal   %idle
           0.06    0.00    0.34    0.53    0.00   99.06

Device:         rrqm/s   wrqm/s     r/s     w/s    rkB/s    wkB/s avgrq-sz avgqu-sz   await r_await w_await  svctm  %util
nvme0n1           0.00     0.00    0.00    0.00     0.00     0.00     0.00     0.00    0.00    0.00    0.00   0.00   0.00
sda               0.00     0.00  396.00    1.00  1936.00     4.00     9.77     0.08    0.21    0.21    0.00   0.04   1.50
sdc               9.00     0.00 2240.00    0.00  8996.00     0.00     8.03     3.61    1.61    1.61    0.00   0.17  38.00
sdb              40.00     0.00 2322.00    0.00  9448.00     0.00     8.14     2.54    1.09    1.09    0.00   0.10  23.20
sdd              10.00     0.00 2147.00    0.00  8628.00     0.00     8.04     6.72    3.12    3.12    0.00   0.33  71.60
md0               0.00     0.00 6745.00    0.00 26980.00     0.00     8.00     0.00    0.00    0.00    0.00   0.00   0.00

avg-cpu:  %user   %nice %system %iowait  %steal   %idle
           0.06    0.00    0.38    0.44    0.00   99.12

Device:         rrqm/s   wrqm/s     r/s     w/s    rkB/s    wkB/s avgrq-sz avgqu-sz   await r_await w_await  svctm  %util
nvme0n1           0.00     0.00    0.00    0.00     0.00     0.00     0.00     0.00    0.00    0.00    0.00   0.00   0.00
sda               0.00     0.00    0.00    0.00     0.00     0.00     0.00     0.00    0.00    0.00    0.00   0.00   0.00
sdc             251.00     0.00 3746.00    0.00 15988.00     0.00     8.54     5.32    1.42    1.42    0.00   0.09  34.00
sdb             286.00     0.00 3933.00    0.00 16840.00     0.00     8.56     5.59    1.42    1.42    0.00   0.09  35.60
sdd             357.00     0.00 3914.00    0.00 17084.00     0.00     8.73    11.18    2.86    2.86    0.00   0.21  81.40
md0               0.00     0.00 12514.00    0.00 50056.00     0.00     8.00     0.00    0.00    0.00    0.00   0.00   0.00

avg-cpu:  %user   %nice %system %iowait  %steal   %idle
           0.06    0.00    0.50    0.56    0.00   98.87

Device:         rrqm/s   wrqm/s     r/s     w/s    rkB/s    wkB/s avgrq-sz avgqu-sz   await r_await w_await  svctm  %util
nvme0n1           0.00     0.00    0.00    0.00     0.00     0.00     0.00     0.00    0.00    0.00    0.00   0.00   0.00
sda               0.00     2.00    0.00    1.00     0.00    28.00    56.00     0.00    0.00    0.00    0.00   0.00   0.00
sdc             297.00     0.00 4325.00    0.00 18488.00     0.00     8.55     8.40    1.94    1.94    0.00   0.13  55.10
sdb             329.00     0.00 4259.00    0.00 18388.00     0.00     8.63     6.42    1.51    1.51    0.00   0.09  39.70
sdd             435.00     0.00 4363.00    0.00 19192.00     0.00     8.80     9.71    2.23    2.23    0.00   0.15  66.00
md0               0.00     0.00 14013.00    0.00 56052.00     0.00     8.00     0.00    0.00    0.00    0.00   0.00   0.00

avg-cpu:  %user   %nice %system %iowait  %steal   %idle
           0.06    0.00    0.44    0.50    0.00   99.00

Device:         rrqm/s   wrqm/s     r/s     w/s    rkB/s    wkB/s avgrq-sz avgqu-sz   await r_await w_await  svctm  %util
nvme0n1           0.00     0.00    0.00    0.00     0.00     0.00     0.00     0.00    0.00    0.00    0.00   0.00   0.00
sda               0.00     7.00    0.00    2.00     0.00    36.00    36.00     0.00    0.00    0.00    0.00   0.00   0.00
sdc             368.00     0.00 4452.00    0.00 19280.00     0.00     8.66     6.79    1.53    1.53    0.00   0.10  42.60
sdb             303.00     0.00 4325.00    0.00 18512.00     0.00     8.56     6.40    1.48    1.48    0.00   0.09  39.30
sdd             375.00     0.00 4325.00    0.00 18800.00     0.00     8.69    11.30    2.60    2.60    0.00   0.18  76.90
md0               0.00     0.00 14125.00    0.00 56500.00     0.00     8.00     0.00    0.00    0.00    0.00   0.00   0.00

avg-cpu:  %user   %nice %system %iowait  %steal   %idle
           0.06    0.00    0.53    0.50    0.00   98.90

Device:         rrqm/s   wrqm/s     r/s     w/s    rkB/s    wkB/s avgrq-sz avgqu-sz   await r_await w_await  svctm  %util
nvme0n1           0.00     0.00    0.00    0.00     0.00     0.00     0.00     0.00    0.00    0.00    0.00   0.00   0.00
sda               0.00     0.00    0.00    0.00     0.00     0.00     0.00     0.00    0.00    0.00    0.00   0.00   0.00
sdc             437.00     0.00 4825.00    0.00 20976.00     0.00     8.69     7.64    1.58    1.58    0.00   0.09  43.70
sdb             502.00     0.00 4479.00    0.00 19924.00     0.00     8.90    10.61    2.36    2.36    0.00   0.15  69.40
sdd             310.00     0.00 4659.00    0.00 19876.00     0.00     8.53     7.40    1.60    1.60    0.00   0.10  45.30
md0               0.00     0.00 15204.00    0.00 60816.00     0.00     8.00     0.00    0.00    0.00    0.00   0.00   0.00

avg-cpu:  %user   %nice %system %iowait  %steal   %idle
           0.06    0.00    0.47    0.53    0.00   98.94

Device:         rrqm/s   wrqm/s     r/s     w/s    rkB/s    wkB/s avgrq-sz avgqu-sz   await r_await w_await  svctm  %util
nvme0n1           0.00     0.00    0.00    0.00     0.00     0.00     0.00     0.00    0.00    0.00    0.00   0.00   0.00
sda               0.00     0.00    0.00    0.00     0.00     0.00     0.00     0.00    0.00    0.00    0.00   0.00   0.00
sdc             345.00     0.00 4313.00    0.00 18704.00     0.00     8.67     7.11    1.65    1.65    0.00   0.10  43.80
sdb             307.00     0.00 4452.00    0.00 19036.00     0.00     8.55     7.61    1.72    1.72    0.00   0.11  47.60
sdd             412.00     0.00 4554.00    0.00 19864.00     0.00     8.72    10.45    2.29    2.29    0.00   0.16  72.00
md0               0.00     0.00 14448.00    0.00 57792.00     0.00     8.00     0.00    0.00    0.00    0.00   0.00   0.00

avg-cpu:  %user   %nice %system %iowait  %steal   %idle
           0.06    0.00    0.47    0.50    0.00   98.97

Device:         rrqm/s   wrqm/s     r/s     w/s    rkB/s    wkB/s avgrq-sz avgqu-sz   await r_await w_await  svctm  %util
nvme0n1           0.00     0.00    0.00    0.00     0.00     0.00     0.00     0.00    0.00    0.00    0.00   0.00   0.00
sda               0.00     0.00    0.00    0.00     0.00     0.00     0.00     0.00    0.00    0.00    0.00   0.00   0.00
sdc             382.00     0.00 4408.00    0.00 19156.00     0.00     8.69     7.25    1.65    1.65    0.00   0.09  41.40
sdb             515.00     0.00 4561.00    0.00 20304.00     0.00     8.90     9.12    2.00    2.00    0.00   0.13  58.60
sdd             336.00     0.00 4331.00    0.00 18668.00     0.00     8.62     8.77    2.02    2.02    0.00   0.13  57.20
md0               0.00     0.00 14511.00    0.00 58044.00     0.00     8.00     0.00    0.00    0.00    0.00   0.00   0.00

avg-cpu:  %user   %nice %system %iowait  %steal   %idle
           0.06    0.00    0.50    0.50    0.00   98.94

Device:         rrqm/s   wrqm/s     r/s     w/s    rkB/s    wkB/s avgrq-sz avgqu-sz   await r_await w_await  svctm  %util
nvme0n1           0.00     0.00    0.00    0.00     0.00     0.00     0.00     0.00    0.00    0.00    0.00   0.00   0.00
sda               0.00     0.00    0.00    0.00     0.00     0.00     0.00     0.00    0.00    0.00    0.00   0.00   0.00
sdc             526.00     0.00 4394.00    0.00 19684.00     0.00     8.96     6.99    1.58    1.58    0.00   0.09  40.90
sdb             387.00     0.00 4357.00    0.00 18976.00     0.00     8.71     7.28    1.67    1.67    0.00   0.10  44.50
sdd             408.00     0.00 4274.00    0.00 18728.00     0.00     8.76    10.41    2.44    2.44    0.00   0.17  72.80
md0               0.00     0.00 14332.00    0.00 57328.00     0.00     8.00     0.00    0.00    0.00    0.00   0.00   0.00

avg-cpu:  %user   %nice %system %iowait  %steal   %idle
           0.03    0.00    0.38    0.50    0.00   99.09

Device:         rrqm/s   wrqm/s     r/s     w/s    rkB/s    wkB/s avgrq-sz avgqu-sz   await r_await w_await  svctm  %util
nvme0n1           0.00     0.00    0.00    0.00     0.00     0.00     0.00     0.00    0.00    0.00    0.00   0.00   0.00
sda               0.00     1.00    0.00    2.00     0.00    12.00    12.00     0.00    0.50    0.00    0.50   0.50   0.10
sdc             104.00     0.00 2364.00    0.00  9872.00     0.00     8.35     3.34    1.43    1.43    0.00   0.12  27.90
sdb             153.00     0.00 2309.00    0.00  9848.00     0.00     8.53     6.02    2.62    2.62    0.00   0.29  68.00
sdd             182.00     0.00 2133.00    0.00  9260.00     0.00     8.68     4.13    1.93    1.93    0.00   0.21  44.60
md0               0.00     0.00 7205.00    0.00 28820.00     0.00     8.00     0.00    0.00    0.00    0.00   0.00   0.00

avg-cpu:  %user   %nice %system %iowait  %steal   %idle
           0.06    0.00    0.31    0.72    0.00   98.91

Device:         rrqm/s   wrqm/s     r/s     w/s    rkB/s    wkB/s avgrq-sz avgqu-sz   await r_await w_await  svctm  %util
nvme0n1           0.00     0.00    0.00    0.00     0.00     0.00     0.00     0.00    0.00    0.00    0.00   0.00   0.00
sda               0.00     0.00    0.00    0.00     0.00     0.00     0.00     0.00    0.00    0.00    0.00   0.00   0.00
sdc               0.00     0.00 1220.00    0.00  4880.00     0.00     8.00     1.96    1.61    1.61    0.00   0.27  32.90
sdb               0.00     0.00 1253.00    0.00  5012.00     0.00     8.00     1.82    1.45    1.45    0.00   0.23  28.60
sdd               0.00     0.00 1140.00    0.00  4560.00     0.00     8.00     3.78    3.31    3.31    0.00   0.58  66.20
md0               0.00     0.00 3617.00    0.00 14468.00     0.00     8.00     0.00    0.00    0.00    0.00   0.00   0.00

