Linux 4.17.2 (bench2) 	08/04/2018 	_x86_64_	(32 CPU)

avg-cpu:  %user   %nice %system %iowait  %steal   %idle
           1.89    0.00    1.53    1.64    0.00   94.94

Device:         rrqm/s   wrqm/s     r/s     w/s    rkB/s    wkB/s avgrq-sz avgqu-sz   await r_await w_await  svctm  %util
nvme0n1         921.02     5.00 18567.30  511.21 103857.71 11529.43    12.10     1.32    0.05    0.03    0.67   0.02  38.87
sda               0.12     0.82   14.20    0.59   164.15     8.57    23.36     0.00    0.33    0.32    0.43   0.07   0.10
sdc              35.29     0.17  129.93    0.31  1921.73    95.95    30.99     0.18    1.38    0.48  381.84   0.89  11.54
sdb              33.29     0.18  131.89    0.33  1919.84    95.78    30.49     0.60    4.56    3.55  413.03   0.83  10.99
sdd              35.49     0.16  129.48    0.26  1917.85    95.46    31.04     0.92    7.06    5.28  909.23   0.89  11.58
md0               0.00     0.00  498.17    1.19  7134.03   346.14    29.96     0.00    0.00    0.00    0.00   0.00   0.00

avg-cpu:  %user   %nice %system %iowait  %steal   %idle
           0.00    0.00    0.03    3.09    0.00   96.88

Device:         rrqm/s   wrqm/s     r/s     w/s    rkB/s    wkB/s avgrq-sz avgqu-sz   await r_await w_await  svctm  %util
nvme0n1           0.00     0.00    0.00    0.00     0.00     0.00     0.00     0.00    0.00    0.00    0.00   0.00   0.00
sda               0.00     0.75    0.20    0.55     5.20     6.00    29.87     0.00    0.13    0.00    0.18   0.13   0.01
sdc               0.00     0.00   50.20    0.00   200.80     0.00     8.00     0.32    6.35    6.35    0.00   6.35  31.87
sdb               0.00     0.00   52.00    0.00   208.00     0.00     8.00     0.33    6.42    6.42    0.00   6.43  33.41
sdd               0.00     0.00   53.00    0.00   212.00     0.00     8.00     0.34    6.38    6.38    0.00   6.38  33.79
md0               0.00     0.00  155.25    0.00   621.00     0.00     8.00     0.00    0.00    0.00    0.00   0.00   0.00

