Linux 4.17.2 (bench2) 	08/04/2018 	_x86_64_	(32 CPU)

avg-cpu:  %user   %nice %system %iowait  %steal   %idle
           1.90    0.00    1.54    1.61    0.00   94.95

Device:         rrqm/s   wrqm/s     r/s     w/s    rkB/s    wkB/s avgrq-sz avgqu-sz   await r_await w_await  svctm  %util
nvme0n1         928.83     5.04 18724.86  515.55 104739.05 11627.27    12.10     1.33    0.05    0.03    0.67   0.02  39.20
sda               0.12     0.82   14.18    0.58   164.05     8.56    23.39     0.00    0.33    0.32    0.44   0.07   0.10
sdc              34.73     0.17  124.39    0.31  1866.18    96.77    31.48     0.13    1.06    0.11  381.84   0.90  11.23
sdb              32.71     0.19  126.36    0.33  1864.25    96.59    30.95     0.56    4.41    3.35  413.03   0.84  10.68
sdd              34.92     0.17  123.93    0.26  1862.24    96.27    31.54     0.87    7.03    5.15  909.23   0.91  11.25
md0               0.00     0.00  479.86    1.20  6934.69   349.08    30.28     0.00    0.00    0.00    0.00   0.00   0.00

avg-cpu:  %user   %nice %system %iowait  %steal   %idle
           0.01    0.00    0.16   39.23    0.00   60.60

Device:         rrqm/s   wrqm/s     r/s     w/s    rkB/s    wkB/s avgrq-sz avgqu-sz   await r_await w_await  svctm  %util
nvme0n1           0.00     0.00    0.00    0.00     0.00     0.00     0.00     0.00    0.00    0.00    0.00   0.00   0.00
sda               0.00     1.10    0.20    0.75     5.20     9.40    30.74     0.00    0.11    0.50    0.00   0.11   0.01
sdc               0.90     0.00  455.10    0.00  4014.20     0.00    17.64     3.77    8.26    8.26    0.00   1.57  71.22
sdb               0.60     0.00  456.35    0.00  4041.80     0.00    17.71     5.11   11.19   11.19    0.00   1.70  77.37
sdd               0.80     0.00  466.00    0.00  3866.40     0.00    16.59     5.53   11.84   11.84    0.00   1.65  77.05
md0               0.00     0.00 1380.60    0.00 13230.60     0.00    19.17     0.00    0.00    0.00    0.00   0.00   0.00

