Linux 4.17.2 (bench2) 	08/04/2018 	_x86_64_	(32 CPU)

avg-cpu:  %user   %nice %system %iowait  %steal   %idle
           1.89    0.00    1.54    1.62    0.00   94.95

Device:         rrqm/s   wrqm/s     r/s     w/s    rkB/s    wkB/s avgrq-sz avgqu-sz   await r_await w_await  svctm  %util
nvme0n1         926.02     5.03 18668.22  513.99 104422.23 11592.10    12.10     1.33    0.05    0.03    0.67   0.02  39.08
sda               0.12     0.82   14.18    0.58   164.09     8.57    23.38     0.00    0.33    0.32    0.44   0.07   0.10
sdc              34.99     0.17  126.44    0.31  1881.87    96.47    31.22     0.15    1.14    0.22  381.84   0.89  11.34
sdb              32.98     0.18  128.41    0.33  1879.95    96.30    30.70     0.57    4.43    3.39  413.03   0.84  10.79
sdd              35.18     0.16  125.99    0.26  1877.96    95.98    31.27     0.89    7.01    5.16  909.23   0.90  11.36
md0               0.00     0.00  486.79    1.20  6988.77   348.02    30.07     0.00    0.00    0.00    0.00   0.00   0.00

avg-cpu:  %user   %nice %system %iowait  %steal   %idle
           0.01    0.00    0.11   11.31    0.00   88.56

Device:         rrqm/s   wrqm/s     r/s     w/s    rkB/s    wkB/s avgrq-sz avgqu-sz   await r_await w_await  svctm  %util
nvme0n1           0.00     0.00    0.00    0.00     0.00     0.00     0.00     0.00    0.00    0.00    0.00   0.00   0.00
sda               0.00     0.85    0.20    0.55     5.20     6.40    30.93     0.00    0.20    0.25    0.18   0.20   0.01
sdc               0.20     0.00  213.10    0.00  2743.80     0.00    25.75     1.73    8.12    8.12    0.00   3.01  64.10
sdb               0.10     0.00  221.00    0.00  2579.40     0.00    23.34     1.82    8.23    8.23    0.00   3.04  67.23
sdd               0.25     0.00  218.35    0.00  2488.60     0.00    22.79     1.73    7.93    7.93    0.00   2.95  64.48
md0               0.00     0.00  653.35    0.00  8493.00     0.00    26.00     0.00    0.00    0.00    0.00   0.00   0.00

