Linux 4.17.2 (bench2) 	08/04/2018 	_x86_64_	(32 CPU)

avg-cpu:  %user   %nice %system %iowait  %steal   %idle
           1.89    0.00    1.54    1.62    0.00   94.95

Device:         rrqm/s   wrqm/s     r/s     w/s    rkB/s    wkB/s avgrq-sz avgqu-sz   await r_await w_await  svctm  %util
nvme0n1         927.83     5.04 18704.75  515.00 104626.56 11614.78    12.10     1.33    0.05    0.03    0.67   0.02  39.16
sda               0.12     0.82   14.18    0.58   164.06     8.56    23.39     0.00    0.33    0.32    0.44   0.07   0.10
sdc              34.95     0.17  125.19    0.31  1872.84    96.66    31.39     0.14    1.10    0.16  381.84   0.90  11.27
sdb              32.93     0.18  127.16    0.33  1870.91    96.49    30.86     0.57    4.43    3.38  413.03   0.84  10.72
sdd              35.15     0.17  124.74    0.26  1868.91    96.16    31.44     0.88    7.03    5.16  909.23   0.90  11.29
md0               0.00     0.00  482.93    1.20  6957.73   348.70    30.18     0.00    0.00    0.00    0.00   0.00   0.00

avg-cpu:  %user   %nice %system %iowait  %steal   %idle
           0.09    0.00    0.88   14.19    0.00   84.83

Device:         rrqm/s   wrqm/s     r/s     w/s    rkB/s    wkB/s avgrq-sz avgqu-sz   await r_await w_await  svctm  %util
nvme0n1           0.00     0.00    0.00    0.00     0.00     0.00     0.00     0.00    0.00    0.00    0.00   0.00   0.00
sda               0.00     0.00   20.00    0.00   120.00     0.00    12.00     0.00    0.05    0.05    0.00   0.05   0.10
sdc               0.00     0.00 2601.00    0.00 10428.00     0.00     8.02     1.98    0.74    0.74    0.00   0.14  36.60
sdb               0.00     0.00 2600.00    0.00 10400.00     0.00     8.00     2.25    0.87    0.87    0.00   0.15  38.60
sdd               0.00     0.00 2591.00    0.00 10364.00     0.00     8.00     1.84    0.71    0.71    0.00   0.13  32.60
md0               0.00     0.00 7800.00    0.00 31224.00     0.00     8.01     0.00    0.00    0.00    0.00   0.00   0.00

avg-cpu:  %user   %nice %system %iowait  %steal   %idle
           0.03    0.00    1.29   13.79    0.00   84.89

Device:         rrqm/s   wrqm/s     r/s     w/s    rkB/s    wkB/s avgrq-sz avgqu-sz   await r_await w_await  svctm  %util
nvme0n1           0.00     0.00    0.00    0.00     0.00     0.00     0.00     0.00    0.00    0.00    0.00   0.00   0.00
sda               0.00     0.00    0.00    0.00     0.00     0.00     0.00     0.00    0.00    0.00    0.00   0.00   0.00
sdc               0.00     0.00 2547.00    0.00 10188.00     0.00     8.00     2.14    0.87    0.87    0.00   0.15  38.70
sdb               0.00     0.00 2603.00    0.00 10412.00     0.00     8.00     2.01    0.78    0.78    0.00   0.14  36.80
sdd               0.00     0.00 2390.00    0.00  9560.00     0.00     8.00     1.83    0.77    0.77    0.00   0.14  33.00
md0               0.00     0.00 7540.00    0.00 30160.00     0.00     8.00     0.00    0.00    0.00    0.00   0.00   0.00

avg-cpu:  %user   %nice %system %iowait  %steal   %idle
           0.06    0.00    1.07   12.85    0.00   86.02

Device:         rrqm/s   wrqm/s     r/s     w/s    rkB/s    wkB/s avgrq-sz avgqu-sz   await r_await w_await  svctm  %util
nvme0n1           0.00     0.00    0.00    0.00     0.00     0.00     0.00     0.00    0.00    0.00    0.00   0.00   0.00
sda               0.00     0.00    0.00    0.00     0.00     0.00     0.00     0.00    0.00    0.00    0.00   0.00   0.00
sdc               0.00     0.00 2450.00    0.00  9800.00     0.00     8.00     2.05    0.84    0.84    0.00   0.15  37.80
sdb               0.00     0.00 2277.00    0.00  9112.00     0.00     8.00     1.92    0.85    0.85    0.00   0.14  33.00
sdd               0.00     0.00 2642.00    0.00 10568.00     0.00     8.00     2.14    0.81    0.81    0.00   0.15  38.80
md0               0.00     0.00 7370.00    0.00 29480.00     0.00     8.00     0.00    0.00    0.00    0.00   0.00   0.00

avg-cpu:  %user   %nice %system %iowait  %steal   %idle
           0.06    0.00    1.01   11.93    0.00   87.00

Device:         rrqm/s   wrqm/s     r/s     w/s    rkB/s    wkB/s avgrq-sz avgqu-sz   await r_await w_await  svctm  %util
nvme0n1           0.00     0.00    0.00    0.00     0.00     0.00     0.00     0.00    0.00    0.00    0.00   0.00   0.00
sda               0.00     0.00    0.00    0.00     0.00     0.00     0.00     0.00    0.00    0.00    0.00   0.00   0.00
sdc               0.00     0.00 2652.00    0.00 10608.00     0.00     8.00     2.26    0.85    0.85    0.00   0.15  39.70
sdb               0.00     0.00 2623.00    0.00 10488.00     0.00     8.00     1.96    0.74    0.74    0.00   0.13  34.80
sdd               0.00     0.00 2362.00    0.00  9448.00     0.00     8.00     1.86    0.79    0.79    0.00   0.15  34.30
md0               0.00     0.00 7631.00    0.00 30524.00     0.00     8.00     0.00    0.00    0.00    0.00   0.00   0.00

avg-cpu:  %user   %nice %system %iowait  %steal   %idle
           0.03    0.00    1.07   11.98    0.00   86.91

Device:         rrqm/s   wrqm/s     r/s     w/s    rkB/s    wkB/s avgrq-sz avgqu-sz   await r_await w_await  svctm  %util
nvme0n1           0.00     0.00    0.00    0.00     0.00     0.00     0.00     0.00    0.00    0.00    0.00   0.00   0.00
sda               0.00     0.00    0.00    0.00     0.00     0.00     0.00     0.00    0.00    0.00    0.00   0.00   0.00
sdc               0.00     0.00 2643.00    0.00 10572.00     0.00     8.00     1.90    0.72    0.72    0.00   0.13  34.80
sdb               0.00     0.00 2458.00    0.00  9832.00     0.00     8.00     2.15    0.87    0.87    0.00   0.15  37.70
sdd               0.00     0.00 2755.00    0.00 11020.00     0.00     8.00     2.11    0.77    0.77    0.00   0.14  37.70
md0               0.00     0.00 7859.00    0.00 31436.00     0.00     8.00     0.00    0.00    0.00    0.00   0.00   0.00

avg-cpu:  %user   %nice %system %iowait  %steal   %idle
           0.06    0.00    1.35   12.09    0.00   86.50

Device:         rrqm/s   wrqm/s     r/s     w/s    rkB/s    wkB/s avgrq-sz avgqu-sz   await r_await w_await  svctm  %util
nvme0n1           0.00     0.00    0.00    0.00     0.00     0.00     0.00     0.00    0.00    0.00    0.00   0.00   0.00
sda               0.00    11.00    0.00    2.00     0.00    52.00    52.00     0.00    0.00    0.00    0.00   0.00   0.00
sdc               0.00     0.00 2896.00    0.00 11584.00     0.00     8.00     2.20    0.76    0.76    0.00   0.13  38.50
sdb               0.00     0.00 2907.00    0.00 11628.00     0.00     8.00     2.10    0.72    0.72    0.00   0.12  36.20
sdd               0.00     0.00 2675.00    0.00 10700.00     0.00     8.00     2.02    0.76    0.76    0.00   0.13  35.60
md0               0.00     0.00 8484.00    0.00 33936.00     0.00     8.00     0.00    0.00    0.00    0.00   0.00   0.00

avg-cpu:  %user   %nice %system %iowait  %steal   %idle
           0.06    0.00    1.23   12.01    0.00   86.71

Device:         rrqm/s   wrqm/s     r/s     w/s    rkB/s    wkB/s avgrq-sz avgqu-sz   await r_await w_await  svctm  %util
nvme0n1           0.00     0.00    0.00    0.00     0.00     0.00     0.00     0.00    0.00    0.00    0.00   0.00   0.00
sda               0.00     0.00   59.00    0.00   448.00     0.00    15.19     0.03    0.42    0.42    0.00   0.08   0.50
sdc               0.00     0.00 2721.00    0.00 10884.00     0.00     8.00     1.99    0.74    0.74    0.00   0.13  36.40
sdb               0.00     0.00 2621.00    0.00 10484.00     0.00     8.00     2.07    0.79    0.79    0.00   0.13  35.30
sdd               0.00     0.00 2617.00    0.00 10468.00     0.00     8.00     2.12    0.81    0.81    0.00   0.14  37.90
md0               0.00     0.00 7955.00    0.00 31820.00     0.00     8.00     0.00    0.00    0.00    0.00   0.00   0.00

avg-cpu:  %user   %nice %system %iowait  %steal   %idle
           0.06    0.00    1.16   11.97    0.00   86.81

Device:         rrqm/s   wrqm/s     r/s     w/s    rkB/s    wkB/s avgrq-sz avgqu-sz   await r_await w_await  svctm  %util
nvme0n1           0.00     0.00    0.00    0.00     0.00     0.00     0.00     0.00    0.00    0.00    0.00   0.00   0.00
sda               0.00     0.00    0.00    0.00     0.00     0.00     0.00     0.00    0.00    0.00    0.00   0.00   0.00
sdc               0.00     0.00 2551.00    0.00 10204.00     0.00     8.00     2.00    0.78    0.78    0.00   0.14  36.10
sdb               0.00     0.00 2674.00    0.00 10696.00     0.00     8.00     2.06    0.77    0.77    0.00   0.14  36.40
sdd               0.00     0.00 2475.00    0.00  9900.00     0.00     8.00     2.12    0.86    0.86    0.00   0.15  36.10
md0               0.00     0.00 7699.00    0.00 30796.00     0.00     8.00     0.00    0.00    0.00    0.00   0.00   0.00

avg-cpu:  %user   %nice %system %iowait  %steal   %idle
           0.06    0.00    1.04   11.89    0.00   87.01

Device:         rrqm/s   wrqm/s     r/s     w/s    rkB/s    wkB/s avgrq-sz avgqu-sz   await r_await w_await  svctm  %util
nvme0n1           0.00     0.00    0.00    0.00     0.00     0.00     0.00     0.00    0.00    0.00    0.00   0.00   0.00
sda               0.00     0.00    0.00    0.00     0.00     0.00     0.00     0.00    0.00    0.00    0.00   0.00   0.00
sdc               0.00     0.00 2617.00    0.00 10468.00     0.00     8.00     1.95    0.74    0.74    0.00   0.14  36.70
sdb               0.00     0.00 2558.00    0.00 10232.00     0.00     8.00     2.07    0.81    0.81    0.00   0.14  36.70
sdd               0.00     0.00 2713.00    0.00 10856.00     0.00     8.00     2.06    0.76    0.76    0.00   0.13  36.40
md0               0.00     0.00 7885.00    0.00 31540.00     0.00     8.00     0.00    0.00    0.00    0.00   0.00   0.00

avg-cpu:  %user   %nice %system %iowait  %steal   %idle
           0.09    0.00    1.32   11.75    0.00   86.83

Device:         rrqm/s   wrqm/s     r/s     w/s    rkB/s    wkB/s avgrq-sz avgqu-sz   await r_await w_await  svctm  %util
nvme0n1           0.00     0.00    0.00    0.00     0.00     0.00     0.00     0.00    0.00    0.00    0.00   0.00   0.00
sda               0.00     0.00    0.00    0.00     0.00     0.00     0.00     0.00    0.00    0.00    0.00   0.00   0.00
sdc               0.00     0.00 2630.00    0.00 10520.00     0.00     8.00     1.88    0.72    0.72    0.00   0.13  34.60
sdb               0.00     0.00 2917.00    0.00 11668.00     0.00     8.00     2.27    0.78    0.78    0.00   0.14  41.50
sdd               0.00     0.00 2790.00    0.00 11156.00     0.00     8.00     1.91    0.68    0.68    0.00   0.12  34.70
md0               0.00     0.00 8339.00    0.00 33356.00     0.00     8.00     0.00    0.00    0.00    0.00   0.00   0.00

avg-cpu:  %user   %nice %system %iowait  %steal   %idle
           0.06    0.00    0.95   11.66    0.00   87.33

Device:         rrqm/s   wrqm/s     r/s     w/s    rkB/s    wkB/s avgrq-sz avgqu-sz   await r_await w_await  svctm  %util
nvme0n1           0.00     0.00    0.00    0.00     0.00     0.00     0.00     0.00    0.00    0.00    0.00   0.00   0.00
sda               0.00     6.00    0.00    3.00     0.00    52.00    34.67     0.00    0.33    0.00    0.33   0.33   0.10
sdc               0.00     0.00 2549.00    0.00 10196.00     0.00     8.00     1.85    0.73    0.73    0.00   0.13  33.00
sdb               0.00     0.00 2624.00    0.00 10496.00     0.00     8.00     2.03    0.78    0.78    0.00   0.14  37.50
sdd               0.00     0.00 2747.00    0.00 10988.00     0.00     8.00     2.14    0.78    0.78    0.00   0.14  38.10
md0               0.00     0.00 7922.00    0.00 31688.00     0.00     8.00     0.00    0.00    0.00    0.00   0.00   0.00

avg-cpu:  %user   %nice %system %iowait  %steal   %idle
           0.03    0.00    0.85   12.57    0.00   86.55

Device:         rrqm/s   wrqm/s     r/s     w/s    rkB/s    wkB/s avgrq-sz avgqu-sz   await r_await w_await  svctm  %util
nvme0n1           0.00     0.00    0.00    0.00     0.00     0.00     0.00     0.00    0.00    0.00    0.00   0.00   0.00
sda               0.00     0.00    0.00    0.00     0.00     0.00     0.00     0.00    0.00    0.00    0.00   0.00   0.00
sdc               0.00     0.00 2310.00    0.00  9240.00     0.00     8.00     2.03    0.87    0.87    0.00   0.15  34.30
sdb               0.00     0.00 2437.00    0.00  9748.00     0.00     8.00     1.77    0.73    0.73    0.00   0.13  31.90
sdd               0.00     0.00 2528.00    0.00 10112.00     0.00     8.00     2.64    1.04    1.04    0.00   0.17  41.80
md0               0.00     0.00 7275.00    0.00 29100.00     0.00     8.00     0.00    0.00    0.00    0.00   0.00   0.00

avg-cpu:  %user   %nice %system %iowait  %steal   %idle
           0.06    0.00    0.98   11.48    0.00   87.48

Device:         rrqm/s   wrqm/s     r/s     w/s    rkB/s    wkB/s avgrq-sz avgqu-sz   await r_await w_await  svctm  %util
nvme0n1           0.00     0.00    0.00    0.00     0.00     0.00     0.00     0.00    0.00    0.00    0.00   0.00   0.00
sda               0.00     0.00    0.00    0.00     0.00     0.00     0.00     0.00    0.00    0.00    0.00   0.00   0.00
sdc               0.00     0.00 2512.00    0.00 10048.00     0.00     8.00     2.01    0.80    0.80    0.00   0.15  36.50
sdb               0.00     0.00 2328.00    0.00  9312.00     0.00     8.00     2.04    0.88    0.88    0.00   0.16  36.50
sdd               0.00     0.00 2336.00    0.00  9344.00     0.00     8.00     1.90    0.81    0.81    0.00   0.15  35.40
md0               0.00     0.00 7169.00    0.00 28676.00     0.00     8.00     0.00    0.00    0.00    0.00   0.00   0.00

avg-cpu:  %user   %nice %system %iowait  %steal   %idle
           0.03    0.00    1.07   11.89    0.00   87.01

Device:         rrqm/s   wrqm/s     r/s     w/s    rkB/s    wkB/s avgrq-sz avgqu-sz   await r_await w_await  svctm  %util
nvme0n1           0.00     0.00    0.00    0.00     0.00     0.00     0.00     0.00    0.00    0.00    0.00   0.00   0.00
sda               0.00     0.00    0.00    0.00     0.00     0.00     0.00     0.00    0.00    0.00    0.00   0.00   0.00
sdc               0.00     0.00 2626.00    0.00 10504.00     0.00     8.00     2.27    0.87    0.87    0.00   0.15  40.60
sdb               0.00     0.00 2508.00    0.00 10032.00     0.00     8.00     1.93    0.77    0.77    0.00   0.14  34.40
sdd               0.00     0.00 2319.00    0.00  9276.00     0.00     8.00     2.01    0.87    0.87    0.00   0.15  35.60
md0               0.00     0.00 7457.00    0.00 29828.00     0.00     8.00     0.00    0.00    0.00    0.00   0.00   0.00

avg-cpu:  %user   %nice %system %iowait  %steal   %idle
           0.06    0.00    1.10   12.03    0.00   86.81

Device:         rrqm/s   wrqm/s     r/s     w/s    rkB/s    wkB/s avgrq-sz avgqu-sz   await r_await w_await  svctm  %util
nvme0n1           0.00     0.00    0.00    0.00     0.00     0.00     0.00     0.00    0.00    0.00    0.00   0.00   0.00
sda               0.00     0.00    0.00    0.00     0.00     0.00     0.00     0.00    0.00    0.00    0.00   0.00   0.00
sdc               0.00     0.00 2849.00    0.00 11396.00     0.00     8.00     1.87    0.66    0.66    0.00   0.12  34.10
sdb               0.00     0.00 2871.00    0.00 11484.00     0.00     8.00     2.18    0.76    0.76    0.00   0.13  38.00
sdd               0.00     0.00 2766.00    0.00 11064.00     0.00     8.00     2.08    0.75    0.75    0.00   0.13  37.30
md0               0.00     0.00 8490.00    0.00 33960.00     0.00     8.00     0.00    0.00    0.00    0.00   0.00   0.00

avg-cpu:  %user   %nice %system %iowait  %steal   %idle
           0.06    0.00    1.20   11.96    0.00   86.78

Device:         rrqm/s   wrqm/s     r/s     w/s    rkB/s    wkB/s avgrq-sz avgqu-sz   await r_await w_await  svctm  %util
nvme0n1           0.00     0.00    0.00    0.00     0.00     0.00     0.00     0.00    0.00    0.00    0.00   0.00   0.00
sda               0.00     4.00    0.00    2.00     0.00    24.00    24.00     0.00    0.50    0.00    0.50   0.50   0.10
sdc               0.00     0.00 2867.00    0.00 11468.00     0.00     8.00     2.18    0.76    0.76    0.00   0.13  38.60
sdb               0.00     0.00 2841.00    0.00 11364.00     0.00     8.00     1.94    0.68    0.68    0.00   0.12  32.70
sdd               0.00     0.00 2799.00    0.00 11196.00     0.00     8.00     2.06    0.74    0.74    0.00   0.13  36.90
md0               0.00     0.00 8503.00    0.00 34012.00     0.00     8.00     0.00    0.00    0.00    0.00   0.00   0.00

avg-cpu:  %user   %nice %system %iowait  %steal   %idle
           0.09    0.00    0.94   11.62    0.00   87.34

Device:         rrqm/s   wrqm/s     r/s     w/s    rkB/s    wkB/s avgrq-sz avgqu-sz   await r_await w_await  svctm  %util
nvme0n1           0.00     0.00    0.00    0.00     0.00     0.00     0.00     0.00    0.00    0.00    0.00   0.00   0.00
sda               0.00     0.00    0.00    0.00     0.00     0.00     0.00     0.00    0.00    0.00    0.00   0.00   0.00
sdc               0.00     0.00 2516.00    0.00 10064.00     0.00     8.00     1.84    0.73    0.73    0.00   0.14  34.30
sdb               0.00     0.00 2496.00    0.00  9984.00     0.00     8.00     2.04    0.81    0.81    0.00   0.14  34.80
sdd               0.00     0.00 2689.00    0.00 10756.00     0.00     8.00     2.16    0.80    0.80    0.00   0.15  39.30
md0               0.00     0.00 7703.00    0.00 30812.00     0.00     8.00     0.00    0.00    0.00    0.00   0.00   0.00

avg-cpu:  %user   %nice %system %iowait  %steal   %idle
           0.06    0.00    1.19   11.91    0.00   86.83

Device:         rrqm/s   wrqm/s     r/s     w/s    rkB/s    wkB/s avgrq-sz avgqu-sz   await r_await w_await  svctm  %util
nvme0n1           0.00     0.00    0.00    0.00     0.00     0.00     0.00     0.00    0.00    0.00    0.00   0.00   0.00
sda               0.00     0.00    0.00    0.00     0.00     0.00     0.00     0.00    0.00    0.00    0.00   0.00   0.00
sdc               0.00     0.00 2553.00    0.00 10212.00     0.00     8.00     2.09    0.82    0.82    0.00   0.14  36.50
sdb               0.00     0.00 2606.00    0.00 10424.00     0.00     8.00     2.11    0.81    0.81    0.00   0.15  38.30
sdd               0.00     0.00 2660.00    0.00 10640.00     0.00     8.00     1.86    0.71    0.71    0.00   0.13  33.60
md0               0.00     0.00 7817.00    0.00 31268.00     0.00     8.00     0.00    0.00    0.00    0.00   0.00   0.00

avg-cpu:  %user   %nice %system %iowait  %steal   %idle
           0.06    0.00    1.10   11.74    0.00   87.10

Device:         rrqm/s   wrqm/s     r/s     w/s    rkB/s    wkB/s avgrq-sz avgqu-sz   await r_await w_await  svctm  %util
nvme0n1           0.00     0.00    0.00    0.00     0.00     0.00     0.00     0.00    0.00    0.00    0.00   0.00   0.00
sda               0.00     0.00    0.00    0.00     0.00     0.00     0.00     0.00    0.00    0.00    0.00   0.00   0.00
sdc               0.00     0.00 2509.00    0.00 10036.00     0.00     8.00     1.82    0.73    0.73    0.00   0.13  33.50
sdb               0.00     0.00 2924.00    0.00 11696.00     0.00     8.00     2.31    0.79    0.79    0.00   0.14  42.00
sdd               0.00     0.00 2694.00    0.00 10776.00     0.00     8.00     1.92    0.72    0.72    0.00   0.13  34.10
md0               0.00     0.00 8125.00    0.00 32500.00     0.00     8.00     0.00    0.00    0.00    0.00   0.00   0.00

avg-cpu:  %user   %nice %system %iowait  %steal   %idle
           0.06    0.00    1.23   11.88    0.00   86.83

Device:         rrqm/s   wrqm/s     r/s     w/s    rkB/s    wkB/s avgrq-sz avgqu-sz   await r_await w_await  svctm  %util
nvme0n1           0.00     0.00    0.00    0.00     0.00     0.00     0.00     0.00    0.00    0.00    0.00   0.00   0.00
sda               0.00     2.00    0.00    2.00     0.00    16.00    16.00     0.00    0.00    0.00    0.00   0.00   0.00
sdc               0.00     0.00 2752.00    0.00 11008.00     0.00     8.00     2.13    0.77    0.77    0.00   0.14  38.20
sdb               0.00     0.00 2492.00    0.00  9968.00     0.00     8.00     1.81    0.73    0.73    0.00   0.13  32.70
sdd               0.00     0.00 2708.00    0.00 10832.00     0.00     8.00     2.19    0.81    0.81    0.00   0.14  37.30
md0               0.00     0.00 7957.00    0.00 31828.00     0.00     8.00     0.00    0.00    0.00    0.00   0.00   0.00

