Linux 4.17.2 (bench2) 	08/04/2018 	_x86_64_	(32 CPU)

avg-cpu:  %user   %nice %system %iowait  %steal   %idle
           1.89    0.00    1.53    1.65    0.00   94.93

Device:         rrqm/s   wrqm/s     r/s     w/s    rkB/s    wkB/s avgrq-sz avgqu-sz   await r_await w_await  svctm  %util
nvme0n1         919.99     5.00 18546.56  510.64 103741.71 11516.55    12.10     1.32    0.05    0.03    0.67   0.02  38.82
sda               0.12     0.82   14.20    0.59   164.14     8.57    23.36     0.00    0.33    0.32    0.43   0.07   0.10
sdc              35.32     0.17  130.37    0.31  1928.65    95.84    30.99     0.19    1.48    0.59  381.84   0.89  11.59
sdb              33.32     0.18  132.33    0.33  1926.78    95.67    30.49     0.62    4.64    3.64  413.03   0.83  11.04
sdd              35.51     0.16  129.92    0.26  1924.80    95.35    31.04     0.93    7.15    5.37  909.23   0.89  11.64
md0               0.00     0.00  499.56    1.19  7159.98   345.75    29.98     0.00    0.00    0.00    0.00   0.00   0.00

avg-cpu:  %user   %nice %system %iowait  %steal   %idle
           0.00    0.00    0.06    7.85    0.00   92.09

Device:         rrqm/s   wrqm/s     r/s     w/s    rkB/s    wkB/s avgrq-sz avgqu-sz   await r_await w_await  svctm  %util
nvme0n1           0.00     0.00    0.00    0.00     0.00     0.00     0.00     0.00    0.00    0.00    0.00   0.00   0.00
sda               0.00     0.00    1.00    0.00     8.00     0.00    16.00     0.00    0.00    0.00    0.00   0.00   0.00
sdc             124.00     0.00  228.00    0.00  1380.00     0.00    12.11    67.38  218.88  218.88    0.00   3.79  86.50
sdb             102.00     0.00  255.00    0.00  1484.00     0.00    11.64    93.87  287.03  287.03    0.00   3.92  99.90
sdd              86.00     0.00  216.00    0.00  1240.00     0.00    11.48    80.32  245.96  245.96    0.00   4.19  90.60
md0               0.00     0.00  847.00    0.00  3388.00     0.00     8.00     0.00    0.00    0.00    0.00   0.00   0.00

avg-cpu:  %user   %nice %system %iowait  %steal   %idle
           0.00    0.00    0.06    0.91    0.00   99.03

Device:         rrqm/s   wrqm/s     r/s     w/s    rkB/s    wkB/s avgrq-sz avgqu-sz   await r_await w_await  svctm  %util
nvme0n1           0.00     0.00    0.00    0.00     0.00     0.00     0.00     0.00    0.00    0.00    0.00   0.00   0.00
sda               0.00     0.00    0.00    0.00     0.00     0.00     0.00     0.00    0.00    0.00    0.00   0.00   0.00
sdc              82.00     0.00  231.00    0.00  1292.00     0.00    11.19    66.78  275.26  275.26    0.00   3.62  83.60
sdb              91.00     0.00  256.00    0.00  1560.00     0.00    12.19    72.03  302.40  302.40    0.00   3.53  90.30
sdd              74.00     0.00  291.00    0.00  1636.00     0.00    11.24    77.57  330.07  330.07    0.00   3.43  99.90
md0               0.00     0.00  811.00    0.00  3244.00     0.00     8.00     0.00    0.00    0.00    0.00   0.00   0.00

avg-cpu:  %user   %nice %system %iowait  %steal   %idle
           0.00    0.00    0.06    5.03    0.00   94.90

Device:         rrqm/s   wrqm/s     r/s     w/s    rkB/s    wkB/s avgrq-sz avgqu-sz   await r_await w_await  svctm  %util
nvme0n1           0.00     0.00    0.00    0.00     0.00     0.00     0.00     0.00    0.00    0.00    0.00   0.00   0.00
sda               0.00     0.00    0.00    0.00     0.00     0.00     0.00     0.00    0.00    0.00    0.00   0.00   0.00
sdc             149.00     0.00  283.00    0.00  1612.00     0.00    11.39    68.04  260.82  260.82    0.00   3.23  91.50
sdb             149.00     0.00  294.00    0.00  1676.00     0.00    11.40    79.76  281.34  281.34    0.00   3.26  95.80
sdd             124.00     0.00  236.00    0.00  1252.00     0.00    10.61    58.70  212.33  212.33    0.00   3.17  74.80
md0               0.00     0.00 1469.00    0.00  5876.00     0.00     8.00     0.00    0.00    0.00    0.00   0.00   0.00

