Linux 4.17.2 (bench2) 	08/04/2018 	_x86_64_	(32 CPU)

avg-cpu:  %user   %nice %system %iowait  %steal   %idle
           1.89    0.00    1.53    1.64    0.00   94.94

Device:         rrqm/s   wrqm/s     r/s     w/s    rkB/s    wkB/s avgrq-sz avgqu-sz   await r_await w_await  svctm  %util
nvme0n1         921.19     5.00 18570.88  511.31 103877.79 11531.66    12.10     1.32    0.05    0.03    0.67   0.02  38.88
sda               0.12     0.82   14.20    0.59   164.15     8.57    23.36     0.00    0.33    0.32    0.43   0.07   0.10
sdc              35.30     0.17  129.74    0.31  1918.44    95.97    30.98     0.18    1.37    0.48  381.84   0.89  11.53
sdb              33.30     0.18  131.70    0.33  1916.55    95.80    30.48     0.60    4.56    3.55  413.03   0.83  10.98
sdd              35.49     0.16  129.29    0.26  1914.57    95.48    31.03     0.92    7.07    5.28  909.23   0.89  11.58
md0               0.00     0.00  497.62    1.19  7120.76   346.21    29.94     0.00    0.00    0.00    0.00   0.00   0.00

avg-cpu:  %user   %nice %system %iowait  %steal   %idle
           0.04    0.00    0.58    0.78    0.00   98.61

Device:         rrqm/s   wrqm/s     r/s     w/s    rkB/s    wkB/s avgrq-sz avgqu-sz   await r_await w_await  svctm  %util
nvme0n1           0.00     0.00    0.00    0.00     0.00     0.00     0.00     0.00    0.00    0.00    0.00   0.00   0.00
sda               0.00     1.05    4.45    1.55    32.80    11.20    14.67     0.00    0.21    0.27    0.03   0.05   0.03
sdc               7.50     0.00 1403.85    0.00  5648.60     0.00     8.05     3.34    2.39    2.39    0.00   0.29  40.24
sdb               3.85     0.00 1419.00    0.00  5691.40     0.00     8.02     3.85    2.72    2.72    0.00   0.31  43.89
sdd               0.30     0.00 1414.10    0.00  5657.60     0.00     8.00     3.19    2.26    2.26    0.00   0.26  36.20
md0               0.00     0.00 4249.20    0.00 16999.60     0.00     8.00     0.00    0.00    0.00    0.00   0.00   0.00

