type: aio
filename: /mnt/raid/prefetch/prefetch-16384
I/O mode: BUFFERED
workload: SEQUENTIAL
duration: 20
queue size: 32
test mode: TEST
file size: 17179869184
file pages: 4194304
start probability: 0.010
continue probability: 0.100
processed 480 requests 475.69 r/s elapsed 1.01
processed 992 requests 490.29 r/s elapsed 2.02
processed 1504 requests 498.88 r/s elapsed 3.01
processed 2016 requests 499.55 r/s elapsed 4.04
processed 2528 requests 498.25 r/s elapsed 5.07
processed 3008 requests 499.81 r/s elapsed 6.02
processed 3584 requests 508.94 r/s elapsed 7.04
processed 4064 requests 504.76 r/s elapsed 8.05
processed 4576 requests 508.27 r/s elapsed 9.00
processed 5088 requests 507.93 r/s elapsed 10.02
processed 5536 requests 502.88 r/s elapsed 11.01
processed 6080 requests 504.09 r/s elapsed 12.06
processed 6560 requests 504.12 r/s elapsed 13.01
processed 7072 requests 503.18 r/s elapsed 14.05
processed 7584 requests 503.66 r/s elapsed 15.06
processed 8128 requests 506.48 r/s elapsed 16.05
processed 8576 requests 504.27 r/s elapsed 17.01
processed 9120 requests 505.69 r/s elapsed 18.03
processed 9632 requests 506.28 r/s elapsed 19.03
processed 10112 requests 504.38 r/s elapsed 20.05
TOTAL: 10112 requests 504.38 r/s elapsed 20.05
