type: fadvise
filename: /mnt/raid/prefetch/prefetch-16384
I/O mode: BUFFERED
workload: SEQUENTIAL
duration: 20
queue size: 32
test mode: TEST
file size: 17179869184
file pages: 4194304
start probability: 0.010
continue probability: 0.500
processed 1280 requests 1279.63 r/s elapsed 1.00
processed 2528 requests 1261.74 r/s elapsed 2.00
processed 3712 requests 1236.96 r/s elapsed 3.00
processed 4928 requests 1229.72 r/s elapsed 4.01
processed 5888 requests 1176.77 r/s elapsed 5.00
processed 7008 requests 1163.96 r/s elapsed 6.02
processed 8288 requests 1182.98 r/s elapsed 7.01
processed 9568 requests 1194.13 r/s elapsed 8.01
processed 10784 requests 1197.03 r/s elapsed 9.01
processed 12032 requests 1201.09 r/s elapsed 10.02
processed 13280 requests 1205.37 r/s elapsed 11.02
processed 14464 requests 1205.29 r/s elapsed 12.00
processed 15648 requests 1203.41 r/s elapsed 13.00
processed 16896 requests 1205.06 r/s elapsed 14.02
processed 18144 requests 1208.18 r/s elapsed 15.02
processed 19328 requests 1207.81 r/s elapsed 16.00
processed 20544 requests 1207.01 r/s elapsed 17.02
processed 21376 requests 1187.41 r/s elapsed 18.00
processed 22624 requests 1189.96 r/s elapsed 19.01
processed 23904 requests 1194.06 r/s elapsed 20.02
TOTAL: 23904 requests 1194.06 r/s elapsed 20.02
