type: fadvise
filename: /mnt/raid/prefetch/prefetch-16384
I/O mode: BUFFERED
workload: RANDOM
duration: 20
queue size: 32
test mode: TEST
file size: 17179869184
file pages: 4194304
processed 352 requests 346.72 r/s elapsed 1.02
processed 704 requests 339.31 r/s elapsed 2.07
processed 1024 requests 338.27 r/s elapsed 3.03
processed 1376 requests 343.55 r/s elapsed 4.01
processed 1728 requests 344.37 r/s elapsed 5.02
processed 2080 requests 342.02 r/s elapsed 6.08
processed 2400 requests 340.95 r/s elapsed 7.04
processed 2720 requests 339.46 r/s elapsed 8.01
processed 3072 requests 338.46 r/s elapsed 9.08
processed 3424 requests 339.65 r/s elapsed 10.08
processed 3744 requests 339.80 r/s elapsed 11.02
processed 4096 requests 340.97 r/s elapsed 12.01
processed 4448 requests 340.75 r/s elapsed 13.05
processed 4800 requests 342.21 r/s elapsed 14.03
processed 5152 requests 342.05 r/s elapsed 15.06
processed 5504 requests 342.24 r/s elapsed 16.08
processed 5824 requests 341.78 r/s elapsed 17.04
processed 6144 requests 341.33 r/s elapsed 18.00
processed 6496 requests 341.82 r/s elapsed 19.00
processed 6848 requests 341.59 r/s elapsed 20.05
TOTAL: 6848 requests 341.59 r/s elapsed 20.05
