type: POSIX aio
filename: /mnt/raid/prefetch/prefetch-16384
I/O mode: DIRECT
workload: SEQUENTIAL
duration: 20
threads: 16
queue size: 1024
test mode: TEST
file size: 17179869184
file pages: 4194304
start probability: 0.100
continue probability: 0.100
processed 5120 requests 4537.28 r/s elapsed 1.13
processed 9216 requests 4575.73 r/s elapsed 2.01
processed 14336 requests 4609.19 r/s elapsed 3.11
processed 19456 requests 4672.01 r/s elapsed 4.16
processed 23552 requests 4675.49 r/s elapsed 5.04
processed 28672 requests 4621.79 r/s elapsed 6.20
processed 32768 requests 4611.84 r/s elapsed 7.11
processed 36864 requests 4583.12 r/s elapsed 8.04
processed 41984 requests 4561.58 r/s elapsed 9.20
processed 46080 requests 4552.52 r/s elapsed 10.12
processed 50176 requests 4543.25 r/s elapsed 11.04
processed 55296 requests 4557.66 r/s elapsed 12.13
processed 59392 requests 4563.67 r/s elapsed 13.01
processed 64512 requests 4561.10 r/s elapsed 14.14
processed 69632 requests 4581.01 r/s elapsed 15.20
processed 73728 requests 4601.85 r/s elapsed 16.02
processed 78848 requests 4605.23 r/s elapsed 17.12
processed 83968 requests 4624.88 r/s elapsed 18.16
processed 88064 requests 4634.48 r/s elapsed 19.00
processed 93184 requests 4643.04 r/s elapsed 20.07
TOTAL: 93184 requests 4643.04 r/s elapsed 20.07
