type: POSIX aio
filename: /mnt/raid/prefetch/prefetch-16384
I/O mode: BUFFERED
workload: RANDOM
duration: 20
threads: 1
queue size: 8
test mode: TEST
file size: 17179869184
file pages: 4194304
processed 128 requests 125.43 r/s elapsed 1.02
processed 264 requests 128.69 r/s elapsed 2.05
processed 392 requests 128.59 r/s elapsed 3.05
processed 512 requests 127.85 r/s elapsed 4.00
processed 640 requests 126.88 r/s elapsed 5.04
processed 776 requests 128.15 r/s elapsed 6.06
processed 904 requests 128.49 r/s elapsed 7.04
processed 1032 requests 128.39 r/s elapsed 8.04
processed 1152 requests 127.64 r/s elapsed 9.03
processed 1288 requests 128.09 r/s elapsed 10.06
processed 1408 requests 127.42 r/s elapsed 11.05
processed 1536 requests 127.43 r/s elapsed 12.05
processed 1664 requests 127.33 r/s elapsed 13.07
processed 1784 requests 127.15 r/s elapsed 14.03
processed 1912 requests 127.41 r/s elapsed 15.01
processed 2048 requests 127.61 r/s elapsed 16.05
processed 2168 requests 127.49 r/s elapsed 17.01
processed 2296 requests 127.52 r/s elapsed 18.00
processed 2424 requests 127.25 r/s elapsed 19.05
processed 2544 requests 126.85 r/s elapsed 20.05
TOTAL: 2544 requests 126.85 r/s elapsed 20.05
