type: POSIX aio
filename: /mnt/raid/prefetch/prefetch-16384
I/O mode: DIRECT
workload: SEQUENTIAL
duration: 20
threads: 1
queue size: 32
test mode: TEST
file size: 17179869184
file pages: 4194304
start probability: 0.010
continue probability: 0.100
processed 512 requests 486.26 r/s elapsed 1.05
processed 1024 requests 504.06 r/s elapsed 2.03
processed 1536 requests 501.36 r/s elapsed 3.06
processed 2016 requests 502.25 r/s elapsed 4.01
processed 2528 requests 502.83 r/s elapsed 5.03
processed 3008 requests 496.26 r/s elapsed 6.06
processed 3456 requests 491.79 r/s elapsed 7.03
processed 3904 requests 486.58 r/s elapsed 8.02
processed 4416 requests 489.19 r/s elapsed 9.03
processed 4896 requests 487.48 r/s elapsed 10.04
processed 5344 requests 485.38 r/s elapsed 11.01
processed 5856 requests 486.89 r/s elapsed 12.03
processed 6368 requests 489.07 r/s elapsed 13.02
processed 6880 requests 488.78 r/s elapsed 14.08
processed 7296 requests 484.37 r/s elapsed 15.06
processed 7776 requests 484.70 r/s elapsed 16.04
processed 8288 requests 485.71 r/s elapsed 17.06
processed 8768 requests 486.70 r/s elapsed 18.02
processed 9312 requests 489.01 r/s elapsed 19.04
processed 9824 requests 489.48 r/s elapsed 20.07
TOTAL: 9824 requests 489.48 r/s elapsed 20.07
