type: POSIX aio
filename: /mnt/raid/prefetch/prefetch-16384
I/O mode: DIRECT
workload: SEQUENTIAL
duration: 20
threads: 1
queue size: 8
test mode: TEST
file size: 17179869184
file pages: 4194304
start probability: 0.010
continue probability: 0.500
processed 816 requests 812.11 r/s elapsed 1.00
processed 1776 requests 887.17 r/s elapsed 2.00
processed 2568 requests 853.53 r/s elapsed 3.01
processed 3400 requests 849.12 r/s elapsed 4.00
processed 4208 requests 840.97 r/s elapsed 5.00
processed 4976 requests 827.42 r/s elapsed 6.01
processed 5792 requests 826.73 r/s elapsed 7.01
processed 6672 requests 832.80 r/s elapsed 8.01
processed 7528 requests 834.67 r/s elapsed 9.02
processed 8304 requests 830.33 r/s elapsed 10.00
processed 9208 requests 835.78 r/s elapsed 11.02
processed 10016 requests 834.26 r/s elapsed 12.01
processed 10856 requests 834.89 r/s elapsed 13.00
processed 11648 requests 831.30 r/s elapsed 14.01
processed 12496 requests 832.88 r/s elapsed 15.00
processed 13384 requests 836.13 r/s elapsed 16.01
processed 14192 requests 834.75 r/s elapsed 17.00
processed 15072 requests 837.14 r/s elapsed 18.00
processed 15928 requests 838.11 r/s elapsed 19.00
processed 16840 requests 841.91 r/s elapsed 20.00
TOTAL: 16840 requests 841.91 r/s elapsed 20.00
