type: POSIX aio
filename: /mnt/raid/prefetch/prefetch-16384
I/O mode: BUFFERED
workload: SEQUENTIAL
duration: 20
threads: 16
queue size: 1024
test mode: WARMUP
file size: 17179869184
file pages: 4194304
start probability: 0.100
continue probability: 0.500
processed 12288 requests 11338.47 r/s elapsed 1.08
elapsed 1.08 : warmup interval speed 11338.47 previous 0.00
processed 23552 requests 11534.41 r/s elapsed 2.04
elapsed 2.04 : warmup interval speed 11756.04 previous 11338.47
within 5% of the preceding interval, warmup terminating
TOTAL: 23552 requests 11534.41 r/s elapsed 2.04
