type: POSIX aio
filename: /mnt/raid/prefetch/prefetch-16384
I/O mode: BUFFERED
workload: SEQUENTIAL
duration: 20
threads: 32
queue size: 1024
test mode: TEST
file size: 17179869184
file pages: 4194304
start probability: 0.100
continue probability: 0.500
processed 11264 requests 11261.23 r/s elapsed 1.00
processed 25600 requests 12323.70 r/s elapsed 2.08
processed 36864 requests 12167.78 r/s elapsed 3.03
processed 47104 requests 11648.79 r/s elapsed 4.04
processed 58368 requests 11372.77 r/s elapsed 5.13
processed 67584 requests 11198.52 r/s elapsed 6.04
processed 78848 requests 11259.32 r/s elapsed 7.00
processed 90112 requests 11198.63 r/s elapsed 8.05
processed 100352 requests 11111.21 r/s elapsed 9.03
processed 111616 requests 11152.06 r/s elapsed 10.01
processed 122880 requests 11154.50 r/s elapsed 11.02
processed 135168 requests 11202.39 r/s elapsed 12.07
processed 146432 requests 11201.54 r/s elapsed 13.07
processed 157696 requests 11247.74 r/s elapsed 14.02
processed 168960 requests 11248.64 r/s elapsed 15.02
processed 180224 requests 11248.61 r/s elapsed 16.02
processed 192512 requests 11286.51 r/s elapsed 17.06
processed 203776 requests 11298.72 r/s elapsed 18.04
processed 209920 requests 10969.71 r/s elapsed 19.14
processed 220160 requests 11001.61 r/s elapsed 20.01
TOTAL: 220160 requests 11001.61 r/s elapsed 20.01
