type: POSIX aio
filename: /mnt/raid/prefetch/prefetch-16384
I/O mode: DIRECT
workload: SEQUENTIAL
duration: 20
threads: 32
queue size: 32
test mode: TEST
file size: 17179869184
file pages: 4194304
start probability: 0.100
continue probability: 0.900
processed 5952 requests 5939.56 r/s elapsed 1.00
processed 11744 requests 5867.84 r/s elapsed 2.00
processed 17472 requests 5823.07 r/s elapsed 3.00
processed 23488 requests 5863.68 r/s elapsed 4.01
processed 29376 requests 5875.08 r/s elapsed 5.00
processed 35168 requests 5857.92 r/s elapsed 6.00
processed 41184 requests 5880.45 r/s elapsed 7.00
processed 47200 requests 5897.26 r/s elapsed 8.00
processed 53056 requests 5892.66 r/s elapsed 9.00
processed 59232 requests 5918.80 r/s elapsed 10.01
processed 65472 requests 5950.59 r/s elapsed 11.00
processed 71616 requests 5966.38 r/s elapsed 12.00
processed 77408 requests 5953.19 r/s elapsed 13.00
processed 83328 requests 5949.03 r/s elapsed 14.01
processed 89408 requests 5959.09 r/s elapsed 15.00
processed 95200 requests 5946.03 r/s elapsed 16.01
processed 101120 requests 5947.70 r/s elapsed 17.00
processed 107104 requests 5949.56 r/s elapsed 18.00
processed 113632 requests 5978.55 r/s elapsed 19.01
processed 119616 requests 5979.96 r/s elapsed 20.00
TOTAL: 119616 requests 5979.96 r/s elapsed 20.00
