type: POSIX aio
filename: /mnt/raid/prefetch/prefetch-16384
I/O mode: BUFFERED
workload: RANDOM
duration: 20
threads: 1
queue size: 1024
test mode: TEST
file size: 17179869184
file pages: 4194304
processed 1024 requests 124.47 r/s elapsed 8.23
processed 2048 requests 124.76 r/s elapsed 16.42
processed 3072 requests 124.07 r/s elapsed 24.76
TOTAL: 3072 requests 124.07 r/s elapsed 24.76
