type: POSIX aio
filename: /mnt/raid/prefetch/prefetch-16384
I/O mode: DIRECT
workload: SEQUENTIAL
duration: 20
threads: 1
queue size: 1024
test mode: TEST
file size: 17179869184
file pages: 4194304
start probability: 0.010
continue probability: 0.500
processed 1024 requests 823.38 r/s elapsed 1.24
processed 2048 requests 825.21 r/s elapsed 2.48
processed 3072 requests 826.33 r/s elapsed 3.72
processed 4096 requests 845.45 r/s elapsed 4.84
processed 5120 requests 818.04 r/s elapsed 6.26
processed 6144 requests 829.87 r/s elapsed 7.40
processed 7168 requests 832.83 r/s elapsed 8.61
processed 8192 requests 837.20 r/s elapsed 9.78
processed 9216 requests 839.03 r/s elapsed 10.98
processed 10240 requests 847.44 r/s elapsed 12.08
processed 11264 requests 850.46 r/s elapsed 13.24
processed 12288 requests 850.90 r/s elapsed 14.44
processed 13312 requests 856.19 r/s elapsed 15.55
processed 14336 requests 858.27 r/s elapsed 16.70
processed 15360 requests 857.83 r/s elapsed 17.91
processed 16384 requests 854.93 r/s elapsed 19.16
processed 17408 requests 858.75 r/s elapsed 20.27
TOTAL: 17408 requests 858.75 r/s elapsed 20.27
