type: POSIX aio
filename: /mnt/raid/prefetch/prefetch-16384
I/O mode: DIRECT
workload: SEQUENTIAL
duration: 20
threads: 16
queue size: 1024
test mode: TEST
file size: 17179869184
file pages: 4194304
start probability: 0.010
continue probability: 0.500
processed 1024 requests 875.42 r/s elapsed 1.17
processed 2048 requests 909.92 r/s elapsed 2.25
processed 3072 requests 886.79 r/s elapsed 3.46
processed 4096 requests 901.97 r/s elapsed 4.54
processed 5120 requests 909.04 r/s elapsed 5.63
processed 6144 requests 896.80 r/s elapsed 6.85
processed 7168 requests 887.73 r/s elapsed 8.07
processed 8192 requests 890.45 r/s elapsed 9.20
processed 9216 requests 888.64 r/s elapsed 10.37
processed 10240 requests 883.01 r/s elapsed 11.60
processed 11264 requests 888.68 r/s elapsed 12.67
processed 12288 requests 885.77 r/s elapsed 13.87
processed 13312 requests 883.04 r/s elapsed 15.08
processed 14336 requests 879.39 r/s elapsed 16.30
processed 15360 requests 883.13 r/s elapsed 17.39
processed 16384 requests 884.18 r/s elapsed 18.53
processed 17408 requests 888.39 r/s elapsed 19.59
processed 18432 requests 884.40 r/s elapsed 20.84
TOTAL: 18432 requests 884.40 r/s elapsed 20.84
