type: POSIX aio
filename: /mnt/raid/prefetch/prefetch-16384
I/O mode: DIRECT
workload: SEQUENTIAL
duration: 20
threads: 32
queue size: 1024
test mode: TEST
file size: 17179869184
file pages: 4194304
start probability: 0.100
continue probability: 0.500
processed 7168 requests 6266.64 r/s elapsed 1.14
processed 13312 requests 6341.35 r/s elapsed 2.10
processed 19456 requests 6411.21 r/s elapsed 3.03
processed 26624 requests 6437.15 r/s elapsed 4.14
processed 32768 requests 6447.04 r/s elapsed 5.08
processed 38912 requests 6463.30 r/s elapsed 6.02
processed 46080 requests 6420.10 r/s elapsed 7.18
processed 52224 requests 6435.27 r/s elapsed 8.12
processed 58368 requests 6399.81 r/s elapsed 9.12
processed 64512 requests 6413.25 r/s elapsed 10.06
processed 70656 requests 6363.74 r/s elapsed 11.10
processed 76800 requests 6379.42 r/s elapsed 12.04
processed 82944 requests 6353.08 r/s elapsed 13.06
processed 90112 requests 6363.85 r/s elapsed 14.16
processed 95232 requests 6342.96 r/s elapsed 15.01
processed 102400 requests 6352.17 r/s elapsed 16.12
processed 108544 requests 6366.24 r/s elapsed 17.05
processed 115712 requests 6381.07 r/s elapsed 18.13
processed 121856 requests 6387.83 r/s elapsed 19.08
processed 128000 requests 6393.43 r/s elapsed 20.02
TOTAL: 128000 requests 6393.43 r/s elapsed 20.02
