type: pthread aio
filename: /mnt/raid/prefetch/prefetch-16384
I/O mode: BUFFERED
workload: SEQUENTIAL
duration: 20
threads: 1
queue size: 1
test mode: WARMUP
file size: 17179869184
file pages: 4194304
start probability: 0.010
continue probability: 0.900
processed 3606 requests 3604.00 r/s elapsed 1.00
elapsed 1.00 : warmup interval speed 3604.00 previous 0.00
processed 8165 requests 4069.97 r/s elapsed 2.01
elapsed 2.01 : warmup interval speed 4533.60 previous 3604.00
processed 12381 requests 4127.00 r/s elapsed 3.00
elapsed 3.00 : warmup interval speed 4242.12 previous 4533.60
within 5% of the preceding interval, warmup terminating
TOTAL: 12381 requests 4127.00 r/s elapsed 3.00
