type: pthread aio
filename: /mnt/raid/prefetch/prefetch-16384
I/O mode: BUFFERED
workload: SEQUENTIAL
duration: 20
threads: 1
queue size: 128
test mode: WARMUP
file size: 17179869184
file pages: 4194304
start probability: 0.010
continue probability: 0.900
processed 4480 requests 4307.92 r/s elapsed 1.04
elapsed 1.04 : warmup interval speed 4307.92 previous 0.00
processed 9088 requests 4533.64 r/s elapsed 2.00
elapsed 2.00 : warmup interval speed 4776.98 previous 4307.92
processed 13696 requests 4446.71 r/s elapsed 3.08
elapsed 3.08 : warmup interval speed 4284.67 previous 4776.98
within 5% of the preceding interval, warmup terminating
TOTAL: 13696 requests 4446.71 r/s elapsed 3.08
