type: pthread fadvise
filename: /mnt/raid/prefetch/prefetch-16384
I/O mode: BUFFERED
workload: SEQUENTIAL
duration: 20
threads: 16
queue size: 1024
test mode: TEST
file size: 17179869184
file pages: 4194304
start probability: 0.100
continue probability: 0.100
processed 4096 requests 3417.98 r/s elapsed 1.20
processed 7168 requests 3414.06 r/s elapsed 2.10
processed 11264 requests 3412.65 r/s elapsed 3.30
processed 14336 requests 3385.28 r/s elapsed 4.23
processed 17408 requests 3375.93 r/s elapsed 5.16
processed 20480 requests 3340.69 r/s elapsed 6.13
processed 23552 requests 3351.25 r/s elapsed 7.03
processed 27648 requests 3294.82 r/s elapsed 8.39
processed 29696 requests 3258.38 r/s elapsed 9.11
processed 32768 requests 3245.98 r/s elapsed 10.09
processed 35840 requests 3232.84 r/s elapsed 11.09
processed 39936 requests 3242.43 r/s elapsed 12.32
processed 43008 requests 3222.20 r/s elapsed 13.35
processed 46080 requests 3215.84 r/s elapsed 14.33
processed 49152 requests 3215.59 r/s elapsed 15.29
processed 52224 requests 3204.59 r/s elapsed 16.30
processed 55296 requests 3199.98 r/s elapsed 17.28
processed 58368 requests 3185.87 r/s elapsed 18.32
processed 61440 requests 3189.40 r/s elapsed 19.26
processed 64512 requests 3203.53 r/s elapsed 20.14
TOTAL: 64512 requests 3203.53 r/s elapsed 20.14
