type: pthread aio
filename: /mnt/raid/prefetch/prefetch-16384
I/O mode: BUFFERED
workload: SEQUENTIAL
duration: 20
threads: 32
queue size: 1024
test mode: WARMUP
file size: 17179869184
file pages: 4194304
start probability: 0.100
continue probability: 0.500
processed 3072 requests 2211.56 r/s elapsed 1.39
elapsed 1.39 : warmup interval speed 2211.56 previous 0.00
processed 5120 requests 2378.08 r/s elapsed 2.15
elapsed 2.15 : warmup interval speed 2680.86 previous 2211.56
processed 7168 requests 2376.83 r/s elapsed 3.02
elapsed 3.02 : warmup interval speed 2373.72 previous 2680.86
within 5% of the preceding interval, warmup terminating
TOTAL: 7168 requests 2376.83 r/s elapsed 3.02
