type: pthread aio
filename: /mnt/raid/prefetch/prefetch-16384
I/O mode: BUFFERED
workload: SEQUENTIAL
duration: 20
threads: 1
queue size: 128
test mode: TEST
file size: 17179869184
file pages: 4194304
start probability: 0.100
continue probability: 0.500
processed 12032 requests 11976.70 r/s elapsed 1.00
processed 24576 requests 12203.04 r/s elapsed 2.01
processed 36736 requests 12102.35 r/s elapsed 3.04
processed 48512 requests 11737.59 r/s elapsed 4.13
processed 58752 requests 11546.82 r/s elapsed 5.09
processed 69376 requests 11331.03 r/s elapsed 6.12
processed 79616 requests 11360.10 r/s elapsed 7.01
processed 90880 requests 11163.05 r/s elapsed 8.14
processed 100864 requests 11188.48 r/s elapsed 9.01
processed 112256 requests 11215.31 r/s elapsed 10.01
processed 123904 requests 11252.19 r/s elapsed 11.01
processed 135168 requests 11254.16 r/s elapsed 12.01
processed 146816 requests 11269.92 r/s elapsed 13.03
processed 158208 requests 11294.64 r/s elapsed 14.01
processed 169984 requests 11327.52 r/s elapsed 15.01
processed 181248 requests 11308.97 r/s elapsed 16.03
processed 192768 requests 11337.51 r/s elapsed 17.00
processed 204160 requests 11330.26 r/s elapsed 18.02
processed 215296 requests 11011.93 r/s elapsed 19.55
processed 220416 requests 11015.40 r/s elapsed 20.01
TOTAL: 220416 requests 11015.40 r/s elapsed 20.01
