type: pthread aio
filename: /mnt/raid/prefetch/prefetch-16384
I/O mode: BUFFERED
workload: SEQUENTIAL
duration: 20
threads: 32
queue size: 32
test mode: WARMUP
file size: 17179869184
file pages: 4194304
start probability: 0.100
continue probability: 0.100
processed 4352 requests 4321.44 r/s elapsed 1.01
elapsed 1.01 : warmup interval speed 4321.44 previous 0.00
processed 9088 requests 4529.31 r/s elapsed 2.01
elapsed 2.01 : warmup interval speed 4738.77 previous 4321.44
processed 13632 requests 4525.24 r/s elapsed 3.01
elapsed 3.01 : warmup interval speed 4517.13 previous 4738.77
within 5% of the preceding interval, warmup terminating
TOTAL: 13632 requests 4525.24 r/s elapsed 3.01
