type: pthread aio
filename: /mnt/raid/prefetch/prefetch-16384
I/O mode: DIRECT
workload: SEQUENTIAL
duration: 20
threads: 32
queue size: 128
test mode: TEST
file size: 17179869184
file pages: 4194304
start probability: 0.010
continue probability: 0.500
processed 1024 requests 894.81 r/s elapsed 1.14
processed 1792 requests 871.57 r/s elapsed 2.06
processed 2688 requests 883.41 r/s elapsed 3.04
processed 3712 requests 904.02 r/s elapsed 4.11
processed 4608 requests 910.58 r/s elapsed 5.06
processed 5632 requests 936.84 r/s elapsed 6.01
processed 6784 requests 963.39 r/s elapsed 7.04
processed 7936 requests 981.35 r/s elapsed 8.09
processed 8960 requests 986.90 r/s elapsed 9.08
processed 9984 requests 995.86 r/s elapsed 10.03
processed 11136 requests 1007.44 r/s elapsed 11.05
processed 12288 requests 1016.18 r/s elapsed 12.09
processed 13312 requests 1023.79 r/s elapsed 13.00
processed 14464 requests 1027.06 r/s elapsed 14.08
processed 15616 requests 1040.01 r/s elapsed 15.02
processed 16896 requests 1049.59 r/s elapsed 16.10
processed 18048 requests 1058.26 r/s elapsed 17.05
processed 19200 requests 1059.48 r/s elapsed 18.12
processed 20224 requests 1063.96 r/s elapsed 19.01
processed 21376 requests 1055.31 r/s elapsed 20.26
TOTAL: 21376 requests 1055.31 r/s elapsed 20.26
