type: pthread aio
filename: /mnt/raid/prefetch/prefetch-16384
I/O mode: BUFFERED
workload: RANDOM
duration: 20
threads: 32
queue size: 32
test mode: WARMUP
file size: 17179869184
file pages: 4194304
processed 1024 requests 268.25 r/s elapsed 3.82
elapsed 3.82 : warmup interval speed 268.25 previous 0.00
processed 1120 requests 274.38 r/s elapsed 4.08
elapsed 4.08 : warmup interval speed 362.85 previous 268.25
processed 1440 requests 284.93 r/s elapsed 5.05
elapsed 5.05 : warmup interval speed 329.21 previous 362.85
within 5% of the preceding interval, warmup terminating
TOTAL: 1440 requests 284.93 r/s elapsed 5.05
