type: pthread aio
filename: /mnt/raid/prefetch/prefetch-16384
I/O mode: BUFFERED
workload: SEQUENTIAL
duration: 20
threads: 32
queue size: 128
test mode: TEST
file size: 17179869184
file pages: 4194304
start probability: 0.010
continue probability: 0.500
processed 1024 requests 974.80 r/s elapsed 1.05
processed 2048 requests 971.83 r/s elapsed 2.11
processed 2944 requests 973.59 r/s elapsed 3.02
processed 3968 requests 973.61 r/s elapsed 4.08
processed 4992 requests 973.27 r/s elapsed 5.13
processed 6016 requests 989.66 r/s elapsed 6.08
processed 7040 requests 1002.18 r/s elapsed 7.02
processed 8064 requests 1004.50 r/s elapsed 8.03
processed 9216 requests 1012.04 r/s elapsed 9.11
processed 10240 requests 1011.15 r/s elapsed 10.13
processed 11136 requests 1011.65 r/s elapsed 11.01
processed 12160 requests 1011.00 r/s elapsed 12.03
processed 13312 requests 1017.02 r/s elapsed 13.09
processed 14336 requests 1020.65 r/s elapsed 14.05
processed 15488 requests 1026.51 r/s elapsed 15.09
processed 16512 requests 1030.87 r/s elapsed 16.02
processed 17664 requests 1036.06 r/s elapsed 17.05
processed 18688 requests 1034.48 r/s elapsed 18.07
processed 19712 requests 1031.03 r/s elapsed 19.12
processed 20736 requests 1031.97 r/s elapsed 20.09
TOTAL: 20736 requests 1031.97 r/s elapsed 20.09
