type: pthread aio
filename: /mnt/raid/prefetch/prefetch-16384
I/O mode: DIRECT
workload: SEQUENTIAL
duration: 20
threads: 1
queue size: 8
test mode: TEST
file size: 17179869184
file pages: 4194304
start probability: 0.010
continue probability: 0.500
processed 1000 requests 892.85 r/s elapsed 1.12
processed 1792 requests 891.01 r/s elapsed 2.01
processed 2680 requests 873.15 r/s elapsed 3.07
processed 3504 requests 873.90 r/s elapsed 4.01
processed 4440 requests 888.00 r/s elapsed 5.00
processed 5328 requests 864.28 r/s elapsed 6.16
processed 6056 requests 852.39 r/s elapsed 7.10
processed 6848 requests 855.95 r/s elapsed 8.00
processed 7784 requests 861.37 r/s elapsed 9.04
processed 8624 requests 862.27 r/s elapsed 10.00
processed 9488 requests 857.18 r/s elapsed 11.07
processed 10288 requests 855.05 r/s elapsed 12.03
processed 11120 requests 854.39 r/s elapsed 13.02
processed 12024 requests 858.73 r/s elapsed 14.00
processed 12920 requests 859.97 r/s elapsed 15.02
processed 13816 requests 862.96 r/s elapsed 16.01
processed 14744 requests 865.50 r/s elapsed 17.04
processed 15592 requests 865.89 r/s elapsed 18.01
processed 16496 requests 868.07 r/s elapsed 19.00
processed 17384 requests 868.98 r/s elapsed 20.01
TOTAL: 17384 requests 868.98 r/s elapsed 20.01
