type: pthread fadvise
filename: /mnt/raid/prefetch/prefetch-16384
I/O mode: BUFFERED
workload: SEQUENTIAL
duration: 20
threads: 1
queue size: 8
test mode: WARMUP
file size: 17179869184
file pages: 4194304
start probability: 0.100
continue probability: 0.100
processed 6848 requests 6845.23 r/s elapsed 1.00
elapsed 1.00 : warmup interval speed 6845.23 previous 0.00
processed 14008 requests 7002.77 r/s elapsed 2.00
elapsed 2.00 : warmup interval speed 7160.38 previous 6845.23
within 5% of the preceding interval, warmup terminating
TOTAL: 14008 requests 7002.77 r/s elapsed 2.00
