type: pthread aio
filename: /mnt/raid/prefetch/prefetch-16384
I/O mode: BUFFERED
workload: SEQUENTIAL
duration: 20
threads: 32
queue size: 32
test mode: TEST
file size: 17179869184
file pages: 4194304
start probability: 0.010
continue probability: 0.100
processed 1024 requests 727.24 r/s elapsed 1.41
processed 1504 requests 742.42 r/s elapsed 2.03
processed 2240 requests 740.52 r/s elapsed 3.02
processed 2976 requests 732.06 r/s elapsed 4.07
processed 3680 requests 721.18 r/s elapsed 5.10
processed 4352 requests 715.30 r/s elapsed 6.08
processed 5056 requests 718.62 r/s elapsed 7.04
processed 5760 requests 717.91 r/s elapsed 8.02
processed 6496 requests 721.75 r/s elapsed 9.00
processed 7232 requests 721.37 r/s elapsed 10.03
processed 8000 requests 725.13 r/s elapsed 11.03
processed 8736 requests 726.72 r/s elapsed 12.02
processed 9536 requests 731.18 r/s elapsed 13.04
processed 10272 requests 733.66 r/s elapsed 14.00
processed 11008 requests 733.41 r/s elapsed 15.01
processed 11808 requests 732.78 r/s elapsed 16.11
processed 12480 requests 722.86 r/s elapsed 17.26
processed 13024 requests 723.07 r/s elapsed 18.01
processed 13760 requests 722.13 r/s elapsed 19.05
processed 14496 requests 724.62 r/s elapsed 20.00
TOTAL: 14496 requests 724.62 r/s elapsed 20.00
