type: pthread fadvise
filename: /mnt/raid/prefetch/prefetch-16384
I/O mode: BUFFERED
workload: SEQUENTIAL
duration: 20
threads: 1
queue size: 1024
test mode: TEST
file size: 17179869184
file pages: 4194304
start probability: 0.010
continue probability: 0.500
processed 2048 requests 1881.42 r/s elapsed 1.09
processed 4096 requests 1810.49 r/s elapsed 2.26
processed 6144 requests 1835.67 r/s elapsed 3.35
processed 8192 requests 1818.99 r/s elapsed 4.50
processed 9216 requests 1827.93 r/s elapsed 5.04
processed 11264 requests 1819.66 r/s elapsed 6.19
processed 13312 requests 1838.84 r/s elapsed 7.24
processed 15360 requests 1852.18 r/s elapsed 8.29
processed 17408 requests 1851.89 r/s elapsed 9.40
processed 19456 requests 1850.96 r/s elapsed 10.51
processed 20480 requests 1860.89 r/s elapsed 11.01
processed 22528 requests 1865.48 r/s elapsed 12.08
processed 24576 requests 1872.32 r/s elapsed 13.13
processed 26624 requests 1871.16 r/s elapsed 14.23
processed 28672 requests 1865.16 r/s elapsed 15.37
processed 30720 requests 1864.91 r/s elapsed 16.47
processed 31744 requests 1867.09 r/s elapsed 17.00
processed 33792 requests 1874.99 r/s elapsed 18.02
processed 35840 requests 1875.73 r/s elapsed 19.11
processed 37888 requests 1880.26 r/s elapsed 20.15
TOTAL: 37888 requests 1880.26 r/s elapsed 20.15
