type: pthread fadvise
filename: /mnt/raid/prefetch/prefetch-16384
I/O mode: BUFFERED
workload: SEQUENTIAL
duration: 20
threads: 32
queue size: 1024
test mode: WARMUP
file size: 17179869184
file pages: 4194304
start probability: 0.010
continue probability: 0.500
processed 2048 requests 1418.23 r/s elapsed 1.44
elapsed 1.44 : warmup interval speed 1418.23 previous 0.00
processed 3072 requests 1384.54 r/s elapsed 2.22
elapsed 2.22 : warmup interval speed 1321.74 previous 1418.23
within 5% of the preceding interval, warmup terminating
TOTAL: 3072 requests 1384.54 r/s elapsed 2.22
