type: pthread aio
filename: /mnt/raid/prefetch/prefetch-16384
I/O mode: DIRECT
workload: SEQUENTIAL
duration: 20
threads: 16
queue size: 1024
test mode: TEST
file size: 17179869184
file pages: 4194304
start probability: 0.010
continue probability: 0.900
processed 3072 requests 2630.48 r/s elapsed 1.17
processed 6144 requests 2481.04 r/s elapsed 2.48
processed 8192 requests 2491.35 r/s elapsed 3.29
processed 10240 requests 2461.68 r/s elapsed 4.16
processed 13312 requests 2499.40 r/s elapsed 5.33
processed 15360 requests 2497.78 r/s elapsed 6.15
processed 18432 requests 2464.14 r/s elapsed 7.48
processed 20480 requests 2415.30 r/s elapsed 8.48
processed 22528 requests 2386.18 r/s elapsed 9.44
processed 24576 requests 2389.36 r/s elapsed 10.29
processed 26624 requests 2415.86 r/s elapsed 11.02
processed 29696 requests 2380.26 r/s elapsed 12.48
processed 31744 requests 2389.59 r/s elapsed 13.28
processed 33792 requests 2406.16 r/s elapsed 14.04
processed 36864 requests 2419.62 r/s elapsed 15.24
processed 38912 requests 2428.90 r/s elapsed 16.02
processed 41984 requests 2418.28 r/s elapsed 17.36
processed 44032 requests 2412.28 r/s elapsed 18.25
processed 46080 requests 2414.07 r/s elapsed 19.09
processed 49152 requests 2415.58 r/s elapsed 20.35
TOTAL: 49152 requests 2415.58 r/s elapsed 20.35
