type: aio
filename: /mnt/raid/prefetch/prefetch-131072
I/O mode: DIRECT
workload: RANDOM
duration: 20
queue size: 1
test mode: TEST
file size: 137438953472
file pages: 33554432
processed 102 requests 101.04 r/s elapsed 1.01
processed 207 requests 103.13 r/s elapsed 2.01
processed 314 requests 104.45 r/s elapsed 3.01
processed 424 requests 105.78 r/s elapsed 4.01
processed 532 requests 106.36 r/s elapsed 5.00
processed 640 requests 106.66 r/s elapsed 6.00
processed 741 requests 105.69 r/s elapsed 7.01
processed 844 requests 105.46 r/s elapsed 8.00
processed 952 requests 105.72 r/s elapsed 9.01
processed 1060 requests 105.92 r/s elapsed 10.01
processed 1168 requests 106.14 r/s elapsed 11.00
processed 1279 requests 106.58 r/s elapsed 12.00
processed 1386 requests 106.60 r/s elapsed 13.00
processed 1494 requests 106.69 r/s elapsed 14.00
processed 1596 requests 106.36 r/s elapsed 15.01
processed 1702 requests 106.34 r/s elapsed 16.01
processed 1811 requests 106.50 r/s elapsed 17.01
processed 1916 requests 106.42 r/s elapsed 18.00
processed 2026 requests 106.63 r/s elapsed 19.00
processed 2134 requests 106.70 r/s elapsed 20.00
TOTAL: 2134 requests 106.70 r/s elapsed 20.00
