type: aio
filename: /mnt/raid/prefetch/prefetch-131072
I/O mode: DIRECT
workload: SEQUENTIAL
duration: 20
queue size: 32
test mode: TEST
file size: 137438953472
file pages: 33554432
start probability: 0.010
continue probability: 0.100
processed 800 requests 794.52 r/s elapsed 1.01
processed 1568 requests 779.16 r/s elapsed 2.01
processed 2336 requests 767.69 r/s elapsed 3.04
processed 2976 requests 736.45 r/s elapsed 4.04
processed 3648 requests 725.14 r/s elapsed 5.03
processed 4384 requests 729.80 r/s elapsed 6.01
processed 5152 requests 733.40 r/s elapsed 7.02
processed 5888 requests 734.88 r/s elapsed 8.01
processed 6624 requests 732.58 r/s elapsed 9.04
processed 7360 requests 733.49 r/s elapsed 10.03
processed 8128 requests 737.35 r/s elapsed 11.02
processed 8864 requests 736.33 r/s elapsed 12.04
processed 9600 requests 737.07 r/s elapsed 13.02
processed 10304 requests 734.87 r/s elapsed 14.02
processed 11072 requests 736.03 r/s elapsed 15.04
processed 11616 requests 722.93 r/s elapsed 16.07
processed 12160 requests 714.34 r/s elapsed 17.02
processed 12896 requests 714.87 r/s elapsed 18.04
processed 13632 requests 717.45 r/s elapsed 19.00
processed 14368 requests 718.24 r/s elapsed 20.00
TOTAL: 14368 requests 718.24 r/s elapsed 20.00
