type: aio
filename: /mnt/raid/prefetch/prefetch-131072
I/O mode: BUFFERED
workload: SEQUENTIAL
duration: 20
queue size: 1024
test mode: WARMUP
file size: 137438953472
file pages: 33554432
start probability: 0.010
continue probability: 0.500
processed 1024 requests 872.53 r/s elapsed 1.17
elapsed 1.17 : warmup interval speed 872.53 previous 0.00
processed 2048 requests 837.89 r/s elapsed 2.44
elapsed 2.44 : warmup interval speed 805.90 previous 872.53
within 5% of the preceding interval, warmup terminating
TOTAL: 2048 requests 837.89 r/s elapsed 2.44
