type: aio
filename: /mnt/raid/prefetch/prefetch-131072
I/O mode: DIRECT
workload: SEQUENTIAL
duration: 20
queue size: 8
test mode: TEST
file size: 137438953472
file pages: 33554432
start probability: 0.100
continue probability: 0.500
processed 6592 requests 6589.23 r/s elapsed 1.00
processed 13952 requests 6974.27 r/s elapsed 2.00
processed 20648 requests 6881.23 r/s elapsed 3.00
processed 28560 requests 7138.37 r/s elapsed 4.00
processed 36344 requests 7266.67 r/s elapsed 5.00
processed 43984 requests 7330.33 r/s elapsed 6.00
processed 50744 requests 7248.62 r/s elapsed 7.00
processed 57800 requests 7224.74 r/s elapsed 8.00
processed 64536 requests 7169.05 r/s elapsed 9.00
processed 72144 requests 7214.19 r/s elapsed 10.00
processed 79624 requests 7238.43 r/s elapsed 11.00
processed 86728 requests 7227.25 r/s elapsed 12.00
processed 93848 requests 7218.97 r/s elapsed 13.00
processed 101528 requests 7251.99 r/s elapsed 14.00
processed 109392 requests 7292.63 r/s elapsed 15.00
processed 117248 requests 7327.60 r/s elapsed 16.00
processed 125016 requests 7353.53 r/s elapsed 17.00
processed 132880 requests 7382.04 r/s elapsed 18.00
processed 140712 requests 7405.63 r/s elapsed 19.00
processed 148552 requests 7427.29 r/s elapsed 20.00
TOTAL: 148552 requests 7427.29 r/s elapsed 20.00
