type: fadvise
filename: /mnt/raid/prefetch/prefetch-131072
I/O mode: BUFFERED
workload: SEQUENTIAL
duration: 20
queue size: 8
test mode: TEST
file size: 137438953472
file pages: 33554432
start probability: 0.010
continue probability: 0.900
processed 4952 requests 4951.88 r/s elapsed 1.00
processed 10472 requests 5219.15 r/s elapsed 2.01
processed 16112 requests 5364.97 r/s elapsed 3.00
processed 21768 requests 5325.45 r/s elapsed 4.09
processed 26456 requests 5290.88 r/s elapsed 5.00
processed 30768 requests 5112.06 r/s elapsed 6.02
processed 35808 requests 5114.92 r/s elapsed 7.00
processed 40496 requests 5061.40 r/s elapsed 8.00
processed 45416 requests 5046.05 r/s elapsed 9.00
processed 50768 requests 5076.48 r/s elapsed 10.00
processed 56184 requests 5107.52 r/s elapsed 11.00
processed 61032 requests 5084.54 r/s elapsed 12.00
processed 66600 requests 5122.38 r/s elapsed 13.00
processed 71936 requests 5138.20 r/s elapsed 14.00
processed 77560 requests 5168.05 r/s elapsed 15.01
processed 82544 requests 5158.44 r/s elapsed 16.00
processed 87480 requests 5144.37 r/s elapsed 17.01
processed 92880 requests 5159.85 r/s elapsed 18.00
processed 97008 requests 5105.53 r/s elapsed 19.00
processed 100960 requests 5047.68 r/s elapsed 20.00
TOTAL: 100960 requests 5047.68 r/s elapsed 20.00
