type: fadvise
filename: /mnt/raid/prefetch/prefetch-131072
I/O mode: BUFFERED
workload: SEQUENTIAL
duration: 20
queue size: 8
test mode: WARMUP
file size: 137438953472
file pages: 33554432
start probability: 0.010
continue probability: 0.900
processed 5856 requests 5852.83 r/s elapsed 1.00
elapsed 1.00 : warmup interval speed 5852.83 previous 0.00
processed 11000 requests 5498.62 r/s elapsed 2.00
elapsed 2.00 : warmup interval speed 5144.21 previous 5852.83
within 5% of the preceding interval, warmup terminating
TOTAL: 11000 requests 5498.62 r/s elapsed 2.00
