type: POSIX aio
filename: /mnt/raid/prefetch/prefetch-131072
I/O mode: BUFFERED
workload: SEQUENTIAL
duration: 20
threads: 16
queue size: 1024
test mode: WARMUP
file size: 137438953472
file pages: 33554432
start probability: 0.010
continue probability: 0.900
processed 4096 requests 3889.41 r/s elapsed 1.05
elapsed 1.05 : warmup interval speed 3889.41 previous 0.00
processed 8192 requests 3913.49 r/s elapsed 2.09
elapsed 2.09 : warmup interval speed 3937.88 previous 3889.41
within 5% of the preceding interval, warmup terminating
TOTAL: 8192 requests 3913.49 r/s elapsed 2.09
