type: POSIX aio
filename: /mnt/raid/prefetch/prefetch-131072
I/O mode: DIRECT
workload: RANDOM
duration: 20
threads: 1
queue size: 8
test mode: TEST
file size: 137438953472
file pages: 33554432
processed 104 requests 103.31 r/s elapsed 1.01
processed 208 requests 103.93 r/s elapsed 2.00
processed 320 requests 104.32 r/s elapsed 3.07
processed 424 requests 105.32 r/s elapsed 4.03
processed 528 requests 105.43 r/s elapsed 5.01
processed 632 requests 105.11 r/s elapsed 6.01
processed 736 requests 104.60 r/s elapsed 7.04
processed 840 requests 104.94 r/s elapsed 8.00
processed 944 requests 104.45 r/s elapsed 9.04
processed 1048 requests 104.36 r/s elapsed 10.04
processed 1152 requests 104.29 r/s elapsed 11.05
processed 1256 requests 104.16 r/s elapsed 12.06
processed 1360 requests 104.35 r/s elapsed 13.03
processed 1472 requests 104.81 r/s elapsed 14.04
processed 1576 requests 104.83 r/s elapsed 15.03
processed 1680 requests 104.76 r/s elapsed 16.04
processed 1784 requests 104.75 r/s elapsed 17.03
processed 1896 requests 104.94 r/s elapsed 18.07
processed 2000 requests 104.91 r/s elapsed 19.06
processed 2104 requests 104.91 r/s elapsed 20.06
TOTAL: 2104 requests 104.91 r/s elapsed 20.06
