type: POSIX aio
filename: /mnt/raid/prefetch/prefetch-131072
I/O mode: BUFFERED
workload: SEQUENTIAL
duration: 20
threads: 1
queue size: 1024
test mode: WARMUP
file size: 137438953472
file pages: 33554432
start probability: 0.010
continue probability: 0.100
processed 1024 requests 494.83 r/s elapsed 2.07
elapsed 2.07 : warmup interval speed 494.83 previous 0.00
processed 2048 requests 497.87 r/s elapsed 4.11
elapsed 4.11 : warmup interval speed 500.94 previous 494.83
within 5% of the preceding interval, warmup terminating
TOTAL: 2048 requests 497.87 r/s elapsed 4.11
