type: POSIX aio
filename: /mnt/raid/prefetch/prefetch-131072
I/O mode: DIRECT
workload: SEQUENTIAL
duration: 20
threads: 32
queue size: 128
test mode: TEST
file size: 137438953472
file pages: 33554432
start probability: 0.100
continue probability: 0.100
processed 4352 requests 4335.44 r/s elapsed 1.00
processed 8832 requests 4413.22 r/s elapsed 2.00
processed 13312 requests 4419.66 r/s elapsed 3.01
processed 17792 requests 4446.63 r/s elapsed 4.00
processed 22400 requests 4464.24 r/s elapsed 5.02
processed 27008 requests 4487.41 r/s elapsed 6.02
processed 31232 requests 4445.91 r/s elapsed 7.02
processed 35456 requests 4428.45 r/s elapsed 8.01
processed 39936 requests 4410.60 r/s elapsed 9.05
processed 44672 requests 4466.83 r/s elapsed 10.00
processed 49792 requests 4523.68 r/s elapsed 11.01
processed 54016 requests 4494.77 r/s elapsed 12.02
processed 58368 requests 4478.87 r/s elapsed 13.03
processed 62976 requests 4491.38 r/s elapsed 14.02
processed 67712 requests 4513.05 r/s elapsed 15.00
processed 72192 requests 4511.50 r/s elapsed 16.00
processed 76928 requests 4522.06 r/s elapsed 17.01
processed 81536 requests 4529.16 r/s elapsed 18.00
processed 86272 requests 4540.54 r/s elapsed 19.00
processed 91136 requests 4551.55 r/s elapsed 20.02
TOTAL: 91136 requests 4551.55 r/s elapsed 20.02
