type: POSIX aio
filename: /mnt/raid/prefetch/prefetch-131072
I/O mode: BUFFERED
workload: SEQUENTIAL
duration: 20
threads: 1
queue size: 1024
test mode: TEST
file size: 137438953472
file pages: 33554432
start probability: 0.010
continue probability: 0.100
processed 1024 requests 488.75 r/s elapsed 2.10
processed 2048 requests 498.58 r/s elapsed 4.11
processed 3072 requests 496.11 r/s elapsed 6.19
processed 4096 requests 483.54 r/s elapsed 8.47
processed 5120 requests 480.10 r/s elapsed 10.66
processed 6144 requests 487.56 r/s elapsed 12.60
processed 7168 requests 487.87 r/s elapsed 14.69
processed 8192 requests 489.10 r/s elapsed 16.75
processed 9216 requests 491.94 r/s elapsed 18.73
processed 10240 requests 493.92 r/s elapsed 20.73
TOTAL: 10240 requests 493.92 r/s elapsed 20.73
