type: POSIX aio
filename: /mnt/raid/prefetch/prefetch-131072
I/O mode: DIRECT
workload: SEQUENTIAL
duration: 20
threads: 1
queue size: 128
test mode: TEST
file size: 137438953472
file pages: 33554432
start probability: 0.010
continue probability: 0.100
processed 512 requests 483.67 r/s elapsed 1.06
processed 1024 requests 477.49 r/s elapsed 2.14
processed 1536 requests 470.82 r/s elapsed 3.26
processed 1920 requests 476.54 r/s elapsed 4.03
processed 2432 requests 477.55 r/s elapsed 5.09
processed 2944 requests 475.75 r/s elapsed 6.19
processed 3456 requests 477.40 r/s elapsed 7.24
processed 3840 requests 477.53 r/s elapsed 8.04
processed 4352 requests 480.79 r/s elapsed 9.05
processed 4864 requests 485.22 r/s elapsed 10.02
processed 5376 requests 486.25 r/s elapsed 11.06
processed 5888 requests 483.90 r/s elapsed 12.17
processed 6400 requests 485.95 r/s elapsed 13.17
processed 6912 requests 487.47 r/s elapsed 14.18
processed 7424 requests 490.42 r/s elapsed 15.14
processed 7936 requests 494.17 r/s elapsed 16.06
processed 8448 requests 493.36 r/s elapsed 17.12
processed 8960 requests 492.35 r/s elapsed 18.20
processed 9472 requests 493.18 r/s elapsed 19.21
processed 9984 requests 494.51 r/s elapsed 20.19
TOTAL: 9984 requests 494.51 r/s elapsed 20.19
