type: POSIX aio
filename: /mnt/raid/prefetch/prefetch-131072
I/O mode: BUFFERED
workload: RANDOM
duration: 20
threads: 1
queue size: 32
test mode: TEST
file size: 137438953472
file pages: 33554432
processed 128 requests 106.15 r/s elapsed 1.21
processed 224 requests 105.79 r/s elapsed 2.12
processed 320 requests 106.02 r/s elapsed 3.02
processed 448 requests 105.53 r/s elapsed 4.25
processed 544 requests 104.67 r/s elapsed 5.20
processed 640 requests 104.69 r/s elapsed 6.11
processed 736 requests 104.51 r/s elapsed 7.04
processed 864 requests 105.39 r/s elapsed 8.20
processed 960 requests 105.48 r/s elapsed 9.10
processed 1088 requests 105.72 r/s elapsed 10.29
processed 1184 requests 105.75 r/s elapsed 11.20
processed 1280 requests 106.04 r/s elapsed 12.07
processed 1376 requests 105.85 r/s elapsed 13.00
processed 1504 requests 105.99 r/s elapsed 14.19
processed 1600 requests 106.09 r/s elapsed 15.08
processed 1728 requests 105.96 r/s elapsed 16.31
processed 1824 requests 105.88 r/s elapsed 17.23
processed 1920 requests 105.56 r/s elapsed 18.19
processed 2016 requests 105.25 r/s elapsed 19.15
processed 2112 requests 105.08 r/s elapsed 20.10
TOTAL: 2112 requests 105.08 r/s elapsed 20.10
