type: POSIX aio
filename: /mnt/raid/prefetch/prefetch-131072
I/O mode: BUFFERED
workload: SEQUENTIAL
duration: 20
threads: 1
queue size: 8
test mode: TEST
file size: 137438953472
file pages: 33554432
start probability: 0.010
continue probability: 0.500
processed 872 requests 867.41 r/s elapsed 1.01
processed 1848 requests 923.40 r/s elapsed 2.00
processed 2816 requests 936.72 r/s elapsed 3.01
processed 3736 requests 933.02 r/s elapsed 4.00
processed 4568 requests 895.64 r/s elapsed 5.10
processed 5408 requests 900.08 r/s elapsed 6.01
processed 6248 requests 891.48 r/s elapsed 7.01
processed 7056 requests 881.29 r/s elapsed 8.01
processed 7960 requests 883.85 r/s elapsed 9.01
processed 8728 requests 872.04 r/s elapsed 10.01
processed 9616 requests 873.62 r/s elapsed 11.01
processed 10528 requests 876.94 r/s elapsed 12.01
processed 11432 requests 878.92 r/s elapsed 13.01
processed 12328 requests 879.36 r/s elapsed 14.02
processed 13128 requests 875.15 r/s elapsed 15.00
processed 14080 requests 879.93 r/s elapsed 16.00
processed 14968 requests 880.13 r/s elapsed 17.01
processed 15888 requests 882.53 r/s elapsed 18.00
processed 16776 requests 882.58 r/s elapsed 19.01
processed 17728 requests 885.89 r/s elapsed 20.01
TOTAL: 17728 requests 885.89 r/s elapsed 20.01
