type: POSIX aio
filename: /mnt/raid/prefetch/prefetch-131072
I/O mode: DIRECT
workload: RANDOM
duration: 20
threads: 1
queue size: 1
test mode: TEST
file size: 137438953472
file pages: 33554432
processed 113 requests 111.91 r/s elapsed 1.01
processed 217 requests 108.24 r/s elapsed 2.00
processed 325 requests 108.26 r/s elapsed 3.00
processed 432 requests 107.99 r/s elapsed 4.00
processed 535 requests 106.92 r/s elapsed 5.00
processed 643 requests 107.13 r/s elapsed 6.00
processed 750 requests 107.10 r/s elapsed 7.00
processed 854 requests 106.58 r/s elapsed 8.01
processed 962 requests 106.88 r/s elapsed 9.00
processed 1071 requests 107.01 r/s elapsed 10.01
processed 1181 requests 107.34 r/s elapsed 11.00
processed 1293 requests 107.68 r/s elapsed 12.01
processed 1395 requests 107.25 r/s elapsed 13.01
processed 1505 requests 107.49 r/s elapsed 14.00
processed 1612 requests 107.47 r/s elapsed 15.00
processed 1716 requests 107.24 r/s elapsed 16.00
processed 1822 requests 107.16 r/s elapsed 17.00
processed 1928 requests 107.06 r/s elapsed 18.01
processed 2033 requests 106.97 r/s elapsed 19.01
processed 2133 requests 106.62 r/s elapsed 20.00
TOTAL: 2133 requests 106.62 r/s elapsed 20.00
