type: pthread fadvise
filename: /mnt/raid/prefetch/prefetch-131072
I/O mode: BUFFERED
workload: SEQUENTIAL
duration: 20
threads: 8
queue size: 8
test mode: TEST
file size: 137438953472
file pages: 33554432
start probability: 0.010
continue probability: 0.500
processed 1000 requests 926.95 r/s elapsed 1.08
processed 1904 requests 948.44 r/s elapsed 2.01
processed 2968 requests 987.92 r/s elapsed 3.00
processed 4000 requests 996.02 r/s elapsed 4.02
processed 5024 requests 1003.82 r/s elapsed 5.00
processed 6024 requests 983.78 r/s elapsed 6.12
processed 6888 requests 973.68 r/s elapsed 7.07
processed 7792 requests 970.19 r/s elapsed 8.03
processed 8736 requests 967.46 r/s elapsed 9.03
processed 9680 requests 958.71 r/s elapsed 10.10
processed 10568 requests 960.57 r/s elapsed 11.00
processed 11560 requests 963.25 r/s elapsed 12.00
processed 12528 requests 962.25 r/s elapsed 13.02
processed 13480 requests 961.83 r/s elapsed 14.01
processed 14432 requests 961.23 r/s elapsed 15.01
processed 15384 requests 961.31 r/s elapsed 16.00
processed 16344 requests 959.50 r/s elapsed 17.03
processed 17272 requests 956.15 r/s elapsed 18.06
processed 18184 requests 956.79 r/s elapsed 19.01
processed 19136 requests 955.87 r/s elapsed 20.02
TOTAL: 19136 requests 955.87 r/s elapsed 20.02
