type: pthread fadvise
filename: /mnt/raid/prefetch/prefetch-131072
I/O mode: BUFFERED
workload: SEQUENTIAL
duration: 20
threads: 8
queue size: 8
test mode: TEST
file size: 137438953472
file pages: 33554432
start probability: 0.010
continue probability: 0.100
processed 1000 requests 591.77 r/s elapsed 1.69
processed 1184 requests 589.65 r/s elapsed 2.01
processed 1768 requests 583.51 r/s elapsed 3.03
processed 2392 requests 596.21 r/s elapsed 4.01
processed 2984 requests 594.08 r/s elapsed 5.02
processed 3568 requests 587.50 r/s elapsed 6.07
processed 4112 requests 582.52 r/s elapsed 7.06
processed 4680 requests 584.87 r/s elapsed 8.00
processed 5264 requests 580.16 r/s elapsed 9.07
processed 5808 requests 580.44 r/s elapsed 10.01
processed 6392 requests 580.94 r/s elapsed 11.00
processed 7008 requests 583.83 r/s elapsed 12.00
processed 7592 requests 582.29 r/s elapsed 13.04
processed 8200 requests 585.13 r/s elapsed 14.01
processed 8776 requests 582.81 r/s elapsed 15.06
processed 9328 requests 578.47 r/s elapsed 16.13
processed 9848 requests 578.94 r/s elapsed 17.01
processed 10472 requests 581.31 r/s elapsed 18.01
processed 11048 requests 580.23 r/s elapsed 19.04
processed 11632 requests 581.43 r/s elapsed 20.01
TOTAL: 11632 requests 581.43 r/s elapsed 20.01
