type: pthread fadvise
filename: /mnt/raid/prefetch/prefetch-131072
I/O mode: BUFFERED
workload: SEQUENTIAL
duration: 20
threads: 16
queue size: 1024
test mode: TEST
file size: 137438953472
file pages: 33554432
start probability: 0.100
continue probability: 0.100
processed 4096 requests 3286.83 r/s elapsed 1.25
processed 7168 requests 3393.08 r/s elapsed 2.11
processed 10240 requests 3364.29 r/s elapsed 3.04
processed 14336 requests 3349.59 r/s elapsed 4.28
processed 17408 requests 3325.26 r/s elapsed 5.24
processed 20480 requests 3319.76 r/s elapsed 6.17
processed 23552 requests 3306.73 r/s elapsed 7.12
processed 26624 requests 3275.19 r/s elapsed 8.13
processed 29696 requests 3234.95 r/s elapsed 9.18
processed 32768 requests 3240.73 r/s elapsed 10.11
processed 35840 requests 3227.02 r/s elapsed 11.11
processed 38912 requests 3221.86 r/s elapsed 12.08
processed 41984 requests 3225.64 r/s elapsed 13.02
processed 46080 requests 3220.35 r/s elapsed 14.31
processed 49152 requests 3216.50 r/s elapsed 15.28
processed 52224 requests 3177.21 r/s elapsed 16.44
processed 54272 requests 3180.43 r/s elapsed 17.06
processed 57344 requests 3175.18 r/s elapsed 18.06
processed 60416 requests 3163.21 r/s elapsed 19.10
processed 63488 requests 3173.76 r/s elapsed 20.00
TOTAL: 63488 requests 3173.76 r/s elapsed 20.00
