type: pthread aio
filename: /mnt/raid/prefetch/prefetch-131072
I/O mode: DIRECT
workload: SEQUENTIAL
duration: 20
threads: 1
queue size: 1
test mode: TEST
file size: 137438953472
file pages: 33554432
start probability: 0.100
continue probability: 0.900
processed 5637 requests 5636.44 r/s elapsed 1.00
processed 11309 requests 5654.26 r/s elapsed 2.00
processed 17093 requests 5676.98 r/s elapsed 3.01
processed 22721 requests 5680.10 r/s elapsed 4.00
processed 28400 requests 5655.99 r/s elapsed 5.02
processed 33935 requests 5634.24 r/s elapsed 6.02
processed 39633 requests 5661.83 r/s elapsed 7.00
processed 45294 requests 5654.63 r/s elapsed 8.01
processed 50902 requests 5654.89 r/s elapsed 9.00
processed 56548 requests 5646.93 r/s elapsed 10.01
processed 62116 requests 5610.72 r/s elapsed 11.07
processed 67477 requests 5621.91 r/s elapsed 12.00
processed 73084 requests 5597.32 r/s elapsed 13.06
processed 78561 requests 5611.46 r/s elapsed 14.00
processed 84287 requests 5618.40 r/s elapsed 15.00
processed 90191 requests 5636.92 r/s elapsed 16.00
processed 95827 requests 5618.88 r/s elapsed 17.05
processed 101265 requests 5625.82 r/s elapsed 18.00
processed 107003 requests 5631.72 r/s elapsed 19.00
processed 112691 requests 5632.42 r/s elapsed 20.01
TOTAL: 112691 requests 5632.42 r/s elapsed 20.01
