type: pthread aio
filename: /mnt/raid/prefetch/prefetch-131072
I/O mode: BUFFERED
workload: SEQUENTIAL
duration: 20
threads: 1
queue size: 128
test mode: TEST
file size: 137438953472
file pages: 33554432
start probability: 0.100
continue probability: 0.900
processed 128000 requests 66818.61 r/s elapsed 1.92
processed 133760 requests 62871.15 r/s elapsed 2.13
processed 188672 requests 45513.04 r/s elapsed 4.15
processed 227584 requests 42515.84 r/s elapsed 5.35
processed 255104 requests 39606.14 r/s elapsed 6.44
processed 277248 requests 38150.16 r/s elapsed 7.27
processed 305280 requests 37086.15 r/s elapsed 8.23
processed 333824 requests 36526.46 r/s elapsed 9.14
processed 365312 requests 36085.72 r/s elapsed 10.12
processed 397056 requests 35744.58 r/s elapsed 11.11
processed 429056 requests 35445.46 r/s elapsed 12.10
processed 460800 requests 34957.29 r/s elapsed 13.18
processed 489472 requests 34724.79 r/s elapsed 14.10
processed 520960 requests 34318.42 r/s elapsed 15.18
processed 549120 requests 33962.48 r/s elapsed 16.17
processed 577408 requests 33642.20 r/s elapsed 17.16
processed 605568 requests 32640.37 r/s elapsed 18.55
processed 620288 requests 32581.30 r/s elapsed 19.04
processed 651648 requests 32414.00 r/s elapsed 20.10
TOTAL: 651648 requests 32414.00 r/s elapsed 20.10
