type: pthread aio
filename: /mnt/raid/prefetch/prefetch-131072
I/O mode: BUFFERED
workload: RANDOM
duration: 20
threads: 32
queue size: 32
test mode: TEST
file size: 137438953472
file pages: 33554432
processed 1024 requests 233.04 r/s elapsed 4.39
processed 1216 requests 239.35 r/s elapsed 5.08
processed 1504 requests 247.08 r/s elapsed 6.09
processed 1760 requests 249.65 r/s elapsed 7.05
processed 2048 requests 253.90 r/s elapsed 8.07
processed 2336 requests 257.94 r/s elapsed 9.06
processed 2624 requests 261.06 r/s elapsed 10.05
processed 2880 requests 261.15 r/s elapsed 11.03
processed 3168 requests 262.77 r/s elapsed 12.06
processed 3424 requests 263.20 r/s elapsed 13.01
processed 3744 requests 265.15 r/s elapsed 14.12
processed 4000 requests 264.66 r/s elapsed 15.11
processed 4256 requests 264.91 r/s elapsed 16.07
processed 4544 requests 267.05 r/s elapsed 17.02
processed 4832 requests 268.32 r/s elapsed 18.01
processed 5152 requests 269.76 r/s elapsed 19.10
processed 5408 requests 269.69 r/s elapsed 20.05
TOTAL: 5408 requests 269.69 r/s elapsed 20.05
