type: pthread fadvise
filename: /mnt/raid/prefetch/prefetch-131072
I/O mode: BUFFERED
workload: SEQUENTIAL
duration: 20
threads: 1
queue size: 32
test mode: WARMUP
file size: 137438953472
file pages: 33554432
start probability: 0.010
continue probability: 0.100
processed 1024 requests 733.86 r/s elapsed 1.40
elapsed 1.40 : warmup interval speed 733.86 previous 0.00
processed 1504 requests 742.61 r/s elapsed 2.03
elapsed 2.03 : warmup interval speed 762.01 previous 733.86
within 5% of the preceding interval, warmup terminating
TOTAL: 1504 requests 742.61 r/s elapsed 2.03
