type: pthread fadvise
filename: /mnt/raid/prefetch/prefetch-131072
I/O mode: BUFFERED
workload: SEQUENTIAL
duration: 20
threads: 8
queue size: 1024
test mode: TEST
file size: 137438953472
file pages: 33554432
start probability: 0.100
continue probability: 0.500
processed 5120 requests 5097.21 r/s elapsed 1.00
processed 11264 requests 5094.97 r/s elapsed 2.21
processed 16384 requests 5070.56 r/s elapsed 3.23
processed 20480 requests 5103.10 r/s elapsed 4.01
processed 26624 requests 5171.22 r/s elapsed 5.15
processed 31744 requests 5184.09 r/s elapsed 6.12
processed 36864 requests 5184.44 r/s elapsed 7.11
processed 41984 requests 5167.78 r/s elapsed 8.12
processed 47104 requests 5075.14 r/s elapsed 9.28
processed 51200 requests 5106.83 r/s elapsed 10.03
processed 57344 requests 5137.81 r/s elapsed 11.16
processed 62464 requests 5073.27 r/s elapsed 12.31
processed 66560 requests 5054.84 r/s elapsed 13.17
processed 71680 requests 5066.20 r/s elapsed 14.15
processed 76800 requests 5056.07 r/s elapsed 15.19
processed 81920 requests 5077.01 r/s elapsed 16.14
processed 87040 requests 5062.80 r/s elapsed 17.19
processed 91136 requests 5054.77 r/s elapsed 18.03
processed 96256 requests 5046.38 r/s elapsed 19.07
processed 101376 requests 5055.99 r/s elapsed 20.05
TOTAL: 101376 requests 5055.99 r/s elapsed 20.05
