type: pthread aio
filename: /mnt/raid/prefetch/prefetch-131072
I/O mode: BUFFERED
workload: SEQUENTIAL
duration: 20
threads: 32
queue size: 32
test mode: WARMUP
file size: 137438953472
file pages: 33554432
start probability: 0.010
continue probability: 0.900
processed 4000 requests 3778.74 r/s elapsed 1.06
elapsed 1.06 : warmup interval speed 3778.74 previous 0.00
processed 7680 requests 3815.82 r/s elapsed 2.01
elapsed 2.01 : warmup interval speed 3856.95 previous 3778.74
within 5% of the preceding interval, warmup terminating
TOTAL: 7680 requests 3815.82 r/s elapsed 2.01
