type: pthread fadvise
filename: /mnt/raid/prefetch/prefetch-131072
I/O mode: BUFFERED
workload: SEQUENTIAL
duration: 20
threads: 32
queue size: 32
test mode: WARMUP
file size: 137438953472
file pages: 33554432
start probability: 0.100
continue probability: 0.500
processed 6240 requests 6207.42 r/s elapsed 1.01
elapsed 1.01 : warmup interval speed 6207.42 previous 0.00
processed 12544 requests 6265.04 r/s elapsed 2.00
elapsed 2.00 : warmup interval speed 6323.13 previous 6207.42
within 5% of the preceding interval, warmup terminating
TOTAL: 12544 requests 6265.04 r/s elapsed 2.00
