type: pthread fadvise
filename: /mnt/raid/prefetch/prefetch-131072
I/O mode: BUFFERED
workload: SEQUENTIAL
duration: 20
threads: 32
queue size: 1024
test mode: TEST
file size: 137438953472
file pages: 33554432
start probability: 0.010
continue probability: 0.500
processed 2048 requests 1503.03 r/s elapsed 1.36
processed 3072 requests 1508.23 r/s elapsed 2.04
processed 5120 requests 1483.10 r/s elapsed 3.45
processed 6144 requests 1455.23 r/s elapsed 4.22
processed 8192 requests 1476.26 r/s elapsed 5.55
processed 9216 requests 1470.83 r/s elapsed 6.27
processed 11264 requests 1480.94 r/s elapsed 7.61
processed 12288 requests 1480.26 r/s elapsed 8.30
processed 14336 requests 1483.19 r/s elapsed 9.67
processed 15360 requests 1484.21 r/s elapsed 10.35
processed 16384 requests 1480.67 r/s elapsed 11.07
processed 18432 requests 1500.08 r/s elapsed 12.29
processed 20480 requests 1516.02 r/s elapsed 13.51
processed 21504 requests 1518.30 r/s elapsed 14.16
processed 23552 requests 1522.66 r/s elapsed 15.47
processed 24576 requests 1523.09 r/s elapsed 16.14
processed 26624 requests 1528.08 r/s elapsed 17.42
processed 27648 requests 1531.77 r/s elapsed 18.05
processed 29696 requests 1535.83 r/s elapsed 19.34
processed 31744 requests 1537.41 r/s elapsed 20.65
TOTAL: 31744 requests 1537.41 r/s elapsed 20.65
