type: pthread aio
filename: /mnt/raid/prefetch/prefetch-131072
I/O mode: BUFFERED
workload: RANDOM
duration: 20
threads: 32
queue size: 32
test mode: TEST
file size: 137438953472
file pages: 33554432
processed 1024 requests 230.49 r/s elapsed 4.44
processed 1184 requests 236.02 r/s elapsed 5.02
processed 1472 requests 241.00 r/s elapsed 6.11
processed 1760 requests 246.91 r/s elapsed 7.13
processed 2016 requests 251.33 r/s elapsed 8.02
processed 2304 requests 254.39 r/s elapsed 9.06
processed 2560 requests 255.43 r/s elapsed 10.02
processed 2848 requests 257.37 r/s elapsed 11.07
processed 3136 requests 259.26 r/s elapsed 12.10
processed 3392 requests 260.23 r/s elapsed 13.03
processed 3680 requests 261.67 r/s elapsed 14.06
processed 3968 requests 262.48 r/s elapsed 15.12
processed 4224 requests 263.45 r/s elapsed 16.03
processed 4512 requests 264.02 r/s elapsed 17.09
processed 4768 requests 264.68 r/s elapsed 18.01
processed 5056 requests 265.76 r/s elapsed 19.02
processed 5344 requests 266.26 r/s elapsed 20.07
TOTAL: 5344 requests 266.26 r/s elapsed 20.07
