type: pthread fadvise
filename: /mnt/raid/prefetch/prefetch-131072
I/O mode: BUFFERED
workload: SEQUENTIAL
duration: 20
threads: 32
queue size: 1024
test mode: WARMUP
file size: 137438953472
file pages: 33554432
start probability: 0.100
continue probability: 0.100
processed 4096 requests 3084.57 r/s elapsed 1.33
elapsed 1.33 : warmup interval speed 3084.57 previous 0.00
processed 7168 requests 3225.85 r/s elapsed 2.22
elapsed 2.22 : warmup interval speed 3435.67 previous 3084.57
processed 10240 requests 3306.67 r/s elapsed 3.10
elapsed 3.10 : warmup interval speed 3511.99 previous 3435.67
within 5% of the preceding interval, warmup terminating
TOTAL: 10240 requests 3306.67 r/s elapsed 3.10
