type: pthread aio
filename: /mnt/raid/prefetch/prefetch-131072
I/O mode: DIRECT
workload: SEQUENTIAL
duration: 20
threads: 1
queue size: 128
test mode: TEST
file size: 137438953472
file pages: 33554432
start probability: 0.100
continue probability: 0.500
processed 6528 requests 6431.37 r/s elapsed 1.02
processed 13184 requests 6536.38 r/s elapsed 2.02
processed 19712 requests 6557.65 r/s elapsed 3.01
processed 26240 requests 6555.83 r/s elapsed 4.00
processed 32896 requests 6538.27 r/s elapsed 5.03
processed 39296 requests 6536.56 r/s elapsed 6.01
processed 45824 requests 6460.58 r/s elapsed 7.09
processed 51968 requests 6483.30 r/s elapsed 8.02
processed 58368 requests 6444.11 r/s elapsed 9.06
processed 64512 requests 6381.02 r/s elapsed 10.11
processed 70400 requests 6393.80 r/s elapsed 11.01
processed 76928 requests 6408.42 r/s elapsed 12.00
processed 83328 requests 6383.41 r/s elapsed 13.05
processed 89600 requests 6397.32 r/s elapsed 14.01
processed 96000 requests 6385.61 r/s elapsed 15.03
processed 102400 requests 6396.07 r/s elapsed 16.01
processed 109056 requests 6409.18 r/s elapsed 17.02
processed 115584 requests 6416.76 r/s elapsed 18.01
processed 122112 requests 6425.34 r/s elapsed 19.00
processed 128640 requests 6428.98 r/s elapsed 20.01
TOTAL: 128640 requests 6428.98 r/s elapsed 20.01
